"","time_point","num_antibody_positive","date","num_antibody_total","percent_positive"
"1",1,0,2020-06-10,4,0
"2",2,0,2020-06-11,10,0
"3",3,0,2020-06-12,10,0
"4",4,0,2020-06-13,8,0
"5",6,1,2020-06-15,9,0.111111111111111
"6",7,0,2020-06-16,6,0
"7",8,0,2020-06-17,6,0
"8",9,0,2020-06-18,5,0
"9",10,0,2020-06-19,7,0
"10",92,0,2020-09-09,34,0
"11",93,0,2020-09-10,27,0
"12",94,0,2020-09-11,27,0
"13",95,0,2020-09-12,18,0
"14",96,1,2020-09-13,16,0.0625
"15",97,0,2020-09-14,16,0
"16",98,0,2020-09-15,7,0
"17",99,0,2020-09-16,9,0
"18",100,0,2020-09-17,2,0
"19",101,0,2020-09-18,7,0
"20",102,0,2020-09-19,1,0
"21",150,0,2020-11-06,25,0
"22",151,1,2020-11-07,10,0.1
"23",152,0,2020-11-08,1,0
"24",153,1,2020-11-09,12,0.0833333333333333
"25",154,0,2020-11-10,4,0
"26",155,0,2020-11-11,1,0
"27",157,0,2020-11-13,2,0
"28",158,0,2020-11-14,1,0
"29",241,0,2021-02-05,16,0
"30",242,0,2021-02-06,10,0
"31",244,1,2021-02-08,7,0.142857142857143
"32",245,0,2021-02-09,4,0
