"","time_point","num_antibody_positive","date","num_antibody_total","percent_positive"
"1",1,0,2020-06-10,4,0
"2",2,0,2020-06-11,8,0
"3",3,0,2020-06-12,13,0
"4",4,3,2020-06-13,26,0.115384615384615
"5",6,0,2020-06-15,3,0
"6",7,0,2020-06-16,12,0
"7",8,0,2020-06-17,8,0
"8",9,0,2020-06-18,6,0
"9",10,0,2020-06-19,2,0
"10",92,1,2020-09-09,62,0.0161290322580645
"11",93,1,2020-09-10,19,0.0526315789473684
"12",94,0,2020-09-11,12,0
"13",95,2,2020-09-12,21,0.0952380952380952
"14",96,0,2020-09-13,9,0
"15",97,4,2020-09-14,88,0.0454545454545455
"16",98,1,2020-09-15,34,0.0294117647058824
"17",99,1,2020-09-16,20,0.05
"18",100,1,2020-09-17,6,0.166666666666667
"19",101,0,2020-09-18,1,0
"20",102,0,2020-09-19,2,0
"21",150,11,2020-11-06,126,0.0873015873015873
"22",151,0,2020-11-07,56,0
"23",152,2,2020-11-08,15,0.133333333333333
"24",153,2,2020-11-09,30,0.0666666666666667
"25",154,0,2020-11-10,21,0
"26",155,0,2020-11-11,14,0
"27",156,1,2020-11-12,8,0.125
"28",157,3,2020-11-13,26,0.115384615384615
"29",158,2,2020-11-14,12,0.166666666666667
"30",159,0,2020-11-15,4,0
"31",241,13,2021-02-05,89,0.146067415730337
"32",242,4,2021-02-06,49,0.0816326530612245
"33",243,1,2021-02-07,14,0.0714285714285714
"34",244,0,2021-02-08,12,0
"35",245,7,2021-02-09,19,0.368421052631579
"36",246,1,2021-02-10,2,0.5
"37",247,0,2021-02-11,1,0
