"","time","top","med","bottom","pseudo_med","date"
"1",0,0.00100348320093701,0.000199666172534691,2.6142396792119e-05,0.000514812798864566,2020-06-10
"2",0.5,0.000971946225275468,0.000202111449469934,2.65518630751334e-05,0.0004992490441753,2020-06-10
"3",1,0.00094138589510301,0.000203281107842325,2.69677271703426e-05,0.000484176811136676,2020-06-11
"4",1.5,0.000911772870185687,0.000203430683280575,2.73900885481898e-05,0.000469581479366939,2020-06-11
"5",2,0.000883078634894853,0.000204564334342828,2.78190482100269e-05,0.00045544884155244,2020-06-12
"6",2.5,0.000855275478662081,0.000205079110733884,2.82547087111813e-05,0.000441765093686631,2020-06-12
"7",3,0.000828336476653989,0.000205009854907703,2.86971741843544e-05,0.000428516825419172,2020-06-13
"8",3.5,0.000802235470683423,0.000205392908204747,2.91465503633566e-05,0.00041569101052339,2020-06-13
"9",4,0.000776947050371603,0.000206373018071619,2.74616686473605e-05,0.000402204359509482,2020-06-14
"10",4.5,0.000752446534574164,0.000208243635283997,2.49906893433794e-05,0.000388718611958772,2020-06-14
"11",5,0.000728709953082408,0.00020987071349274,2.27420448443153e-05,0.000375725998963361,2020-06-15
"12",5.5,0.000708433671148371,0.000212188773585709,2.06957301543149e-05,0.000364564700651343,2020-06-15
"13",6,0.000711581825985064,0.000214458449432015,1.88335402069177e-05,0.000365207683095991,2020-06-16
"14",6.5,0.000714737046694627,0.000216752624320385,1.71389079281965e-05,0.000365937977311412,2020-06-16
"15",7,0.000717899272956042,0.000217096722601105,1.5596756867392e-05,0.000366748014911717,2020-06-17
"16",7.5,0.000721388319758724,0.000217376752841356,1.41933670848741e-05,0.000367790843421799,2020-06-17
"17",8,0.000726596448100046,0.000216618123878408,1.2916253105048e-05,0.000369756350602547,2020-06-18
"18",8.5,0.000731836318711366,0.000218293276074977,1.17540528490244e-05,0.000371795185780195,2020-06-18
"19",9,0.000737108034123588,0.000220537477308476,1.06964265594438e-05,0.000373902230341516,2020-06-19
"20",9.5,0.00074241169567539,0.000222805572225974,9.73396481865353e-06,0.000376072830247022,2020-06-19
"21",10,0.000747747403482381,0.000225097817744307,8.85810484225412e-06,0.000378302754162317,2020-06-20
"22",10.5,0.000753115256405889,0.000227110666449423,8.06105430359986e-06,0.000380588155354745,2020-06-20
"23",11,0.000758515352021414,0.000228541211987575,7.33572201178015e-06,0.000382925537016597,2020-06-21
"24",11.5,0.000763947786586707,0.00022998029398114,6.67565482654303e-06,0.000385311720706625,2020-06-21
"25",12,0.000769412655009514,0.000230881385269519,6.07498024907321e-06,0.000387743817629294,2020-06-22
"26",12.5,0.000776014082772249,0.000232884237929479,5.52835417800462e-06,0.000390771218475127,2020-06-22
"27",13,0.000783074812060795,0.000234414988195252,5.03091336597694e-06,0.000394052862713386,2020-06-23
"28",13.5,0.000790194801301025,0.000236608290778201,4.57823215384518e-06,0.000397386516727435,2020-06-23
"29",14,0.000797374453661441,0.000238643679998858,4.16628309769192e-06,0.000400770368379566,2020-06-24
"30",14.5,0.000804614173224786,0.000240441627469582,3.79140113841177e-06,0.000404202787181599,2020-06-24
"31",15,0.000811914364949203,0.000242117662287488,3.45025099514345e-06,0.000407682307972173,2020-06-25
"32",15.5,0.000819275434628377,0.000243533237096516,3.13979749249794e-06,0.000411207616060437,2020-06-25
"33",16,0.000826697788850647,0.000245659738625076,2.85727855762424e-06,0.000414777533704136,2020-06-26
"34",16.5,0.000834181834957078,0.000248069973417531,2.60018064690156e-06,0.00041839100780199,2020-06-26
"35",17,0.000841727980998471,0.000250503818656653,2.36621638365699e-06,0.000422047098691064,2020-06-27
"36",17.5,0.000849336635691296,0.000252961491329201,2.15330420797461e-06,0.000425744969949635,2020-06-27
"37",18,0.000857008208372545,0.000255207367261866,1.95954985755978e-06,0.000429483879115052,2020-06-28
"38",18.5,0.000864743108953466,0.000257467547759175,1.78322951490974e-06,0.000433263169234188,2020-06-28
"39",19,0.00087254174787219,0.00025884124942571,1.62277447086432e-06,0.000437082261171527,2020-06-29
"40",19.5,0.000880404536045219,0.000260658971238352,1.47675716809944e-06,0.000440940646606659,2020-06-29
"41",20,0.000888331884817755,0.00026365263046658,1.34387850040145e-06,0.000444837881659078,2020-06-30
"42",20.5,0.000896324205912878,0.000265725871596821,1.22295625473185e-06,0.000448773581083805,2020-06-30
"43",21,0.00090438191137953,0.000266330821722202,1.11291459325758e-06,0.000452747412986394,2020-07-01
"44",21.5,0.000912505413539309,0.000268247818599065,1.01277448177407e-06,0.000456759094010541,2020-07-01
"45",22,0.000920695124932044,0.000270177153480166,9.2164497936689e-07,0.000460808384955705,2020-07-02
"46",22.5,0.000928951458260152,0.00027211888397123,8.38715311820163e-07,0.000464895086785986,2020-07-02
"47",23,0.000937274826331744,0.000274852316272857,7.63247658251601e-07,0.000469019036994998,2020-07-03
"48",23.5,0.000945665642002471,0.000277753509743947,6.94570586799688e-07,0.000473180106294636,2020-07-03
"49",24,0.000954124318116105,0.000280686067025671,6.32073080962352e-07,0.000477378195598534,2020-07-04
"50",24.5,0.000962651267443816,0.000283650311333061,5.75199103441319e-07,0.000481613233273628,2020-07-04
"51",25,0.000971246902622158,0.000286005095868504,5.23442649128145e-07,0.000485885172635643,2020-07-05
"52",25.5,0.000979911636089726,0.000288207676845175,4.69616335155259e-07,0.000490190626212441,2020-07-05
"53",26,0.000988645880022477,0.000290756972624249,4.12454168216561e-07,0.000494529167095347,2020-07-06
"54",26.5,0.000997450046267703,0.000292764584324905,3.62249836359483e-07,0.000498906148052031,2020-07-06
"55",27,0.00100659618843018,0.000295159185349705,3.18156425221246e-07,0.000503457172427698,2020-07-07
"56",27.5,0.00101797703345109,0.000298687179001332,2.7943010763266e-07,0.000509128231779364,2020-07-07
"57",28,0.0010294693141535,0.000302091064334567,2.45417595758377e-07,0.000514857365874631,2020-07-08
"58",28.5,0.00104107370644443,0.000305523541176257,2.15545120571326e-07,0.0005206446257825,2020-07-08
"59",29,0.00105279087971866,0.000308997433021493,1.89308752753561e-07,0.000526490094235705,2020-07-09
"60",29.5,0.00106462149651745,0.000312263030012201,1.66265901744467e-07,0.000532393881209597,2020-07-09
"61",30,0.00107656621218028,0.000313878160508054,1.46027849531557e-07,0.000538356120014908,2020-07-10
"62",30.5,0.00108862567448957,0.000316068705739931,1.28253193234378e-07,0.0005443769638414,2020-07-10
"63",31,0.00110080052330827,0.000320026720131463,1.12642085862634e-07,0.000550456582697066,2020-07-11
"64",31.5,0.00111309139021048,0.000324032840568377,9.89311780941835e-08,0.000556595160694287,2020-07-11
"65",32,0.00112549889810478,0.000328087593030405,8.68891757442909e-08,0.00056279289364026,2020-07-12
"66",32.5,0.00113802366085045,0.000332191507349462,7.63129379836827e-08,0.000569049986894216,2020-07-12
"67",33,0.0011506662828665,0.000336345117176387,6.70240504850589e-08,0.000575366653458491,2020-07-13
"68",33.5,0.00116342735873341,0.000340548959945186,5.88658156893648e-08,0.000581743112274551,2020-07-13
"69",34,0.00117630747278768,0.000344803576834677,5.17006094196556e-08,0.00058817958669855,2020-07-14
"70",34.5,0.00118930719870903,0.0003469130946489,4.54075592504091e-08,0.000594676303134141,2020-07-14
"71",35,0.0012024270991004,0.000348581002021685,3.98805054679282e-08,0.000601233489802934,2020-07-15
"72",35.5,0.00121566772506058,0.000350339894222326,3.50262102245921e-08,0.000607851375635403,2020-07-15
"73",36,0.0012290296157496,0.000354588879697687,3.07627846765761e-08,0.00061453018926714,2020-07-16
"74",36.5,0.00124251329794678,0.000358683978065862,2.70183075718886e-08,0.000621270158127176,2020-07-16
"75",37,0.0012561192856015,0.00036282515422225,2.3729611985217e-08,0.000628071507606744,2020-07-17
"76",37.5,0.00126984807937672,0.000366772680828183,2.08412197325924e-08,0.000634934460298225,2020-07-17
"77",38,0.00128370016618517,0.000369357258013998,1.83044054901459e-08,0.000641859235295328,2020-07-18
"78",38.5,0.00129767601871836,0.000372485387981032,1.60763748292508e-08,0.000648846047546597,2020-07-18
"79",39,0.00131177609496838,0.000376919119204547,1.41195423020379e-08,0.000655895107255343,2020-07-19
"80",39.5,0.00132600083774244,0.000381505915750798,1.24008973990557e-08,0.00066300661931992,2020-07-19
"81",40,0.00134035067417035,0.000386147339278508,1.08914476831931e-08,0.000670180782809014,2020-07-20
"82",40.5,0.00135482601520488,0.00039084399990504,9.56572970589361e-09,0.000677417790467293,2020-07-20
"83",41,0.00136942725511511,0.000395482079056261,8.40137945513491e-09,0.000684717828247283,2020-07-21
"84",41.5,0.00138764042502013,0.000398778878025268,7.37875508890789e-09,0.00069382390188761,2020-07-21
"85",42,0.00140630272821869,0.000403718543739254,6.48060558995332e-09,0.00070315460441214,2020-07-22
"86",42.5,0.00142516641949192,0.000408190434177842,5.69177975217481e-09,0.000712586055635834,2020-07-22
"87",43,0.00144423221210438,0.000410511076346574,4.99897058951648e-09,0.000722118605537484,2020-07-23
"88",43.5,0.001463500773933,0.000414975200779393,4.39049085564793e-09,0.00073175258221193,2020-07-23
"89",44,0.00148297272581208,0.000419679763281761,3.85607588761782e-09,0.000741488290943984,2020-07-24
"90",44.5,0.00150264863985273,0.000424434320912641,3.38671044757563e-09,0.000751326013281586,2020-07-24
"91",45,0.00152252903773731,0.000428108709586484,2.97447664149263e-09,0.000761266006106973,2020-07-25
"92",45.5,0.00154261438898933,0.000431804570034958,2.61242034936872e-09,0.00077130850070484,2020-07-25
"93",46,0.00156290510921944,0.000435531100051049,2.29443391368855e-09,0.000781453701826675,2020-07-26
"94",46.5,0.00158340155834809,0.000438486875936747,2.01515310715659e-09,0.000791701786750596,2020-07-26
"95",47,0.0016041040388057,0.000441001580887961,1.76986664162299e-09,0.000802052904336169,2020-07-27
"96",47.5,0.00162501279371096,0.000443528661877932,1.55443669167384e-09,0.000812507174073824,2020-07-27
"97",48,0.00164612800502813,0.000446068155041567,1.36522909217e-09,0.000823064685128609,2020-07-28
"98",48.5,0.00166744979170423,0.000448620096300921,1.19905203221161e-09,0.00083372549537813,2020-07-28
"99",49,0.00168897820778704,0.000451184521360024,1.05310221133492e-09,0.000844489630444628,2020-07-29
"100",49.5,0.00171071324052492,0.000451965562912254,9.24917549630984e-10,0.000855357082721236,2020-07-29
"101",50,0.00173265480844947,0.000455039387208324,8.12335654036278e-10,0.00086632781039256,2020-07-30
"102",50.5,0.00175480275944224,0.000460472700448229,7.1345734014821e-10,0.000877401736449792,2020-07-30
"103",51,0.00177715686878669,0.000464499108361776,6.26614594201947e-10,0.000888578747700644,2020-07-31
"104",51.5,0.00179971683720652,0.000468976841252478,5.50342434747663e-10,0.00089985869377448,2020-07-31
"105",52,0.00182248228889193,0.000473822703615415,4.83354199352752e-10,0.000911241386123064,2020-08-01
"106",52.5,0.00184545276951504,0.000478857672844596,4.24519839431518e-10,0.000922726597017438,2020-08-01
"107",53,0.00186862774423607,0.000482991658067879,3.72846857050048e-10,0.000934314058541464,2020-08-02
"108",53.5,0.00189200659570181,0.000487977183488063,3.27463562122377e-10,0.000946003461582684,2020-08-02
"109",54,0.0019155886220379,0.000490757734839733,2.87604367557597e-10,0.000957794454821134,2020-08-03
"110",54.5,0.00193937303483689,0.00049302479891844,2.52596874296462e-10,0.000969686643716883,2020-08-03
"111",55,0.00196335895714356,0.000495525177247417,2.21850528370338e-10,0.000981679589497046,2020-08-04
"112",55.5,0.00198754542143961,0.000498548616556265,1.94846658634359e-10,0.000993772808143135,2020-08-04
"113",56,0.00201193136762952,0.000502751520531594,1.71129727117733e-10,0.00100596576937963,2020-08-05
"114",56.5,0.0020365156410297,0.000506992887086066,1.50299644390222e-10,0.00101825789566467,2020-08-05
"115",57,0.00206129699036289,0.00051127308242096,1.32005020309945e-10,0.00103064856118396,2020-08-06
"116",57.5,0.00208627406576027,0.000517375537217365,1.15937236296963e-10,0.00104313709084875,2020-08-06
"117",58,0.00211144541677314,0.000523580670495396,1.01825239135683e-10,0.00105572275929919,2020-08-07
"118",58.5,0.0021368094903969,0.00052985753135159,8.94309684808814e-11,0.00106840478991394,2020-08-07
"119",59,0.00216236462910956,0.000536206882912592,7.85453409322997e-11,0.00108118235382745,2020-08-08
"120",59.5,0.00218810906892725,0.00054201985711807,6.89847229317203e-11,0.00109405456895599,2020-08-08
"121",60,0.00221404093747945,0.000546897248596986,6.0587832982564e-11,0.00110702049903364,2020-08-09
"122",60.5,0.0022401582521065,0.000551819583981126,5.32130209344384e-11,0.00112007915265976,2020-08-09
"123",61,0.00226645891798216,0.000558997684397816,4.67358784359095e-11,0.00113322948235902,2020-08-10
"124",61.5,0.00229294072626404,0.000565979937964993,4.1047140245369e-11,0.00114647038365559,2020-08-10
"125",62,0.00231960135227476,0.000571289650406713,3.60508409964561e-11,0.0011598006941628,2020-08-11
"126",62.5,0.00234643835371687,0.0005769318175591,3.16626963238488e-11,0.00117321919268978,2020-08-11
"127",63,0.00237344916892452,0.000582394750214149,2.78086810400533e-11,0.0011867245983666,2020-08-12
"128",63.5,0.00240063111515494,0.000585646923144743,2.44237803779473e-11,0.00120031556978936,2020-08-12
"129",64,0.00242798138692307,0.000592006069599791,2.14508932333381e-11,0.00121399070418698,2020-08-13
"130",64.5,0.00245549705438235,0.000596640195996558,1.88398689059412e-11,0.00122774853661111,2020-08-13
"131",65,0.00248317506175519,0.000601672880914853,1.65466610892168e-11,0.00124158753915092,2020-08-14
"132",65.5,0.00251101222581633,0.00060681866633566,1.45325848374157e-11,0.00125550612017446,2020-08-14
"133",66,0.00253900523443266,0.000610328111480275,1.27636639753445e-11,0.00126950262359816,2020-08-15
"134",66.5,0.00256715064516274,0.000613853372853245,1.12100579420713e-11,0.0012835753281864,2020-08-15
"135",67,0.00259544488391986,0.000618219663251398,9.84555839979315e-12,0.00129772244688271,2020-08-16
"136",67.5,0.00262388424370193,0.000622620267959437,8.64714711597843e-12,0.00131194212617454,2020-08-16
"137",68,0.00265246488339198,0.000628642003946393,7.59460766054083e-12,0.00132623244549329,2020-08-17
"138",68.5,0.00268118282663281,0.000635007351674263,6.6701843676239e-12,0.0013405914166515,2020-08-17
"139",69,0.0027100339607796,0.000641432377919023,5.85828280890084e-12,0.00135501698331894,2020-08-18
"140",69.5,0.00273901403593406,0.000647917529548299,5.14520672556577e-12,0.00136950702053963,2020-08-18
"141",70,0.00276811866406389,0.000652643734859655,4.51892698122808e-12,0.00138405933429141,2020-08-19
"142",70.5,0.00279734331821136,0.000655648391811094,3.96887863809306e-12,0.00139867166109012,2020-08-19
"143",71,0.00282668333179464,0.000659385217238021,3.48578273323423e-12,0.00141334166764021,2020-08-20
"144",71.5,0.00285613389800575,0.000666866284179871,3.06148974843731e-12,0.00142806695053362,2020-08-20
"145",72,0.00288569006930884,0.000674433298021706,2.68884213305235e-12,0.00144284503599884,2020-08-21
"146",72.5,0.0029153467570425,0.00068208722306807,2.36155356070286e-12,0.00145767337970203,2020-08-21
"147",73,0.00294509873112992,0.00069010254831025,2.07410288298979e-12,0.00147254936660201,2020-08-22
"148",73.5,0.00297494061990046,0.00069705151893491,1.82164099125754e-12,0.00148747031086105,2020-08-22
"149",74,0.00300486691002654,0.000702520378603811,1.59990901523956e-12,0.00150243345581322,2020-08-23
"150",74.5,0.00303487194657911,0.000708034747260473,1.40516647864722e-12,0.00151743597399214,2020-08-23
"151",75,0.00306494993320568,0.000716073031410928,1.23412819973276e-12,0.0015324749672199,2020-08-24
"152",75.5,0.00309509493243411,0.000724754144133298,1.08390887237925e-12,0.00154754746675901,2020-08-24
"153",76,0.00312530086610583,0.000733391703597751,9.5197439283605e-13,0.0015626504335289,2020-08-25
"154",76.5,0.00315556151594169,0.000739683174021846,8.36099111013157e-13,0.0015777807583889,2020-08-25
"155",77,0.00318587052424393,0.000745618559913909,7.34328285190947e-13,0.00159293526248913,2020-08-26
"156",77.5,0.00321622139473728,0.000751542792323235,6.44945106780515e-13,0.00160811069769111,2020-08-26
"157",78,0.00324660749355242,0.00075772292370816,5.66441738863387e-13,0.00162330374705943,2020-08-27
"158",78.5,0.00327702205035476,0.000763431448853243,4.97493879949335e-13,0.00163851102542613,2020-08-27
"159",79,0.00330745815962133,0.000769814604414879,4.36938423859217e-13,0.00165372908002914,2020-08-28
"160",79.5,0.00333790878206863,0.000776251343373116,3.83753838869374e-13,0.00166895439122619,2020-08-28
"161",80,0.00336836674623392,0.000782742051683063,3.37042935126325e-13,0.00168418337328548,2020-08-29
"162",80.5,0.00339882475021248,0.000788562677550221,2.96017729629112e-13,0.00169941237525425,2020-08-29
"163",81,0.00342927536355304,0.000795343012686438,2.59986153461224e-13,0.00171463768190651,2020-08-30
"164",81.5,0.00345971102931353,0.000802394625981572,2.28340377031644e-13,0.00172985551477094,2020-08-30
"165",82,0.0034901240662791,0.000810031406266707,2.00546556379319e-13,0.00174506203323983,2020-08-31
"166",82.5,0.00352050667134403,0.000820244320103133,1.76135827567761e-13,0.00176025333576008,2020-08-31
"167",83,0.00355085092205918,0.000832190395992816,1.54696397251024e-13,0.00177542546110694,2020-09-01
"168",83.5,0.00358114877934628,0.000842011830535735,1.35866595983944e-13,0.00179057438974107,2020-09-01
"169",84,0.00361139209038003,0.000850940767985545,1.19328777090457e-13,0.00180569604524968,2020-09-02
"170",84.5,0.00364157259163913,0.000858345523723418,1.0480395816781e-13,0.00182078629587197,2020-09-02
"171",85,0.00367168191212655,0.000866523237699275,9.20471148322733e-14,0.0018358409561093,2020-09-03
"172",85.5,0.00370171157675971,0.000875054577932036,8.0843047314868e-14,0.00185085578842028,2020-09-03
"173",86,0.00373165300993054,0.000883666420591572,7.10027501792212e-14,0.00186582650500077,2020-09-04
"174",86.5,0.00376149753923527,0.000890693293023762,6.23602239210213e-14,0.00188074876964881,2020-09-04
"175",87,0.00379123639937362,0.000896634982676129,5.47696746627988e-14,0.0018956181997142,2020-09-05
"176",87.5,0.00382086073621667,0.000903704166249655,4.81030547046774e-14,0.00191043036813239,2020-09-05
"177",88,0.00385036161104234,0.00091138750153151,4.2247902441766e-14,0.00192518080554229,2020-09-06
"178",88.5,0.00387973000493734,0.000919124807237072,3.710544520898e-14,0.00193986500248722,2020-09-06
"179",89,0.00390895682336393,0.000926916143893197,3.25889330495024e-14,0.00195447841169826,2020-09-07
"180",89.5,0.00393803290088961,0.000936835444224539,2.86221752986249e-14,0.00196901645045912,2020-09-07
"181",90,0.00396694900607761,0.000947471675848024,2.51382552960788e-14,0.00198347450305137,2020-09-08
"182",90.5,0.00399569584653555,0.000958957305308329,2.20784015448748e-14,0.00199784792327881,2020-09-08
"183",91,0.0040242640741196,0.000971220701306405,1.93909962738251e-14,0.0020121320370695,2020-09-09
"184",91.5,0.00405264429029088,0.000983623148671865,1.70307046788351e-14,0.00202632214515396,2020-09-09
"185",92,0.00408082705162062,0.000992073300160541,1.49577101538208e-14,0.00204041352581779,2020-09-10
"186",92.5,0.00410880287544039,0.00100210970561883,1.31370426100899e-14,0.00205440143772677,2020-09-10
"187",93,0.00413656224563316,0.00101326956808198,1.15379885533638e-14,0.00206828112282235,2020-09-11
"188",93.5,0.00416409561856075,0.00102248722773941,1.01335729668189e-14,0.00208204780928544,2020-09-11
"189",94,0.00419139342912303,0.00103176971330211,8.90010425984548e-15,0.00209569671456597,2020-09-12
"190",94.5,0.00421844609694353,0.00104142538140322,7.81677460610283e-15,0.00210922304847567,2020-09-12
"191",95,0.00424524403267623,0.00105328094680554,6.86530892882763e-15,0.00212262201634155,2020-09-13
"192",95.5,0.00427177764442773,0.00106379908648035,6.02965661200496e-15,0.00213588882221688,2020-09-13
"193",96,0.00429803734428872,0.00107246578780875,5.29572073676569e-15,0.00214901867214701,2020-09-14
"194",96.5,0.00432401355496834,0.00108118341097283,4.65112027540235e-15,0.0021620067774865,2020-09-14
"195",97,0.00434969671652493,0.00108888582794877,4.08498123136889e-15,0.00217484835826451,2020-09-15
"196",97.5,0.00437507729318596,0.00109671896886217,3.58775320192994e-15,0.00218753864659478,2020-09-15
"197",98,0.00440014578025013,0.0011019379149627,3.15104826898926e-15,0.00220007289012664,2020-09-16
"198",98.5,0.0044248927110639,0.00110969505012941,2.76749950028868e-15,0.00221244635553333,2020-09-16
"199",99,0.00444930866406476,0.00111748899177932,2.43063667398368e-15,0.0022246543320336,2020-09-17
"200",99.5,0.00447338426988323,0.00112689516243274,2.13477713014878e-15,0.00223669213494268,2020-09-17
"201",100,0.00449711021849509,0.00113670418601493,1.87492990794759e-15,0.00224855510924848,2020-09-18
"202",100.5,0.00452047726641548,0.0011454342512057,1.6467115513231e-15,0.00226023863320856,2020-09-18
"203",101,0.00454347624392604,0.00115245318328029,1.44627216290408e-15,0.00227173812196374,2020-09-19
"204",101.5,0.00456609806232612,0.00116102280942066,1.27023045870457e-15,0.00228304903116369,2020-09-19
"205",102,0.00458833372119883,0.00116971312398598,1.11561672803062e-15,0.00229416686059997,2020-09-20
"206",102.5,0.00461017431568276,0.00117418425345656,9.79822736364743e-16,0.00230508715784187,2020-09-20
"207",103,0.00463161104373966,0.00117862577634014,8.60557726121635e-16,0.00231580552187026,2020-09-21
"208",103.5,0.00465467568333879,0.00118489299684251,7.55809773036296e-16,0.00232733784166977,2020-09-21
"209",104,0.00469669943856168,0.00119304739508141,6.63811846291453e-16,0.00234834971928117,2020-09-22
"210",104.5,0.00473886212715259,0.00120341267833133,5.83011999840477e-16,0.00236943106357659,2020-09-22
"211",105,0.00478115861884106,0.00121385231727132,5.12047192072488e-16,0.00239057930942079,2020-09-23
"212",105.5,0.00482358365713305,0.00122531719397764,4.49720292174191e-16,0.00241179182856675,2020-09-23
"213",106,0.00486613185908331,0.00123710240802774,3.94979885300511e-16,0.00243306592954185,2020-09-24
"214",106.5,0.00490879771514058,0.0012493135353049,3.46902535880186e-16,0.00245439885757046,2020-09-24
"215",107,0.00495157558906776,0.00126289285386195,3.04677209849673e-16,0.00247578779453403,2020-09-25
"216",107.5,0.00499445971793906,0.00127660504410517,2.67591593028432e-16,0.00249722985896966,2020-09-25
"217",108,0.005037444212216,0.00129045107528989,2.35020074835344e-16,0.00251872210610812,2020-09-26
"218",108.5,0.0050805230559045,0.00130443191608303,2.06413194639272e-16,0.00254026152795235,2020-09-26
"219",109,0.00512369010679466,0.00131854853434504,1.8128837271046e-16,0.00256184505339742,2020-09-27
"220",109.5,0.00516693909678548,0.00133049566258164,1.5922176940986e-16,0.00258346954839282,2020-09-27
"221",110,0.00521026363229612,0.00133973728091791,1.39841135286134e-16,0.00260513181614813,2020-09-28
"222",110.5,0.00525365719476566,0.00134903772492349,1.22819531466053e-16,0.00262682859738289,2020-09-28
"223",111,0.00529711314124318,0.00135655447451737,1.07869814405293e-16,0.00264855657062164,2020-09-29
"224",111.5,0.00534062470506976,0.00136528835647796,9.47397919609268e-17,0.00267031235253493,2020-09-29
"225",112,0.00538418499665422,0.00137775144348357,8.32079690716448e-17,0.00269209249832715,2020-09-30
"226",112.5,0.00542778700434408,0.00138712254336205,7.30798112780664e-17,0.00271389350217207,2020-09-30
"227",113,0.00547142359539348,0.00139634249365594,6.41844630511209e-17,0.00273571179769677,2020-10-01
"228",113.5,0.00551508751702942,0.00140319264864747,5.63718655688037e-17,0.00275754375851474,2020-10-01
"229",114,0.00555877139761776,0.00140858033710208,4.95102253200478e-17,0.00277938569880891,2020-10-02
"230",114.5,0.00560246774793043,0.00141395320979503,4.34837908326815e-17,0.00280123387396524,2020-10-02
"231",115,0.00564616896251499,0.0014220155190362,3.81909000202985e-17,0.00282308448125751,2020-10-03
"232",115.5,0.0056898673211679,0.00143321717283558,3.3542265208033e-17,0.00284493366058397,2020-10-03
"233",116,0.00573355499051246,0.00144575380953687,2.94594669067248e-17,0.00286677749525624,2020-10-04
"234",116.5,0.00577722402568253,0.00145840484369648,2.58736309264102e-17,0.00288861201284128,2020-10-04
"235",117,0.00582086637211295,0.00146789025189143,2.27242665128904e-17,0.00291043318605648,2020-10-05
"236",117.5,0.00586447386743742,0.00147740215555727,1.99582459074876e-17,0.00293223693371872,2020-10-05
"237",118,0.00590803824349473,0.00148694004016652,1.7528908115815e-17,0.00295401912174737,2020-10-06
"238",118.5,0.00595155112844378,0.00149650337954285,1.53952717667142e-17,0.0029757755642219,2020-10-06
"239",119,0.00599500404898802,0.00150609163574218,1.35213437827966e-17,0.00299750202449402,2020-10-07
"240",119.5,0.00603838843270971,0.00151913952533211,1.18755122003016e-17,0.00301919421635486,2020-10-07
"241",120,0.00608169561051421,0.00153299665976136,1.04300128955336e-17,0.00304084780525711,2020-10-08
"242",120.5,0.00612491681918461,0.00154693681360973,9.16046122189441e-18,0.00306245840959231,2020-10-08
"243",121,0.00616804320404657,0.00155784023067916,8.04544065652743e-18,0.00308402160202329,2020-10-09
"244",121.5,0.00621106582174344,0.00157171081710278,7.06614151730653e-18,0.00310553291087172,2020-10-09
"245",122,0.00625397564312135,0.00158773240207017,6.20604365555708e-18,0.00312698782156068,2020-10-10
"246",122.5,0.00629676355622402,0.00159357646766389,5.45063777173845e-18,0.00314838177811201,2020-10-10
"247",123,0.00633942036939671,0.00159914996046627,4.78718065286234e-18,0.00316971018469836,2020-10-11
"248",123.5,0.00638193681449875,0.00161023204766312,4.20448020265897e-18,0.00319096840724938,2020-10-11
"249",124,0.00642430355022392,0.0016264933021635,3.692706638088e-18,0.00321215177511196,2020-10-12
"250",124.5,0.00646651116552769,0.00163653107174002,3.24322666720027e-18,0.00323325558276384,2020-10-12
"251",125,0.0065085501831604,0.00164790185707738,2.84845785103721e-18,0.0032542750915802,2020-10-13
"252",125.5,0.0065504110633051,0.00166162118923676,2.5017406927465e-18,0.00327520553165255,2020-10-13
"253",126,0.00659208420731865,0.00167907708047489,2.19722629613941e-18,0.00329604210365932,2020-10-14
"254",126.5,0.00663355996157481,0.00169664331016813,1.92977769856172e-18,0.0033167799807874,2020-10-14
"255",127,0.00667482862140743,0.00171435744736564,1.69488321362683e-18,0.00333741431070371,2020-10-15
"256",127.5,0.00671588043515209,0.00172366626046178,1.48858032195886e-18,0.00335794021757604,2020-10-15
"257",128,0.00677573273031154,0.00173159417327355,1.30738882603094e-18,0.00338786636515577,2020-10-16
"258",128.5,0.00684631710299332,0.00174591994879528,1.14825214146409e-18,0.00342315855149666,2020-10-16
"259",129,0.00691727931695874,0.00175748465559651,1.00848573440818e-18,0.00345863965847937,2020-10-17
"260",129.5,0.00698861236073927,0.00176735657211545,8.85731835176918e-19,0.00349430618036963,2020-10-17
"261",130,0.00706030896890877,0.00177727000817377,7.77919664184697e-19,0.00353015448445439,2020-10-18
"262",130.5,0.00713236161978765,0.00178661940606414,6.8323049922255e-19,0.00356618080989383,2020-10-18
"263",131,0.00720476253326079,0.00179980797403559,6.00066994780408e-19,0.0036023812666304,2020-10-19
"264",131.5,0.00727750366871456,0.00181314475447649,5.27026235852361e-19,0.00363875183435728,2020-10-19
"265",132,0.00735057672309843,0.00182654905362731,4.62876071659886e-19,0.00367528836154922,2020-10-20
"266",132.5,0.00742397312911661,0.00184002068865939,4.06534330058111e-19,0.00371198656455831,2020-10-20
"267",133,0.00749768405355518,0.00185355946590149,3.57050561985488e-19,0.00374884202677759,2020-10-21
"268",133.5,0.00757170039575025,0.00186716518068961,3.1359000799743e-19,0.00378585019787512,2020-10-21
"269",134,0.00764601278620269,0.00188083761721652,2.75419516409626e-19,0.00382300639310134,2020-10-22
"270",134.5,0.0077206115853449,0.00189056176112178,2.41895175499131e-19,0.00386030579267245,2020-10-22
"271",135,0.00779548688246517,0.00190251070382916,2.12451451126396e-19,0.00389774344123259,2020-10-23
"272",135.5,0.00787062849479517,0.00191496333995745,1.86591646536884e-19,0.00393531424739758,2020-10-23
"273",136,0.0079460259667659,0.0019278056907752,1.63879523405241e-19,0.00397301298338295,2020-10-24
"274",136.5,0.00802166856943783,0.00194210399480114,1.43931942774405e-19,0.00401083428471892,2020-10-24
"275",137,0.00809754530011034,0.00195068775140458,1.26412401747027e-19,0.00404877265005517,2020-10-25
"276",137.5,0.008173644882116,0.00195805428516053,1.11025356897312e-19,0.004086822441058,2020-10-25
"277",138,0.00824995576480496,0.00197016121400597,9.75112386428919e-20,0.00412497788240248,2020-10-26
"278",138.5,0.00832646612372463,0.00198158079736904,8.56420724723761e-20,0.00416323306186232,2020-10-26
"279",139,0.00840316386099987,0.00198545965238701,7.52176331614917e-20,0.00420158193049994,2020-10-27
"280",139.5,0.00848003660591864,0.00198927915365791,6.60620671019098e-20,0.00424001830295932,2020-10-27
"281",140,0.0085570717157282,0.00199303927312496,5.80209257636084e-20,0.0042785358578641,2020-10-28
"282",140.5,0.00863425627664656,0.00199842278269467,5.09585602471836e-20,0.00431712813832328,2020-10-28
"283",141,0.00871157710509398,0.00201104024787834,4.47558329738781e-20,0.00435578855254699,2020-10-29
"284",141.5,0.00878902074914908,0.0020236780932062,3.93081079110037e-20,0.00439451037457454,2020-10-29
"285",142,0.00886657349023395,0.00203633528634597,3.45234854291491e-20,0.00443328674511697,2020-10-30
"286",142.5,0.00894422134503254,0.00204901077806957,3.03212520143465e-20,0.00447211067251627,2020-10-30
"287",143,0.00902195006764646,0.0020564808487426,2.66305186828342e-20,0.00451097503382323,2020-10-31
"288",143.5,0.00909974515199207,0.00206340169533078,2.3389025129346e-20,0.00454987257599604,2020-10-31
"289",144,0.00917759183444252,0.00207625013619389,2.05420894356744e-20,0.00458879591722126,2020-11-01
"290",144.5,0.00925547509671833,0.00208912706570009,1.8041685621766e-20,0.00462773754835916,2020-11-01
"291",145,0.00933337966902972,0.00210203170437723,1.58456334782262e-20,0.00466668983451486,2020-11-02
"292",145.5,0.00941129003347381,0.00211496325919982,1.39168870132272e-20,0.00470564501673691,2020-11-02
"293",146,0.00948919042768942,0.00212792092355789,1.22229095103752e-20,0.00474459521384471,2020-11-03
"294",146.5,0.00956706484877203,0.0021409038772294,1.07351246551636e-20,0.00478353242438601,2020-11-03
"295",147,0.0096448970574512,0.00215708990416478,9.42843447086628e-21,0.0048224485287256,2020-11-04
"296",147.5,0.00972267058253251,0.00217540081350182,8.28079593176042e-21,0.00486133529126625,2020-11-04
"297",148,0.00980036872560549,0.00219382815124945,7.27284911141347e-21,0.00490018436280275,2020-11-05
"298",148.5,0.00987797456601933,0.00221237196856366,6.38759059313551e-21,0.00493898728300966,2020-11-05
"299",149,0.00995547096612699,0.00223103230278967,5.61008663324016e-21,0.00497773548306349,2020-11-06
"300",149.5,0.0100328405767989,0.00224751643536223,4.9272212383622e-21,0.00501642028839946,2020-11-06
"301",150,0.0101100658432065,0.00225731779526276,4.32747490705787e-21,0.00505503292160325,2020-11-07
"302",150.5,0.0101871290108754,0.00226712322249077,3.80073030320033e-21,0.0050935645054377,2020-11-07
"303",151,0.0102640121320087,0.00227886326649954,3.33810158300524e-21,0.00513200606600434,2020-11-08
"304",151.5,0.0103406970720788,0.0022995554121808,2.93178449654251e-21,0.00517034853603938,2020-11-08
"305",152,0.0104171655166875,0.00231604759939149,2.5749247350432e-21,0.00520858275834373,2020-11-09
"306",152.5,0.0104933989786927,0.00232865301519286,2.26150230310461e-21,0.00524669948934635,2020-11-09
"307",153,0.0105693788056,0.00234598541420962,1.98622996522718e-21,0.00528468940279998,2020-11-10
"308",153.5,0.0106450861872164,0.00236338341048538,1.74446405354109e-21,0.0053225430936082,2020-11-10
"309",154,0.0107205021635651,0.00238084609493094,1.53212613210622e-21,0.00536025108178257,2020-11-11
"310",154.5,0.0107956076330565,0.00239837253488087,1.34563419631248e-21,0.00539780381652827,2020-11-11
"311",155,0.0108703833609133,0.00241456569498942,1.18184224675831e-21,0.00543519168045663,2020-11-12
"312",155.5,0.0109448099878452,0.00242832674785542,1.03798721825762e-21,0.00547240499392259,2020-11-12
"313",156,0.01101886803897,0.00244209945166941,9.11642368701462e-22,0.00550943401948502,2020-11-13
"314",156.5,0.011092537932975,0.00245275315485459,8.00676341474311e-22,0.00554626896648749,2020-11-13
"315",157,0.0111657999915141,0.00246193602583252,7.03217210834379e-22,0.00558289999575705,2020-11-14
"316",157.5,0.0112386344488364,0.00247108522722274,6.17620903726364e-22,0.00561931722441818,2020-11-14
"317",158,0.011311021461638,0.00248644299759117,5.42443465322993e-22,0.005655510730819,2020-11-15
"318",158.5,0.0113829411191331,0.00249883852390145,4.76416700432766e-22,0.00569147055956653,2020-11-15
"319",159,0.0114543734533352,0.00250366643646199,4.18426779860082e-22,0.00572718672666758,2020-11-16
"320",159.5,0.0115252984495435,0.00252108615435096,3.67495450820758e-22,0.00576264922477173,2020-11-16
"321",160,0.0115956960570251,0.00254087254816051,3.22763534444695e-22,0.00579784802851256,2020-11-17
"322",160.5,0.011665546199886,0.0025568232481258,2.83476431979133e-22,0.00583277309994301,2020-11-17
"323",161,0.0117348287881217,0.00257170484559471,2.48971395191453e-22,0.00586741439406083,2020-11-18
"324",161.5,0.011803523728839,0.0025828593381517,2.18666346231356e-22,0.00590176186441951,2020-11-18
"325",162,0.0118716109376403,0.00259397724796087,1.9205005835069e-22,0.00593580546882014,2020-11-19
"326",162.5,0.0119390703501589,0.00260007097458748,1.68673531835941e-22,0.00596953517507943,2020-11-19
"327",163,0.0120058819337375,0.00260188794588782,1.48142419670908e-22,0.00600294096686873,2020-11-20
"328",163.5,0.012072025699238,0.00260881011355868,1.30110375155345e-22,0.00603601284961899,2020-11-20
"329",164,0.0121374817129724,0.0026115606371559,1.14273209258165e-22,0.00606874085648622,2020-11-21
"330",164.5,0.0122022301087439,0.00261068354549812,1.00363759143492e-22,0.00610111505437195,2020-11-21
"331",165,0.0122662510999857,0.00260642353484601,8.81473813048893e-23,0.00613312554999285,2020-11-22
"332",165.5,0.0123295249919876,0.00260281888733796,7.7417993279832e-23,0.00616476249599382,2020-11-22
"333",166,0.0123920321941967,0.00260782775077791,6.79945971706781e-23,0.00619601609709837,2020-11-23
"334",166.5,0.0124537532325804,0.00261824137978434,5.97182263261683e-23,0.00622687661629021,2020-11-23
"335",167,0.0125146687620393,0.00263353131003239,5.24492636759289e-23,0.00625733438101967,2020-11-24
"336",167.5,0.0125747595788572,0.00264119695427351,4.60650864799993e-23,0.00628737978942861,2020-11-24
"337",168,0.0126340066331745,0.00264817855049816,4.04579977618195e-23,0.00631700331658725,2020-11-25
"338",168.5,0.0126923910414723,0.00265511740215302,3.55334095292774e-23,0.00634619552073615,2020-11-25
"339",169,0.0127498940990536,0.00266375838345177,3.12082471359195e-23,0.00637494704952678,2020-11-26
"340",169.5,0.0128064972925074,0.00268127081375219,2.74095478649227e-23,0.00640324864625369,2020-11-26
"341",170,0.012862182312143,0.00269525710215155,2.40732300948357e-23,0.00643109115607149,2020-11-27
"342",170.5,0.012916931064379,0.00270774019224325,2.11430122837065e-23,0.0064584655321895,2020-11-27
"343",171,0.0129707256840744,0.00272020842359525,1.85694635355504e-23,0.00648536284203722,2020-11-28
"344",171.5,0.013023548546787,0.0027326606225601,1.63091697328232e-23,0.00651177427339349,2020-11-28
"345",172,0.0130753822809442,0.00274509560574951,1.43240011680904e-23,0.00653769114047212,2020-11-29
"346",172.5,0.0131262097799142,0.00275751218019582,1.25804693203066e-23,0.0065631048899571,2020-11-29
"347",173,0.0131760142139602,0.0027699091435194,1.10491619249341e-23,0.00658800710698008,2020-11-30
"348",173.5,0.0132247790420662,0.0027822852841016,9.70424680789552e-24,0.00661238952103308,2020-11-30
"349",174,0.0132724880236187,0.00279655963892549,8.52303611335773e-24,0.00663624401180936,2020-12-01
"350",174.5,0.0133191252299308,0.00280986716196733,7.48560357414832e-24,0.00665956261496541,2020-12-01
"351",175,0.0133646750555939,0.00281927651842528,6.57444836840271e-24,0.00668233752779694,2020-12-02
"352",175.5,0.0134091222296441,0.00282907373780196,5.77419989191864e-24,0.00670456111482205,2020-12-02
"353",176,0.0134524518265293,0.00284232101914756,5.071358465917e-24,0.00672622591326467,2020-12-03
"354",176.5,0.0134946492768629,0.00285603588155703,4.45406760611508e-24,0.00674732463843144,2020-12-03
"355",177,0.0135357003779507,0.00286823160057149,3.91191401143766e-24,0.00676785018897535,2020-12-04
"356",177.5,0.0135755913040792,0.00288014749587677,3.43575189830356e-24,0.00678779565203962,2020-12-04
"357",178,0.0136143086165506,0.00288824981756759,3.01754871711976e-24,0.00680715430827528,2020-12-05
"358",178.5,0.0136518392734525,0.00289629459120469,2.65024964831922e-24,0.00682591963672625,2020-12-05
"359",179,0.0136881706391511,0.00290428103198889,2.32765859207747e-24,0.00684408531957556,2020-12-06
"360",179.5,0.0137232904934938,0.00291220835874251,2.04433364408072e-24,0.0068616452467469,2020-12-06
"361",180,0.0137571870407112,0.0029200757940745,1.79549529408875e-24,0.00687859352035561,2020-12-07
"362",180.5,0.0137898489180066,0.00292594977535666,1.57694579866121e-24,0.0068949244590033,2020-12-07
"363",181,0.0138212652038218,0.00292560686194977,1.38499836791681e-24,0.00691063260191092,2020-12-08
"364",181.5,0.0139112283820447,0.00292516575916052,1.21641497175157e-24,0.00695561419102237,2020-12-08
"365",182,0.0140472610895584,0.00292420645888661,1.06835171634675e-24,0.00702363054477918,2020-12-09
"366",182.5,0.0141833931803909,0.00291304949230334,9.38310869503305e-25,0.00709169659019546,2020-12-09
"367",183,0.0143195910838188,0.00290174567743123,8.24098725500889e-25,0.00715979554190941,2020-12-10
"368",183.5,0.0144558206082549,0.0028902978551862,7.23788598688718e-25,0.00722791030412743,2020-12-10
"369",184,0.0145920469516689,0.00288375098233885,6.35688321533769e-25,0.00729602347583445,2020-12-11
"370",184.5,0.0147282347128375,0.00288217846247468,5.58311698839308e-25,0.00736411735641877,2020-12-11
"371",185,0.0148643479034304,0.00287441697789812,4.90353436584685e-25,0.00743217395171519,2020-12-12
"372",185.5,0.015000349960939,0.00287286295084459,4.30667122451997e-25,0.00750017498046949,2020-12-12
"373",186,0.0151362037624537,0.00287136055248652,3.7824588658522e-25,0.00756810188122683,2020-12-13
"374",186.5,0.0152718716392916,0.00288347275854133,3.32205416341216e-25,0.00763593581964582,2020-12-13
"375",187,0.0154073153924792,0.00288718508775895,2.91769038502355e-25,0.00770365769623962,2020-12-14
"376",187.5,0.015542496309089,0.00288758742633789,2.56254617297241e-25,0.00777124815454449,2020-12-14
"377",188,0.0156773751794311,0.0028944157288997,2.25063047207544e-25,0.00783868758971556,2020-12-15
"378",188.5,0.0158119123150981,0.00290645252268572,1.97668146441983e-25,0.00790595615754905,2020-12-15
"379",189,0.0159460675678582,0.00291324294006241,1.73607780586823e-25,0.00797303378392909,2020-12-16
"380",189.5,0.0160798003493937,0.00290562634721128,1.52476066694584e-25,0.00803990017469684,2020-12-16
"381",190,0.0162130696518773,0.00291850916627255,1.33916526298913e-25,0.00810653482593864,2020-12-17
"382",190.5,0.0163458340693782,0.00292458364952333,1.1761607185139e-25,0.00817291703468911,2020-12-17
"383",191,0.0164780518200891,0.00293391495519307,1.03299725135295e-25,0.00823902591004454,2020-12-18
"384",191.5,0.0166096807693613,0.00294314592620417,9.07259785593787e-26,0.00830484038468065,2020-12-18
"385",192,0.0167406784535369,0.00295561007460666,7.96827210796173e-26,0.00837033922676846,2020-12-19
"386",192.5,0.0168710021045616,0.00296841508792749,6.99836600218816e-26,0.0084355010522808,2020-12-19
"387",193,0.0170006086753627,0.00298027809749528,6.14651784439517e-26,0.00850030433768133,2020-12-20
"388",193.5,0.0171294548659738,0.00298234964505095,5.39835750225922e-26,0.0085647274329869,2020-12-20
"389",194,0.0172574971503871,0.0029981366622028,4.74126399043522e-26,0.00862874857519357,2020-12-21
"390",194.5,0.0173846918041105,0.00301125356501211,4.16415256262484e-26,0.00869234590205524,2020-12-21
"391",195,0.0175109949324071,0.00301344710295699,3.65728771901251e-26,0.00875549746620355,2020-12-22
"392",195.5,0.0176363624991928,0.00301376888286568,3.2121189746248e-26,0.00881818124959638,2020-12-22
"393",196,0.0177607503565634,0.00301266118112287,2.82113661813037e-26,0.0088803751782817,2020-12-23
"394",196.5,0.0178841142749254,0.00301372778076765,2.47774502782411e-26,0.00894205713746272,2020-12-23
"395",197,0.0180064099736983,0.00301031018316785,2.17615140771725e-26,0.00900320498684916,2020-12-24
"396",197.5,0.0181275931525582,0.00300224090003875,1.91126806678267e-26,0.00906379657627912,2020-12-24
"397",198,0.0182476195231896,0.00299160339743199,1.67862659286886e-26,0.00912380976159481,2020-12-25
"398",198.5,0.0183664448415096,0.00299138820384572,1.47430247345147e-26,0.00918322242075482,2020-12-25
"399",199,0.01848402494033,0.00299107651387055,1.294848891623e-26,0.00924201247016501,2020-12-26
"400",199.5,0.0186003157624179,0.00298606284711769,1.13723858050116e-26,0.00930015788120897,2020-12-26
"401",200,0.0187152733939177,0.00297666274136968,9.98812755177349e-27,0.00935763669695884,2020-12-27
"402",200.5,0.0188288540980921,0.00296320136470821,8.77236260719652e-27,0.00941442704904603,2020-12-27
"403",201,0.0189410143493427,0.00294746646044308,7.70458179606204e-27,0.00947050717467133,2020-12-28
"404",201.5,0.0190517108674657,0.00293042935124394,6.76677234061362e-27,0.00952585543373284,2020-12-28
"405",202,0.0191609006520996,0.00291525747161516,5.94311399654388e-27,0.0095804503260498,2020-12-29
"406",202.5,0.0192685410173199,0.00289811442919902,5.21971217561501e-27,0.00963427050865995,2020-12-29
"407",203,0.0193745896263346,0.00287784298017935,4.58436355286264e-27,0.00968729481316729,2020-12-30
"408",203.5,0.0194790045262342,0.00285854045135587,4.02635020432694e-27,0.0097395022631171,2020-12-30
"409",204,0.0195817441827483,0.00284730949773404,3.53625880254645e-27,0.00979087209137417,2020-12-31
"410",204.5,0.0196827675149607,0.00283601441426419,3.10582181975839e-27,0.00984138375748036,2020-12-31
"411",205,0.0197820339299338,0.00282440117805139,2.72777806000544e-27,0.0098910169649669,2021-01-01
"412",205.5,0.0198795033571938,0.00282173884107115,2.39575016741491e-27,0.00993975167859691,2021-01-01
"413",206,0.0199751362830265,0.00281893575636014,2.10413704429352e-27,0.00998756814151323,2021-01-02
"414",206.5,0.0200688937845331,0.00280441613316869,1.84801936420005e-27,0.0100344468922666,2021-01-02
"415",207,0.0201607375633979,0.0027904716768199,1.62307658606193e-27,0.0100803687816989,2021-01-03
"416",207.5,0.0202506299793145,0.00277402252481067,1.42551406941712e-27,0.0101253149896573,2021-01-03
"417",208,0.0203385340830243,0.00276036636501147,1.25199906126218e-27,0.0101692670415121,2021-01-04
"418",208.5,0.0204244136489135,0.00276430227295404,1.09960447464563e-27,0.0102122068244567,2021-01-04
"419",209,0.0205082332071221,0.0027681646136336,9.65759510587604e-28,0.010254116603561,2021-01-05
"420",209.5,0.0205899580751135,0.00277195369892196,8.48206290349068e-28,0.0102949790375568,2021-01-05
"421",210,0.0206695543886573,0.00277830510396565,7.44961766465013e-28,0.0103347771943286,2021-01-06
"422",210.5,0.0207469891321759,0.00277810114631215,6.5428427000498e-28,0.010373494566088,2021-01-06
"423",211,0.0208222301684097,0.00277285222982475,5.7464412973475e-28,0.0104111150842049,2021-01-07
"424",211.5,0.0208952462673517,0.0027675602537195,5.04697867543255e-28,0.0104476231336759,2021-01-07
"425",212,0.0209660071344082,0.00277269121318146,4.43265534828111e-28,0.0104830035672041,2021-01-08
"426",212.5,0.0210344834377402,0.0027800899247177,3.89310807519138e-28,0.0105172417188701,2021-01-08
"427",213,0.0211006468347425,0.00277942288632785,3.41923503955651e-28,0.0105503234173713,2021-01-09
"428",213.5,0.0211644699976187,0.00277866795563711,3.00304230705342e-28,0.0105822349988093,2021-01-09
"429",214,0.0212259266380111,0.00276780313273206,2.63750897309546e-28,0.0106129633190055,2021-01-10
"430",214.5,0.0212849915306477,0.00276558061610767,2.31646872467299e-28,0.0106424957653239,2021-01-10
"431",215,0.0213416405359675,0.00276328104622807,2.03450581860595e-28,0.0106708202679838,2021-01-11
"432",215.5,0.0213958506216893,0.00276050661755386,1.78686372142831e-28,0.0106979253108446,2021-01-11
"433",216,0.0214475998832897,0.00275567837372345,1.56936486971779e-28,0.0107237999416449,2021-01-12
"434",216.5,0.0214968675633591,0.00275081173623152,1.37834019727909e-28,0.0107484337816795,2021-01-12
"435",217,0.0215436340698039,0.00274590758866384,1.21056724034928e-28,0.0107718170349019,2021-01-13
"436",217.5,0.0215878809928689,0.0027360145767827,1.06321577669995e-28,0.0107939404964344,2021-01-13
"437",218,0.0216295911209524,0.00271913319857811,9.33800081602683e-29,0.0108147955604762,2021-01-14
"438",218.5,0.0216687484551908,0.00269223449471822,8.20136995246314e-29,0.0108343742275954,2021-01-14
"439",219,0.0217053382227905,0.00267172410497463,7.20309094230562e-29,0.0108526691113953,2021-01-15
"440",219.5,0.0217393468890893,0.00265910512423453,6.32632345862444e-29,0.0108696734445447,2021-01-15
"441",220,0.0217707621683278,0.00266614132457758,5.55627699604349e-29,0.0108853810841639,2021-01-16
"442",220.5,0.021799573033118,0.00266816079215813,4.87996136439643e-29,0.010899786516559,2021-01-16
"443",221,0.021825769722596,0.00266074061278686,4.28596755254631e-29,0.010912884861298,2021-01-17
"444",221.5,0.0218493437492489,0.00266470107627356,3.7642752656817e-29,0.0109246718746244,2021-01-17
"445",222,0.0218702879044076,0.00267193916409664,3.30608388936699e-29,0.0109351439522038,2021-01-18
"446",222.5,0.021888596262402,0.00266914775969106,2.90366402881871e-29,0.010944298131201,2021-01-18
"447",223,0.0219042641833741,0.00266353810360304,2.55022711897067e-29,0.010952132091687,2021-01-19
"448",223.5,0.0219172883147494,0.00265280109320379,2.23981090573323e-29,0.0109586441573747,2021-01-19
"449",224,0.0219276665913688,0.00263802260887893,1.9671788665891e-29,0.0109638332956844,2021-01-20
"450",224.5,0.0219353982342854,0.00262703841613447,1.72773187381547e-29,0.0109676991171427,2021-01-20
"451",225,0.0219404837482326,0.00260742024324814,1.51743061014767e-29,0.0109702418741163,2021-01-21
"452",225.5,0.0219429249177728,0.00258782053242917,1.33272742808648e-29,0.0109714624588864,2021-01-21
"453",226,0.0219427248021393,0.00256824202663031,1.1705065033591e-29,0.0109713624010696,2021-01-22
"454",226.5,0.0219398877287825,0.00254868742214243,1.02803127296111e-29,0.0109699438643913,2021-01-22
"455",227,0.0219344192856397,0.00252915936839253,9.02898271093008e-30,0.0109672096428199,2021-01-23
"456",227.5,0.0219263263121438,0.00251217739979388,7.92996584232879e-30,0.0109631631560719,2021-01-23
"457",228,0.0219156168889924,0.00250605526006461,6.96472241378605e-30,0.0109578084444962,2021-01-24
"458",228.5,0.0219023003266997,0.00249991860634195,6.11696938745559e-30,0.0109511501633498,2021-01-24
"459",229,0.0218863871529547,0.00248370734585177,5.37240571325637e-30,0.0109431935764773,2021-01-25
"460",229.5,0.0218678890988124,0.0024662110374855,4.71847107932567e-30,0.0109339445494062,2021-01-25
"461",230,0.0218468190837457,0.00244870089933728,4.14413402761013e-30,0.0109234095418729,2021-01-26
"462",230.5,0.0218231911995879,0.00243919568683643,3.63970586024032e-30,0.0109115955997939,2021-01-26
"463",231,0.0217970206933964,0.00243038571189859,3.19667719740894e-30,0.0108985103466982,2021-01-27
"464",231.5,0.021768323949272,0.00242852953232118,2.80757442958853e-30,0.010884161974636,2021-01-27
"465",232,0.0217371184691668,0.00242429354133594,2.46583364252996e-30,0.0108685592345834,2021-01-28
"466",232.5,0.021703422852717,0.00241616320062243,2.16568988823698e-30,0.0108517114263585,2021-01-28
"467",233,0.0216672567761374,0.00240952758729566,1.90207993398927e-30,0.0108336283880687,2021-01-29
"468",233.5,0.0216286409702171,0.00240283826132581,1.67055684885237e-30,0.0108143204851085,2021-01-29
"469",234,0.0215875971974536,0.00240076206314103,1.46721498680366e-30,0.0107937985987268,2021-01-30
"470",234.5,0.0215441482283675,0.00240272646883905,1.28862410098772e-30,0.0107720741141837,2021-01-30
"471",235,0.0214983178170381,0.00239991740109685,1.13177147765095e-30,0.010749158908519,2021-01-31
"472",235.5,0.0214501306759022,0.00239667841346986,9.94011113591947e-31,0.0107250653379511,2021-01-31
"473",236,0.0213996124498587,0.00239097395944464,8.73019079783726e-31,0.0106998062249294,2021-02-01
"474",236.5,0.0213467896897224,0.00238970530867688,7.66754318180893e-31,0.0106733948448612,2021-02-01
"475",237,0.0212916898250701,0.00238076538390496,6.73424210378873e-31,0.0106458449125351,2021-02-02
"476",237.5,0.0212343411365249,0.00237179709947385,5.9145433729063e-31,0.0106171705682624,2021-02-02
"477",238,0.0211747727275199,0.00236280158588848,5.19461919705987e-31,0.0105873863637599,2021-02-03
"478",238.5,0.0211130144955899,0.00235377996130626,4.5623249169282e-31,0.0105565072477949,2021-02-03
"479",239,0.021049097103232,0.00234370697418253,4.00699413335341e-31,0.010524548551616,2021-02-04
"480",239.5,0.0209830519483821,0.00232739798787824,3.51925877202518e-31,0.010491525974191,2021-02-04
"481",240,0.0209149111345509,0.00231109857958899,3.09089105007278e-31,0.0104574555672755,2021-02-05
"482",240.5,0.020844707440664,0.00229488720143604,2.71466467864264e-31,0.010422353720332,2021-02-05
"483",241,0.0207724742906491,0.00228492167820881,2.38423296003799e-31,0.0103862371453245,2021-02-06
"484",241.5,0.0206982457228159,0.00226751578147265,2.09402172299742e-31,0.0103491228614079,2021-02-06
"485",242,0.02062205635907,0.00225302407330468,1.83913528999918e-31,0.010311028179535,2021-02-07
"486",242.5,0.0205439413740038,0.00224433754634892,1.61527389031988e-31,0.0102719706870019,2021-02-07
"487",243,0.0204639364639077,0.00223559549270076,1.41866112565884e-31,0.0102319682319539,2021-02-08
"488",243.5,0.0203820778157404,0.00222232311798102,1.2459802647197e-31,0.0101910389078702,2021-02-08
"489",244,0.0202984020761015,0.00220662948748953,1.0943182920798e-31,0.0101492010380507,2021-02-09
"490",244.5,0.0202370972493935,0.00219548452394281,9.61116767487361e-32,0.0101185486246967,2021-02-09
"491",245,0.0202222678531165,0.00219206690787695,8.44128666614662e-32,0.0101111339265583,2021-02-10
"492",245.5,0.0202050235295963,0.00218858794054245,7.41380475198105e-32,0.0101025117647981,2021-02-10
"493",246,0.020185376247572,0.00218504806069297,6.51138897117774e-32,0.010092688123786,2021-02-11
"494",246.5,0.0201633390850243,0.00218144771374025,5.71881614803059e-32,0.0100816695425122,2021-02-11
"495",247,0.0201389262131999,0.00217778735163022,5.02271608711159e-32,0.0100694631066,2021-02-12
"496",247.5,0.020112152879631,0.00217406743271769,4.41134602664527e-32,0.0100560764398155,2021-02-12
"497",248,0.0200830353901821,0.00217028842163985,3.87439254564553e-32,0.010041517695091,2021-02-13
"498",248.5,0.0200515910901562,0.00215985199174118,3.40279758311526e-32,0.0100257955450781,2021-02-13
"499",249,0.0200178383444985,0.00215023706214381,2.98860563436425e-32,0.0100089191722493,2021-02-14
"500",249.5,0.0199817965171303,0.00214741820267066,2.62482954674509e-32,0.00999089825856515,2021-02-14
"501",250,0.0199434859494533,0.00214454732402929,2.30533265086735e-32,0.00997174297472665,2021-02-15
"502",250.5,0.019902927938061,0.00214162471719467,2.024725238919e-32,0.00995146396903051,2021-02-15
"503",251,0.019860144711697,0.00213865067799284,1.77827364375081e-32,0.00993007235584849,2021-02-16
"504",251.5,0.0198151594074997,0.00213562550703701,1.56182038494621e-32,0.00990757970374986,2021-02-16
"505",252,0.019767996046575,0.00211656684191754,1.3717140347919e-32,0.00988399802328752,2021-02-17
"506",252.5,0.019718679508937,0.00209023472742337,1.20474762103319e-32,0.00985933975446851,2021-02-17
"507",253,0.0196672355078594,0.00207546322935734,1.05810452730792e-32,0.00983361775392969,2021-02-18
"508",253.5,0.0196136905636794,0.00205589015994221,9.29310978634151e-33,0.00980684528183968,2021-02-18
"509",254,0.0195580719770966,0.00203411663772581,8.16194310412057e-33,0.00977903598854829,2021-02-19
"510",254.5,0.0195004078020096,0.0020185147345779,7.16846316964981e-33,0.00975020390100481,2021-02-19
"511",255,0.0194407268179327,0.00200389788739313,6.2959106133297e-33,0.00972036340896637,2021-02-20
"512",255.5,0.019379058502036,0.00199977135425906,5.52956603290659e-33,0.00968952925101798,2021-02-20
"513",256,0.0193154330008507,0.00199561465580167,4.85650168659298e-33,0.00965771650042535,2021-02-21
"514",256.5,0.0192498811016838,0.00199142816441922,4.26536341035118e-33,0.00962494055084192,2021-02-21
"515",257,0.0191824342037822,0.00198707238354064,3.74617908042485e-33,0.00959121710189111,2021-02-22
"516",257.5,0.0191131242892896,0.00197168068502117,3.29019039000415e-33,0.0095565621446448,2021-02-22
"517",258,0.0190419838940375,0.00195927773490971,2.88970510220455e-33,0.00952099194701873,2021-02-23
"518",258.5,0.0189690460782107,0.00195482801143486,2.53796728696193e-33,0.00948452303910533,2021-02-23
"519",259,0.0188943443969284,0.00195034373825731,2.22904335282338e-33,0.00944717219846419,2021-02-24
"520",259.5,0.0188179128707801,0.00194582532756571,1.95772195106337e-33,0.00940895643539003,2021-02-24
"521",260,0.0187397859563553,0.0019412731924462,1.71942606357152e-33,0.00936989297817765,2021-02-25
"522",260.5,0.018659998516806,0.00193668774681608,1.51013579149134e-33,0.009329999258403,2021-02-25
"523",261,0.0185785857924783,0.00193206940535778,1.32632054210356e-33,0.00928929289623914,2021-02-26
"524",261.5,0.0184955833716504,0.00192741858345347,1.16487946999035e-33,0.00924779168582518,2021-02-26
"525",262,0.0184110271614123,0.00192273569711997,1.02308916776096e-33,0.00920551358070614,2021-02-27
"526",262.5,0.0183249533587217,0.0019150103477285,8.98557723914977e-34,0.00916247667936084,2021-02-27
"527",263,0.0182373984216694,0.00190040501562151,7.89184372828694e-34,0.0091186992108347,2021-02-28
"528",263.5,0.018148399040987,0.00189169287235149,6.93124056185789e-34,0.0090741995204935,2021-02-28
"529",264,0.0180579921118277,0.00188584931663524,6.08756298026347e-34,0.00902899605591387,2021-03-01
"530",264.5,0.0179662147058509,0.00187862539602292,5.34657868356267e-34,0.00898310735292543,2021-03-01
"531",265,0.0178731040436381,0.00186424982469255,4.69578774169651e-34,0.00893655202181907,2021-03-02
"532",265.5,0.0177786974674705,0.00185932731677447,4.12421172868142e-34,0.00888934873373524,2021-03-02
"533",266,0.0176830324144908,0.0018505181803042,3.62220852360083e-34,0.00884151620724539,2021-03-03
"534",266.5,0.0175861463902783,0.0018414277500023,3.18130965420665e-34,0.00879307319513916,2021-03-03
"535",267,0.0174880769428585,0.0018304145691341,2.79407743922137e-34,0.00874403847142926,2021-03-04
"536",267.5,0.0173888616371707,0.00182201627874119,2.45397951942303e-34,0.00869443081858536,2021-03-04
"537",268,0.0172885380300151,0.00181912119320338,2.15527866093283e-34,0.00864426901500756,2021-03-05
"538",268.5,0.0171871436454989,0.00181619968452446,1.89293597175765e-34,0.00859357182274943,2021-03-05
"539",269,0.0170847159510001,0.00181325197701179,1.66252589891241e-34,0.00854235797550007,2021-03-06
"540",269.5,0.0169812923336674,0.00181027829492982,1.4601615721783e-34,0.00849064616683371,2021-03-06
"541",270,0.0168769100774699,0.00180016237993087,1.28242923509401e-34,0.00843845503873495,2021-03-07
"542",270.5,0.0167716063408141,0.00178884941071089,1.12633065707263e-34,0.00838580317040705,2021-03-07
"543",271,0.0166654181347399,0.00177536919500485,9.89232555173833e-35,0.00833270906736995,2021-03-08
"544",271.5,0.0165583823017085,0.00175722040686586,8.68822172308718e-35,0.00827919115085425,2021-03-08
"545",272,0.0164505354949927,0.00173921946492377,7.6306826251042e-35,0.00822526774749637,2021-03-09
"546",272.5,0.0163419141586802,0.00172565408147852,6.70186825116811e-35,0.00817095707934012,2021-03-09
"547",273,0.0162325545082972,0.00171522854498157,5.88611009823015e-35,0.0081162772541486,2021-03-10
"548",273.5,0.0161224925120606,0.00170483989902372,5.16964684921226e-35,0.00806124625603031,2021-03-10
"549",274,0.0160117638727648,0.00169448856152883,4.54039222841008e-35,0.00800588193638241,2021-03-11
"550",274.5,0.0159004040103075,0.00168543231263602,3.98773111376998e-35,0.00795020200515376,2021-03-11
"551",275,0.0157884480448592,0.00167880138693747,3.5023404665851e-35,0.00789422402242962,2021-03-12
"552",275.5,0.0156759307806786,0.00167053694707901,3.07603205780918e-35,0.00783796539033932,2021-03-12
"553",276,0.0155628866905761,0.00165990398419384,2.70161433788175e-35,0.00778144334528807,2021-03-13
"554",276.5,0.0154493499010259,0.00165196434070873,2.37277111989742e-35,0.00772467495051294,2021-03-13
"555",277,0.0153353541779263,0.00164660589081031,2.0839550295819e-35,0.00766767708896313,2021-03-14
"556",277.5,0.0152209329130077,0.0016417515298078,1.83029392464431e-35,0.00761046645650387,2021-03-14
"557",278,0.0151061191108856,0.00164180927523453,1.60750870486008e-35,0.0075530595554428,2021-03-15
"558",278.5,0.0149941297007736,0.00163954540587648,1.41184112639346e-35,0.00749706485038679,2021-03-15
"559",279,0.0150076617663147,0.00163725550326711,1.23999040263329e-35,0.00750383088315734,2021-03-16
"560",279.5,0.0150201497081788,0.00163493962062113,1.08905752203889e-35,0.00751007485408941,2021-03-16
"561",280,0.0150315910716328,0.00163045650438433,9.56496343673918e-36,0.00751579553581638,2021-03-17
"562",280.5,0.0150419836966787,0.00161819147989537,8.40070645440988e-36,0.00752099184833933,2021-03-17
"563",281,0.0150513257188693,0.00160601793026765,7.37816400448496e-36,0.00752566285943466,2021-03-18
"564",281.5,0.0150596155699455,0.00159116202230366,6.48008645136043e-36,0.00752980778497273,2021-03-18
"565",282,0.0150668519782942,0.00157603104078487,5.69132380245e-36,0.00753342598914709,2021-03-19
"566",282.5,0.0150730339692292,0.00156260957319028,4.99857013752242e-36,0.0075365169846146,2021-03-19
"567",283,0.0150781608650922,0.00154929963420862,4.39013914635731e-36,0.00753908043254612,2021-03-20
"568",283.5,0.0150822322851765,0.0015361004972037,3.85576698818353e-36,0.00754111614258824,2021-03-20
"569",284,0.0150852481454722,0.00152135624795428,3.3864391472652e-36,0.00754262407273608,2021-03-21
"570",284.5,0.0150872086582352,0.00150168538835389,2.97423836380033e-36,0.00754360432911759,2021-03-21
"571",285,0.0150881143313793,0.00148224010692966,2.61221107482339e-36,0.00754405716568967,2021-03-22
"572",285.5,0.0150879659676935,0.00146301862355548,2.29425011205594e-36,0.00754398298384675,2021-03-22
"573",286,0.0150867646638846,0.00144632724802437,2.01499167789286e-36,0.0075433823319423,2021-03-23
"574",286.5,0.0150845118094481,0.00143651821473084,1.76972486157537e-36,0.00754225590472403,2021-03-23
"575",287,0.0150812090853669,0.00142169164810257,1.55431216914659e-36,0.00754060454268346,2021-03-24
"576",287.5,0.0150768584626417,0.0014087601778665,1.36511972658089e-36,0.00753842923132085,2021-03-24
"577",288,0.0150714622006526,0.0013975952527357,1.1989559786587e-36,0.00753573110032628,2021-03-25
"578",288.5,0.015065022845356,0.00138651750532508,1.05301784947598e-36,0.00753251142267799,2021-03-25
"579",289,0.015057543227318,0.00137859881513686,9.24843456350671e-37,0.007528771613659,2021-03-26
"580",289.5,0.0150490264595866,0.00137390447596252,8.12270579440133e-37,0.00752451322979328,2021-03-26
"581",290,0.0150394759354053,0.00136919840817138,7.13400186478523e-37,0.00751973796770265,2021-03-27
"582",290.5,0.0150288953257713,0.00136448094000547,6.26564397319897e-37,0.00751444766288565,2021-03-27
"583",291,0.01501728857684,0.00135975239843263,5.5029834786939e-37,0.00750864428842002,2021-03-28
"584",291.5,0.0150046599071799,0.00135162847351799,4.83315478765017e-37,0.00750232995358995,2021-03-28
"585",292,0.0149910138048798,0.00134316086163829,4.24485831946019e-37,0.00749550690243988,2021-03-29
"586",292.5,0.0149763550245125,0.00133199274282857,3.72816988984765e-37,0.00748817751225624,2021-03-29
"587",293,0.0149606885839578,0.00132114446407982,3.27437329624094e-37,0.00748034429197891,2021-03-30
"588",293.5,0.0149440197610882,0.00131293620775909,2.87581328102349e-37,0.00747200988054412,2021-03-30
"589",294,0.0149263540903209,0.00130479548763448,2.52576639224538e-37,0.00746317704516043,2021-03-31
"590",294.5,0.0149076973590395,0.00129672192070963,2.21832756329917e-37,0.00745384867951977,2021-03-31
"591",295,0.0148880556038905,0.00128871511778421,1.94831049823185e-37,0.00744402780194523,2021-04-01
"592",295.5,0.0148674351069555,0.00128044310341159,1.71116018225686e-37,0.00743371755347775,2021-04-01
"593",296,0.0148458423918069,0.00127109049903934,1.50287604157481e-37,0.00742292119590344,2021-04-02
"594",296.5,0.0148232842194474,0.00126160363250328,1.31994445625812e-37,0.00741164210972369,2021-04-02
