"","time","top","med","bottom","pseudo_med","date"
"1",0,0.00724988446195772,0.00163222048409709,8.44344834463018e-05,0.00366715947270201,2020-06-15
"2",0.5,0.00677137227675715,0.00155750187790315,9.20983167243316e-05,0.00343173529674074,2020-06-15
"3",1,0.00632539016830353,0.00150217844595574,9.96013724983219e-05,0.00321249577040093,2020-06-16
"4",1.5,0.00590974086778488,0.00144492610045362,0.000106954231718692,0.00300834754975179,2020-06-16
"5",2,0.00552237572681164,0.0013997212555708,0.000114167040126567,0.0028182713834691,2020-06-17
"6",2.5,0.00516138466782519,0.00134790391873781,0.000121249529124852,0.00264131709847502,2020-06-17
"7",3,0.00482498681409112,0.00129667536752985,0.00012821103570094,0.00247659892489603,2020-06-18
"8",3.5,0.00459321610376284,0.00125476009145004,0.000135060521444879,0.00236413831260386,2020-06-18
"9",4,0.0043751659159953,0.0012117852505779,0.00014180659070484,0.00225848625335007,2020-06-19
"10",4.5,0.0041695301337824,0.00115794448057088,0.00014845750791976,0.00215899382085108,2020-06-19
"11",5,0.00397563274003265,0.00111779616275448,0.000155021214167242,0.00206532697709995,2020-06-20
"12",5.5,0.00379283489962337,0.00109035666404712,0.000159296085035355,0.00197606549232936,2020-06-20
"13",6,0.00362053291864322,0.00104377459930649,0.000157874151604846,0.00188920353512403,2020-06-21
"14",6.5,0.00350520186322111,0.00100529298596962,0.000156732120039616,0.00183096699163036,2020-06-21
"15",7,0.00339670847340634,0.000976906933745705,0.000155851357602769,0.00177627991550455,2020-06-22
"16",7.5,0.00329256009887995,0.000945397182075942,0.000155214695774902,0.00172388739732743,2020-06-22
"17",8,0.00319260310437073,0.000930583591141447,0.000154806319197237,0.00167370471178398,2020-06-23
"18",8.5,0.00309668960668808,0.000907343937791841,0.000154611663096947,0.00162565063489252,2020-06-23
"19",9,0.00300467726485304,0.000883652135072651,0.000154617318547686,0.00157964729170036,2020-06-24
"20",9.5,0.00291642907796859,0.000861783698981508,0.000154810944967663,0.00153562001146813,2020-06-24
"21",10,0.00283181319054498,0.000834610602279582,0.000155181189303213,0.0014934971899241,2020-06-25
"22",10.5,0.00275070270500604,0.000817849468568913,0.000155717611387928,0.00145321015819698,2020-06-25
"23",11,0.00267297550111262,0.000801973631151901,0.00015641061500632,0.00141469305805947,2020-06-26
"24",11.5,0.00259851406204906,0.000784531623655912,0.000150893896550447,0.00137470397929976,2020-06-26
"25",12,0.00252720530692778,0.000766285231817509,0.000144491252379566,0.00133584827965367,2020-06-27
"26",12.5,0.00245894042947614,0.00074973405604577,0.000138816156032791,0.00129887829275447,2020-06-27
"27",13,0.00239361474267856,0.000743220424615574,0.000133802103542473,0.00126370842311052,2020-06-28
"28",13.5,0.00233112752915485,0.000732424560031788,0.000129388882902002,0.00123025820602843,2020-06-28
"29",14,0.00227138189706415,0.000722129310491169,0.000125521982228717,0.00119845193964643,2020-06-29
"30",14.5,0.00221428464133138,0.000709681187724034,0.000122152053649103,0.00116821834749024,2020-06-29
"31",15,0.00215974611000062,0.000698767221877937,0.000119234427660711,0.00113949026883067,2020-06-30
"32",15.5,0.00210768007552703,0.000695209007568615,0.000116728673219072,0.00111220437437305,2020-06-30
"33",16,0.00205800361082581,0.000689948051877356,0.000114598199245149,0.00108630090503548,2020-07-01
"34",16.5,0.00201063696990352,0.000686032595762588,0.000112809893654161,0.00106172343177884,2020-07-01
"35",17,0.00196550347290314,0.00067659012312076,0.000111333796373606,0.00103841863463837,2020-07-02
"36",17.5,0.00192252939540089,0.000677686969745721,0.000110142803150893,0.00101633609927589,2020-07-02
"37",18,0.0018962788627363,0.000667134466068,0.000109212397252146,0.00100274562999422,2020-07-03
"38",18.5,0.00187362657151139,0.00066679936847826,0.000108520406426642,0.000991073488969016,2020-07-03
"39",19,0.0018527656979577,0.000668226726666748,0.000108046782758485,0.000980406240358095,2020-07-04
"40",19.5,0.00183361129166124,0.000670249512359789,0.000107773403251039,0.000970692347456139,2020-07-04
"41",20,0.00181639723041436,0.000670040903968094,0.000107683889192446,0.000962040559803401,2020-07-05
"42",20.5,0.00182206528346104,0.000670412092187941,0.000107763442534304,0.000964914362997671,2020-07-05
"43",21,0.00183842747834843,0.00067082525330649,0.000107998697682,0.000973213088015213,2020-07-06
"44",21.5,0.00186549888049014,0.000671204301982476,0.000108377587245955,0.000986938233868047,2020-07-06
"45",22,0.00189236955270696,0.000658261943727941,0.000108889220439631,0.0010006293865733,2020-07-07
"46",22.5,0.00191905659783481,0.000655736854191363,0.000109523772933837,0.00101429018538432,2020-07-07
"47",23,0.00194557635636276,0.000650029882384383,0.000110272387088961,0.00102792437172586,2020-07-08
"48",23.5,0.00197194444062609,0.000637445113783878,0.000111127081588263,0.00104153576110718,2020-07-08
"49",24,0.00199817576740956,0.000637009124313303,0.000112080669587336,0.00105512821849845,2020-07-09
"50",24.5,0.00202428458903385,0.000638277264193899,0.000113126684578129,0.00106870563680599,2020-07-09
"51",25,0.00205028452299427,0.000636147214960232,0.000114259313241409,0.00108227191811784,2020-07-10
"52",25.5,0.00207618858021809,0.000636879316763131,0.000115473334629881,0.00109583095742399,2020-07-10
"53",26,0.00210200919200363,0.000640530358741105,0.00011676406508612,0.00110938662854487,2020-07-11
"54",26.5,0.00212775823570119,0.000645884586709022,0.000118127308355547,0.00112294277202837,2020-07-11
"55",27,0.00215344705919356,0.000652682866520366,0.000119559310405523,0.00113650318479954,2020-07-12
"56",27.5,0.00217908650423069,0.000658489583982933,0.000121056718507621,0.00115007161136916,2020-07-12
"57",28,0.00220468692867116,0.000664673791800967,0.00012261654418188,0.00116365173642652,2020-07-13
"58",28.5,0.00223025822768007,0.000666810302302255,0.000124236129639572,0.00117724717865982,2020-07-13
"59",29,0.0022558098539313,0.000670301655670661,0.000125913117395272,0.00119086148566329,2020-07-14
"60",29.5,0.0022813508368594,0.000672209931838805,0.000127645422749967,0.00120449812980468,2020-07-14
"61",30,0.00230688980100461,0.00067725205293887,0.000129431208875067,0.00121816050493984,2020-07-15
"62",30.5,0.00233243498349239,0.000683577173248321,0.000131268864252563,0.00123185192387247,2020-07-15
"63",31,0.00235799425068693,0.000688651573450725,0.000133156982249666,0.0012455756164683,2020-07-16
"64",31.5,0.00238357511405644,0.00069593335249685,0.000135094342627088,0.00125933472834176,2020-07-16
"65",32,0.00240918474528608,0.000703266678702774,0.000137079894799064,0.00127313232004257,2020-07-17
"66",32.5,0.00243482999067291,0.000701205170336678,0.000139112742680314,0.00128697136667661,2020-07-17
"67",33,0.00246051738483571,0.000706133145471184,0.000141192130970678,0.0013008547579032,2020-07-18
"68",33.5,0.00248625316377074,0.000711243483497218,0.000143317432742192,0.00131478529825646,2020-07-18
"69",34,0.00251204327728348,0.000718560822212358,0.000144992132529186,0.00132851770490633,2020-07-19
"70",34.5,0.00253789340082471,0.000727363836209568,0.00014556338418877,0.00134172839250674,2020-07-19
"71",35,0.00256380894675818,0.000730826912443377,0.000146257828885337,0.00135503338782176,2020-07-20
"72",35.5,0.00258979507508564,0.000734507023663657,0.000147070810814546,0.00136843294295009,2020-07-20
"73",36,0.00261585670365428,0.000741348478707924,0.000147997996475579,0.00138192735006493,2020-07-21
"74",36.5,0.00264199851786988,0.00074881917683264,0.000149035356242017,0.00139551693705595,2020-07-21
"75",37,0.0026682249799385,0.000752946206698705,0.000150179147041629,0.00140920206349006,2020-07-22
"76",37.5,0.00269454033765801,0.000760286620763453,0.000151425896079258,0.00142298311686864,2020-07-22
"77",38,0.00272094863278019,0.000769479959335943,0.000152772385540914,0.00143686050916055,2020-07-23
"78",38.5,0.00274745370896286,0.000778870263961304,0.000154215638220856,0.00145083467359186,2020-07-23
"79",39,0.00277405921933088,0.000788456306913614,0.00015575290401693,0.00146490606167391,2020-07-24
"80",39.5,0.00280076863366383,0.000796961501547983,0.000157381647242665,0.00147907514045325,2020-07-24
"81",40,0.00282758524522745,0.000804474906346736,0.00015909953470773,0.00149334238996759,2020-07-25
"82",40.5,0.00285451217726512,0.000810542303304559,0.000160904424521198,0.00150770830089316,2020-07-25
"83",41,0.00288155238916497,0.000816767274116271,0.000162794355574816,0.00152217337236989,2020-07-26
"84",41.5,0.00290870868231742,0.000826922554051865,0.000164767537665988,0.0015367381099917,2020-07-26
"85",42,0.00293598370567736,0.000837250140681718,0.000166822342222627,0.00155140302394999,2020-07-27
"86",42.5,0.00296337996104454,0.000847724966006058,0.000168957293594233,0.00156616862731939,2020-07-27
"87",43,0.00299089980807506,0.000858348404046505,0.000171171060875725,0.00158103543447539,2020-07-28
"88",43.5,0.00301854546903631,0.00086912186552626,0.000173462450232517,0.00159600395963442,2020-07-28
"89",44,0.0030463190333172,0.000879304508568174,0.00017583039769722,0.00161107471550721,2020-07-29
"90",44.5,0.00307422246170494,0.000889782940344313,0.000178273962410115,0.00162624821205753,2020-07-29
"91",45,0.00310225759043909,0.000901011360920458,0.000180792320277206,0.00164152495535815,2020-07-30
"92",45.5,0.00313042613505326,0.000912428798805322,0.000183384758021201,0.00165690544653723,2020-07-30
"93",46,0.00315872969401419,0.000923426492895797,0.000186050667602279,0.00167239018080824,2020-07-31
"94",46.5,0.00318716975216768,0.000934802555065007,0.000188789540986838,0.00168797964657726,2020-07-31
"95",47,0.00321574768400027,0.00094698448572273,0.000191600965243746,0.00170367432462201,2020-08-01
"96",47.5,0.00324446475672539,0.000959335099436242,0.000194484617948827,0.00171947468733711,2020-08-01
"97",48,0.003273322133202,0.00097185622158134,0.000197440262879469,0.00173538119804073,2020-08-02
"98",48.5,0.00330232087469367,0.000984549718752929,0.000200467745982313,0.00175139431033799,2020-08-02
"99",49,0.00333146194347567,0.000997646661921706,0.000203566991598004,0.00176751446753684,2020-08-03
"100",49.5,0.00336074620529705,0.0010091106357044,0.000206737998927941,0.0017837421021125,2020-08-03
"101",50,0.00339017443170473,0.00101930974856774,0.00020998083872886,0.0018000776352168,2020-08-04
"102",50.5,0.00341974730223611,0.00102964851759357,0.000213295650221925,0.00181652147622902,2020-08-04
"103",51,0.00344946540648647,0.00104012667636068,0.000216682638203805,0.00183307402234514,2020-08-05
"104",51.5,0.0034793292460572,0.00105400456658186,0.000220142070347954,0.00184973565820258,2020-08-05
"105",52,0.00350933923639057,0.00106821827531591,0.000223674274685027,0.0018665067555378,2020-08-06
"106",52.5,0.00353949570849656,0.00108263124804086,0.000227279637252,0.00188338767287428,2020-08-06
"107",53,0.00356979891057711,0.00109724520232567,0.000230958599900221,0.00190037875523866,2020-08-07
"108",53.5,0.00360024900955266,0.00111040067877929,0.000234711658253169,0.00191748033390291,2020-08-07
"109",54,0.003630846092496,0.00112319289601656,0.00023853935980527,0.00193469272615064,2020-08-08
"110",54.5,0.003661590167978,0.00113683812607858,0.000242442302153618,0.00195201623506581,2020-08-08
"111",55,0.00369248116732958,0.00115160413758656,0.000246421131354962,0.00196945114934227,2020-08-09
"112",55.5,0.00372351894582433,0.00116730866482411,0.000250476540400746,0.00198699774311254,2020-08-09
"113",56,0.00375470328378581,0.00118309282580172,0.000254609267803435,0.00200465627579462,2020-08-10
"114",56.5,0.00378603388762337,0.00119910315753784,0.000258820096287777,0.00202242699195557,2020-08-10
"115",57,0.00381751039080036,0.0012146609463482,0.000263109851580991,0.00204031012119068,2020-08-11
"116",57.5,0.00384913235473833,0.00122815861399896,0.000267479401296284,0.0020583058780173,2020-08-11
"117",58,0.00388089926966059,0.0012442301119284,0.00027192965390438,0.00207641446178248,2020-08-12
"118",58.5,0.00391281055537861,0.00126120001264388,0.000276461557788107,0.00209463605658336,2020-08-12
"119",59,0.0039448655620243,0.00127797680554821,0.000281076100375348,0.00211297083119983,2020-08-13
"120",59.5,0.00397706357073143,0.00129355878791051,0.000285774307345971,0.0021314189390387,2020-08-13
"121",60,0.0040094037942689,0.00131241720396115,0.000290557241908592,0.00214998051808874,2020-08-14
"122",60.5,0.004041885377629,0.00133149983823968,0.000295426004143289,0.00216865569088615,2020-08-14
"123",61,0.00407450739857318,0.00135048889376372,0.00030038173040661,0.00218744456448989,2020-08-15
"124",61.5,0.00410726886813799,0.00136975108500998,0.000305425592795429,0.00220634723046671,2020-08-15
"125",62,0.00414016873110385,0.00138928915391669,0.000310558798666429,0.00222536376488514,2020-08-16
"126",62.5,0.00417320586642901,0.00140635223284422,0.000315782590208155,0.00224449422831858,2020-08-16
"127",63,0.00420637908765096,0.00142018590058694,0.000321098244062798,0.00226373866585688,2020-08-17
"128",63.5,0.00423968714325783,0.00143447178655276,0.000326507070994997,0.00228309710712641,2020-08-17
"129",64,0.00427312871703165,0.00145212875911218,0.000332010415605151,0.0023025695663184,2020-08-18
"130",64.5,0.00430670242836587,0.00147629553418659,0.000337609656084842,0.00232215604222536,2020-08-18
"131",65,0.00434040683255895,0.0015024799611555,0.000343306204012151,0.00234185651828555,2020-08-19
"132",65.5,0.00438970060029881,0.0015267012158395,0.000349101504184744,0.00236940105224178,2020-08-19
"133",66,0.00445245125492816,0.00155038044426288,0.000354997034488755,0.00240372414470846,2020-08-20
"134",66.5,0.00451598135742591,0.00157441403391595,0.000360994305801598,0.00243848783161376,2020-08-20
"135",67,0.00458029563082508,0.00159652580922354,0.000367094861926964,0.00247369524637602,2020-08-21
"136",67.5,0.00464539870614591,0.00161579236843833,0.000373300279560332,0.00250934949285312,2020-08-21
"137",68,0.0047112951164447,0.00163388725304938,0.00037961216828346,0.00254545364236408,2020-08-22
"138",68.5,0.00477798929075909,0.00164732357089895,0.000386032170586375,0.00258201073067273,2020-08-22
"139",69,0.00484548554794935,0.00166696538894548,0.000392561961915497,0.00261902375493242,2020-08-23
"140",69.5,0.0049137880904354,0.00168774464109244,0.000399203250746586,0.00265649567059099,2020-08-23
"141",70,0.00498290099782962,0.0017107107887641,0.000405957778681298,0.00269442938825546,2020-08-24
"142",70.5,0.00505282822046525,0.0017326372283735,0.000412827320566181,0.00273282777051572,2020-08-24
"143",71,0.00512979988732144,0.00175478273954028,0.000419813684633044,0.00277480678597724,2020-08-25
"144",71.5,0.00521127813245997,0.00177720386945562,0.000426918712659651,0.00281909842255981,2020-08-25
"145",72,0.00529378056185285,0.0017999034126657,0.000434144280149783,0.00286396242100132,2020-08-26
"146",72.5,0.00537731053472763,0.00182025129492351,0.000441492296531742,0.00290940141562968,2020-08-26
"147",73,0.00546187106243708,0.00183631366183983,0.000448964705374448,0.00295541788390576,2020-08-27
"148",73.5,0.00554746479421282,0.00185528654347517,0.000456563484620287,0.00300201413941656,2020-08-27
"149",74,0.00563409400272591,0.00187754798658364,0.000464290646833961,0.00304919232477993,2020-08-28
"150",74.5,0.00572176056946222,0.00189799068386779,0.00047214823946658,0.0030969544044644,2020-08-28
"151",75,0.00581046596992146,0.00191644433652919,0.000480138345134321,0.00314530215752789,2020-08-29
"152",75.5,0.00590021125864911,0.00194086882092059,0.000488263081910988,0.00319423717028005,2020-08-29
"153",76,0.0059909970541117,0.00196571209768187,0.000496524603633833,0.00324376082887277,2020-08-30
"154",76.5,0.00608282352342663,0.00199084380508861,0.00050492510022206,0.00329387431182435,2020-08-30
"155",77,0.00617569036695851,0.00201530116685595,0.000513466798007432,0.00334457858248297,2020-08-31
"156",77.5,0.00626959680279498,0.00203977773008502,0.00052215196007644,0.00339587438143571,2020-08-31
"157",78,0.00636454155111597,0.00206452640576458,0.000530982886623519,0.00344776221886974,2020-09-01
"158",78.5,0.00646052281847091,0.00208928227384789,0.000539961915314812,0.00350024236689286,2020-09-01
"159",79,0.00655753828197998,0.00211479124827296,0.000549091421662007,0.00355331485182099,2020-09-02
"160",79.5,0.00665558507347561,0.0021422533305342,0.000558373819405793,0.0036069794464407,2020-09-02
"161",80,0.00675465976360233,0.0021700311085074,0.000567811560908492,0.00366123566225541,2020-09-03
"162",80.5,0.00685475834589307,0.00219812704516938,0.000577407137555446,0.00371608274172426,2020-09-03
"163",81,0.00695587622084193,0.00223041779093469,0.000587163080164747,0.00377151965050334,2020-09-04
"164",81.5,0.00705800817999366,0.0022585701228349,0.000597081959404912,0.00382754506969929,2020-09-04
"165",82,0.0071611483900715,0.00228812763375157,0.000607166386220121,0.00388415738814581,2020-09-05
"166",82.5,0.00726529037716592,0.00231806539054322,0.00061741901226264,0.00394135469471428,2020-09-05
"167",83,0.00737042701100784,0.00234682139715488,0.000627842530332059,0.00399913477066995,2020-09-06
"168",83.5,0.00747655048935062,0.00237896736397617,0.000638439674820993,0.0040574950820858,2020-09-06
"169",84,0.00758365232248657,0.00240993648495182,0.000649213222166883,0.00411643277232672,2020-09-07
"170",84.5,0.00769172331792426,0.0024406311396066,0.000660165991309559,0.00417594465461691,2020-09-07
"171",85,0.0078007535652541,0.00246701851425961,0.00067130084415422,0.00423602720470416,2020-09-08
"172",85.5,0.00791073242123052,0.00250197198059787,0.000682620686039479,0.004296676553635,2020-09-08
"173",86,0.00802164849510006,0.00253287005090215,0.000694128466210162,0.00435788848065511,2020-09-09
"174",86.5,0.00813348963420552,0.00256201421615253,0.000705827178294494,0.00441965840625001,2020-09-09
"175",87,0.00824624290989726,0.00258997969219654,0.000717719860785361,0.00448198138534131,2020-09-10
"176",87.5,0.00835989460378346,0.00261808342859668,0.000729809597525299,0.00454485210065438,2020-09-10
"177",88,0.00847443019435217,0.0026490109793571,0.000742099518194878,0.00460826485627353,2020-09-11
"178",88.5,0.00858983434399859,0.00268303683778021,0.000754592798804145,0.00467221357140137,2020-09-11
"179",89,0.00870609088649172,0.00270969538532903,0.000767292662186773,0.00473669177433925,2020-09-12
"180",89.5,0.00882318281491542,0.00274083796454212,0.00078020237849659,0.004801692596706,2020-09-12
"181",90,0.00894109227011932,0.00277228604421335,0.000793325265706119,0.00486720876791272,2020-09-13
"182",90.5,0.00905980052971578,0.00280312749235201,0.000806664690106783,0.00493323260991128,2020-09-13
"183",91,0.00917928799765947,0.0028361054287007,0.000820224066810423,0.00499975603223495,2020-09-14
"184",91.5,0.0092995341944467,0.00287043886910099,0.000834006860251743,0.00506677052734922,2020-09-14
"185",92,0.00942051774797206,0.00291239166877526,0.000848016584691326,0.00513426716633169,2020-09-15
"186",92.5,0.00954221638508009,0.00295318941234341,0.000862256804718831,0.00520223659489946,2020-09-15
"187",93,0.00966460692385009,0.00298608345231837,0.000876731135755977,0.00527066902980304,2020-09-16
"188",93.5,0.00978766526665228,0.00301927872780883,0.000891443244558924,0.0053395542556056,2020-09-16
"189",94,0.00991136639401352,0.00305277640515481,0.000906396849719628,0.00540888162186657,2020-09-17
"190",94.5,0.010035684359331,0.00308988481571157,0.000921595722165769,0.0054786400407484,2020-09-17
"191",95,0.010160592284472,0.00313044915546082,0.000937043685658795,0.00554881798506542,2020-09-18
"192",95.5,0.0102860623562975,0.00316921533224157,0.000952744617289662,0.00561940348679356,2020-09-18
"193",96,0.0104120658241472,0.00321617296472912,0.000968702447971799,0.00569038413605948,2020-09-19
"194",96.5,0.010538572998324,0.00325176531239793,0.000984921162930838,0.00576174708062743,2020-09-19
"195",97,0.0106655532496134,0.00328244701032949,0.00100140480219061,0.00583347902590203,2020-09-20
"196",97.5,0.0107929750098743,0.0033133374970774,0.00101815746105495,0.00590556623546463,2020-09-20
"197",98,0.0109208057737367,0.00334560561304975,0.00103518329058472,0.00597799453216071,2020-09-21
"198",98.5,0.0110490121014406,0.00338865155690158,0.00105248649806963,0.00605074929975512,2020-09-21
"199",99,0.0111775596228491,0.00343348542318037,0.00107007134749422,0.00612381548517167,2020-09-22
"200",99.5,0.0113064130426681,0.00348492376872845,0.00108794215999745,0.00619717760133279,2020-09-22
"201",100,0.0114355361469036,0.0035370651134448,0.00110610331432544,0.00627081973061454,2020-09-23
"202",100.5,0.0115929522268242,0.00358991681299631,0.00112455924727654,0.00635875573705035,2020-09-23
"203",101,0.0117541978327899,0.00364463182073135,0.00114331445413834,0.0064487561434641,2020-09-24
"204",101.5,0.0119166879612187,0.00369769436928402,0.00116237348911584,0.00653953072516728,2020-09-24
"205",102,0.0120803996208779,0.00375085822658953,0.00118174096575019,0.00663107029331404,2020-09-25
"206",102.5,0.0122453086126314,0.00380468684586065,0.0012014215573273,0.00672336508497936,2020-09-25
"207",103,0.0124113895133641,0.00385981079866389,0.00122141999727558,0.00681640475531986,2020-09-26
"208",103.5,0.0125786156607356,0.00391407878267982,0.00124160200268706,0.00691010883171135,2020-09-26
"209",104,0.0127469591388184,0.00396445296808111,0.00126009194748154,0.00700352554314998,2020-09-27
"210",104.5,0.0129163907646741,0.00401534586826056,0.0012788343819369,0.00709761257330551,2020-09-27
"211",105,0.0130868800759227,0.00406675928283172,0.00129783204492517,0.00719235606042393,2020-09-28
"212",105.5,0.0132583953193596,0.00411869491150909,0.00131708768242402,0.00728774150089181,2020-09-28
"213",106,0.0134309034406761,0.00416489693344816,0.00133660404669215,0.00738375374368415,2020-09-29
"214",106.5,0.0136043700753381,0.00420574021933113,0.00135638389541176,0.00748037698537492,2020-09-29
"215",107,0.0137787595406778,0.00424691315903544,0.00137642999079761,0.00757759476573772,2020-09-30
"216",107.5,0.013954034829255,0.00429140263813779,0.0013967450986718,0.00767538996396342,2020-09-30
"217",108,0.01413015760354,0.00434081734645041,0.00141733198750366,0.00777374479552183,2020-10-01
"218",108.5,0.0143070881919742,0.00438672017197345,0.00143819342741382,0.007872640809694,2020-10-01
"219",109,0.0144847855864608,0.00443293850964023,0.00145933218914196,0.0079720588878014,2020-10-02
"220",109.5,0.0146632074413382,0.00447947002223895,0.00148075104297742,0.00807197924215783,2020-10-02
"221",110,0.0148423100738872,0.00452631222678142,0.00150245275765181,0.00817238141576949,2020-10-03
"222",110.5,0.0150220484664226,0.00458084891544712,0.00152444009919311,0.00827324428280784,2020-10-03
"223",111,0.0152023762700185,0.00464235354325008,0.00154671582974045,0.00837454604987945,2020-10-04
"224",111.5,0.0153832458099132,0.00470155679601027,0.00156928270631871,0.00847626425811596,2020-10-04
"225",112,0.0155646080926409,0.00474941108658308,0.00159214347957251,0.00857837578610671,2020-10-05
"226",112.5,0.0157464128149323,0.00479177497619782,0.00161530089245863,0.00868085685369544,2020-10-05
"227",113,0.0159286083744267,0.00483432108717261,0.00163875767889626,0.00878368302666148,2020-10-06
"228",113.5,0.0161111418822348,0.00488002020479737,0.00166251656237444,0.00888682922230463,2020-10-06
"229",114,0.0162939591773878,0.00493955434022505,0.00168658025451593,0.00899026971595188,2020-10-07
"230",114.5,0.0164770048432082,0.00500214086031574,0.00171095145359682,0.0090939781484025,2020-10-07
"231",115,0.0166602222256324,0.00506323268240822,0.00173563284302138,0.00919792753432686,2020-10-08
"232",115.5,0.016843553453514,0.00512182882172087,0.00176062708975132,0.00930209027163268,2020-10-08
"233",116,0.0170269394609326,0.00516610593639278,0.00178593684268896,0.00940643815181078,2020-10-09
"234",116.5,0.0172103200115282,0.00521345979211785,0.00181156473101364,0.00951094237127091,2020-10-09
"235",117,0.0173936337248812,0.00526533167700917,0.00183751336247085,0.00961557354367602,2020-10-10
"236",117.5,0.0175768181049506,0.00532572368955269,0.00186378532161345,0.00972030171328204,2020-10-10
"237",118,0.017759809570581,0.00538655619203546,0.00189038316799442,0.00982509636928769,2020-10-11
"238",118.5,0.0179425434880839,0.00544567486795718,0.00191730943431076,0.00992992646119731,2020-10-11
"239",119,0.0181249542058965,0.00550413984924227,0.00194456662449788,0.0100347604151972,2020-10-12
"240",119.5,0.0183069750913139,0.00556301644852224,0.0019721572117741,0.010139566151544,2020-10-12
"241",120,0.0184885385692881,0.00561171877458208,0.00200008363663484,0.0102443111029615,2020-10-13
"242",120.5,0.018669576163283,0.00565669213679095,0.0020283483047961,0.0103489622340395,2020-10-13
"243",121,0.0188500185381669,0.00571113724112079,0.00205695358508677,0.0104534860616268,2020-10-14
"244",121.5,0.0190297955451238,0.00576586146232523,0.00208590180728961,0.0105578486762067,2020-10-14
"245",122,0.0192088362685543,0.00583179989941749,0.00211519525993049,0.0106620157642424,2020-10-15
"246",122.5,0.0193870690749379,0.00590081807334705,0.00214483618801567,0.0107659526314768,2020-10-15
"247",123,0.0195644216636176,0.00594839033916197,0.00217482679071695,0.0108696242271673,2020-10-16
"248",123.5,0.0197408211194673,0.00599842666367852,0.00220516921900449,0.0109729951692359,2020-10-16
"249",124,0.0199161939673945,0.00606328360729005,0.0022358655732273,0.0110760297703109,2020-10-17
"250",124.5,0.0200904662286266,0.00612858142192351,0.00226691790064116,0.0111786920646339,2020-10-17
"251",125,0.0202635634787252,0.00620369708785559,0.00229832819288416,0.0112809458358047,2020-10-18
"252",125.5,0.020435410907264,0.00626632502128602,0.00233009838339982,0.0113827546453319,2020-10-18
"253",126,0.020605933379106,0.00634255172269552,0.00236223034480799,0.011484081861957,2020-10-19
"254",126.5,0.0207750554972065,0.00640674217617473,0.00239472588622353,0.011584890691715,2020-10-19
"255",127,0.0209427016668647,0.00647136348656862,0.00242758675052329,0.011685144208694,2020-10-20
"256",127.5,0.0211087961613435,0.00652399436613262,0.00246081461156147,0.0117848053864525,2020-10-20
"257",128,0.02127326318877,0.00657640897595596,0.00249441107133391,0.0118838371300519,2020-10-21
"258",128.5,0.0214360269602254,0.00662945048528282,0.0025122429151941,0.0119741349377098,2020-10-21
"259",129,0.0215970117589309,0.00669848894629045,0.00252725664949026,0.0120621342042106,2020-10-22
"260",129.5,0.0217561420104267,0.00675995131697854,0.0025423219540831,0.0121492319822549,2020-10-22
"261",130,0.0219133423536432,0.00682168837918552,0.00255743846129563,0.0122353904074694,2020-10-23
"262",130.5,0.0220685377127559,0.00688369475992105,0.0025726057943523,0.0123205717535541,2020-10-23
"263",131,0.0222216533697118,0.0069459649258988,0.00258782356731248,0.0124047384685121,2020-10-24
"264",131.5,0.0223726150373146,0.00700849318261713,0.00260309138500475,0.0124878532111597,2020-10-24
"265",132,0.02252134893275,0.00707527122986672,0.00261840884296217,0.0125698788878561,2020-10-25
"266",132.5,0.0226677818514297,0.00713447453166911,0.00263377552735837,0.012650778689394,2020-10-25
"267",133,0.0228118412410337,0.00719756711671478,0.00264919101494474,0.0127305161279892,2020-10-26
"268",133.5,0.0229534552756228,0.00726106753902822,0.00266465487298847,0.0128090550743056,2020-10-26
"269",134,0.0230925529296956,0.00732542473946384,0.00268016665921174,0.0128863597944537,2020-10-27
"270",134.5,0.0232290640520617,0.0074106985958662,0.00269572592173193,0.0129623949868968,2020-10-27
"271",135,0.0233629194393988,0.00749662253426319,0.0027113321990029,0.0130371258192009,2020-10-28
"272",135.5,0.023494050909366,0.00757248536215628,0.00272698501975745,0.0131105179645617,2020-10-28
"273",136,0.0236223913731383,0.00763790558563196,0.00274268390295091,0.0131825376380446,2020-10-29
"274",136.5,0.0237478749072336,0.00769504406611012,0.002758428357706,0.0132531516324698,2020-10-29
"275",137,0.0238704368244987,0.0077542454671154,0.00277421788325879,0.0133223273538788,2020-10-30
"276",137.5,0.0239900137441239,0.00781350379419297,0.00279005196890615,0.013390032856515,2020-10-30
"277",138,0.0241065436605564,0.00787281028445848,0.00280593009395425,0.0134562368772553,2020-10-31
"278",138.5,0.0242561230689811,0.0079321560308007,0.00282185172766867,0.0135389873983249,2020-10-31
"279",139,0.0244110061088635,0.00799153198315256,0.00283781632922565,0.0136244112190446,2020-11-01
"280",139.5,0.024562701050675,0.00806602325222599,0.00285382334766498,0.01370826219917,2020-11-01
"281",140,0.0247111198069672,0.00815346045023869,0.00286987222184415,0.0137904960144057,2020-11-02
"282",140.5,0.0248561758081753,0.00820952554362609,0.00288596238039415,0.0138710690942847,2020-11-02
"283",141,0.0249977841085569,0.00827428657707962,0.00290209324167671,0.0139499386751168,2020-11-03
"284",141.5,0.0251358614907355,0.00834596360073794,0.00291826421374312,0.0140270628522393,2020-11-03
"285",142,0.0252703265686257,0.00841020639916681,0.00293447469429469,0.0141024006314602,2020-11-04
"286",142.5,0.0254010998885221,0.00847181415825186,0.00295072407064483,0.0141759119795835,2020-11-04
"287",143,0.0256341540652119,0.00852827350190359,0.00296701171968278,0.0143005828924473,2020-11-05
"288",143.5,0.0258698654562153,0.00860789394612653,0.00298333700783913,0.0144266012320272,2020-11-05
"289",144,0.0261040688509847,0.0086598458990994,0.00299969929105305,0.0145518840710189,2020-11-06
"290",144.5,0.0263366594964643,0.00871874780608011,0.00301609791474127,0.0146763787056028,2020-11-06
"291",145,0.0265675321454882,0.00876358831535819,0.00303253221376902,0.0148000321796286,2020-11-07
"292",145.5,0.0267965811493161,0.0088042548445531,0.00304900151242269,0.0149227913308694,2020-11-07
"293",146,0.0270237005523251,0.00887134312991176,0.0030655051243845,0.0150446028383548,2020-11-08
"294",146.5,0.0272487841887255,0.00892629024375519,0.00308204235270909,0.0151654132707173,2020-11-08
"295",147,0.0274717257811646,0.00898718938474714,0.00309861248980207,0.0152851691354834,2020-11-09
"296",147.5,0.0276924190410728,0.00904944413044286,0.0031152148174006,0.0154038169292367,2020-11-09
"297",148,0.0279107577706,0.00913576049194604,0.00313184860655609,0.015521303188578,2020-11-10
"298",148.5,0.0281266359659856,0.00921098057520807,0.00314851311761886,0.0156375745418022,2020-11-10
"299",149,0.0283399479221968,0.00927178675803823,0.00316520760022509,0.0157525777612109,2020-11-11
"300",149.5,0.0285505883386655,0.00933230300426887,0.00318193129328583,0.0158662598159757,2020-11-11
"301",150,0.0287584524259485,0.00939251411569937,0.00319868342497829,0.0159785679254634,2020-11-12
"302",150.5,0.0289634360131311,0.00945240481489927,0.0032154632127393,0.0160894496129352,2020-11-12
"303",151,0.0291654356557884,0.0095284638944621,0.00323226986326113,0.0161988527595248,2020-11-13
"304",151.5,0.0293643487443174,0.00958456627699059,0.0032491025724896,0.0163067256584035,2020-11-13
"305",152,0.0295600736124446,0.00964773824064194,0.00326596052562451,0.0164130170690345,2020-11-14
"306",152.5,0.0297525096457173,0.00972419904829415,0.00328284289712253,0.0165176762714199,2020-11-14
"307",153,0.0299415573897784,0.00981803606058962,0.00329974885070246,0.0166206531202404,2020-11-15
"308",153.5,0.0301271186582255,0.00988549536526823,0.003316677539353,0.0167218980987892,2020-11-15
"309",154,0.0303090966398543,0.00993414241474327,0.00333362810534294,0.0168213623725986,2020-11-16
"310",154.5,0.0304873960050834,0.00998881718790235,0.00335059968023403,0.0169189978426587,2020-11-16
"311",155,0.0306619230113595,0.0100497978216103,0.00336759138489624,0.0170147571981278,2020-11-17
"312",155.5,0.0308325856073398,0.0101221576418568,0.00338460232952574,0.0171085939684328,2020-11-17
"313",156,0.030999293535654,0.0101902410569621,0.00340163161366552,0.0172004625746597,2020-11-18
"314",156.5,0.0311619584340433,0.010239778411783,0.00341867832622859,0.017290318380136,2020-11-18
"315",157,0.0313204939346835,0.0102954184364097,0.00343574154552396,0.0173781177401037,2020-11-19
"316",157.5,0.0314748157614946,0.0103604418313257,0.00345282033928535,0.01746381805039,2020-11-19
"317",158,0.0316248418252497,0.0104157601281763,0.00346991376470261,0.0175473777949762,2020-11-20
"318",158.5,0.0317704923162945,0.0104886763311479,0.00348702086845603,0.0176287565923753,2020-11-20
"319",159,0.0319116897946963,0.0105648912398249,0.00350414068675334,0.0177079152407248,2020-11-21
"320",159.5,0.0320483592776453,0.0106080882353103,0.00352127224536973,0.0177848157615075,2020-11-21
"321",160,0.0321804283239378,0.01068794393056,0.00353841455969065,0.0178594214418142,2020-11-22
"322",160.5,0.0323078271153745,0.0107719070304437,0.00355556663475753,0.017931696875066,2020-11-22
"323",161,0.0324304885349181,0.0108431978240694,0.0035727274653165,0.0180016080001173,2020-11-23
"324",161.5,0.0325483482414563,0.0108906257187951,0.00358989603587005,0.0180691221386632,2020-11-23
"325",162,0.0326613447410283,0.0109752636325934,0.00360707132073167,0.01813420803088,2020-11-24
"326",162.5,0.0327694194543789,0.0110137571439385,0.00362425228408352,0.0181968358692312,2020-11-24
"327",163,0.0328725167807121,0.0110289734840654,0.00364143788003722,0.0182569773303747,2020-11-25
"328",163.5,0.0329705841575275,0.0111022690674105,0.0036496181599995,0.0183101011587635,2020-11-25
"329",164,0.0330635721164282,0.0111753254221268,0.0036487829029636,0.0183561775096959,2020-11-26
"330",164.5,0.0331514343348019,0.0112481282862993,0.00364777501622388,0.0183996046755129,2020-11-26
"331",165,0.0332341276832848,0.0113206633314606,0.00364659473552409,0.0184403612094044,2020-11-27
"332",165.5,0.0333116122689267,0.0113703075892316,0.0036452423289208,0.0184784272989238,2020-11-27
"333",166,0.0333838514739895,0.0114181239179557,0.00364371809666225,0.0185137847853259,2020-11-28
"334",166.5,0.0334508119903169,0.0114653164801828,0.00364202237105439,0.0185464171806856,2020-11-28
"335",167,0.0335124638492271,0.011481776919431,0.00364015551631448,0.0185763096827708,2020-11-29
"336",167.5,0.0335687804468898,0.0114905458433357,0.00363811792841225,0.018603449187651,2020-11-29
"337",168,0.0336197385651575,0.011481510940388,0.00363591003489862,0.018627824300028,2020-11-30
"338",168.5,0.0336653183878348,0.0114986672830055,0.00363353229472237,0.0186494253412786,2020-11-30
"339",169,0.0337055035123772,0.0115847941070452,0.00363098519803461,0.0186682443552059,2020-12-01
"340",169.5,0.0337402809570225,0.0116887621610667,0.00362826926598141,0.018684275111502,2020-12-01
"341",170,0.0337696411633688,0.0117118921582999,0.00362538505048459,0.0186975131069267,2020-12-02
"342",170.5,0.0337935779944213,0.0116857045036275,0.00362233313401089,0.0187079555642161,2020-12-02
"343",171,0.0338120887281425,0.0117181235837233,0.00361911412932972,0.0187156014287361,2020-12-03
"344",171.5,0.033825174046549,0.0117696517413894,0.00361572867925949,0.0187204513629043,2020-12-03
"345",172,0.0338328380204074,0.0118239827523787,0.00361217745640297,0.0187225077384052,2020-12-04
"346",172.5,0.0338350880895914,0.0118873776097893,0.0036084611628716,0.0187217746262315,2020-12-04
"347",173,0.0338319350391726,0.0119806653863938,0.00360458052999905,0.0187182577845858,2020-12-05
"348",173.5,0.0338233929713232,0.0120263477649794,0.00360053631804433,0.0187119646446838,2020-12-05
"349",174,0.0338094792731209,0.0120357102853926,0.0035963293158844,0.0187029042945026,2020-12-06
"350",174.5,0.0337902145803509,0.012075980052506,0.0035919603406967,0.0186910874605238,2020-12-06
"351",175,0.0337656227374097,0.0121314751119756,0.00358743023763181,0.0186765264875208,2020-12-07
"352",175.5,0.0337357307534224,0.0121862826151421,0.00358273987947628,0.0186592353164493,2020-12-07
"353",176,0.0337005687546902,0.0122279693526227,0.00357789016630605,0.0186392294604981,2020-12-08
"354",176.5,0.0336601699335941,0.012245509674517,0.00357288202513055,0.0186165259793623,2020-12-08
"355",177,0.0336145704940844,0.0122699897333584,0.00356771640952787,0.0185911434518061,2020-12-09
"356",177.5,0.0335638095938918,0.012310736209274,0.00356239429927103,0.0185631019465814,2020-12-09
"357",178,0.0335079292836004,0.0123412574088213,0.00355691669994582,0.0185324229917731,2020-12-10
"358",178.5,0.0334469744427299,0.0123613650457153,0.0035512846425602,0.018499129542645,2020-12-10
"359",179,0.0333809927129734,0.0123936248187343,0.00354549918314587,0.0184632459480596,2020-12-11
"360",179.5,0.0333100344287464,0.0124021063372297,0.00353956140235181,0.0184247979155491,2020-12-11
"361",180,0.0332341525452015,0.0123860321537328,0.00353347240503052,0.018383812475116,2020-12-12
"362",180.5,0.0331534025638678,0.0123749253591608,0.00352723331981681,0.0183403179418423,2020-12-12
"363",181,0.0330678424560753,0.0124278888208755,0.00352084529869972,0.0182943438773875,2020-12-13
"364",181.5,0.0329775325843282,0.0124803016425896,0.00351430951658766,0.0182459210504579,2020-12-13
"365",182,0.0328825356217876,0.0125527170333982,0.00350762717086708,0.0181950813963273,2020-12-14
"366",182.5,0.0330680793371535,0.012561774700796,0.00350079948095495,0.0182844394090542,2020-12-14
"367",183,0.033356042354473,0.012579046362167,0.0034938276878454,0.0184249350211592,2020-12-15
"368",183.5,0.0336416865153657,0.0126134417323334,0.0034867130536506,0.0185641997845082,2020-12-15
"369",184,0.0339248816679889,0.0126390694837723,0.00347945686113642,0.0187021692645626,2020-12-16
"370",184.5,0.0342054975395724,0.0126653581597714,0.00347206041325289,0.0188387789764127,2020-12-16
"371",185,0.0344834038582541,0.0127143060425942,0.00346452503265996,0.0189739644454571,2020-12-17
"372",185.5,0.0347584704767034,0.0127358258352543,0.0034568520612487,0.0191076612689761,2020-12-17
"373",186,0.03503056749734,0.0127559704316735,0.00344904285965825,0.0192398051784991,2020-12-18
"374",186.5,0.0352995653989468,0.0127752026893186,0.00344109880678887,0.0193703321028679,2020-12-18
"375",187,0.0355653351644696,0.0127823054861534,0.0034330212993113,0.0194991782318905,2020-12-19
"376",187.5,0.0358277484097901,0.01277907415126,0.0034248117511727,0.0196262800804814,2020-12-19
"377",188,0.036086677513255,0.0127798424324101,0.00341647159309955,0.0197515745531773,2020-12-20
"378",188.5,0.0363419957457366,0.0127692016400283,0.00340800227209766,0.0198749990089171,2020-12-20
"379",189,0.0365935774009988,0.0127938288830344,0.00339940525094971,0.0199964913259742,2020-12-21
"380",189.5,0.0368412979261371,0.0127871262437493,0.00339068200771049,0.0201159899669238,2020-12-21
"381",190,0.0370850340518597,0.0127643020458008,0.00338183403520011,0.0202334340435299,2020-12-22
"382",190.5,0.0373246639223721,0.0127641375094321,0.00337286284049559,0.0203487633814338,2020-12-22
"383",191,0.0375600672246297,0.0127406079536702,0.00336376994442097,0.0204619185845253,2020-12-23
"384",191.5,0.0377911253167186,0.0127612050170214,0.00335455688103627,0.0205728410988774,2020-12-23
"385",192,0.038017721355126,0.0127974677699059,0.00334522519712555,0.0206814732761258,2020-12-24
"386",192.5,0.0382397404206629,0.0128541446726581,0.00333577645168433,0.0207877584361736,2020-12-24
"387",193,0.0384570696428007,0.0128657812446665,0.00332621221540676,0.0208916409291037,2020-12-25
"388",193.5,0.0386695983221878,0.0128498245472538,0.00331653407017255,0.0209930661961802,2020-12-25
"389",194,0.0388772180511125,0.0128407828123438,0.00330674360853417,0.0210919808298233,2020-12-26
"390",194.5,0.0390798228316837,0.0128354609750065,0.00329684243320447,0.0211883326324441,2020-12-26
"391",195,0.0392773091915037,0.0128183513695963,0.00328683215654494,0.0212820706740243,2020-12-27
"392",195.5,0.0394695762966114,0.0127785698234827,0.00327671440005494,0.0213731453483332,2020-12-27
"393",196,0.0396565260614821,0.0127413396743307,0.00326649079386209,0.0214615084276721,2020-12-28
"394",196.5,0.0398380632558728,0.0127078621503909,0.00325616297621411,0.0215471131160435,2020-12-28
"395",197,0.0400140956083109,0.0127004489023519,0.0032457325929723,0.0216299141006416,2020-12-29
"396",197.5,0.0401845339060293,0.0126711820234238,0.00323520129710691,0.0217098676015681,2020-12-29
"397",198,0.0403492920911612,0.0126285371469288,0.0032245707481947,0.021786931419678,2020-12-30
"398",198.5,0.0405082873530136,0.0126145401530754,0.00321384261191881,0.0218610649824662,2020-12-30
"399",199,0.0406614402162483,0.0126164907073562,0.00320301855957119,0.0219322293879097,2020-12-31
"400",199.5,0.0408086746248094,0.0126346097730241,0.00319210026755793,0.0220003874461837,2020-12-31
"401",200,0.0409499180214451,0.0126602502984224,0.00318108941690752,0.0220655037191763,2021-01-01
"402",200.5,0.0410851014226807,0.0126804563579015,0.00316998769278234,0.0221275445577315,2021-01-01
"403",201,0.0412141594891134,0.0126995381053507,0.00315879678399365,0.0221864781365535,2021-01-02
"404",201.5,0.0413370305909061,0.0127140175401201,0.00314751838252013,0.0222422744867131,2021-01-02
"405",202,0.0414536568683739,0.0126909092506986,0.0031361541830303,0.0222949055257021,2021-01-03
"406",202.5,0.0415639842875619,0.0126244446275679,0.00312470588240897,0.0223443450849854,2021-01-03
"407",203,0.0416679626907315,0.0125877530231939,0.0031131751792878,0.0223905689350096,2021-01-04
"408",203.5,0.0417655458416788,0.0125267583082237,0.00310156377358035,0.0224335548076296,2021-01-04
"409",204,0.0418566914658235,0.012490168432656,0.00308987336602164,0.0224732824159226,2021-01-05
"410",204.5,0.0419413612850184,0.0124577722172606,0.0030781056577124,0.0225097334713654,2021-01-05
"411",205,0.0420195210470409,0.0124570421089319,0.00306626234966828,0.0225428916983546,2021-01-06
"412",205.5,0.0420911405497409,0.0124598556707729,0.00305434514237406,0.0225727428460575,2021-01-06
"413",206,0.0421561936598318,0.0124306909280154,0.00304235573534306,0.0225992746975874,2021-01-07
"414",206.5,0.0422146583263215,0.0123990647903961,0.00303029582668191,0.0226224770765017,2021-01-07
"415",207,0.0422665165885954,0.0123875108654903,0.00301816711266081,0.0226423418506281,2021-01-08
"416",207.5,0.0423117545791721,0.0124061619409123,0.00300597128728942,0.0226588629332307,2021-01-08
"417",208,0.0423503625211657,0.012397919197353,0.0029937100418985,0.0226720362815321,2021-01-09
"418",208.5,0.0423823347205002,0.0123608644606638,0.0029813850647274,0.0226818598926138,2021-01-09
"419",209,0.0424076695529312,0.0122824857133535,0.00296899804051762,0.0226883337967244,2021-01-10
"420",209.5,0.0424263694459422,0.0122240231693279,0.00295655065011246,0.0226914600480273,2021-01-10
"421",210,0.0424384408555927,0.0121652852073144,0.00294404457006284,0.0226912427128278,2021-01-11
"422",210.5,0.0424438942384059,0.0121056733282565,0.00293148147223954,0.0226876878553227,2021-01-11
"423",211,0.0424427440183925,0.0120506857770531,0.00291886302345177,0.0226808035209221,2021-01-12
"424",211.5,0.0424350085493175,0.0119855128654219,0.00290619088507238,0.0226705997171949,2021-01-12
"425",212,0.0424207100723252,0.0119280756321047,0.00289346671266953,0.0226570883924974,2021-01-13
"426",212.5,0.0423998746690464,0.0118895572569325,0.00288069215564517,0.0226402834123458,2021-01-13
"427",213,0.0423725322103189,0.0118352493415978,0.00286786885688025,0.0226202005335996,2021-01-14
"428",213.5,0.0423387163006616,0.0117845349006348,0.00285499845238666,0.0225968573765241,2021-01-14
"429",214,0.0422984642186472,0.0117398219475766,0.00284208257096628,0.0225702733948067,2021-01-15
"430",214.5,0.0422518168533263,0.0116579806501786,0.00282912283387676,0.0225404698436015,2021-01-15
"431",215,0.0421988186368623,0.0116076336294155,0.00281612085450449,0.0225074697456834,2021-01-16
"432",215.5,0.0421395174735396,0.0115728263740584,0.00280307823804452,0.0224712978557921,2021-01-16
"433",216,0.0420739646653148,0.011541780465609,0.00278999658118765,0.0224319806232512,2021-01-17
"434",216.5,0.0420022148340829,0.0115333858546347,0.00277687747181468,0.0223895461529488,2021-01-17
"435",217,0.0419243258408367,0.0115164614376743,0.00276372248869774,0.0223440241647672,2021-01-18
"436",217.5,0.0418403587018975,0.0114627458008579,0.00275053320120899,0.0222954459515533,2021-01-18
"437",218,0.0417503775024009,0.0113828480378957,0.00273731116903639,0.0222438443357187,2021-01-19
"438",218.5,0.0416544493072222,0.0113532589777061,0.00272405794190688,0.0221892536245645,2021-01-19
"439",219,0.0415526440695271,0.0112975214653023,0.00271077505931673,0.0221317095644219,2021-01-20
"440",219.5,0.0414450345371364,0.0112545387528735,0.00269746405026918,0.0220712492937028,2021-01-20
"441",220,0.0413316961568906,0.0112209510792957,0.00268412643301946,0.022007911294955,2021-01-21
"442",220.5,0.0412127069772052,0.0111922686518814,0.00267076371482698,0.0219417353460161,2021-01-21
"443",221,0.0410881475490017,0.0111629720009387,0.00265737739171489,0.0218727624703583,2021-01-22
"444",221.5,0.0409581008252029,0.0111330680032972,0.00264396894823691,0.0218010348867199,2021-01-22
"445",222,0.0408226520589774,0.0111025636549763,0.0026305398572514,0.0217265959581144,2021-01-23
"446",222.5,0.0406818887009173,0.0110425417213952,0.00261709157970272,0.02164949014031,2021-01-23
"447",223,0.0405359002953303,0.0109748662196211,0.00260362556440983,0.0215697629298701,2021-01-24
"448",223.5,0.0405355687562732,0.0109552928672345,0.00259014324786208,0.0215628560020677,2021-01-24
"449",224,0.0406306302641724,0.0109541632767984,0.0025766460540222,0.0216036381590973,2021-01-25
"450",224.5,0.0407216027653391,0.010952145267425,0.00256313539413644,0.0216423690797378,2021-01-25
"451",225,0.0408084585787644,0.0109149201137435,0.00254961266655189,0.0216790356226581,2021-01-26
"452",225.5,0.0408911717088823,0.0108586497094517,0.00253607925654079,0.0217136254827115,2021-01-26
"453",226,0.0409697178609729,0.0107900930718368,0.00252253653613196,0.0217461271985524,2021-01-27
"454",226.5,0.0410440744550584,0.010724702280086,0.00250898586394924,0.0217765301595038,2021-01-27
"455",227,0.0411142206382832,0.0107005195467506,0.00249542858505679,0.02180482461167,2021-01-28
"456",227.5,0.0411801372957665,0.0106544242826612,0.00248186603081146,0.021831001663289,2021-01-28
"457",228,0.0412418070599238,0.0105810932749268,0.00246829951872182,0.0218550532893228,2021-01-29
"458",228.5,0.0412992143182494,0.0105313733813517,0.00245473035231413,0.0218769723352818,2021-01-29
"459",229,0.0413523452195603,0.0104493508160284,0.002441159821005,0.0218967525202827,2021-01-30
"460",229.5,0.041401187678701,0.0103662539047424,0.00242758919998071,0.0219143884393408,2021-01-30
"461",230,0.0414457313797103,0.0103136325880326,0.00241401975008315,0.0219298755648967,2021-01-31
"462",230.5,0.0414859677774575,0.0102655256350564,0.00240045271770233,0.0219432102475799,2021-01-31
"463",231,0.0415218900977519,0.0101932086931304,0.00238688933467531,0.0219543897162136,2021-02-01
"464",231.5,0.0415534933359366,0.0101276446586997,0.00237333081819162,0.0219634120770641,2021-02-01
"465",232,0.0415807742539776,0.0100672791234339,0.0023597783707049,0.0219702763123412,2021-02-02
"466",232.5,0.0416037313760605,0.0100058591603975,0.00234623317985089,0.0219749822779557,2021-02-02
"467",233,0.0416223649827116,0.00995438612253869,0.00233269641837155,0.0219775307005416,2021-02-03
"468",233.5,0.0416366771034597,0.00990456330444905,0.00231916924404532,0.0219779231737525,2021-02-03
"469",234,0.0416466715080585,0.00985439975384608,0.00230565279962329,0.0219761621538409,2021-02-04
"470",234.5,0.0416523536962904,0.00980390645251455,0.00229214821277149,0.0219722509545309,2021-02-04
"471",235,0.0416537308863756,0.00975309435619271,0.00227865659601881,0.0219661937411972,2021-02-05
"472",235.5,0.0416508120020104,0.0096915359973581,0.00226517904671088,0.0219579955243606,2021-02-05
"473",236,0.0416436076580619,0.00962727732591553,0.00225171664696951,0.0219476621525157,2021-02-06
"474",236.5,0.0416321301449468,0.0095714579700373,0.00223827046365772,0.0219352003043023,2021-02-06
"475",237,0.0416163934117249,0.0094993274473321,0.00222484154835037,0.0219206174800376,2021-02-07
"476",237.5,0.041596413047937,0.00942305262958903,0.00221143093731004,0.0219039219926235,2021-02-07
"477",238,0.0415722062642216,0.00937882607887613,0.00219803965146838,0.021885122957845,2021-02-08
"478",238.5,0.0415437918717434,0.00931869335252901,0.00218466869641257,0.021864230284078,2021-02-08
"479",239,0.0415111902604685,0.00924440331849842,0.00217131906237698,0.0218412546614227,2021-02-09
"480",239.5,0.041474423376324,0.00918918643362297,0.00215799172423982,0.0218162075502819,2021-02-09
"481",240,0.0414335146972776,0.00915679895983134,0.00214468764152475,0.0217891011694012,2021-02-10
"482",240.5,0.0413884892083776,0.0091016848642622,0.00213140775840731,0.0217599484833925,2021-02-10
"483",241,0.0413393733757916,0.00903540284932419,0.00210819261916275,0.0217237829974772,2021-02-11
"484",241.5,0.0412861951198839,0.00896914008644973,0.0020738814294022,0.0216800382746431,2021-02-11
"485",242,0.0412289837873735,0.00891058451290292,0.00204009125615476,0.0216345375217641,2021-02-12
"486",242.5,0.0411677701226137,0.0088441402204655,0.00200681540866791,0.0215872927656408,2021-02-12
"487",243,0.0411025862380359,0.00877574780172763,0.001974047241465,0.0215383167397505,2021-02-13
"488",243.5,0.0410334655838,0.00870735514073897,0.0019417801555432,0.0214876228696716,2021-02-13
"489",244,0.0409604429166943,0.00863054973459783,0.00191000759950187,0.0214352252580981,2021-02-14
"490",244.5,0.0408835542683297,0.00855556313163786,0.00187872307060362,0.0213811386694666,2021-02-14
"491",245,0.0408028369126699,0.00847439848136693,0.00184792011576982,0.0213253785142198,2021-02-15
"492",245.5,0.0407183293329436,0.00838351009647868,0.00181759233251286,0.0212679608327282,2021-02-15
"493",246,0.0406300711879812,0.00831092129802952,0.00178773336980703,0.0212089022788941,2021-02-16
"494",246.5,0.0405381032780207,0.00824125535159104,0.00175833692889982,0.0211482201034602,2021-02-16
"495",247,0.0404424675100261,0.00817536642118526,0.0017293967640658,0.0210859321370459,2021-02-17
"496",247.5,0.0403432068625639,0.00810954151801456,0.00170090668330472,0.0210220567729343,2021-02-17
"497",248,0.0402403653502788,0.00804379109943396,0.00167286054898583,0.0209566129496323,2021-02-18
"498",248.5,0.0401339879880142,0.00799495979934009,0.00164525227844001,0.0208896201332271,2021-02-18
"499",249,0.040024120754619,0.00795284524862226,0.0016180758445017,0.0208210982995603,2021-02-19
"500",249.5,0.0399108105564843,0.0078994560562711,0.00159132527600216,0.0207510679162432,2021-02-19
"501",250,0.0397941051908522,0.00785840495920723,0.00156499465821577,0.020679549924534,2021-02-20
"502",250.5,0.0396740533089374,0.00781723025586309,0.00153907813326109,0.0206065657210992,2021-02-20
"503",251,0.0395507043789036,0.00775145184560824,0.00151356990045825,0.0205321371396809,2021-02-21
"504",251.5,0.0394241086487353,0.00769452201423987,0.00148846421664409,0.0204562864326897,2021-02-21
"505",252,0.0392943171090436,0.00763281375397974,0.00146375539644687,0.0203790362527452,2021-02-22
"506",252.5,0.0391613814558466,0.007555363814653,0.00143943781252173,0.0203004096341842,2021-02-22
"507",253,0.0390253540533617,0.00751447065070444,0.00141550589574861,0.0202204299745551,2021-02-23
"508",253.5,0.0388862878968468,0.00747052377299186,0.00139195413539388,0.0201391210161203,2021-02-23
"509",254,0.0387442365755292,0.00741356795960811,0.00136877707923712,0.0200565068273832,2021-02-24
"510",254.5,0.0385992542356548,0.00736890848471265,0.00134596933366448,0.0199726117846596,2021-02-24
"511",255,0.0384513955436948,0.00731307170117201,0.00132352556372978,0.0198874605537123,2021-02-25
"512",255.5,0.0383007156497431,0.00725531820346668,0.00130144049318475,0.0198010780714639,2021-02-25
"513",256,0.0381472701511362,0.00719298780730912,0.00127970890447965,0.0197134895278079,2021-02-26
"514",256.5,0.0379911150563289,0.00712760643960967,0.00125832563873542,0.0196247203475322,2021-02-26
"515",257,0.0378323067490556,0.00706744142262093,0.0012372855956886,0.0195347961723721,2021-02-27
"516",257.5,0.0376709019528071,0.00700488095081556,0.00121658373361014,0.0194437428432086,2021-02-27
"517",258,0.0375069576956521,0.00694247509247142,0.00119621506919922,0.0193515863824257,2021-02-28
"518",258.5,0.0373405312754292,0.0068802331722253,0.00117617467745324,0.0192583529764412,2021-02-28
"519",259,0.0371716802253387,0.00681816429495052,0.00115645769151489,0.0191640689584268,2021-03-01
"520",259.5,0.0370004622799561,0.00675627734623726,0.00113705930249741,0.0190687607912267,2021-03-01
"521",260,0.0368269353416946,0.00670318736021364,0.00111797475928915,0.0189724550504919,2021-03-02
"522",260.5,0.0366511574477371,0.00665657573188874,0.00109919936833814,0.0188751784080376,2021-03-02
"523",261,0.0364731867374614,0.0065928322656278,0.00108072849341783,0.0187769576154396,2021-03-03
"524",261.5,0.0362930814203784,0.00653345205934672,0.00106255755537479,0.0186778194878766,2021-03-03
"525",262,0.0361108997446025,0.00647267822605363,0.00104468203185939,0.0185777908882309,2021-03-04
"526",262.5,0.0359266999658748,0.00641223973565923,0.00102709745704004,0.0184768987114574,2021-03-04
"527",263,0.0357405403171532,0.0063531758967979,0.00100979942130223,0.0183751698692277,2021-03-05
"528",263.5,0.0355524789787887,0.00630261536623377,0.00099278357093274,0.0182726312748607,2021-03-05
"529",264,0.035362574049301,0.00626174619063016,0.000976045607790125,0.0181693098285455,2021-03-06
"530",264.5,0.0351708835167679,0.00621540451604577,0.000959581288962075,0.018065232402865,2021-03-06
"531",265,0.0349774652308423,0.00616470157797307,0.000943386426410404,0.0179604258286264,2021-03-07
"532",265.5,0.0347823768754075,0.00611414957553081,0.000927456886604391,0.0178549168810059,2021-03-07
"533",266,0.0345856759418812,0.00606375385768985,0.000911788590143142,0.0177487322660122,2021-03-08
"534",266.5,0.0343874197031801,0.00601274620637921,0.000896377511367647,0.0176418986072739,2021-03-08
"535",267,0.0341876651883511,0.00595822309313325,0.000881219677963148,0.0175344424331571,2021-03-09
"536",267.5,0.0339864691578787,0.00590515137656509,0.000866311170552457,0.0174263901642156,2021-03-09
"537",268,0.0337838880796739,0.0058594942523059,0.00085164812228081,0.0173177681009773,2021-03-10
"538",268.5,0.0335799781057517,0.00580820118722164,0.000837226718392821,0.0172086024120723,2021-03-10
"539",269,0.0333747950496009,0.00574469352701553,0.000823043195802115,0.0170989191227015,2021-03-11
"540",269.5,0.03316839436425,0.0056890347366146,0.000809093842654154,0.0169887441034521,2021-03-11
"541",270,0.0329608311210331,0.00563591805037161,0.000795374997882775,0.0168781030594579,2021-03-12
"542",270.5,0.0327521599890565,0.00558305282041713,0.000781883050760957,0.0167670215199087,2021-03-12
"543",271,0.0325424352153688,0.00553044351241197,0.00076861444044626,0.0166555248279075,2021-03-13
"544",271.5,0.0323317106058329,0.0054780944429431,0.000755565655521443,0.0165436381306772,2021-03-13
"545",272,0.0321200395067014,0.00542600978107118,0.000742733233530661,0.0164313863701161,2021-03-14
"546",272.5,0.0319074747868931,0.0053897983596252,0.000730113760511704,0.0163187942737024,2021-03-14
"547",273,0.0316940688209685,0.00534528427177917,0.000717703870524669,0.0162058863457466,2021-03-15
"548",273.5,0.0314798734728021,0.00528644438906325,0.000705500245177472,0.0160926868589898,2021-03-15
"549",274,0.0312649400799488,0.00522807262455335,0.00069349961314857,0.0159792198465487,2021-03-16
"550",274.5,0.0310493194386981,0.00517579323306289,0.000681698749707272,0.0158655090942027,2021-03-16
"551",275,0.0308330617898143,0.00512416310522732,0.00067009447623198,0.0157515781330232,2021-03-17
"552",275.5,0.0306162168049552,0.00507773724328495,0.0006586836597267,0.0156374502323409,2021-03-17
"553",276,0.0303988335737641,0.00503612484470349,0.000647463212336146,0.0155231483930501,2021-03-18
"554",276.5,0.0301809605916295,0.00499003211987285,0.00063643009085975,0.0154086953412446,2021-03-18
"555",277,0.0299626457481044,0.00493472871396572,0.000625581296264873,0.0152941135221847,2021-03-19
"556",277.5,0.0297439363159779,0.00487501040314374,0.000614913873199499,0.0151794250945887,2021-03-19
"557",278,0.0295248789409918,0.0048224988477572,0.000604424909504692,0.0150646519252483,2021-03-20
"558",278.5,0.0293055196321936,0.00478388913753594,0.000594111535727062,0.0149498155839603,2021-03-20
"559",279,0.0290859037529164,0.00472487751002262,0.000583970924631518,0.014834937338774,2021-03-21
"560",279.5,0.0288660760123775,0.0046621629329604,0.000574000290714505,0.014720038151546,2021-03-21
"561",280,0.0286460804578853,0.0046065801836201,0.000564196889717993,0.0146051386738017,2021-03-22
"562",280.5,0.0284259604676457,0.00455551271489725,0.000554558018144409,0.014490259242895,2021-03-22
"563",281,0.0282057587441555,0.00450487182230279,0.000545081012772731,0.0143754198784641,2021-03-23
"564",281.5,0.0279855173081757,0.00445504302272757,0.000535763250175936,0.0142606402791758,2021-03-23
"565",282,0.0277652774932703,0.00441324602724411,0.000526602146239991,0.0141459398197551,2021-03-24
"566",282.5,0.0275450799409022,0.00437416097580841,0.000517595155684572,0.0140313375482934,2021-03-24
"567",283,0.0273249645960737,0.004319896548972,0.000508739771585667,0.0139168521838297,2021-03-25
"568",283.5,0.0271049707035,0.00426359166569105,0.000500033524900246,0.0138025021142001,2021-03-25
"569",284,0.026885136804305,0.00421587701908126,0.000491473983993121,0.0136883053941491,2021-03-26
"570",284.5,0.0266655007332265,0.00416785290002964,0.000483058754166177,0.0135742797436963,2021-03-26
"571",285,0.0264460996163192,0.00412844174931234,0.000474785477190081,0.0134604425467546,2021-03-27
"572",285.5,0.0262269698691441,0.00409187317398594,0.000466651830838615,0.0133468108499913,2021-03-27
"573",286,0.0260081471954308,0.00405480512006065,0.00045865552842575,0.0132334013619283,2021-03-28
"574",286.5,0.0257896665862018,0.00401389828464375,0.000450794318345585,0.0131202304522737,2021-03-28
"575",287,0.0255715623193452,0.00397328346775861,0.000443065983615249,0.0130073141514802,2021-03-29
"576",287.5,0.0253538679596244,0.00393297892260158,0.000435468341420872,0.0128946681505226,2021-03-29
"577",288,0.025136616359112,0.00389893504492253,0.000427999242666732,0.0127823078008893,2021-03-30
"578",288.5,0.0249198396580352,0.00386892393199895,0.00042065657152765,0.0126702481147814,2021-03-30
"579",289,0.024703569286021,0.00383905874826038,0.000413438245004736,0.0125585037655128,2021-03-31
"580",289.5,0.024487835963728,0.00380740152250328,0.000406342212484552,0.0124470890881063,2021-03-31
"581",290,0.0242726697048528,0.00377152698776967,0.000399366455301773,0.0123360180800773,2021-04-01
"582",290.5,0.024058099818499,0.00373326057767729,0.00039250898630541,0.0122253044024022,2021-04-01
"583",291,0.0238441549118952,0.00369529080490657,0.000385767849428664,0.0121149613806619,2021-04-02
"584",291.5,0.0236308628934524,0.00365761746059686,0.000379141119262463,0.0120050020063574,2021-04-02
