"","time","top","med","bottom","pseudo_med","date"
"1",0,0.981972630448155,0.97638608870039,0.967048350850276,0.974510490649216,2020-06-10
"2",0.5,0.981930391197803,0.976358820265233,0.967031755050878,0.974481073124341,2020-06-10
"3",1,0.981887889809117,0.976315695955032,0.96701501799206,0.974451453900589,2020-06-11
"4",1.5,0.981845124858088,0.976278623931006,0.96699813850749,0.974421631682789,2020-06-11
"5",2,0.981802094915643,0.976247913114998,0.966981115421834,0.974391605168738,2020-06-12
"6",2.5,0.981758798547662,0.97621695832216,0.96696394755069,0.974361373049176,2020-06-12
"7",3,0.981715234315005,0.976185757760202,0.966946633700536,0.974330934007771,2020-06-13
"8",3.5,0.981671400773526,0.976154309626116,0.966929172668668,0.974300286721097,2020-06-13
"9",4,0.981627296474096,0.976122612106156,0.966911563243139,0.974269429858618,2020-06-14
"10",4.5,0.981582919962627,0.976092316984841,0.966893804202704,0.974238362082666,2020-06-14
"11",5,0.981538269780092,0.976062782028492,0.966875894316757,0.974207082048425,2020-06-15
"12",5.5,0.981493344462551,0.976032089666548,0.966857832345273,0.974175588403912,2020-06-15
"13",6,0.981448142541169,0.976002980928746,0.966839617038746,0.974143879789958,2020-06-16
"14",6.5,0.981402662542251,0.975972710992667,0.966821247138133,0.974111954840192,2020-06-16
"15",7,0.981356902987256,0.975942192249365,0.96680272137479,0.974079812181023,2020-06-17
"16",7.5,0.981310862392833,0.975912090642862,0.966784038470414,0.974047450431623,2020-06-17
"17",8,0.981264539270839,0.975880400614733,0.966765197136981,0.97401486820391,2020-06-18
"18",8.5,0.981217932128375,0.975846638682497,0.966746196076687,0.973982064102531,2020-06-18
"19",9,0.981171039467808,0.975812040527256,0.966727033981887,0.973949036724847,2020-06-19
"20",9.5,0.981123859786805,0.975774089428316,0.966707709535031,0.973915784660918,2020-06-19
"21",10,0.981076391578358,0.975738813222061,0.96668822140861,0.973882306493484,2020-06-20
"22",10.5,0.981028633330819,0.975700864574199,0.966668568265088,0.973848600797953,2020-06-20
"23",11,0.98098058352793,0.975655410702466,0.966648748756842,0.973814666142386,2020-06-21
"24",11.5,0.980932240648854,0.975610303883647,0.966628761526106,0.97378050108748,2020-06-21
"25",12,0.980883603168211,0.975568542204115,0.966608605204903,0.973746104186557,2020-06-22
"26",12.5,0.980834669556109,0.97551807135374,0.966588278414986,0.973711473985548,2020-06-22
"27",13,0.98078543827818,0.975477838228379,0.966567779767779,0.97367660902298,2020-06-23
"28",13.5,0.980735907795617,0.97544329797182,0.966547107864312,0.973641507829964,2020-06-23
"29",14,0.980686076565207,0.97540051523258,0.966526261295158,0.973606168930182,2020-06-24
"30",14.5,0.980635943039372,0.975356318019711,0.966505238640376,0.973570590839874,2020-06-24
"31",15,0.980585505666205,0.975311887785064,0.966484038469445,0.973534772067825,2020-06-25
"32",15.5,0.980534762889509,0.975263452801753,0.966462659341205,0.973498711115357,2020-06-25
"33",16,0.980483713148839,0.975220275838669,0.966441099803792,0.973462406476315,2020-06-26
"34",16.5,0.980432354879539,0.975180783181773,0.966419358394578,0.973425856637058,2020-06-26
"35",17,0.980380686512788,0.975137333625575,0.966397433640108,0.973389060076448,2020-06-27
"36",17.5,0.980328706475639,0.975093592022744,0.966375324056038,0.973352015265839,2020-06-27
"37",18,0.980276413191065,0.975049556629369,0.966353028147074,0.97331472066907,2020-06-28
"38",18.5,0.980223805078002,0.97500522569464,0.966330544406908,0.973277174742455,2020-06-28
"39",19,0.980170880551393,0.974958371227009,0.966307871318156,0.973239375934774,2020-06-29
"40",19.5,0.98011763802224,0.974905300055123,0.966285007352297,0.973201322687268,2020-06-29
"41",20,0.980064075897643,0.974841030039134,0.96626195096961,0.973163013433626,2020-06-30
"42",20.5,0.980010192580855,0.974777231657397,0.966238700619113,0.973124446599984,2020-06-30
"43",21,0.979955986471327,0.97472215519954,0.966215254738498,0.973085620604913,2020-07-01
"44",21.5,0.979901455964761,0.974670891114891,0.966191611754073,0.973046533859417,2020-07-01
"45",22,0.979846599453159,0.974628167044486,0.966167770080695,0.973007184766927,2020-07-02
"46",22.5,0.979791415324875,0.974574190013347,0.966143728121712,0.972967571723293,2020-07-02
"47",23,0.979735901964671,0.974527295850707,0.966119484268899,0.972927693116785,2020-07-03
"48",23.5,0.979680057753767,0.974485892333195,0.966095036902398,0.972887547328083,2020-07-03
"49",24,0.9796238810699,0.974450468902855,0.966070384390653,0.972847132730276,2020-07-04
"50",24.5,0.979567370287375,0.974403342139666,0.966045525090351,0.972806447688863,2020-07-04
"51",25,0.97951052377713,0.974337849213149,0.966020457346359,0.972765490561744,2020-07-05
"52",25.5,0.979453339906786,0.97429666142184,0.965995179491663,0.972724259699224,2020-07-05
"53",26,0.97939581704071,0.974255166013672,0.965969689847306,0.972682753444008,2020-07-06
"54",26.5,0.979337953540078,0.974213360837624,0.965943986722326,0.972640970131202,2020-07-06
"55",27,0.979279747762931,0.974171243730362,0.965918068413699,0.972598908088315,2020-07-07
"56",27.5,0.979221198064241,0.974128812516221,0.965891933206271,0.972556565635256,2020-07-07
"57",28,0.979162302795974,0.974083159248261,0.965865579372703,0.972513941084339,2020-07-08
"58",28.5,0.979103060307153,0.974038436293916,0.965839005173408,0.97247103274028,2020-07-08
"59",29,0.979043468943925,0.973989965781713,0.965812208856489,0.972427838900207,2020-07-09
"60",29.5,0.97898352704963,0.973946815944816,0.965785188657683,0.972384357853656,2020-07-09
"61",30,0.978923232964865,0.973904655602609,0.965757942800295,0.97234058788258,2020-07-10
"62",30.5,0.978862585027554,0.973857630390782,0.965730469495143,0.972296527261348,2020-07-10
"63",31,0.978801581573022,0.973811604213575,0.965702766940496,0.972252174256759,2020-07-11
"64",31.5,0.978740220934061,0.973771434178041,0.965674833322016,0.972207527128038,2020-07-11
"65",32,0.978678501441006,0.973734207031117,0.965646666812696,0.972162584126851,2020-07-12
"66",32.5,0.978616421421808,0.973694091000832,0.965611037932354,0.972113729677081,2020-07-12
"67",33,0.978553979202108,0.973659899564518,0.965565663633714,0.972059821417911,2020-07-13
"68",33.5,0.97849165342721,0.973605595129591,0.96552004948376,0.972005851455485,2020-07-13
"69",34,0.978452248210377,0.973557881714638,0.965474194476658,0.971963221343517,2020-07-14
"70",34.5,0.978412569268159,0.973502124527716,0.965428097605411,0.971920333436785,2020-07-14
"71",35,0.978372614935769,0.973438751606905,0.965381757861889,0.971877186398829,2020-07-15
"72",35.5,0.978332383541785,0.973374959856366,0.965335174236872,0.971833778889328,2020-07-15
"73",36,0.97829187340818,0.973310747011392,0.965288345720088,0.971790109564134,2020-07-16
"74",36.5,0.978251082850351,0.973245254637085,0.965241271300257,0.971746177075304,2020-07-16
"75",37,0.978210010177148,0.973178405106406,0.965193949965126,0.971701980071137,2020-07-17
"76",37.5,0.978168653690906,0.973114418418286,0.965146380701517,0.971657517196211,2020-07-17
"77",38,0.978127011687477,0.973054857022834,0.965098562495363,0.97161278709142,2020-07-18
"78",38.5,0.978085082456267,0.972991427083867,0.965050494331756,0.971567788394011,2020-07-18
"79",39,0.978042864280263,0.972926139989212,0.965002175194984,0.971522519737623,2020-07-19
"80",39.5,0.978000355436078,0.972862375705889,0.96495360406858,0.971476979752329,2020-07-19
"81",40,0.977957554193981,0.972800635172967,0.964904779935365,0.971431167064673,2020-07-20
"82",40.5,0.977914458817938,0.972734340728131,0.96485570177749,0.971385080297714,2020-07-20
"83",41,0.977871067565653,0.972674794878314,0.964806368576485,0.971338718071069,2020-07-21
"84",41.5,0.977827378688607,0.972615314457183,0.964756779313303,0.971292079000955,2020-07-21
"85",42,0.977783390432099,0.972560395230903,0.964706932968366,0.971245161700232,2020-07-22
"86",42.5,0.97773910103529,0.972498242930082,0.964656828521614,0.971197964778452,2020-07-22
"87",43,0.97769450873125,0.972435447628383,0.964606464952551,0.9711504868419,2020-07-23
"88",43.5,0.977649611747,0.972377030806976,0.964555841240293,0.971102726493647,2020-07-23
"89",44,0.977604408303561,0.972330191658704,0.964504956363621,0.971054682333591,2020-07-24
"90",44.5,0.977558896616003,0.972280984209513,0.964453809301023,0.971006352958513,2020-07-24
"91",45,0.977513074893493,0.972226079672296,0.964402399030752,0.970957736962123,2020-07-25
"92",45.5,0.977466941339348,0.972176934963767,0.964330092747751,0.970898517043549,2020-07-25
"93",46,0.977420494151085,0.972126688419346,0.964229003645133,0.970824748898109,2020-07-26
"94",46.5,0.977373731520477,0.972063115343646,0.964127995408681,0.970750863464579,2020-07-26
"95",47,0.97732665163361,0.972001190074455,0.96402706969603,0.97067686066482,2020-07-27
"96",47.5,0.977279252670935,0.971941353711691,0.963926228159115,0.970602740415025,2020-07-27
"97",48,0.977231532807328,0.971880483459787,0.963825472444071,0.970528502625699,2020-07-28
"98",48.5,0.977183490212151,0.971815858397296,0.963724804191125,0.970454147201638,2020-07-28
"99",49,0.977135123049315,0.97176505015974,0.963624225034499,0.970379674041907,2020-07-29
"100",49.5,0.977086429477334,0.971712573272712,0.963523736602306,0.97030508303982,2020-07-29
"101",50,0.9770374076494,0.971662211257122,0.963423340516449,0.970230374082924,2020-07-30
"102",50.5,0.97698805571344,0.971590431982543,0.963323038392522,0.970155547052981,2020-07-30
"103",51,0.976938371812188,0.97152736138189,0.963222831839714,0.970080601825951,2020-07-31
"104",51.5,0.976888354083251,0.971467493864753,0.963122722460707,0.970005538271979,2020-07-31
"105",52,0.976838000659181,0.971403395651593,0.963022711851582,0.969930356255381,2020-08-01
"106",52.5,0.976787309667544,0.971338772334158,0.962922801601722,0.969855055634633,2020-08-01
"107",53,0.976736279230998,0.97127362009531,0.962822993293717,0.969779636262358,2020-08-02
"108",53.5,0.976684907467364,0.971185581242538,0.962723288503273,0.969704097985319,2020-08-02
"109",54,0.976633192489704,0.971083846336917,0.962623688799113,0.969628440644408,2020-08-03
"110",54.5,0.976581132406398,0.97099624195239,0.96252419574289,0.969552664074644,2020-08-03
"111",55,0.976528725321225,0.970934482869124,0.962424810889096,0.969476768105161,2020-08-04
"112",55.5,0.976475969333448,0.970878635875757,0.962325535784967,0.969400752559207,2020-08-04
"113",56,0.976422862537888,0.970820084453699,0.9622263719704,0.969324617254144,2020-08-05
"114",56.5,0.97636940302502,0.970739731289737,0.96212732097786,0.96924836200144,2020-08-05
"115",57,0.976315588881052,0.970665918239221,0.962028384332298,0.969171986606675,2020-08-06
"116",57.5,0.976261418188015,0.97060112466211,0.96192956355106,0.969095490869538,2020-08-06
"117",58,0.976206889023857,0.97054123865993,0.961822568025755,0.969014728524806,2020-08-07
"118",58.5,0.976151999462529,0.970485388692105,0.961711882675338,0.968931941068934,2020-08-07
"119",59,0.976096747574084,0.970420818585739,0.961600742855212,0.968848745214648,2020-08-08
"120",59.5,0.97604113142477,0.970329206424738,0.961489148433315,0.968765139929042,2020-08-08
"121",60,0.975985149077126,0.970251560074578,0.961377099298184,0.968681124187655,2020-08-09
"122",60.5,0.975928798590084,0.970189817562111,0.961264595359131,0.968596696974607,2020-08-09
"123",61,0.975872078019071,0.97010586526976,0.961151636546417,0.968511857282744,2020-08-10
"124",61.5,0.975814985416106,0.970027329576895,0.961038222811426,0.968426604113766,2020-08-10
"125",62,0.975757518829911,0.969959049100149,0.960924354126833,0.968340936478372,2020-08-11
"126",62.5,0.975699676306016,0.969904952899993,0.960810030486778,0.968254853396397,2020-08-11
"127",63,0.975641455886865,0.969849675978019,0.960695251907034,0.968168353896949,2020-08-12
"128",63.5,0.975582855611929,0.969788507494455,0.960580018425177,0.968081437018553,2020-08-12
"129",64,0.975523873517819,0.969731165418497,0.960464330100751,0.967994101809285,2020-08-13
"130",64.5,0.975464507638399,0.969664197423175,0.96034818701544,0.96790634732692,2020-08-13
"131",65,0.975404756004902,0.969600652523394,0.960231589273224,0.967818172639063,2020-08-14
"132",65.5,0.975344616646049,0.969528343358299,0.960114537000552,0.967729576823301,2020-08-14
"133",66,0.975284087588169,0.969450979150154,0.959997030346499,0.967640558967334,2020-08-15
"134",66.5,0.975223166855325,0.969373843272568,0.959879069482927,0.967551118169126,2020-08-15
"135",67,0.975161852469431,0.969271102711436,0.959760654604649,0.96746125353704,2020-08-16
"136",67.5,0.975100142450385,0.969176442041406,0.959641785929584,0.967370964189985,2020-08-16
"137",68,0.975038034816195,0.969088919889252,0.959522463698914,0.967280249257555,2020-08-17
"138",68.5,0.974975527583109,0.969010500317028,0.959402688177242,0.967189107880176,2020-08-17
"139",69,0.974912618765748,0.968931696196267,0.959282459652742,0.967097539209245,2020-08-18
"140",69.5,0.974849306377242,0.968852506616571,0.959161778437315,0.967005542407279,2020-08-18
"141",70,0.974785588429366,0.968772930677492,0.959040644866737,0.966913116648051,2020-08-19
"142",70.5,0.974721462932677,0.968682854734545,0.958919059300808,0.966820261116743,2020-08-19
"143",71,0.97465692789666,0.968602860240339,0.958797022123502,0.966726975010081,2020-08-20
"144",71.5,0.974591981329864,0.968506303096501,0.95867453374311,0.966633257536487,2020-08-20
"145",72,0.974526621240055,0.968397136556859,0.958551594592383,0.966539107916219,2020-08-21
"146",72.5,0.974460845634358,0.968291821656089,0.958428205128675,0.966444525381516,2020-08-21
"147",73,0.974394652519409,0.96820973815307,0.958304365834085,0.966349509176747,2020-08-22
"148",73.5,0.974328039901508,0.968134349930191,0.95818007721559,0.966254058558549,2020-08-22
"149",74,0.974261005786769,0.968059730953346,0.958055339805185,0.966158172795977,2020-08-23
"150",74.5,0.974193548181282,0.967984553952907,0.957930154160015,0.966061851170648,2020-08-23
"151",75,0.974125665091267,0.967913553590667,0.957804520862507,0.965965092976887,2020-08-24
"152",75.5,0.974057354523235,0.967843238452609,0.9576784405205,0.965867897521868,2020-08-24
"153",76,0.973988614484154,0.967752954586987,0.957551913767374,0.965770264125764,2020-08-25
"154",76.5,0.973919442981613,0.967664503366711,0.957424941262173,0.965672192121893,2020-08-25
"155",77,0.973849838023987,0.967572845371943,0.957297523689728,0.965573680856857,2020-08-26
"156",77.5,0.973779797620609,0.967490042600597,0.957169661760779,0.965474729690694,2020-08-26
"157",78,0.973709319781945,0.96740651225002,0.957041356212094,0.965375337997019,2020-08-27
"158",78.5,0.97363840251976,0.967322798037841,0.956912607806583,0.965275505163172,2020-08-27
"159",79,0.973567043847303,0.967244042699892,0.956783417333415,0.965175230590359,2020-08-28
"160",79.5,0.973495241779483,0.967151499538306,0.956653785608123,0.965074513693803,2020-08-28
"161",80,0.973422994333048,0.967065002551049,0.95652371347272,0.964973353902884,2020-08-29
"162",80.5,0.97335029952677,0.966977749690277,0.9563932017958,0.964871750661285,2020-08-29
"163",81,0.973277155381634,0.966886294163958,0.956262251472644,0.964769703427139,2020-08-30
"164",81.5,0.97320355992102,0.96678856210509,0.956130863425319,0.964667211673169,2020-08-30
"165",82,0.973129511170898,0.966678932587705,0.955999038602777,0.964564274886838,2020-08-31
"166",82.5,0.973055007160021,0.966559338250893,0.955866777980952,0.964460892570487,2020-08-31
"167",83,0.972980045920117,0.966457256582202,0.955734082562849,0.964357064241483,2020-09-01
"168",83.5,0.972904625486089,0.966371129680888,0.955600953378636,0.964252789432363,2020-09-01
"169",84,0.972828743896213,0.966305972370959,0.955467391485734,0.964148067690973,2020-09-02
"170",84.5,0.972752399192342,0.966231316198527,0.955333397968895,0.964042898580619,2020-09-02
"171",85,0.972675589420111,0.966140706635431,0.955198973940286,0.963937281680198,2020-09-03
"172",85.5,0.97259831262914,0.96604574073176,0.955064120539569,0.963831216584354,2020-09-03
"173",86,0.972520566873247,0.965937461254414,0.954928838933974,0.96372470290361,2020-09-04
"174",86.5,0.97244235021066,0.965825937021313,0.954745491562009,0.963593920886335,2020-09-04
"175",87,0.972363660704226,0.965739674032274,0.954558309417874,0.96346098506105,2020-09-05
"176",87.5,0.972284496421634,0.965614594605309,0.954370373906966,0.9633274351643,2020-09-05
"177",88,0.972204855435627,0.965497496934415,0.954181687898849,0.963193271667238,2020-09-06
"178",88.5,0.972124735824228,0.965392366443588,0.953992254344499,0.963058495084364,2020-09-06
"179",89,0.972044135670962,0.965292676875091,0.953802076276522,0.962923105973742,2020-09-07
"180",89.5,0.971963053065081,0.965192291745039,0.953611156809348,0.962787104937214,2020-09-07
"181",90,0.97188148610179,0.965092237231014,0.953419499139419,0.962650492620604,2020-09-08
"182",90.5,0.971799432882481,0.964998548870663,0.953227106545354,0.962513269713917,2020-09-08
"183",91,0.971716891514966,0.964889968268116,0.953033982388096,0.962375436951531,2020-09-09
"184",91.5,0.971633860113706,0.964783716400822,0.952840130111049,0.962236995112378,2020-09-09
"185",92,0.971550336800057,0.964680982130757,0.952645553240196,0.962097945020127,2020-09-10
"186",92.5,0.971466319702503,0.964584454546413,0.952450255384191,0.961958287543347,2020-09-10
"187",93,0.971381806956898,0.964474358179373,0.952254240234449,0.961818023595673,2020-09-11
"188",93.5,0.971296796706717,0.964363694439731,0.952057511565205,0.961677154135961,2020-09-11
"189",94,0.971211287103294,0.964253163424644,0.951860073233565,0.96153568016843,2020-09-12
"190",94.5,0.971125276306077,0.964138417202056,0.95166192917953,0.961393602742803,2020-09-12
"191",95,0.971038762482875,0.964018886815461,0.95146308342601,0.961250922954443,2020-09-13
"192",95.5,0.970951743810115,0.963927325748767,0.951263540078816,0.961107641944465,2020-09-13
"193",96,0.970864218473094,0.963821328272099,0.951063303326632,0.960963760899863,2020-09-14
"194",96.5,0.97077618466624,0.963696713978036,0.950862377440971,0.960819281053606,2020-09-14
"195",97,0.970698349840717,0.963570975203281,0.950660766776113,0.960679558308415,2020-09-15
"196",97.5,0.970629416347099,0.963449772661369,0.95045847576902,0.960543946058059,2020-09-15
"197",98,0.970560124134387,0.963330664780697,0.950255508939237,0.960407816536812,2020-09-16
"198",98.5,0.970490472137422,0.963209879481,0.950051870888768,0.960271171513095,2020-09-16
"199",99,0.970420459297964,0.963088273064832,0.949847566301937,0.96013401279995,2020-09-17
"200",99.5,0.970350084564838,0.962965841323635,0.949642599945229,0.959996342255034,2020-09-17
"201",100,0.970279346894091,0.962836195702644,0.949436976667112,0.959858161780601,2020-09-18
"202",100.5,0.970208245249134,0.96271033566987,0.949230701397831,0.959719473323482,2020-09-18
"203",101,0.970136778600899,0.962581925607907,0.949023779149197,0.959580278875048,2020-09-19
"204",101.5,0.970064945927992,0.962463816611806,0.948816215014344,0.959440580471168,2020-09-19
"205",102,0.969992746216841,0.962344875678712,0.948608014167469,0.959300380192155,2020-09-20
"206",102.5,0.969920178461858,0.962213684005459,0.948399181863556,0.959159680162707,2020-09-20
"207",103,0.969847241665587,0.962085357597992,0.948189723438073,0.95901848255183,2020-09-21
"208",103.5,0.969773934838865,0.961956172408075,0.947979644306655,0.95887678957276,2020-09-21
"209",104,0.969700257000978,0.961826124289502,0.947768949964762,0.95873460348287,2020-09-22
"210",104.5,0.969626207179816,0.961695209106299,0.947557645987319,0.958591926583568,2020-09-22
"211",105,0.969551784412038,0.961548833238913,0.947345738028335,0.958448761220187,2020-09-23
"212",105.5,0.969476987743225,0.961417248933929,0.947133231820502,0.958305109781863,2020-09-23
"213",106,0.969401816228043,0.961304133137382,0.946920133174772,0.958160974701408,2020-09-24
"214",106.5,0.969326268930406,0.961197455992551,0.946706447979916,0.958016358455161,2020-09-24
"215",107,0.969250344923636,0.961077352468405,0.946492182202059,0.957871263562847,2020-09-25
"216",107.5,0.969174043290626,0.960951076696515,0.946277341884195,0.957725692587411,2020-09-25
"217",108,0.969097363124004,0.960838770606029,0.946061933145689,0.957579648134847,2020-09-26
"218",108.5,0.969020303526298,0.960700063312387,0.945845962181745,0.957433132854021,2020-09-26
"219",109,0.968942863610099,0.96058508827071,0.945629435262863,0.957286149436481,2020-09-27
"220",109.5,0.968865042498229,0.960465630915629,0.945412358734275,0.957138700616252,2020-09-27
"221",110,0.968786839323906,0.960345796651186,0.945194739015358,0.956990789169632,2020-09-28
"222",110.5,0.968708253230912,0.960207110670958,0.944976582599026,0.956842417914969,2020-09-28
"223",111,0.968629283373761,0.960051146135037,0.944757896051102,0.956693589712431,2020-09-29
"224",111.5,0.968549928917865,0.959922017697914,0.944538686009674,0.95654430746377,2020-09-29
"225",112,0.968470189039707,0.959781206184329,0.944318959184426,0.956394574112067,2020-09-30
"226",112.5,0.968390062927008,0.95966268318496,0.944098722355949,0.956244392641479,2020-09-30
"227",113,0.968309549778898,0.95953367224982,0.943877982375035,0.956093766076967,2020-10-01
"228",113.5,0.968228648806086,0.959420211082139,0.943656746161948,0.955942697484017,2020-10-01
"229",114,0.968147359231032,0.959285739924202,0.943435020705679,0.955791189968355,2020-10-02
"230",114.5,0.968065680288119,0.959167032864538,0.943212813063175,0.955639246675647,2020-10-02
"231",115,0.967983611223826,0.959025084549247,0.942990130358558,0.955486870791192,2020-10-03
"232",115.5,0.9679011512969,0.95887504379782,0.942766979782312,0.955334065539606,2020-10-03
"233",116,0.967818299778527,0.958706757299433,0.942543368590465,0.955180834184496,2020-10-04
"234",116.5,0.967735055952511,0.958549579304079,0.942319304103739,0.955027180028125,2020-10-04
"235",117,0.967651419115442,0.958401048797175,0.94209479370669,0.954873106411066,2020-10-05
"236",117.5,0.967567388576877,0.958249523887648,0.941869844846825,0.954718616711851,2020-10-05
"237",118,0.967482963659507,0.958086596185887,0.941644465033701,0.954563714346604,2020-10-06
"238",118.5,0.967398143699342,0.957934617079312,0.941418661838005,0.954408402768674,2020-10-06
"239",119,0.967312928045875,0.95780019340459,0.941192442890623,0.954252685468249,2020-10-07
"240",119.5,0.967227316062268,0.957628495310757,0.940965815881676,0.954096565971972,2020-10-07
"241",120,0.967141307125522,0.957454349476152,0.940738788559554,0.953940047842538,2020-10-08
"242",120.5,0.967054900626655,0.957279053455645,0.940511368729923,0.953783134678289,2020-10-08
"243",121,0.966968095970878,0.95711090117163,0.940283564254721,0.9536258301128,2020-10-09
"244",121.5,0.966880892577772,0.956961103583909,0.940055383051127,0.95346813781445,2020-10-09
"245",122,0.966793289881465,0.956803118918088,0.939826833090527,0.953310061485996,2020-10-10
"246",122.5,0.966705287330808,0.956625493470089,0.939597922397454,0.953151604864131,2020-10-10
"247",123,0.966616884389551,0.956446806898392,0.939368659048511,0.952992771719031,2020-10-11
"248",123.5,0.966528080536524,0.956249302807216,0.939139051171287,0.952833565853906,2020-10-11
"249",124,0.966438875265808,0.956049724080839,0.93890910694325,0.952673991104529,2020-10-12
"250",124.5,0.966349268086918,0.955873078157536,0.938678834590624,0.952514051338771,2020-10-12
"251",125,0.966259258524975,0.955703207587797,0.938448242387257,0.952353750456116,2020-10-13
"252",125.5,0.966168846120887,0.955555645326629,0.938217338653468,0.952193092387177,2020-10-13
"253",126,0.966078030431522,0.95536282924789,0.937986131754886,0.952032081093204,2020-10-14
"254",126.5,0.965986811029886,0.955168944030433,0.937754630101269,0.951870720565577,2020-10-14
"255",127,0.965895187505303,0.954993822070313,0.937522842145314,0.951709014825308,2020-10-15
"256",127.5,0.965803159463584,0.954833359783854,0.937290776381449,0.951546967922516,2020-10-15
"257",128,0.96571072652721,0.954652904152448,0.937058441344618,0.951384583935914,2020-10-16
"258",128.5,0.965617888335505,0.954449957027921,0.936825845609047,0.951221866972276,2020-10-16
"259",129,0.965534280103505,0.954246821095009,0.936592997787004,0.951063638945254,2020-10-17
"260",129.5,0.965499408588032,0.954049613375437,0.936359906527542,0.950929657557787,2020-10-17
"261",130,0.965464505897388,0.953885362244908,0.936126580515232,0.95079554320631,2020-10-18
"262",130.5,0.965429572223354,0.953738434407392,0.935893028468888,0.950661300346121,2020-10-18
"263",131,0.965394607758464,0.953590843306911,0.935659259140278,0.950526933449371,2020-10-19
"264",131.5,0.965359612695995,0.953442588869414,0.935425281312823,0.950392447004409,2020-10-19
"265",132,0.96532458722997,0.953303357527144,0.935191103800294,0.950257845515132,2020-10-20
"266",132.5,0.965289531555149,0.953166551967602,0.934956735445487,0.950123133500318,2020-10-20
"267",133,0.965254445867028,0.953029214280349,0.934722185118903,0.949988315492966,2020-10-21
"268",133.5,0.965219330361832,0.952862068627147,0.934487461717411,0.949853396039621,2020-10-21
"269",134,0.965184185236518,0.952689333626361,0.934252574162898,0.949718379699708,2020-10-22
"270",134.5,0.96514901068876,0.952515844541358,0.934017531400928,0.949583271044844,2020-10-22
"271",135,0.965113806916958,0.952341601495656,0.933782342399375,0.949448074658166,2020-10-23
"272",135.5,0.965078574120223,0.952180564329563,0.93354701614706,0.949312795133642,2020-10-23
"273",136,0.96504331249838,0.952010689932807,0.933311561652379,0.949177437075379,2020-10-24
"274",136.5,0.965008022251959,0.951818902826333,0.933075987941926,0.949042005096942,2020-10-24
"275",137,0.964972703582195,0.951650346900727,0.932840304059107,0.948906503820651,2020-10-25
"276",137.5,0.964937356691022,0.95147262921757,0.932604519062751,0.948770937876886,2020-10-25
"277",138,0.964901981781069,0.951287057450726,0.932368642025719,0.948635311903394,2020-10-26
"278",138.5,0.964866579055655,0.95112432718086,0.932132682033503,0.948499630544579,2020-10-26
"279",139,0.964831148718786,0.950931394947182,0.931896648182828,0.948363898450807,2020-10-27
"280",139.5,0.964795690975151,0.950756959307179,0.931660549580243,0.948228120277697,2020-10-27
"281",140,0.964760206030116,0.950567102660643,0.931424395340717,0.948092300685417,2020-10-28
"282",140.5,0.964724694089721,0.950376912678865,0.931188194586227,0.947956444337974,2020-10-28
"283",141,0.964689155360674,0.9501710603174,0.930951956444346,0.94782055590251,2020-10-29
"284",141.5,0.96465359005035,0.949952758176156,0.930715690046831,0.947684640048591,2020-10-29
"285",142,0.964617998366783,0.949731265306396,0.930479404528206,0.947548701447495,2020-10-30
"286",142.5,0.964582380518664,0.949514401510234,0.930243109024351,0.947412744771507,2020-10-30
"287",143,0.964546736715332,0.949333272243613,0.930006812671082,0.947276774693207,2020-10-31
"288",143.5,0.964511067166777,0.949129146881821,0.929770524602742,0.947140795884759,2020-10-31
"289",144,0.964475372083629,0.948924052054152,0.929534253950782,0.947004813017206,2020-11-01
"290",144.5,0.964439651677157,0.948723096845869,0.929298009842354,0.946868830759755,2020-11-01
"291",145,0.96440390615926,0.948513759377321,0.929061801398896,0.946732853779078,2020-11-02
"292",145.5,0.964368135742468,0.948297893883778,0.928825637734727,0.946596886738598,2020-11-02
"293",146,0.964332340639935,0.948091865313995,0.928589527955638,0.946460934297786,2020-11-03
"294",146.5,0.964296521065431,0.947862446409916,0.928353481157494,0.946325001111462,2020-11-03
"295",147,0.964260677233341,0.947661636562535,0.928117506424833,0.946189091829087,2020-11-04
"296",147.5,0.964224809358661,0.947432906068703,0.927776663535252,0.946000736446957,2020-11-04
"297",148,0.96418891765699,0.947240705688421,0.927400269971472,0.945794593814231,2020-11-05
"298",148.5,0.964153002344526,0.947012258130551,0.927022643849346,0.945587823096936,2020-11-05
"299",149,0.964117063638061,0.946819816665301,0.926643801681015,0.945380432659538,2020-11-06
"300",149.5,0.964081101754979,0.946585964142485,0.926263760224518,0.945172430989748,2020-11-06
"301",150,0.964045116913247,0.94638624364005,0.925882536481428,0.944963826697338,2020-11-07
"302",150.5,0.964009109331411,0.946184223285387,0.925500147694402,0.944754628512906,2020-11-07
"303",151,0.963973079228593,0.945990170620416,0.925116611344613,0.944544845286603,2020-11-08
"304",151.5,0.963937026824483,0.945795558494458,0.924731945149097,0.94433448598679,2020-11-08
"305",152,0.963900952339338,0.945576788535139,0.924346167057993,0.944123559698665,2020-11-09
"306",152.5,0.963864855993971,0.945332588304771,0.923959295251679,0.943912075622825,2020-11-09
"307",153,0.963828738009751,0.945125204202013,0.923571348137817,0.943700043073784,2020-11-10
"308",153.5,0.963792598608597,0.944928637779442,0.923182344348296,0.943487471478446,2020-11-10
"309",154,0.963756438012968,0.944728611378608,0.922792302736078,0.943274370374523,2020-11-11
"310",154.5,0.963720256445866,0.944497491451042,0.922401242371947,0.943060749408907,2020-11-11
"311",155,0.963684054130824,0.944304566781479,0.922009182541163,0.942846618335993,2020-11-12
"312",155.5,0.963647831291902,0.944125643634615,0.921616142740022,0.942631987015962,2020-11-12
"313",156,0.963611588153684,0.943899988812748,0.921222142672321,0.942416865413003,2020-11-13
"314",156.5,0.963575324941271,0.943675939118104,0.920827202245735,0.942201263593503,2020-11-13
"315",157,0.963539041880275,0.943471401325532,0.920431341568096,0.941985191724185,2020-11-14
"316",157.5,0.963502739196816,0.943266247379444,0.920034580943586,0.941768660070201,2020-11-14
"317",158,0.963466417117514,0.943059320831459,0.919636940868844,0.941551678993179,2020-11-15
"318",158.5,0.963430075869485,0.942792637481303,0.919238442028985,0.941334258949235,2020-11-15
"319",159,0.963393715680334,0.942528200936984,0.918839105293527,0.94111641048693,2020-11-16
"320",159.5,0.963357336778151,0.942296618176951,0.918438951712242,0.940898144245196,2020-11-16
"321",160,0.963320939391505,0.942064404799906,0.918038002510925,0.940679470951215,2020-11-17
"322",160.5,0.96328452374944,0.941839016220432,0.917636279087074,0.940460401418257,2020-11-17
"323",161,0.963248090081465,0.941641423308168,0.917233803005503,0.940240946543484,2020-11-18
"324",161.5,0.963211638617554,0.941410438477255,0.916830595993865,0.94002111730571,2020-11-18
"325",162,0.963175169588134,0.941178580190912,0.916426679938113,0.939800924763124,2020-11-19
"326",162.5,0.963138683224086,0.940945851696344,0.916022076877878,0.939580380050982,2020-11-19
"327",163,0.963102179756735,0.940719318865951,0.915616809001778,0.939359494379256,2020-11-20
"328",163.5,0.963065659417846,0.940504659959782,0.915210898642664,0.939138279030255,2020-11-20
"329",164,0.963029122439616,0.940233213551761,0.914804368272791,0.938916745356204,2020-11-21
"330",164.5,0.962992569054673,0.939990285721834,0.914397240498928,0.9386949047768,2020-11-21
"331",165,0.962955999496063,0.939746520493208,0.913989538057405,0.938472768776734,2020-11-22
"332",165.5,0.962919413997252,0.939501922784496,0.913581283809101,0.938250348903176,2020-11-22
"333",166,0.962882812792114,0.939256497613318,0.91317250073437,0.938027656763242,2020-11-23
"334",166.5,0.96284619611493,0.939010250096261,0.912763211927914,0.937804704021422,2020-11-23
"335",167,0.962809564200377,0.938777799251858,0.912353440593607,0.937581502396992,2020-11-24
"336",167.5,0.962772917283528,0.938559114562558,0.911943210039258,0.937358063661393,2020-11-24
"337",168,0.962736255599839,0.938339835259932,0.911532543671335,0.937134399635587,2020-11-25
"338",168.5,0.96269957938515,0.93811996477222,0.911121464989638,0.936910522187394,2020-11-25
"339",169,0.962662888875676,0.93789950657626,0.910709997581932,0.936686443228804,2020-11-26
"340",169.5,0.962626184307998,0.937676703076427,0.910298165118537,0.936462174713268,2020-11-26
"341",170,0.962589465919064,0.937444237274147,0.909885991346881,0.936237728632972,2020-11-27
"342",170.5,0.962552733946176,0.937211157800145,0.909473500086017,0.936013117016096,2020-11-27
"343",171,0.962515988626988,0.937020774041236,0.909060715221109,0.935788351924049,2020-11-28
"344",171.5,0.9624792301995,0.936826506599262,0.908647660697888,0.935563445448694,2020-11-28
"345",172,0.962442458902047,0.936606746441285,0.908234360517076,0.935338409709562,2020-11-29
"346",172.5,0.962405674973302,0.936386447933716,0.907820838728794,0.935113256851048,2020-11-29
"347",173,0.96236887865226,0.936156648710326,0.907407119426941,0.9348879990396,2020-11-30
"348",173.5,0.962332070178239,0.935917284529007,0.906993226743558,0.934662648460898,2020-11-30
"349",174,0.96229524979087,0.93569326773152,0.906579184843175,0.934437217317022,2020-12-01
"350",174.5,0.962258417730093,0.935468779545453,0.906165017917145,0.934211717823619,2020-12-01
"351",175,0.962221574236148,0.935243825400377,0.905750750177968,0.933986162207058,2020-12-02
"352",175.5,0.962184719549574,0.934975000737548,0.905336405853606,0.93376056270159,2020-12-02
"353",176,0.962147853911195,0.934678985980573,0.904922009181793,0.933534931546494,2020-12-03
"354",176.5,0.962110977562123,0.934375756478503,0.904507584404349,0.933309280983236,2020-12-03
"355",177,0.962074090743743,0.934114891692259,0.904093155761488,0.933083623252615,2020-12-04
"356",177.5,0.962037193697713,0.933828035678635,0.903678747486129,0.932857970591921,2020-12-04
"357",178,0.962000286665955,0.933507399784391,0.903264383798225,0.93263233523209,2020-12-05
"358",178.5,0.961963369890647,0.933207810756662,0.902850088899086,0.932406729394866,2020-12-05
"359",179,0.961926443614222,0.932932009467371,0.902435886965727,0.932181165289975,2020-12-06
"360",179.5,0.961889508079356,0.932699271793562,0.902021802145226,0.931955655112291,2020-12-06
"361",180,0.961852563528966,0.932466197422906,0.901607858549096,0.931730211039031,2020-12-07
"362",180.5,0.9618156102062,0.932247497339246,0.901194080247688,0.931504845226944,2020-12-07
"363",181,0.961778648354433,0.9320359825197,0.900780491264607,0.93127956980952,2020-12-08
"364",181.5,0.96174167821726,0.93177265121551,0.900367115571162,0.931054396894211,2020-12-08
"365",182,0.96170470003849,0.931530648035701,0.899953977080837,0.930829338559663,2020-12-09
"366",182.5,0.961667714062139,0.93129597677432,0.899541099643805,0.930604406852972,2020-12-09
"367",183,0.961630720532422,0.931061430293945,0.899128507041464,0.930379613786943,2020-12-10
"368",183.5,0.961593719693752,0.930842821918198,0.898716222981018,0.930154971337385,2020-12-10
"369",184,0.961556711790727,0.93062413077549,0.898304271090096,0.929930491440412,2020-12-11
"370",184.5,0.961519697068127,0.9303986993313,0.897892674911409,0.929706185989768,2020-12-11
"371",185,0.961482675770908,0.930162219182744,0.897481457897458,0.929482066834183,2020-12-12
"372",185.5,0.961445648144192,0.929885561985479,0.897070643405283,0.929258145774738,2020-12-12
"373",186,0.961408614433267,0.929644255697567,0.896660254691266,0.929034434562266,2020-12-13
"374",186.5,0.961371574883573,0.929399586145514,0.896250314905983,0.928810944894778,2020-12-13
"375",187,0.961334529740701,0.929143122084842,0.895840847089112,0.928587688414906,2020-12-14
"376",187.5,0.961297479250384,0.928835801937912,0.895431874164398,0.928364676707391,2020-12-14
"377",188,0.96126042365849,0.928507486086747,0.895023418934671,0.928141921296581,2020-12-15
"378",188.5,0.961223363211019,0.928212299651788,0.894615504076937,0.927919433643978,2020-12-15
"379",189,0.961186298154092,0.927937880996704,0.894208152137518,0.927697225145805,2020-12-16
"380",189.5,0.961149228733947,0.927710173117467,0.893801385527267,0.927475307130607,2020-12-16
"381",190,0.961112155196932,0.927529567933322,0.893351522558704,0.927231838877818,2020-12-17
"382",190.5,0.961075077789499,0.92734904721986,0.892859972276457,0.926967525032978,2020-12-17
"383",191,0.961037996758194,0.927108949888729,0.892367915536943,0.926702956147569,2020-12-18
"384",191.5,0.961000912349658,0.926864408202507,0.891875375742681,0.92643814404617,2020-12-18
"385",192,0.960963824810612,0.926619514275075,0.891382376379155,0.926173100594883,2020-12-19
"386",192.5,0.960926734387855,0.926374274441631,0.890888941010318,0.925907837699087,2020-12-19
"387",193,0.960889641328258,0.926128695074966,0.890395093274066,0.925642367301162,2020-12-20
"388",193.5,0.960852545878754,0.925867152193695,0.889900856877679,0.925376701378217,2020-12-20
"389",194,0.960815448286335,0.925600308369382,0.889406255593241,0.925110851939788,2020-12-21
"390",194.5,0.960778348798043,0.925339900375154,0.888911313253037,0.92484483102554,2020-12-21
"391",195,0.960741247660964,0.925118170749145,0.888416053744924,0.924578650702944,2020-12-22
"392",195.5,0.960704145122223,0.924919017189185,0.88792050100769,0.924312323064957,2020-12-22
"393",196,0.960667041428975,0.924713046692423,0.887424679026384,0.92404586022768,2020-12-23
"394",196.5,0.9606299368284,0.924494899122942,0.88692861182764,0.92377927432802,2020-12-23
"395",197,0.960592831567695,0.92427677285819,0.886432323474982,0.923512577521338,2020-12-24
"396",197.5,0.96055572589407,0.924058674134368,0.885935838064117,0.923245781979094,2020-12-24
"397",198,0.960518620054739,0.923840609181668,0.885439179718223,0.922978899886481,2020-12-25
"398",198.5,0.960481514296913,0.92362258422356,0.884942372583221,0.922711943440067,2020-12-25
"399",199,0.960444408867796,0.923404605476096,0.884445440823047,0.922444924845422,2020-12-26
"400",199.5,0.960407304014577,0.923147798992451,0.883948408614918,0.922177856314748,2020-12-26
"401",200,0.960370199984423,0.922926281642168,0.883451300144594,0.921910750064509,2020-12-27
"402",200.5,0.960333097024473,0.922702266099373,0.882954139601645,0.921643618313059,2020-12-27
"403",201,0.96029599538183,0.92249833975997,0.882456951174714,0.921376473278272,2020-12-28
"404",201.5,0.960258895303557,0.922297607361182,0.881959759046786,0.921109327175172,2020-12-28
"405",202,0.96022179703667,0.922097009103724,0.881462587390466,0.920842192213568,2020-12-29
"406",202.5,0.960184700828127,0.921880568408907,0.88096546036326,0.920575080595693,2020-12-29
"407",203,0.96014760692483,0.921604700086671,0.880468402102866,0.920308004513848,2020-12-30
"408",203.5,0.960110515573608,0.921317076009871,0.879971436722482,0.920040976148045,2020-12-30
"409",204,0.960073427021219,0.92099873569759,0.879474588306123,0.919774007663671,2020-12-31
"410",204.5,0.960036341514341,0.920644602838912,0.878977880903952,0.919507111209146,2020-12-31
"411",205,0.959999259299561,0.920336234800428,0.878481338527633,0.919240298913597,2021-01-01
"412",205.5,0.959962180623376,0.92013208228166,0.877984985145703,0.918973582884539,2021-01-01
"413",206,0.95992510573218,0.919908500766323,0.877488844678959,0.918706975205569,2021-01-02
"414",206.5,0.959888034872261,0.919684946158622,0.876992940995877,0.918440487934069,2021-01-02
"415",207,0.959850968289794,0.919461424323292,0.87649729790805,0.918174133098922,2021-01-03
"416",207.5,0.959813906230834,0.91919180306369,0.876001939165654,0.917907922698244,2021-01-03
"417",208,0.959776848941307,0.918863950541802,0.875506888452946,0.917641868697126,2021-01-04
"418",208.5,0.959739796667009,0.918632439763154,0.875012169383783,0.917375983025396,2021-01-04
"419",209,0.959702749653595,0.918419425032052,0.874517805497187,0.917110277575391,2021-01-05
"420",209.5,0.959665708146575,0.918178759167132,0.874023820252933,0.916844764199754,2021-01-05
"421",210,0.959628672391305,0.917922778179454,0.873530237027175,0.91657945470924,2021-01-06
"422",210.5,0.959591642632983,0.917666835915508,0.873037079108114,0.916314360870549,2021-01-06
"423",211,0.959554619116641,0.917410609662848,0.872544369691698,0.91604949440417,2021-01-07
"424",211.5,0.95951760208714,0.917053303041182,0.872052131877368,0.915784866982254,2021-01-07
"425",212,0.959480591789161,0.916695133817509,0.871560388663844,0.915520490226502,2021-01-08
"426",212.5,0.959443588467201,0.916336114018083,0.871069162944953,0.915256375706077,2021-01-08
"427",213,0.959406592365566,0.916083261141251,0.870578477505509,0.914992534935537,2021-01-09
"428",213.5,0.959369603728364,0.915842224833656,0.87008835501723,0.914728979372797,2021-01-09
"429",214,0.9593326227995,0.915601310399804,0.869598818034711,0.914465720417105,2021-01-10
"430",214.5,0.959295649822666,0.915293380324239,0.869109888991444,0.914202769407055,2021-01-10
"431",215,0.959258685041341,0.914982529999635,0.86862159019589,0.913940137618615,2021-01-11
"432",215.5,0.959221728698776,0.914694901527864,0.868133943827599,0.913677836263188,2021-01-11
"433",216,0.959184781037997,0.914386772109474,0.867646971933394,0.913415876485695,2021-01-12
"434",216.5,0.95914784230179,0.914078474820518,0.867160696423599,0.913154269362695,2021-01-12
"435",217,0.959110912732702,0.913770021514647,0.86667513906833,0.912893025900516,2021-01-13
"436",217.5,0.95907399257303,0.913461424066746,0.866190321493839,0.912632157033435,2021-01-13
"437",218,0.959037082064817,0.913152694371112,0.865706265178926,0.912371673621872,2021-01-14
"438",218.5,0.959000181449843,0.91284384433962,0.865222991451398,0.91211158645062,2021-01-14
"439",219,0.958963290969622,0.912534885899887,0.864740521484597,0.911851906227109,2021-01-15
"440",219.5,0.958926410865394,0.912253358603315,0.864258876293992,0.911592643579693,2021-01-15
"441",220,0.958889541378119,0.912034842301467,0.863778076733828,0.911333809055973,2021-01-16
"442",220.5,0.958852682748471,0.911816566237939,0.86329814349384,0.911075413121155,2021-01-16
"443",221,0.958815835216831,0.911598536908873,0.862819097096039,0.910817466156435,2021-01-17
"444",221.5,0.958778999023283,0.91138076078743,0.862340957891553,0.910559978457418,2021-01-17
"445",222,0.958742174407605,0.911163244322936,0.861863746057545,0.910302960232575,2021-01-18
"446",222.5,0.958705361609265,0.910809052670283,0.861387481594191,0.910046421601728,2021-01-18
"447",223,0.958668560867411,0.91043749848985,0.860912184321733,0.909790372594572,2021-01-19
"448",223.5,0.958631772420872,0.910065002965253,0.860437873877591,0.909534823149232,2021-01-19
"449",224,0.958594996508146,0.909691575585963,0.859964569713558,0.909279783110852,2021-01-20
"450",224.5,0.958558233367395,0.909400919383903,0.859492291093055,0.909025262230225,2021-01-20
"451",225,0.95852148323644,0.909147084672946,0.859021057088461,0.90877127016245,2021-01-21
"452",225.5,0.958484746352754,0.908893624007063,0.858550886578512,0.908517816465633,2021-01-21
"453",226,0.958448022953459,0.90864054561381,0.858081798245777,0.908264910599618,2021-01-22
"454",226.5,0.958411313275314,0.908387857669423,0.857613810574204,0.908012561924759,2021-01-22
"455",227,0.958374617554715,0.908135568297826,0.857146941846733,0.907760779700724,2021-01-23
"456",227.5,0.958337936027685,0.907868941890223,0.856681210142993,0.907509573085339,2021-01-23
"457",228,0.95830126892987,0.907610265959583,0.856216633337063,0.907258951133467,2021-01-24
"458",228.5,0.958264616496534,0.907349659386771,0.855753229095315,0.907008922795925,2021-01-24
"459",229,0.958227978962551,0.907020684956076,0.855291014874323,0.906759496918437,2021-01-25
"460",229.5,0.958191356562398,0.906691748970714,0.854830007918853,0.906510682240625,2021-01-25
"461",230,0.958154749530153,0.906379898084388,0.854370225259923,0.906262487395038,2021-01-26
"462",230.5,0.958118158099487,0.906183221274551,0.853911683712942,0.906014920906214,2021-01-26
"463",231,0.958081582503658,0.905998243119925,0.853454399875919,0.905767991189788,2021-01-27
"464",231.5,0.958045022975505,0.905813848055684,0.852998390127751,0.905521706551628,2021-01-27
"465",232,0.958008479747445,0.90558735088049,0.85254367062658,0.905276075187012,2021-01-28
"466",232.5,0.957971953051462,0.905329652907576,0.852090257308232,0.905031105179847,2021-01-28
"467",233,0.957935443119106,0.905127940024825,0.851638165884727,0.904786804501916,2021-01-29
"468",233.5,0.957898950181486,0.904926687111592,0.85118741184286,0.904543181012173,2021-01-29
"469",234,0.957862474469262,0.904725898147241,0.850738010442865,0.904300242456064,2021-01-30
"470",234.5,0.957826016212644,0.904493647467071,0.850289976717143,0.904057996464894,2021-01-30
"471",235,0.957789575641382,0.904229655202947,0.849843325469073,0.903816450555228,2021-01-31
"472",235.5,0.957753152984762,0.903966005793519,0.84939807127189,0.903575612128326,2021-01-31
"473",236,0.957716748471602,0.903702708493011,0.848954228467642,0.903335488469622,2021-02-01
"474",236.5,0.957680362330242,0.903439772509815,0.848511811166214,0.903096086748228,2021-02-01
"475",237,0.957643994788544,0.903177207005124,0.84807083324443,0.902857414016487,2021-02-02
"476",237.5,0.957607646073883,0.902915021091586,0.847631308345224,0.902619477209554,2021-02-02
"477",238,0.957571316413143,0.902653223831969,0.847193249876887,0.902382283145015,2021-02-03
"478",238.5,0.95753500603271,0.90239398586842,0.846756671012376,0.902145838522543,2021-02-03
"479",239,0.957498715158468,0.902154637038585,0.846321584688708,0.901910149923588,2021-02-04
"480",239.5,0.957462444015795,0.901915928231837,0.845888003606411,0.901675223811103,2021-02-04
"481",240,0.957426192829553,0.90167786631533,0.845455940229054,0.901441066529304,2021-02-05
"482",240.5,0.957389961824087,0.901440458068171,0.845025406782841,0.901207684303464,2021-02-05
"483",241,0.957353751223218,0.90120371018092,0.844596415256275,0.900975083239746,2021-02-06
"484",241.5,0.957317561250237,0.900967629255113,0.844168977399892,0.900743269325064,2021-02-06
"485",242,0.957281392127903,0.900732221802809,0.843743104726059,0.900512248426981,2021-02-07
"486",242.5,0.957245244078434,0.900497494246156,0.843318808508843,0.900282026293639,2021-02-07
"487",243,0.957209117323502,0.90026345291698,0.84289609978394,0.900052608553721,2021-02-08
"488",243.5,0.957173012084232,0.900030104056402,0.842474989348672,0.899824000716452,2021-02-08
"489",244,0.957136928581192,0.899797453814468,0.842055487762055,0.899596208171623,2021-02-09
"490",244.5,0.95710086703439,0.899565508249811,0.841637605344915,0.899369236189652,2021-02-09
"491",245,0.957064827663269,0.899334273329323,0.841221352180084,0.899143089921676,2021-02-10
"492",245.5,0.957028810686702,0.899103754927864,0.840806738112646,0.898917774399674,2021-02-10
"493",246,0.956992816322986,0.898826750909365,0.84039377275025,0.898693294536618,2021-02-11
"494",246.5,0.956956844789841,0.89854069555531,0.839982465463482,0.898469655126662,2021-02-11
"495",247,0.956920896304396,0.898254926413641,0.839572825386294,0.898246860845345,2021-02-12
"496",247.5,0.956884971083196,0.898010517457306,0.839164861416493,0.898024916249845,2021-02-12
"497",248,0.956849069342187,0.897789591350476,0.838758582216293,0.89780382577924,2021-02-13
"498",248.5,0.956813191296716,0.897577937461606,0.838353996212912,0.897583593754814,2021-02-13
"499",249,0.956777337161526,0.897263877483248,0.837951111599236,0.897364224380381,2021-02-14
"500",249.5,0.956741507150751,0.896950636275833,0.83754993633453,0.89714572174264,2021-02-14
"501",250,0.95670570147791,0.896687567333133,0.837150478145208,0.896928089811559,2021-02-15
"502",250.5,0.956669920355902,0.896467325223217,0.836752744525654,0.896711332440778,2021-02-15
"503",251,0.956634163997006,0.896299241636395,0.836356742739091,0.896495453368048,2021-02-16
"504",251.5,0.956598432612868,0.896106933729836,0.835962479818506,0.896280456215687,2021-02-16
"505",252,0.956562726414505,0.895868627454899,0.835569962567624,0.896066344491064,2021-02-17
"506",252.5,0.956527045612294,0.895630779255832,0.835179197561927,0.89585312158711,2021-02-17
"507",253,0.956491390415971,0.895393393662535,0.834790191149726,0.895640790782849,2021-02-18
"508",253.5,0.956455761034627,0.895156475157018,0.834402949453273,0.89542935524395,2021-02-18
"509",254,0.956420157676698,0.894920028173283,0.834017478369928,0.895218818023313,2021-02-19
"510",254.5,0.956384580549968,0.894684057097225,0.833633783573357,0.895009182061663,2021-02-19
"511",255,0.956349029861559,0.894448566266528,0.833251870514791,0.894800450188175,2021-02-20
"512",255.5,0.956313505817931,0.894213559970582,0.832871744424309,0.89459262512112,2021-02-20
"513",256,0.956278008624872,0.893948500187655,0.832493410312176,0.894385709468524,2021-02-21
"514",256.5,0.9562425384875,0.893671570281434,0.832116872970217,0.894179705728859,2021-02-21
"515",257,0.956207095610254,0.893394961004045,0.831742136973227,0.89397461629174,2021-02-22
"516",257.5,0.956171680196891,0.89311867971106,0.831369206680423,0.893770443438657,2021-02-22
"517",258,0.956136292450484,0.89287030386572,0.830998086236932,0.893567189343708,2021-02-23
"518",258.5,0.956100932573415,0.892650181443148,0.830628779575315,0.893364856074365,2021-02-23
"519",259,0.956065600767373,0.892430660207633,0.830261290417127,0.89316344559225,2021-02-24
"520",259.5,0.956030297233346,0.892211744344241,0.829895622274506,0.892962959753926,2021-02-24
"521",260,0.955995022171622,0.891993437982568,0.829531778451805,0.892763400311713,2021-02-25
"522",260.5,0.955959775781783,0.891834491666757,0.82916976204724,0.892564768914512,2021-02-25
"523",261,0.955924558262699,0.891689791842318,0.828809575954589,0.892367067108644,2021-02-26
"524",261.5,0.955889369812527,0.891433287641501,0.828451222864901,0.892170296338714,2021-02-26
"525",262,0.955854210628705,0.891128221936293,0.828094705268244,0.891974457948474,2021-02-27
"526",262.5,0.95581908090795,0.8909120934415,0.827740025455481,0.891779553181716,2021-02-27
"527",263,0.955783980846252,0.890701919388859,0.827387185520071,0.891585583183161,2021-02-28
"528",263.5,0.955748910638871,0.890492457543816,0.827036187359888,0.891392548999379,2021-02-28
"529",264,0.955713870480334,0.890283710757933,0.82668703267908,0.891200451579707,2021-03-01
"530",264.5,0.95567886056443,0.890075681818917,0.826339722989935,0.891009291777182,2021-03-01
"531",265,0.955643881084209,0.889868373450779,0.82599425961478,0.890819070349494,2021-03-02
"532",265.5,0.955608932231973,0.889661788313995,0.825650643687898,0.890629787959936,2021-03-02
"533",266,0.955574014199279,0.889455929005691,0.825308876157467,0.890441445178373,2021-03-03
"534",266.5,0.955539127176929,0.889250798059823,0.824968957787511,0.89025404248222,2021-03-03
"535",267,0.955504271354973,0.889046397947369,0.824630889159885,0.890067580257429,2021-03-04
"536",267.5,0.955469446922698,0.888842731076533,0.824294670676258,0.889882058799478,2021-03-04
"537",268,0.955434654068631,0.888639799792953,0.823960302560127,0.889697478314379,2021-03-05
"538",268.5,0.955399892980533,0.888437606379922,0.823627784858843,0.889513838919688,2021-03-05
"539",269,0.955365163845395,0.888236153058608,0.823297117445647,0.889331140645521,2021-03-06
"540",269.5,0.955330466849435,0.888035441988291,0.822968300021724,0.889149383435579,2021-03-06
"541",270,0.955295802178096,0.887835475266605,0.82264133211827,0.888968567148183,2021-03-07
"542",270.5,0.955261170016039,0.887636254929782,0.822316213098568,0.888788691557304,2021-03-07
"543",271,0.955226570547147,0.887437782952914,0.821992942160078,0.888609756353612,2021-03-08
"544",271.5,0.955192003954512,0.887254309686564,0.821671518336531,0.888431761145522,2021-03-08
"545",272,0.955157470420441,0.887038084697604,0.821351940500044,0.888254705460243,2021-03-09
"546",272.5,0.955122970126446,0.886844979747302,0.821034207363231,0.888078588744838,2021-03-09
"547",273,0.955088503253246,0.886652312404002,0.820718317481325,0.887903410367285,2021-03-10
"548",273.5,0.95505406998076,0.886460085488123,0.820404269254313,0.887729169617536,2021-03-10
"549",274,0.955019670488106,0.886260965122718,0.820092060929069,0.887555865708587,2021-03-11
"550",274.5,0.954985304953598,0.886059990029687,0.819781690601494,0.887383497777546,2021-03-11
"551",275,0.954950973554743,0.885850013525628,0.819473156218664,0.887212064886704,2021-03-12
"552",275.5,0.954916676468237,0.885536632146613,0.819166455580976,0.887041566024607,2021-03-12
"553",276,0.954882413869963,0.885223605062721,0.818861586344302,0.886872000107133,2021-03-13
"554",276.5,0.954848185934989,0.884910941178148,0.818558546022138,0.886703365978563,2021-03-13
"555",277,0.954813992837562,0.884615611630727,0.818257331987763,0.886535662412662,2021-03-14
"556",277.5,0.95477983475111,0.884394465431912,0.81795794147639,0.88636888811375,2021-03-14
"557",278,0.954745711848236,0.884248438427825,0.817660371587325,0.88620304171778,2021-03-15
"558",278.5,0.954711624300715,0.884055012483637,0.817364619286116,0.886038121793415,2021-03-15
"559",279,0.954677572279495,0.88382030187704,0.817070681406708,0.885874126843101,2021-03-16
"560",279.5,0.954643555954689,0.883656088002381,0.816778554653592,0.885711055304141,2021-03-16
"561",280,0.954609575495577,0.883508837361628,0.816488235603953,0.885548905549765,2021-03-17
"562",280.5,0.954575631070602,0.8833623758873,0.816199720709813,0.885387675890208,2021-03-17
"563",281,0.954541722847366,0.883205276712479,0.815913006300166,0.885227364573766,2021-03-18
"564",281.5,0.95450785099263,0.882996177954205,0.815628088583121,0.885067969787875,2021-03-18
"565",282,0.95447401567231,0.882823358800529,0.815344963648023,0.884909489660166,2021-03-19
"566",282.5,0.954440217051474,0.882659920822702,0.815063627467579,0.884751922259527,2021-03-19
"567",283,0.954406455294344,0.882497259140775,0.814784075899977,0.884595265597161,2021-03-20
"568",283.5,0.954372730564287,0.882335373414563,0.814506304690991,0.884439517627639,2021-03-20
"569",284,0.954339043023819,0.882174263256833,0.814230309476087,0.884284676249953,2021-03-21
"570",284.5,0.954305392834597,0.882013928233811,0.813956085782513,0.884130739308555,2021-03-21
"571",285,0.954271780157422,0.881854367865687,0.813683629031388,0.883977704594405,2021-03-22
"572",285.5,0.954238205152235,0.881650651941232,0.813412934539775,0.883825569846005,2021-03-22
"573",286,0.954204667978113,0.881492230437352,0.813143997522747,0.88367433275043,2021-03-23
"574",286.5,0.95417116879327,0.881343436530145,0.812876813095447,0.883523990944359,2021-03-23
"575",287,0.954137707755054,0.881195455958047,0.812611376275131,0.883374542015092,2021-03-24
"576",287.5,0.954104285019941,0.881030330617331,0.812347681983202,0.883225983501572,2021-03-24
"577",288,0.954070900743542,0.880817290432434,0.812085725047238,0.88307831289539,2021-03-25
"578",288.5,0.954037555080592,0.8806049880381,0.811825500202997,0.882931527641794,2021-03-25
"579",289,0.954004248184952,0.880428681690845,0.811567002096423,0.882785625140688,2021-03-26
"580",289.5,0.95397098020961,0.880285797798899,0.811310225285629,0.882640602747619,2021-03-26
"581",290,0.953937751306672,0.880143741186665,0.811055164242873,0.882496457774772,2021-03-27
"582",290.5,0.953904561627369,0.879930098445183,0.810801813356516,0.882353187491943,2021-03-27
"583",291,0.953871411322048,0.879695046450291,0.810550166932974,0.882210789127511,2021-03-28
"584",291.5,0.953838300540173,0.87946065723073,0.810300219198647,0.88206925986941,2021-03-28
"585",292,0.953805229430326,0.87922693409546,0.810051964301839,0.881928596866083,2021-03-29
"586",292.5,0.953772198140201,0.878993880310411,0.809805396314663,0.881788797227432,2021-03-29
"587",293,0.953739206816605,0.87876149909835,0.809560509234931,0.881649858025768,2021-03-30
"588",293.5,0.953706255605455,0.878523077809262,0.809317296988026,0.881511776296741,2021-03-30
"589",294,0.95367334465178,0.878319047375857,0.809075753428763,0.881374549040272,2021-03-31
"590",294.5,0.953640474099714,0.87811578158506,0.808835872343233,0.881238173221474,2021-03-31
"591",295,0.9536076440925,0.877930861049861,0.808597647450627,0.881102645771563,2021-04-01
"592",295.5,0.953574854772485,0.877787840547452,0.808361072405049,0.880967963588767,2021-04-01
"593",296,0.95354210628112,0.877644339434812,0.808126140797315,0.880834123539217,2021-04-02
"594",296.5,0.953509398758959,0.877423635282538,0.807892846156722,0.88070112245784,2021-04-02
