"","time","top","med","bottom","pseudo_med","date"
"1",0,0.0268530934263581,0.0216877303036609,0.0167362450221892,0.0217946692242737,2020-06-10
"2",0.5,0.0270400575947036,0.0218015574885401,0.0168791200981726,0.0219595888464381,2020-06-10
"3",1,0.0272192402949213,0.0219175124636241,0.0170160143892832,0.0221176273421023,2020-06-11
"4",1.5,0.0273983599095766,0.0219799703205844,0.0171317752934429,0.0222650676015097,2020-06-11
"5",2,0.0275852923171672,0.0220795391235283,0.0171680192312336,0.0223766557742004,2020-06-12
"6",2.5,0.0277597685811472,0.0221260743501232,0.017204513237609,0.0224821409093781,2020-06-12
"7",3,0.0279957621676162,0.0221877825487604,0.0172412574467766,0.0226185098071964,2020-06-13
"8",3.5,0.0283383466843577,0.0222486001091054,0.0172782520671322,0.0228082993757449,2020-06-13
"9",4,0.0286581491241114,0.0223638751925065,0.017315497377171,0.0229868232506412,2020-06-14
"10",4.5,0.0289567692728542,0.0224376545980783,0.0173529937216403,0.0231548814972473,2020-06-14
"11",5,0.0292356953329057,0.0224996088463071,0.0173907415079188,0.0233132184204122,2020-06-15
"12",5.5,0.029496311711954,0.0225757321813703,0.0174287412026096,0.0234625264572818,2020-06-15
"13",6,0.0297399062684221,0.0226384506520588,0.017466993328334,0.023603449798378,2020-06-16
"14",6.5,0.0299676770511181,0.0227019719936846,0.017505498460714,0.023736587755916,2020-06-16
"15",7,0.0301807385684713,0.0227723084901878,0.0175442572255329,0.0238624978970021,2020-06-17
"16",7.5,0.0303801276201864,0.0228507135658801,0.0175832702960623,0.0239816989581244,2020-06-17
"17",8,0.0305668087218587,0.0229026419070915,0.0176225383905468,0.0240946735562027,2020-06-18
"18",8.5,0.0307416791509619,0.0229529793102915,0.0176620622698361,0.024201870710399,2020-06-18
"19",9,0.0309055736406362,0.0230035828614724,0.0177018427351567,0.0243037081878965,2020-06-19
"20",9.5,0.0310592687458588,0.0230356821470738,0.0177418806260136,0.0244005746859362,2020-06-19
"21",10,0.0312034869048654,0.023084890270692,0.0177821768182155,0.0244928318615404,2020-06-20
"22",10.5,0.0313389002170934,0.0231227921164659,0.0178227322220152,0.0245808162195543,2020-06-20
"23",11,0.0314661339574329,0.0231686000730129,0.0178635477803593,0.0246648408688961,2020-06-21
"24",11.5,0.0315857698451911,0.0232025428555854,0.0179046244672396,0.0247451971562153,2020-06-21
"25",12,0.0316983490848914,0.0232475366594463,0.017945963286141,0.0248221561855162,2020-06-22
"26",12.5,0.0318043751948324,0.0232811676431925,0.0179875652685794,0.0248959702317059,2020-06-22
"27",13,0.0319043166382201,0.0233219535393223,0.0180294314727254,0.0249668740554728,2020-06-23
"28",13.5,0.0319986092706558,0.0233741561965927,0.0180715629821071,0.0250350861263815,2020-06-23
"29",14,0.0320876586167949,0.0234311048781267,0.0181139609043886,0.0251008097605917,2020-06-24
"30",14.5,0.0321718419881028,0.0234895017155253,0.0181566263702185,0.0251642341791607,2020-06-24
"31",15,0.0322515104527978,0.0235444796257837,0.0181995605321463,0.025225535492472,2020-06-25
"32",15.5,0.0323269906682983,0.0235804715021028,0.0182427645635992,0.0252848776159488,2020-06-25
"33",16,0.032398586585772,0.0236134615252165,0.0182862396579194,0.0253424131218457,2020-06-26
"34",16.5,0.0324665810357134,0.0236529577803909,0.0183299870274553,0.0253982840315844,2020-06-26
"35",17,0.0325312372028542,0.0237069832285977,0.0183740079027057,0.0254526225527799,2020-06-27
"36",17.5,0.0325927999981311,0.023760832345409,0.0184183035315116,0.0255055517648214,2020-06-27
"37",18,0.0326514973348959,0.0238115204055712,0.0184628751782949,0.0255571862565954,2020-06-28
"38",18.5,0.0327075413160524,0.0238680944512084,0.0185077241233391,0.0256076327196958,2020-06-28
"39",19,0.0327611293383357,0.0239108600589352,0.0185528516621115,0.0256569905002236,2020-06-29
"40",19.5,0.0328124451195196,0.023945865701426,0.0185982591046222,0.0257053521120709,2020-06-29
"41",20,0.0328616596539299,0.0239809271356275,0.0186439477748204,0.0257528037143752,2020-06-30
"42",20.5,0.0329089321012682,0.0240186989268689,0.0186899190100225,0.0257994255556454,2020-06-30
"43",21,0.0329544106134012,0.0240528008892661,0.0187361741603728,0.025845292386887,2020-07-01
"44",21.5,0.0329982331034453,0.0240878207684816,0.0187827145883337,0.0258904738458895,2020-07-01
"45",22,0.0330405279611747,0.0241290483402317,0.0188295416682032,0.025935034814689,2020-07-02
"46",22.5,0.0330814147184988,0.0241703656823945,0.0188766567856589,0.0259790357520788,2020-07-02
"47",23,0.0331210046684942,0.0242037606537267,0.0189240613373261,0.0260225330029101,2020-07-03
"48",23.5,0.0331594014412338,0.0242468617031363,0.0189717567303695,0.0260655790858017,2020-07-03
"49",24,0.0331967015394277,0.0242902076428603,0.0190197443821059,0.0261082229607668,2020-07-04
"50",24.5,0.0332329948366815,0.0243361173351491,0.0190680257196371,0.0261505102781593,2020-07-04
"51",25,0.0332683650409804,0.0243932960816433,0.0191166021795023,0.0261924836102414,2020-07-05
"52",25.5,0.0333028901258283,0.0244292283305775,0.0191654752073478,0.026234182666588,2020-07-05
"53",26,0.0333366427312969,0.0244652818803403,0.0192146462576134,0.0262756444944551,2020-07-06
"54",26.5,0.0333696905370869,0.0245014668981806,0.019264116793235,0.026316903665161,2020-07-06
"55",27,0.0334020966095544,0.0245377929791112,0.0193138882853613,0.0263579924474578,2020-07-07
"56",27.5,0.0334339197245193,0.0245770898997474,0.019363962213084,0.0263989409688016,2020-07-07
"57",28,0.0334652146675465,0.0246275121325645,0.0194143400631819,0.0264397773653642,2020-07-08
"58",28.5,0.0334960325132722,0.0246658213291069,0.0194650233298759,0.0264805279215741,2020-07-08
"59",29,0.0335264208852376,0.0247179867956714,0.0195160135145959,0.0265212171999167,2020-07-09
"60",29.5,0.0335564241975906,0.0247703450757389,0.0195673121257581,0.0265618681616744,2020-07-09
"61",30,0.0335860838799225,0.0248282607823729,0.019618920678552,0.0266025022792372,2020-07-10
"62",30.5,0.0336154385864137,0.0248749402300323,0.0196708406947371,0.0266431396405754,2020-07-10
"63",31,0.0336445243903873,0.024921771145193,0.0197230737024473,0.0266837990464173,2020-07-11
"64",31.5,0.0336733749652863,0.0249702563897783,0.0197756212360044,0.0267244981006454,2020-07-11
"65",32,0.0337020217530236,0.0250109128483672,0.0198284848357383,0.026765253294381,2020-07-12
"66",32.5,0.033730494120585,0.0250544287079278,0.0198816660478145,0.0268060800841998,2020-07-12
"67",33,0.0337588195057065,0.025106946675503,0.0199351664240678,0.0268469929648872,2020-07-13
"68",33.5,0.033787023552387,0.0251542155109693,0.019988987521843,0.026888005537115,2020-07-13
"69",34,0.0338151302369468,0.025201785843149,0.0200431309038398,0.0269291305703933,2020-07-14
"70",34.5,0.0338431619852922,0.0252447245157297,0.0200975981379641,0.0269703800616282,2020-07-14
"71",35,0.033871139781998,0.025281449434847,0.0201523907971836,0.0270117652895908,2020-07-15
"72",35.5,0.0338990832717815,0.0253176101880084,0.020207510459388,0.0270532968655848,2020-07-15
"73",36,0.0339270108538974,0.0253621194279462,0.0202629587072538,0.0270949847805756,2020-07-16
"74",36.5,0.0339549397699481,0.025410358507806,0.0203187371281121,0.0271368384490301,2020-07-16
"75",37,0.0339828861855693,0.0254617181509511,0.0203748473138205,0.0271788667496949,2020-07-17
"76",37.5,0.034010865266418,0.0255095580865285,0.0204312908606385,0.0272210780635283,2020-07-17
"77",38,0.0340388912488605,0.0255570302611623,0.0204880693691057,0.0272634803089831,2020-07-18
"78",38.5,0.034066977505731,0.0256042537655433,0.0205451844439221,0.0273060809748265,2020-07-18
"79",39,0.0340951366075035,0.0256529329070405,0.0206026376938323,0.0273488871506679,2020-07-19
"80",39.5,0.0341233803791994,0.0257013715747653,0.0206604307315108,0.0273919055553551,2020-07-19
"81",40,0.034151719953325,0.0257475742570752,0.0207185651734501,0.0274351425633876,2020-07-20
"82",40.5,0.0341801658191201,0.0257891560467495,0.0207770426398503,0.0274786042294852,2020-07-20
"83",41,0.0342087278683714,0.0258465561293952,0.0208358647545108,0.0275222963114411,2020-07-21
"84",41.5,0.0342374154380326,0.0258866915709162,0.0208950331447235,0.0275662242913781,2020-07-21
"85",42,0.0342662373498744,0.0259248393031539,0.0209545494411669,0.0276103933955207,2020-07-22
"86",42.5,0.034295201947369,0.0259671983692009,0.0210144152778022,0.0276548086125856,2020-07-22
"87",43,0.0343243171300058,0.0260098964850891,0.0210746322917697,0.0276994747108877,2020-07-23
"88",43.5,0.0343535903852144,0.0260563578831181,0.0211352021232869,0.0277443962542506,2020-07-23
"89",44,0.0343830288180637,0.0261051204714233,0.0211961264155471,0.0277895776168054,2020-07-24
"90",44.5,0.0344126391788917,0.0261542969766273,0.0212574068146182,0.027835022996755,2020-07-24
"91",45,0.0344424278890105,0.0262104517329513,0.0213190449693432,0.0278807364291768,2020-07-25
"92",45.5,0.0344796899004095,0.0262715929620776,0.0213810425312401,0.0279303662158248,2020-07-25
"93",46,0.0345266647496232,0.026339942380968,0.0214434011544025,0.0279850329520129,2020-07-26
"94",46.5,0.0345738120219651,0.0263729541807793,0.0215061224954011,0.0280399672586831,2020-07-26
"95",47,0.0346211372092017,0.0264158356593386,0.0215692082131844,0.0280951727111931,2020-07-27
"96",47.5,0.0346686455131355,0.0264705894003718,0.02163265996898,0.0281506527410578,2020-07-27
"97",48,0.034716341864427,0.0265153168859262,0.0216964794261961,0.0282064106453115,2020-07-28
"98",48.5,0.0347642309401944,0.0265737524757655,0.0217606682503222,0.0282624495952583,2020-07-28
"99",49,0.034812317180469,0.0266343682649971,0.0218085671683014,0.0283104421743852,2020-07-29
"100",49.5,0.0348606048035809,0.0266953522771643,0.0218499752377813,0.0283552900206811,2020-07-29
"101",50,0.0349090978205439,0.0267567095155528,0.0218916710331178,0.0284003844268308,2020-07-30
"102",50.5,0.0349578000485048,0.0268261820202003,0.0219336561292796,0.0284457280888922,2020-07-30
"103",51,0.0350067151233178,0.0268877610165863,0.021975932114937,0.0284913236191274,2020-07-31
"104",51.5,0.0350558465112996,0.0269510568620667,0.0220185005919912,0.0285371735516454,2020-07-31
"105",52,0.0351051975202203,0.0270147161381623,0.0220613631751284,0.0285832803476744,2020-08-01
"106",52.5,0.0351547713095776,0.0270759217419446,0.022104521491395,0.0286296464004863,2020-08-01
"107",53,0.0352045709002015,0.0271391783881262,0.0221479771797954,0.0286762740399985,2020-08-02
"108",53.5,0.0352545991832336,0.0272071837179649,0.022191731890909,0.0287231655370713,2020-08-02
"109",54,0.0353048589285198,0.0272745794367376,0.0222357872865254,0.0287703231075226,2020-08-03
"110",54.5,0.0353553527924564,0.027323481429175,0.0222801450392982,0.0288177489158773,2020-08-03
"111",55,0.0354060833253228,0.0273727227941143,0.0223248068324139,0.0288654450788684,2020-08-04
"112",55.5,0.0354570529781367,0.027430594408819,0.0223697743592766,0.0289134136687067,2020-08-04
"113",56,0.0355219405082409,0.0274973736581174,0.0224150493232073,0.0289684949157241,2020-08-05
"114",56.5,0.0356230168699418,0.0275597532938513,0.0224606334371561,0.029041825153549,2020-08-05
"115",57,0.0357240079965621,0.0276064336953504,0.0225065284234271,0.0291152682099946,2020-08-06
"116",57.5,0.0358249126832091,0.0276534934964295,0.0225527360134149,0.029188824348312,2020-08-06
"117",58,0.0359257297031055,0.0276956576192836,0.0225992579473521,0.0292624938252288,2020-08-07
"118",58.5,0.0360264578093737,0.0277671211514397,0.0226460959740672,0.0293362768917205,2020-08-07
"119",59,0.0361270957367157,0.027841856983176,0.0226932518507514,0.0294101737937336,2020-08-08
"120",59.5,0.036227642202996,0.0279059481537407,0.0227407273427346,0.0294841847728653,2020-08-08
"121",60,0.0363280959107316,0.0279600690555984,0.0227885242232699,0.0295583100670008,2020-08-09
"122",60.5,0.0364284555484966,0.0280207985010441,0.0228366442733253,0.0296325499109109,2020-08-09
"123",61,0.0365287197922453,0.0280629868791471,0.0228850892813823,0.0297069045368138,2020-08-10
"124",61.5,0.0366288873065588,0.0281130019550425,0.0229338610432421,0.0297813741749004,2020-08-10
"125",62,0.0367289567458213,0.0281718602608701,0.0229829613618367,0.029855959053829,2020-08-11
"126",62.5,0.0368289267553276,0.0282369541041178,0.0230323920470465,0.0299306594011871,2020-08-11
"127",63,0.0369287959723292,0.0283011953608488,0.0230821549155226,0.0300054754439259,2020-08-12
"128",63.5,0.0370285630270192,0.0283677105648369,0.0231322517905141,0.0300804074087667,2020-08-12
"129",64,0.0371282265434636,0.0284363212809038,0.0231826845017,0.0301554555225818,2020-08-13
"130",64.5,0.0372277851404782,0.0285071226764192,0.0232334548850247,0.0302306200127514,2020-08-13
"131",65,0.0373272374324578,0.028574731782296,0.0232845647825377,0.0303059011074977,2020-08-14
"132",65.5,0.0374265820301583,0.0286448035526987,0.0233360160422363,0.0303812990361973,2020-08-14
"133",66,0.0375258175414359,0.0287154585299029,0.0233878105179116,0.0304568140296737,2020-08-15
"134",66.5,0.0376249425719445,0.0287982395632448,0.0234399500689974,0.0305324463204709,2020-08-15
"135",67,0.037723955725796,0.0288677754372659,0.023492436560421,0.0306081961431085,2020-08-16
"136",67.5,0.0378228556061834,0.0289362073507556,0.0235452718624572,0.0306840637343203,2020-08-16
"137",68,0.0379216408159702,0.0290039939635902,0.0235984578505835,0.0307600493332768,2020-08-17
"138",68.5,0.038020309958248,0.0290696618425233,0.0236519964053374,0.0308361531817927,2020-08-17
"139",69,0.0381188616368641,0.0291324723660014,0.0237058894121755,0.0309123755245198,2020-08-18
"140",69.5,0.0382172944569204,0.0291786574300869,0.0237601387613336,0.030988716609127,2020-08-18
"141",70,0.0383156070252459,0.0292458986773533,0.023814746347688,0.0310651766864669,2020-08-19
"142",70.5,0.0384137979508443,0.0293136897766371,0.0238697140706178,0.0311417560107311,2020-08-19
"143",71,0.038511865845318,0.0293791253033136,0.0239250438338686,0.0312184548395933,2020-08-20
"144",71.5,0.0386098093232692,0.0294510162830649,0.0239807375454156,0.0312952734343424,2020-08-20
"145",72,0.0387076270026814,0.0295093645501458,0.0240367971173283,0.0313722120600049,2020-08-21
"146",72.5,0.0388053175052799,0.0295881018490451,0.0240932244656351,0.0314492709854575,2020-08-21
"147",73,0.0389028794568743,0.0296760166268072,0.0241500215101882,0.0315264504835313,2020-08-22
"148",73.5,0.0390003114876839,0.029740308639239,0.0242071901745282,0.0316037508311061,2020-08-22
"149",74,0.0390976122326457,0.0297958283029458,0.0242647323857492,0.0316811723091974,2020-08-23
"150",74.5,0.0391947803317074,0.0298461837786272,0.0243226500743634,0.0317587152030354,2020-08-23
"151",75,0.0392918144301062,0.0299213060280204,0.0243809451741654,0.0318363798021358,2020-08-24
"152",75.5,0.0393887131786324,0.0300136849545763,0.0244396196220961,0.0319141664003643,2020-08-24
"153",76,0.0394854752338814,0.0300941832624789,0.0244986753581064,0.0319920752959939,2020-08-25
"154",76.5,0.0395820992584926,0.0301655070627109,0.0245581143250198,0.0320701067917562,2020-08-25
"155",77,0.0396785839213763,0.030228010209915,0.0246179384683945,0.0321482611948854,2020-08-26
"156",77.5,0.039774927897931,0.0302929631056943,0.024678149736385,0.032226538817158,2020-08-26
"157",78,0.0398711298702483,0.0303505272929445,0.0247387500796027,0.0323049399749255,2020-08-27
"158",78.5,0.0399671885273101,0.0304216164142114,0.0247997414509752,0.0323834649891426,2020-08-27
"159",79,0.0400631025651745,0.0304916649901893,0.0248611258056049,0.0324621141853897,2020-08-28
"160",79.5,0.0401588706871545,0.0305589477760174,0.0249229051006267,0.0325408878938906,2020-08-28
"161",80,0.0402635098588604,0.0306291614096182,0.0249850812950642,0.0326242955769623,2020-08-29
"162",80.5,0.0403821474547491,0.0307009800845263,0.025047656349685,0.032714901902217,2020-08-29
"163",81,0.0405012341247551,0.0307741708122927,0.0251106322268543,0.0328059331758047,2020-08-30
"164",81.5,0.0406207696125618,0.0308478899815995,0.0251740108903875,0.0328973902514747,2020-08-30
"165",82,0.0407407536371266,0.0309324633574383,0.0252377943054016,0.0329892739712641,2020-08-31
"166",82.5,0.0408611858926135,0.0310292760376904,0.0253019844381646,0.0330815851653891,2020-08-31
"167",83,0.0409820660483237,0.0311440483501417,0.0253665832559437,0.0331743246521337,2020-09-01
"168",83.5,0.0411033937486224,0.0312583071515156,0.0254315927268525,0.0332674932377375,2020-09-01
"169",84,0.0412251686128655,0.0313379397693312,0.0254970148196955,0.0333610917162805,2020-09-02
"170",84.5,0.0413473902353232,0.0314030369472905,0.0255628515038118,0.0334551208695675,2020-09-02
"171",85,0.0414700581851024,0.0314896727968965,0.0256291047489172,0.0335495814670098,2020-09-03
"172",85.5,0.041593172006068,0.0315984602794593,0.0256957765249442,0.0336444742655061,2020-09-03
"173",86,0.0417167312167632,0.0316815376486584,0.02576286880188,0.0337398000093216,2020-09-04
"174",86.5,0.0418407353103282,0.0317614127354356,0.025830383549604,0.0338355594299661,2020-09-04
"175",87,0.0419651837544192,0.0318399288459059,0.025898322737722,0.0339317532460706,2020-09-05
"176",87.5,0.0420900759911258,0.0319150051774758,0.0259666883353991,0.0340283821632625,2020-09-05
"177",88,0.0422154114368894,0.0319826365842573,0.0260354823111917,0.0341254468740405,2020-09-06
"178",88.5,0.0423411894824196,0.0320934132365885,0.0261047066328758,0.0342229480576477,2020-09-06
"179",89,0.0424674094926129,0.0321961235420864,0.0261743632672752,0.0343208863799441,2020-09-07
"180",89.5,0.042607541761225,0.0322746384739857,0.0262444541800862,0.0344259979706556,2020-09-07
"181",90,0.0427829052756947,0.0323529945472732,0.0263149813357016,0.0345489433056982,2020-09-08
"182",90.5,0.0429590475266485,0.032446539558591,0.026385946697032,0.0346724971118403,2020-09-08
"183",91,0.043135966783004,0.0325353313267045,0.0264573522253253,0.0347966595041647,2020-09-09
"184",91.5,0.0433136612383379,0.0326326220882088,0.026529199879984,0.0349214305591609,2020-09-09
"185",92,0.0434921290104956,0.0327236485792136,0.026601491618381,0.0350468103144383,2020-09-10
"186",92.5,0.0436713681412135,0.0328105860715672,0.0266742293956725,0.035172798768443,2020-09-10
"187",93,0.0438513765957525,0.0328946592787299,0.0267474151646097,0.0352993958801811,2020-09-11
"188",93.5,0.0440321522625439,0.0329793190695033,0.0268210508753477,0.0354266015689458,2020-09-11
"189",94,0.0442136929528482,0.0330746588013286,0.0268951384752528,0.0355544157140505,2020-09-12
"190",94.5,0.0443959964004263,0.0331716911557332,0.0269696799087074,0.0356828381545668,2020-09-12
"191",95,0.0445790602612235,0.0332528144278525,0.0270446771169126,0.0358118686890681,2020-09-13
"192",95.5,0.044762882113068,0.0333471930808522,0.0271201320376894,0.0359415070753787,2020-09-13
"193",96,0.044947459455381,0.0334358634708145,0.0271960466052768,0.0360717530303289,2020-09-14
"194",96.5,0.0451327897089025,0.0335354780794229,0.0272724227501287,0.0362026062295156,2020-09-14
"195",97,0.0453188702154301,0.0336421949818002,0.0273492623987075,0.0363340663070688,2020-09-15
"196",97.5,0.0455056982375718,0.0337582858752165,0.0274265674732766,0.0364661328554242,2020-09-15
"197",98,0.0456932709585147,0.0338687086225357,0.0275028651562812,0.036598068057398,2020-09-16
"198",98.5,0.0458815854818067,0.0339822558355883,0.0275620043420957,0.0367217949119512,2020-09-16
"199",99,0.0460706388311546,0.0340949521311129,0.0276214675482243,0.0368460531896895,2020-09-17
"200",99.5,0.0462604279502365,0.0342063387671207,0.0276812559476052,0.0369708419489209,2020-09-17
"201",100,0.0464509497025302,0.0343200948972377,0.0277413707099888,0.0370961602062595,2020-09-18
"202",100.5,0.0466422008711568,0.0344125500613511,0.0278018130018154,0.0372220069364861,2020-09-18
"203",101,0.0468341781587406,0.0345208996371307,0.0278625839860924,0.0373483810724165,2020-09-19
"204",101.5,0.0470268781872847,0.0346234134822759,0.0279236848222707,0.0374752815047777,2020-09-19
"205",102,0.0472202974980632,0.034721814006577,0.02798511666612,0.0376027070820916,2020-09-20
"206",102.5,0.0474144325515296,0.0348191846599396,0.028046880669603,0.0377306566105663,2020-09-20
"207",103,0.0476092797272417,0.0349172292089358,0.0281089779807496,0.0378591288539957,2020-09-21
"208",103.5,0.0478048353238044,0.0350159510951571,0.0281714097435289,0.0379881225336666,2020-09-21
"209",104,0.048001095558828,0.0351187878910673,0.0282341770977216,0.0381176363282748,2020-09-22
"210",104.5,0.048198056568905,0.0352471463045141,0.0282972811787907,0.0382476688738478,2020-09-22
"211",105,0.0483957144096037,0.0353699301614072,0.0283607231177512,0.0383782187636775,2020-09-23
"212",105.5,0.0485940650554796,0.0354763237212614,0.02842450404104,0.0385092845482598,2020-09-23
"213",106,0.0487931044001044,0.0355985029628502,0.0284886250703831,0.0386408647352438,2020-09-24
"214",106.5,0.048992828256113,0.0357086057796256,0.0285530873226638,0.0387729577893884,2020-09-24
"215",107,0.0491932323552684,0.0358092708884964,0.0286178919097886,0.0389055621325285,2020-09-25
"216",107.5,0.049394312348545,0.0359164683914397,0.0286830399385529,0.039038676143549,2020-09-25
"217",108,0.0495960638062303,0.0360355174024231,0.0287485325105055,0.0391722981583679,2020-09-26
"218",108.5,0.0497984822180447,0.0361557589441748,0.0288143707218124,0.0393064264699285,2020-09-26
"219",109,0.0500015629932802,0.0362916736506812,0.0288805556631197,0.0394410593281999,2020-09-27
"220",109.5,0.0502053014609578,0.0364081833480567,0.0289470884194152,0.0395761949401865,2020-09-27
"221",110,0.0504096928700037,0.0365184621035508,0.02901397006989,0.0397118314699469,2020-09-28
"222",110.5,0.0506147323894444,0.0365969089002812,0.0290812016877981,0.0398479670386213,2020-09-28
"223",111,0.0508204151086209,0.0366803623678581,0.0291487843403159,0.0399845997244684,2020-09-29
"224",111.5,0.0510267360374219,0.0367923798035481,0.0292167190884007,0.0401217275629113,2020-09-29
"225",112,0.0512336901065365,0.0369165950407205,0.029285006986648,0.0402593485465923,2020-09-30
"226",112.5,0.0514412721677262,0.0370415959226593,0.0293536490831484,0.0403974606254373,2020-09-30
"227",113,0.0516494769941158,0.0371378541994251,0.0294226464193431,0.0405360617067295,2020-10-01
"228",113.5,0.0518582992805042,0.0372446884066621,0.0294920000298793,0.0406751496551917,2020-10-01
"229",114,0.0520677336436946,0.0373697740168535,0.0295617109424637,0.0408147222930792,2020-10-02
"230",114.5,0.0522777746228445,0.0374888035254385,0.0296317801777163,0.0409547774002804,2020-10-02
"231",115,0.0524884166798343,0.037593319917521,0.0297022087490226,0.0410953127144284,2020-10-03
"232",115.5,0.0526996541996571,0.0377041505502232,0.029772997662385,0.0412363259310211,2020-10-03
"233",116,0.0529114814908268,0.0378423634649807,0.0298441479162742,0.0413778147035505,2020-10-04
"234",116.5,0.0531238927858063,0.0379961328457326,0.0299156605014784,0.0415197766436423,2020-10-04
"235",117,0.0533368822414556,0.0381590331529854,0.029987536400953,0.0416622093212043,2020-10-05
"236",117.5,0.0535504439394998,0.0383265167029912,0.0300597765896691,0.0418051102645844,2020-10-05
"237",118,0.0537645718870154,0.0384534859712709,0.0301323820344606,0.041948476960738,2020-10-06
"238",118.5,0.0539792600169384,0.0385811907352067,0.0302053536938715,0.0420923068554049,2020-10-06
"239",119,0.0541945021885899,0.0387032100696442,0.0302786925180019,0.0422365973532959,2020-10-07
"240",119.5,0.0544102921882231,0.0388286040838883,0.0303523994483535,0.0423813458182883,2020-10-07
"241",120,0.0546266237295884,0.0389550218387578,0.0304264754176737,0.0425265495736311,2020-10-08
"242",120.5,0.0548434904545191,0.0390659809361734,0.0305009213498005,0.0426722059021598,2020-10-08
"243",121,0.0550608859335357,0.0391704812910631,0.0305757381595045,0.0428183120465201,2020-10-09
"244",121.5,0.0552788036664706,0.0392915180512515,0.0306509267523326,0.0429648652094016,2020-10-09
"245",122,0.0554972370831108,0.0394497064664794,0.0307264880244491,0.04311186255378,2020-10-10
"246",122.5,0.0557161795438612,0.0395978888841648,0.0308024228624771,0.0432593012031691,2020-10-10
"247",123,0.0559356243404258,0.0397272952986187,0.0308787321433392,0.0434071782418825,2020-10-11
"248",123.5,0.0561555646965091,0.039849315200583,0.0309554167340973,0.0435554907153032,2020-10-11
"249",124,0.0563759937685352,0.0399440750886164,0.0310324774917918,0.0437042356301635,2020-10-12
"250",124.5,0.0565969046463871,0.0400722409132736,0.0311099152632805,0.0438534099548338,2020-10-12
"251",125,0.0568182903541633,0.040180689110224,0.0311877308850766,0.04400301061962,2020-10-13
"252",125.5,0.0570401438509539,0.0403061337921924,0.0312659251831863,0.0441530345170701,2020-10-13
"253",126,0.0572624580316345,0.0404123722235852,0.0313444989729458,0.0443034785022902,2020-10-14
"254",126.5,0.0574852257276792,0.0405260414612598,0.031423453058858,0.0444543393932686,2020-10-14
"255",127,0.0577084397079905,0.0406683199749118,0.0315027882344278,0.0446056139712092,2020-10-15
"256",127.5,0.0579320926797481,0.0408138235315441,0.0315825052819986,0.0447572989808733,2020-10-15
"257",128,0.0581561772892748,0.0409722004246681,0.0316626049725864,0.0449093911309306,2020-10-16
"258",128.5,0.0583806861229204,0.0411315953876848,0.0317430880657148,0.0450618870943176,2020-10-16
"259",129,0.0586056117079629,0.0412920107756763,0.0318239553092491,0.045214783508606,2020-10-17
"260",129.5,0.0588309465135262,0.0414534488795724,0.03190520743923,0.0453680769763781,2020-10-17
"261",130,0.059056682951516,0.041597630591613,0.0319868451797066,0.0455217640656113,2020-10-18
"262",130.5,0.0592828133775707,0.0417498422220752,0.03206886924257,0.0456758413100704,2020-10-18
"263",131,0.0595093300920308,0.0419108718524918,0.0321512803273853,0.0458303052097081,2020-10-19
"264",131.5,0.0597362253409227,0.0420617467393144,0.0322340791212242,0.0459851522310734,2020-10-19
"265",132,0.0599634913169594,0.042208980991524,0.0323172662984968,0.0461403788077281,2020-10-20
"266",132.5,0.0601911201605572,0.0423486160076017,0.0324008425207836,0.0462959813406704,2020-10-20
"267",133,0.0604191039608673,0.0424966261190675,0.0324848084366664,0.0464519561987669,2020-10-21
"268",133.5,0.0606474347568227,0.0426210807129408,0.0325691646815602,0.0466082997191914,2020-10-21
"269",134,0.0608761045382002,0.042745958678043,0.0326539118775436,0.0467650082078719,2020-10-22
"270",134.5,0.0611051052466973,0.0428904272856888,0.03273905063319,0.0469220779399436,2020-10-22
"271",135,0.0613344287770227,0.0430395951447855,0.0328245815433981,0.0470795051602104,2020-10-23
"272",135.5,0.061564066978002,0.0431519281443768,0.0329105051892226,0.0472372860836123,2020-10-23
"273",136,0.0617940116536958,0.0433028638643868,0.0329968221377044,0.0473954168957001,2020-10-24
"274",136.5,0.0620242545645323,0.0434661732350837,0.033083532941701,0.0475538937531166,2020-10-24
"275",137,0.0622547874284526,0.0436412097634534,0.033170638139717,0.0477127127840848,2020-10-25
"276",137.5,0.0624856019220689,0.0438414985581819,0.0332581382557343,0.0478718700889016,2020-10-25
"277",138,0.0627166896818351,0.0440288429706545,0.0333460337990422,0.0480313617404386,2020-10-26
"278",138.5,0.0629480423052293,0.0441790973146563,0.0334343252640679,0.0481911837846486,2020-10-26
"279",139,0.0631796513519488,0.0442925657105436,0.033523013130207,0.0483513322410779,2020-10-27
"280",139.5,0.0634115083451153,0.044435137157357,0.0336120978616536,0.0485118031033844,2020-10-27
"281",140,0.0636436047724927,0.0446373110665801,0.033701579907231,0.0486725923398619,2020-10-28
"282",140.5,0.0638759320877142,0.0448425200780424,0.033791459700223,0.0488336958939686,2020-10-28
"283",141,0.0641084817115206,0.045049102750931,0.0338817376582037,0.0489951096848621,2020-10-29
"284",141.5,0.0643412450330079,0.0452570635717369,0.0339724141828699,0.0491568296079389,2020-10-29
"285",142,0.0645742134108856,0.0454533331560934,0.0340634896598714,0.0493188515353785,2020-10-30
"286",142.5,0.0648073781747424,0.0456476937357649,0.0341549644586434,0.0494811713166929,2020-10-30
"287",143,0.0650407306263228,0.0458282897875495,0.0342468389322377,0.0496437847792803,2020-10-31
"288",143.5,0.0652742620408103,0.0459741394746093,0.034339113417156,0.0498066877289831,2020-10-31
"289",144,0.0655079636681193,0.0461137859737611,0.0344317882331813,0.0499698759506503,2020-11-01
"290",144.5,0.0657418267341953,0.0462857808482714,0.0345248636832122,0.0501333452087038,2020-11-01
"291",145,0.0659758424423211,0.0464586263549036,0.0346183400530955,0.0502970912477083,2020-11-02
"292",145.5,0.0662100019744305,0.0466417450664125,0.0346570943601764,0.0504335481673034,2020-11-02
"293",146,0.066444296492428,0.0468518435849183,0.0346920826295629,0.0505681895609955,2020-11-03
"294",146.5,0.0666787171395149,0.047037171667745,0.0347271008663388,0.0507029090029269,2020-11-03
"295",147,0.0669132550415209,0.0471778729790236,0.0347621488758247,0.0508377019586728,2020-11-04
"296",147.5,0.0671479013082398,0.0473403398523025,0.0347972264626116,0.0509725638854257,2020-11-04
"297",148,0.0673826470347715,0.0475392586606807,0.0348323334305652,0.0511074902326683,2020-11-05
"298",148.5,0.067617483302867,0.0477131861687804,0.0348674695828301,0.0512424764428485,2020-11-05
"299",149,0.0678524011822778,0.0478536368535282,0.0349026347218339,0.0513775179520559,2020-11-06
"300",149.5,0.0680873917321087,0.048000639771935,0.0349378286492919,0.0515126101907003,2020-11-06
"301",150,0.0683224460021729,0.048190725180257,0.0349730511662112,0.051647748584192,2020-11-07
"302",150.5,0.0685575550343508,0.0484217209211624,0.0350083020728949,0.0517829285536229,2020-11-07
"303",151,0.0687927098639498,0.0486439222087263,0.035043581168947,0.0519181455164484,2020-11-08
"304",151.5,0.0690279015210663,0.0488463214721462,0.035078888253276,0.0520533948871712,2020-11-08
"305",152,0.0692631210319489,0.0490418120891797,0.0351142231241003,0.0521886720780246,2020-11-09
"306",152.5,0.069498359420362,0.0492320511844068,0.0351495855789518,0.0523239724996569,2020-11-09
"307",153,0.0697336077089504,0.0494069394076878,0.0351849754146807,0.0524592915618155,2020-11-10
"308",153.5,0.069968856920603,0.0495696936485857,0.03522039242746,0.0525946246740315,2020-11-10
"309",154,0.0702040980798169,0.0497440651260744,0.0352558364127901,0.0527299672463035,2020-11-11
"310",154.5,0.0704393222140592,0.0499226305618308,0.0352913071655032,0.0528653146897812,2020-11-11
"311",155,0.0706745203551288,0.0501018489883898,0.0353268044797677,0.0530006624174483,2020-11-12
"312",155.5,0.0709096835405158,0.050291157594789,0.0353623281490932,0.0531360058448045,2020-11-12
"313",156,0.071144802814758,0.0505055363813564,0.0353978779663348,0.0532713403905464,2020-11-13
"314",156.5,0.0713798692307955,0.0506866204608601,0.0354334537236977,0.0534066614772466,2020-11-13
"315",157,0.0716148738513219,0.0508685150473008,0.0354690552127421,0.053541964532032,2020-11-14
"316",157.5,0.0718498077501321,0.0510512191574156,0.0355046822243879,0.05367724498726,2020-11-14
"317",158,0.0720846620134652,0.0512347317380497,0.035540334548919,0.0538124982811921,2020-11-15
"318",158.5,0.0723194277413444,0.0514190516656203,0.0355760119759883,0.0539477198586663,2020-11-15
"319",159,0.0725540960489107,0.0516070793670533,0.0356117142946228,0.0540829051717668,2020-11-16
"320",159.5,0.0727886580677526,0.0518390658409163,0.0356474412932278,0.0542180496804902,2020-11-16
"321",160,0.0730231049472284,0.0520772313770597,0.035683192759592,0.0543531488534102,2020-11-17
"322",160.5,0.0732574278557845,0.0523063617100388,0.0357189684808923,0.0544881981683384,2020-11-17
"323",161,0.0734916179822653,0.0525091002572174,0.0357547682436989,0.0546231931129821,2020-11-18
"324",161.5,0.0737256665372174,0.0527032602221738,0.0357905918339796,0.0547581291855985,2020-11-18
"325",162,0.073959564754186,0.0529128422688318,0.0358264390371054,0.0548930018956457,2020-11-19
"326",162.5,0.0741933038910033,0.0531233515278393,0.0358623096378551,0.0550278067644292,2020-11-19
"327",163,0.0744268752310696,0.0533422265705966,0.0358982034204201,0.0551625393257449,2020-11-20
"328",163.5,0.0746602700846253,0.0535359279449936,0.0359341201684098,0.0552971951265176,2020-11-20
"329",164,0.0748934797900137,0.05376225496671,0.0359700596648565,0.0554317697274351,2020-11-21
"330",164.5,0.0751264957149355,0.0539498694082044,0.0360060216922202,0.0555662587035779,2020-11-21
"331",165,0.0753593092576929,0.0541806652970287,0.0360420060323939,0.0557006576450434,2020-11-22
"332",165.5,0.0755919118484237,0.0544272370090741,0.0360780124667088,0.0558349621575662,2020-11-22
"333",166,0.0758242949503257,0.0546212129020653,0.0361140407759391,0.0559691678631324,2020-11-23
"334",166.5,0.0760564500608693,0.054840738644344,0.0361500907403074,0.0561032704005884,2020-11-23
"335",167,0.0762883687130004,0.0550446569386586,0.0361861621394899,0.0562372654262452,2020-11-24
"336",167.5,0.0765200424763302,0.0552472357943033,0.0362222547526216,0.0563711486144759,2020-11-24
"337",168,0.0767514629583148,0.0554505085840885,0.0362583683583011,0.056504915658308,2020-11-25
"338",168.5,0.0769826218054217,0.0556420077477896,0.0362945027345967,0.0566385622700092,2020-11-25
"339",169,0.0772135107042842,0.0558159167705768,0.0363306576590509,0.0567720841816676,2020-11-26
"340",169.5,0.0774441213828432,0.0560244808419607,0.0363668329086861,0.0569054771457646,2020-11-26
"341",170,0.0776744456114756,0.0562142665774295,0.0364030282600098,0.0570387369357427,2020-11-27
"342",170.5,0.0779044752041095,0.0564045159821858,0.03643924348902,0.0571718593465648,2020-11-27
"343",171,0.078134202019326,0.0565952252207345,0.0364754783712107,0.0573048401952684,2020-11-28
"344",171.5,0.0783636179614465,0.0567828213298587,0.0365117326815771,0.0574376753215118,2020-11-28
"345",172,0.078592714981606,0.0570002714160055,0.036548006194621,0.0575703605881135,2020-11-29
"346",172.5,0.0788214850788121,0.0572406907825317,0.0365842986843568,0.0577028918815844,2020-11-29
"347",173,0.0790499203009889,0.0574431057424454,0.036620609924316,0.0578352651126525,2020-11-30
"348",173.5,0.0792898651328541,0.0576551729204309,0.0366569396875537,0.0579734024102039,2020-11-30
"349",174,0.0796789646302204,0.057873080950394,0.0366932877466535,0.058186126188437,2020-12-01
"350",174.5,0.0800688994504256,0.0580917145570242,0.0367296538737334,0.0583992766620795,2020-12-01
"351",175,0.0804596501586252,0.0583110696347025,0.036766037840451,0.0586128439995381,2020-12-02
"352",175.5,0.0808511971596929,0.0585311420003737,0.0368024394180094,0.0588268182888511,2020-12-02
"353",176,0.081243520701989,0.0587695957607863,0.036838858377163,0.059041189539576,2020-12-03
"354",176.5,0.0816366008811935,0.0590098087818309,0.0368752944882225,0.059255947684708,2020-12-03
"355",177,0.0820304176442012,0.0592420576258121,0.0369117475210612,0.0594710825826312,2020-12-04
"356",177.5,0.0824249507930793,0.0594514593810727,0.0369482172451204,0.0596865840190998,2020-12-04
"357",178,0.0828201799890843,0.059661439096883,0.0369847034294152,0.0599024417092497,2020-12-05
"358",178.5,0.083216084756737,0.0599093001123884,0.0370212058425401,0.0601186452996385,2020-12-05
"359",179,0.0836126444879542,0.0601826883479177,0.0370577242526748,0.0603351843703145,2020-12-06
"360",179.5,0.0840098384462348,0.0604269208811395,0.0370942584275902,0.0605520484369125,2020-12-06
"361",180,0.084407645770899,0.0606598229707889,0.037130808134654,0.0607692269527765,2020-12-07
"362",180.5,0.0848060454813787,0.0608748855657815,0.0371673731408364,0.0609867093111075,2020-12-07
"363",181,0.0852050164815567,0.0610879769274322,0.0372039532127161,0.0612044848471364,2020-12-08
"364",181.5,0.085604537564154,0.0612915944907501,0.0372405481164863,0.0614225428403201,2020-12-08
"365",182,0.0860045874151616,0.0614941607190144,0.0372771576179602,0.0616408725165609,2020-12-09
"366",182.5,0.0864051446183166,0.0616971600768793,0.0373137814825774,0.061859463050447,2020-12-09
"367",183,0.0868061876596195,0.0619005891777538,0.0373504194754092,0.0620783035675144,2020-12-10
"368",183.5,0.0872076949318908,0.0621044446036823,0.0373870713611652,0.062297383146528,2020-12-10
"369",184,0.087609644739365,0.0623087229055478,0.0374237369041986,0.0625166908217818,2020-12-11
"370",184.5,0.0880120153023208,0.0625134206032778,0.0374604158685128,0.0627362155854168,2020-12-11
"371",185,0.0884147847617433,0.0627474139450351,0.037497108017767,0.0629559463897552,2020-12-12
"372",185.5,0.0888179311840184,0.062986161228663,0.0375338131152822,0.0631758721496503,2020-12-12
"373",186,0.0892214325656558,0.0632254648409055,0.0375705309240475,0.0633959817448517,2020-12-13
"374",186.5,0.0896252668380391,0.0634326299240651,0.037607261206726,0.0636162640223825,2020-12-13
"375",187,0.0900294118722002,0.063638196622332,0.0376440037256606,0.0638367077989304,2020-12-14
"376",187.5,0.0904338454836171,0.0638545387225789,0.0376807582428807,0.0640573018632489,2020-12-14
"377",188,0.0908385454370308,0.064086467805989,0.0377175245201076,0.0642780349785692,2020-12-15
"378",188.5,0.0912434894512818,0.0643453513846205,0.0377543023187613,0.0644988958850215,2020-12-15
"379",189,0.091648655204161,0.0646482687790907,0.0377910913999659,0.0647198733020634,2020-12-16
"380",189.5,0.0920540203372757,0.0649527230794209,0.0378278915245564,0.064940955930916,2020-12-16
"381",190,0.092459562460926,0.0652103105368613,0.0378647024530845,0.0651621324570053,2020-12-17
"382",190.5,0.0928652591589909,0.0654618281542894,0.0379015239458249,0.0653833915524079,2020-12-17
"383",191,0.0932710879938211,0.0656803045039843,0.0379383557627813,0.0656047218783012,2020-12-18
"384",191.5,0.093677026511137,0.0658991520404026,0.0379751976636931,0.0658261120874151,2020-12-18
"385",192,0.0940830522449287,0.0661183659884763,0.0380120494080408,0.0660475508264848,2020-12-19
"386",192.5,0.0944891427223561,0.0663379415364388,0.0380489107550532,0.0662690267387047,2020-12-19
"387",193,0.0948952754686476,0.0665781432213189,0.0380857814637128,0.0664905284661802,2020-12-20
"388",193.5,0.0953014280119941,0.0668773536271286,0.0381226612927626,0.0667120446523784,2020-12-20
"389",194,0.0957075778884364,0.0671907049504583,0.0381595500007123,0.0669335639445743,2020-12-21
"390",194.5,0.0961137026467444,0.0674784530723691,0.0381964473458441,0.0671550749962943,2020-12-21
"391",195,0.0965197798532849,0.0677638533806191,0.0382333530862198,0.0673765664697523,2020-12-22
"392",195.5,0.0969257870968765,0.0680242751419782,0.0382702669796864,0.0675980270382815,2020-12-22
"393",196,0.0973317019936294,0.0682448274497048,0.0383071887838829,0.0678194453887561,2020-12-23
"394",196.5,0.0977375021917671,0.0685346659975555,0.0383441182562462,0.0680408102240067,2020-12-23
"395",197,0.0981497700515353,0.0688243374138778,0.038381055154018,0.0682654126027767,2020-12-24
"396",197.5,0.098623418591602,0.0691059454397342,0.0384179992342507,0.0685207089129264,2020-12-24
"397",198,0.0990979304710771,0.0693883167378322,0.0384549502538137,0.0687764403624454,2020-12-25
"398",198.5,0.0995732852418072,0.0696714441517142,0.0384919079694002,0.0690325966056037,2020-12-25
"399",199,0.100049462314703,0.0699682195395789,0.0385288721375333,0.0692891672261181,2020-12-26
"400",199.5,0.100526440963202,0.0702399382545683,0.0385658425145725,0.0695461417388872,2020-12-26
"401",200,0.101004200326784,0.0705216291561306,0.0386028188567199,0.0698035095917519,2020-12-27
"402",200.5,0.101482719414531,0.0708080046592957,0.0386398009200269,0.0700612601672787,2020-12-27
"403",201,0.101961977108733,0.0710608312139997,0.0386767884604004,0.0703193827845665,2020-12-28
"404",201.5,0.102441952168542,0.0713140091438276,0.0387137812336092,0.0705778667010756,2020-12-28
"405",202,0.102922623233668,0.071555075346075,0.0387507789952908,0.0708367011144793,2020-12-29
"406",202.5,0.103403968828114,0.0717749541075585,0.0387877815009572,0.0710958751645356,2020-12-29
"407",203,0.103885967363958,0.0719949453008231,0.038824788506002,0.0713553779349798,2020-12-30
"408",203.5,0.104368597145168,0.0722573405009869,0.0388617997657065,0.0716151984554374,2020-12-30
"409",204,0.104851836371464,0.0725298253253163,0.038898815035246,0.0718753257033549,2020-12-31
"410",204.5,0.105335663142203,0.0728027696076556,0.0389358340696968,0.0721357486059499,2020-12-31
"411",205,0.105820055460314,0.073076164713773,0.0389728566240422,0.0723964560421783,2021-01-01
"412",205.5,0.106304991236258,0.0733381508755083,0.039009882453179,0.0726574368447186,2021-01-01
"413",206,0.10679044829202,0.0735548902994451,0.0390469113119242,0.0729186798019722,2021-01-02
"414",206.5,0.107276404365136,0.0738034194901561,0.0390839429550216,0.0731801736600785,2021-01-02
"415",207,0.107762837112744,0.0740635545925709,0.0391209771371476,0.0734419071249457,2021-01-03
"416",207.5,0.10824972411567,0.0742961623210829,0.0391580136129184,0.0737038688642943,2021-01-03
"417",208,0.108737042882531,0.0744944139802912,0.0391950521368964,0.0739660475097138,2021-01-04
"418",208.5,0.109224770853869,0.0746924366038691,0.0392320924635963,0.0742284316587324,2021-01-04
"419",209,0.109712885406302,0.0748766672850824,0.0392691343474918,0.0744910098768969,2021-01-05
"420",209.5,0.110201363856705,0.0750883425704153,0.0393061775430223,0.0747537706998635,2021-01-05
"421",210,0.1106901834664,0.0752956442719885,0.0393432218045992,0.0750167026354994,2021-01-06
"422",210.5,0.111179321445371,0.075506320058442,0.0393802668866122,0.0752797941659915,2021-01-06
"423",211,0.111668754956493,0.0757231197924757,0.0394173125434364,0.0755430337499648,2021-01-07
"424",211.5,0.112158461119777,0.075939892021316,0.0394543585294382,0.0758064098246074,2021-01-07
"425",212,0.112648417016621,0.0761566306649916,0.0394914045989819,0.0760699108078015,2021-01-08
"426",212.5,0.113138599694085,0.0763733296500993,0.0395284505064367,0.0763335251002608,2021-01-08
"427",213,0.113628986169163,0.0765899829104718,0.0395654960061826,0.0765972410876726,2021-01-09
"428",213.5,0.114119553433069,0.0768264006223466,0.0396025408526172,0.0768610471428429,2021-01-09
"429",214,0.114610278455529,0.0770899058234469,0.039639584800162,0.0771249316278456,2021-01-10
"430",214.5,0.115101138189078,0.0773537759467315,0.0396766276032692,0.0773888828961735,2021-01-10
"431",215,0.115592109573353,0.0776191179317171,0.0397136690164281,0.0776528892948906,2021-01-11
"432",215.5,0.116083169539399,0.0778962117605521,0.0397507087941712,0.0779169391667849,2021-01-11
"433",216,0.116574295013961,0.0781491809254429,0.0397877466910813,0.0781810208525213,2021-01-12
"434",216.5,0.117065462923788,0.0783129592975592,0.0398247824617977,0.0784451226927929,2021-01-12
"435",217,0.117556650199918,0.0785007052505568,0.0398618158610224,0.0787092330304704,2021-01-13
"436",217.5,0.11804783378197,0.0786907734052489,0.0398988466435273,0.0789733402127487,2021-01-13
"437",218,0.11853899062242,0.078943402874852,0.0399358745641598,0.0792374325932901,2021-01-14
"438",218.5,0.119030097690875,0.0791774674447217,0.0399728993778499,0.0795014985343624,2021-01-14
"439",219,0.119521131978328,0.0794561995835401,0.0400099208396165,0.0797655264089723,2021-01-15
"440",219.5,0.12001207050141,0.0797136973634218,0.0400469387045739,0.0800295046029921,2021-01-15
"441",220,0.120502890306622,0.0799378462587367,0.040083952727938,0.0802934215172799,2021-01-16
"442",220.5,0.12099356847455,0.0801619430934964,0.040120962665033,0.0805572655697917,2021-01-16
"443",221,0.121484082124072,0.080385982214608,0.0401579682712978,0.0808210251976849,2021-01-17
"444",221.5,0.121974408416533,0.0806243804238165,0.0401949693022925,0.0810846888594127,2021-01-17
"445",222,0.122464524559911,0.0808797408510867,0.0402319655137047,0.0813482450368081,2021-01-18
"446",222.5,0.122954407812958,0.0811409149437971,0.0402689566613558,0.0816116822371567,2021-01-18
"447",223,0.123444035489309,0.0814037053928591,0.0403059425012078,0.0818749889952586,2021-01-19
"448",223.5,0.123933384961584,0.0816666317919046,0.0403429227893693,0.0821381538754765,2021-01-19
"449",224,0.124422433665441,0.0819296860464505,0.0403798972821023,0.0824011654737718,2021-01-20
"450",224.5,0.124911159103624,0.0821582679219611,0.0404168657358281,0.0826640124197258,2021-01-20
"451",225,0.125399538849959,0.0823831899181959,0.0404538279071342,0.0829266833785468,2021-01-21
"452",225.5,0.125887550553342,0.0826190242717262,0.0404907835527802,0.0831891670530609,2021-01-21
"453",226,0.126375171941671,0.082926364924526,0.0405277324297045,0.0834514521856877,2021-01-22
"454",226.5,0.126862380825765,0.0832717892934517,0.0405646742950306,0.083713527560398,2021-01-22
"455",227,0.127349155103236,0.083520931527028,0.0406016089060731,0.0839753820046547,2021-01-23
"456",227.5,0.127835472762326,0.0838489236546071,0.0406385360203445,0.084237004391335,2021-01-23
"457",228,0.128321311885706,0.0842002785385102,0.0406754553955612,0.0844983836406338,2021-01-24
"458",228.5,0.128806650654245,0.0845143818693067,0.04071236678965,0.0847595087219475,2021-01-24
"459",229,0.129291467350721,0.0847964109958644,0.0407492699607542,0.0850203686557375,2021-01-25
"460",229.5,0.129775740363506,0.0850640337746399,0.0407861646672401,0.0852809525153728,2021-01-25
"461",230,0.1302594481902,0.085383019389115,0.040823050667703,0.0855412494289516,2021-01-26
"462",230.5,0.130742569441226,0.085707791513866,0.0408599277209737,0.0858012485810997,2021-01-26
"463",231,0.131225082843371,0.0860327682218528,0.0408967955861245,0.0860609392147476,2021-01-27
"464",231.5,0.13170696724329,0.0863579360242268,0.0409336540224759,0.0863203106328831,2021-01-27
"465",232,0.13218820161096,0.0866832814064391,0.040970502789602,0.0865793522002812,2021-01-28
"466",232.5,0.132668765043081,0.0870087908304904,0.0410073416473376,0.0868380533452091,2021-01-28
"467",233,0.133148636766428,0.0872770105375028,0.0410441703557837,0.0870964035611058,2021-01-29
"468",233.5,0.133627796141162,0.0875329386126621,0.0410809886753141,0.0873543924082379,2021-01-29
"469",234,0.134106222664074,0.0877886803982343,0.0411177963665813,0.0876120095153275,2021-01-30
"470",234.5,0.134583895971789,0.0880756801676142,0.0411545931905226,0.0878692445811559,2021-01-30
"471",235,0.13506079584391,0.0883109328352434,0.0411913789083666,0.0881260873761385,2021-01-31
"472",235.5,0.135536902206109,0.0885461014513025,0.0412281532816388,0.0883825277438741,2021-01-31
"473",236,0.136012195133163,0.0887811784084608,0.0412649160721681,0.0886385556026654,2021-02-01
"474",236.5,0.136486654851931,0.0890598826100212,0.0413016670420927,0.088894160947012,2021-02-01
"475",237,0.136960261744284,0.0893696194295516,0.0413384059538661,0.089149333849075,2021-02-02
"476",237.5,0.137432996349961,0.0896795158080654,0.0413751325702631,0.0894040644601122,2021-02-02
"477",238,0.137904839369383,0.0899808410873237,0.0414118466543861,0.0896583430118846,2021-02-03
"478",238.5,0.138375771666396,0.0902341476573929,0.0414485479696708,0.0899121598180334,2021-02-03
"479",239,0.138845774270961,0.0904872545410739,0.0414852362798924,0.0901655052754267,2021-02-04
"480",239.5,0.139314828381782,0.0907401551017394,0.0415219113491713,0.0904183698654766,2021-02-04
"481",240,0.139782915368871,0.0910061794393514,0.0415585729419793,0.0906707441554251,2021-02-05
"482",240.5,0.140250016776055,0.091284673830354,0.0415952208231455,0.0909226187996001,2021-02-05
"483",241,0.140716114323418,0.0915650106888257,0.041631854757862,0.0911739845406402,2021-02-06
"484",241.5,0.141181189909685,0.0918146265576813,0.0416684745116899,0.0914248322106876,2021-02-06
"485",242,0.141645225614536,0.0920640803397309,0.0417050798505653,0.0916751527325505,2021-02-07
"486",242.5,0.142108203700862,0.0922831562950616,0.0417416705408049,0.0919249371208334,2021-02-07
"487",243,0.14257010661696,0.0924800377307917,0.0417782463491119,0.0921741764830358,2021-02-08
"488",243.5,0.143030916998655,0.0927615563255278,0.0418148070425821,0.0924228620206185,2021-02-08
"489",244,0.143490617671368,0.0930603785371401,0.0418513523887091,0.0926709850300386,2021-02-09
"490",244.5,0.143949191652112,0.0932887033407682,0.0418878821553905,0.0929185369037512,2021-02-09
"491",245,0.144406622151426,0.0935592203258991,0.0419243961109336,0.0931655091311796,2021-02-10
"492",245.5,0.144862892575244,0.0938836126837634,0.0419608940240609,0.0934118932996525,2021-02-10
"493",246,0.145317986526703,0.0942083879877227,0.0419973756639159,0.0936576810953092,2021-02-11
"494",246.5,0.145771887807874,0.0945516090613661,0.0420338408000687,0.0939028643039715,2021-02-11
"495",247,0.146224580421445,0.0948477732206235,0.042070289202522,0.0941474348119836,2021-02-12
"496",247.5,0.146676048572321,0.0950987960065194,0.0421067206417162,0.0943913846070187,2021-02-12
"497",248,0.147126276669173,0.0953275807378198,0.0421431348885352,0.0946347057788539,2021-02-13
"498",248.5,0.14757524932591,0.0955561152384021,0.0421795317143121,0.0948773905201108,2021-02-13
"499",249,0.148022951363096,0.0957843937963525,0.0422159108908345,0.0951194311269653,2021-02-14
"500",249.5,0.148469367809296,0.0960124107152054,0.0422522721903504,0.0953608199998234,2021-02-14
"501",250,0.148914483902356,0.0962401603144895,0.0422886153855733,0.0956015496439648,2021-02-15
"502",250.5,0.149358285090621,0.0965104364187382,0.0423249402496878,0.0958416126701544,2021-02-15
"503",251,0.149800757034086,0.0967983194991607,0.042361246556355,0.0960810017952204,2021-02-16
"504",251.5,0.150241885605485,0.0970853311281421,0.0423975340797183,0.0963197098426015,2021-02-16
"505",252,0.150681656891312,0.0973468353344277,0.0424338025944081,0.0965577297428603,2021-02-17
"506",252.5,0.151120057192783,0.0976080514036827,0.0424700518755479,0.0967950545341655,2021-02-17
"507",253,0.151557073026726,0.0978566819346222,0.0425062816987589,0.0970316773627423,2021-02-18
"508",253.5,0.151992691126414,0.0980894517030003,0.0425424918401661,0.0972675914832901,2021-02-18
"509",254,0.152426898442336,0.0983217579150053,0.0425786820764028,0.0975027902593692,2021-02-19
"510",254.5,0.152859682142896,0.0985535939602169,0.0426148521846166,0.0977372671637561,2021-02-19
"511",255,0.15329102961506,0.0987849532852408,0.042651001942474,0.0979710157787672,2021-02-20
"512",255.5,0.153720928464937,0.0990158293944006,0.042687131128166,0.0982040297965513,2021-02-20
"513",256,0.15414936651829,0.0992462158504142,0.0427232395204132,0.0984363030193517,2021-02-21
"514",256.5,0.154576331821004,0.0995143280551187,0.0427593268984707,0.0986678293597372,2021-02-21
"515",257,0.155001812639473,0.0998200884794027,0.0427953930421335,0.0988986028408032,2021-02-22
"516",257.5,0.155425797460942,0.100057562429243,0.0428314377317417,0.0991286175963421,2021-02-22
"517",258,0.155848274993783,0.100332647977403,0.042867460748185,0.0993578678709841,2021-02-23
"518",258.5,0.156269234167709,0.100627074734213,0.0429034618729084,0.0995863480203086,2021-02-23
"519",259,0.156688664133935,0.100921031919218,0.0429394408879167,0.099814052510926,2021-02-24
"520",259.5,0.157106554265281,0.101214508434863,0.0429753975757797,0.10004097592053,2021-02-24
"521",260,0.15752289415621,0.10146137310758,0.0430113317196372,0.100267112937923,2021-02-25
"522",260.5,0.157937673622818,0.101671731212804,0.0430472431032036,0.100492458363011,2021-02-25
"523",261,0.158350882702766,0.101899485564859,0.0430831315107732,0.10071700710677,2021-02-26
"524",261.5,0.158762511655151,0.10217126001195,0.0431189967272247,0.100940754191188,2021-02-26
"525",262,0.159172550960326,0.10239968628717,0.0431548385380262,0.101163694749176,2021-02-27
"526",262.5,0.159580991319672,0.102592655050812,0.04319065672924,0.101385824024456,2021-02-27
"527",263,0.159987823655302,0.102784913637245,0.0432264510875273,0.101607137371415,2021-02-28
"528",263.5,0.160393039109729,0.102976459681779,0.0432622214001528,0.101827630254941,2021-02-28
"529",264,0.160796629045469,0.103167290884453,0.0432979674549896,0.102047298250229,2021-03-01
"530",264.5,0.161198585044599,0.10335740500982,0.0433336890405237,0.102266137042561,2021-03-01
"531",265,0.161598898908265,0.103546799886723,0.0433693859458589,0.102484142427062,2021-03-02
"532",265.5,0.161997562656138,0.103735473408056,0.0434050579607211,0.102701310308429,2021-03-02
"533",266,0.162394568525821,0.103937096198247,0.0434407048754628,0.102917636700642,2021-03-03
"534",266.5,0.162789908972213,0.104176977091766,0.0434763264810681,0.103133117726641,2021-03-03
"535",267,0.163183576666818,0.104365545298309,0.0435119225691566,0.103347749617987,2021-03-04
"536",267.5,0.163575564497013,0.104553556567049,0.0435474929319884,0.103561528714501,2021-03-04
"537",268,0.16396586556527,0.104741008250434,0.0435830373624682,0.103774451463869,2021-03-05
"538",268.5,0.164354473188331,0.104891274248746,0.0436185556541498,0.103986514421241,2021-03-05
"539",269,0.164741380896344,0.105035826438623,0.0436540476012405,0.104197714248792,2021-03-06
"540",269.5,0.165126582431948,0.105261079052261,0.0436895129986053,0.104408047715277,2021-03-06
"541",270,0.165510071749324,0.105487705482519,0.0437249516417714,0.104617511695548,2021-03-07
"542",270.5,0.165891843013201,0.105713693506429,0.0437603633269323,0.104826103170067,2021-03-07
"543",271,0.166271890597822,0.10593903878634,0.043795747850952,0.105033819224387,2021-03-08
"544",271.5,0.166650209085871,0.106177973272354,0.0438311050113696,0.10524065704862,2021-03-08
"545",272,0.167026793267358,0.10644988534123,0.0438664346064027,0.10544661393688,2021-03-09
"546",272.5,0.167401638138475,0.10667590853274,0.0439017364349523,0.105651687286714,2021-03-09
"547",273,0.167774738900406,0.106857359833661,0.0439370102966065,0.105855874598506,2021-03-10
"548",273.5,0.168146090958105,0.107035342109206,0.0439722559916444,0.106059173474875,2021-03-10
"549",274,0.168515689919041,0.107230209265176,0.0440074733210408,0.106261581620041,2021-03-11
"550",274.5,0.168883531591904,0.107390500430821,0.0440426620864691,0.106463096839187,2021-03-11
"551",275,0.169249611985283,0.107550035018913,0.0440778220903065,0.106663717037795,2021-03-12
"552",275.5,0.169613927306307,0.107739005732937,0.044112953135637,0.106863440220972,2021-03-12
"553",276,0.169976473959259,0.107953618332527,0.0441480550262554,0.107062264492757,2021-03-13
"554",276.5,0.170337248544158,0.108167492128292,0.0441831275666717,0.107260188055415,2021-03-13
"555",277,0.170696247855307,0.108380624026065,0.0442181705621143,0.107457209208711,2021-03-14
"556",277.5,0.171053468879822,0.10859301100165,0.044253183818534,0.107653326349178,2021-03-14
"557",278,0.171408908796121,0.10880465010065,0.0442881671426079,0.107848537969365,2021-03-15
"558",278.5,0.171762564972399,0.109015538438292,0.0443231203417427,0.108042842657071,2021-03-15
"559",279,0.172114434965067,0.10922567319924,0.0443580432240788,0.108236239094573,2021-03-16
"560",279.5,0.172464516517169,0.109435051637396,0.0443929355984936,0.108428726057831,2021-03-16
"561",280,0.172812807556777,0.109643671075695,0.0444277972746054,0.108620302415691,2021-03-17
"562",280.5,0.173159306195361,0.109851528905881,0.0444626280627765,0.108810967129069,2021-03-17
"563",281,0.173504010726135,0.110058622588285,0.0444974277741172,0.109000719250126,2021-03-18
"564",281.5,0.173846919622385,0.110264949651587,0.0445321962204891,0.109189557921437,2021-03-18
"565",282,0.174188031535772,0.110470507692564,0.0445669332145084,0.10937748237514,2021-03-19
"566",282.5,0.17452734529462,0.11067529437584,0.0446016385695495,0.109564491932084,2021-03-19
"567",283,0.174864859902177,0.110879307433614,0.0446363120997482,0.109750586000963,2021-03-20
"568",283.5,0.175200574534872,0.111082544665392,0.0446709536200052,0.109935764077438,2021-03-20
"569",284,0.175534488540535,0.111285003937697,0.0447055629459894,0.110120025743262,2021-03-21
"570",284.5,0.175866601436622,0.111485565953547,0.0447401398941409,0.110303370665382,2021-03-21
"571",285,0.176196912908406,0.111660467756397,0.0447746842816745,0.11048579859504,2021-03-22
"572",285.5,0.176525422807161,0.111834555094307,0.0448091959265829,0.110667309366872,2021-03-22
"573",286,0.17685213114834,0.112007827539839,0.0448436746476395,0.11084790289799,2021-03-23
"574",286.5,0.177177038109719,0.112189327284681,0.0448781202644019,0.11102757918706,2021-03-23
"575",287,0.177500144029551,0.112407433564563,0.0449125325972147,0.111206338313383,2021-03-24
"576",287.5,0.177821449404695,0.112624895396809,0.0449469114672128,0.111384180435954,2021-03-24
"577",288,0.178140954888737,0.112841709710749,0.0449812566963241,0.11156110579253,2021-03-25
"578",288.5,0.1784586612901,0.113057873490294,0.0450155681072726,0.111737114698686,2021-03-25
"579",289,0.178774569570148,0.113273383773866,0.0450498455235813,0.111912207546865,2021-03-26
"580",289.5,0.179088680841281,0.113488237654335,0.0450840887695752,0.112086384805428,2021-03-26
"581",290,0.179400996365016,0.11370243227894,0.0451182976703839,0.1122596470177,2021-03-27
"582",290.5,0.179711517550067,0.113915964849204,0.0451524720519445,0.112431994801006,2021-03-27
"583",291,0.18002024595042,0.114128832620847,0.0451866117410047,0.112603428845712,2021-03-28
"584",291.5,0.180327183263394,0.114341032903687,0.0452207165651249,0.112773949914259,2021-03-28
"585",292,0.180632331327703,0.114567408017338,0.0452547863526813,0.112943558840192,2021-03-29
"586",292.5,0.180935692121517,0.114812080889483,0.0452888209328686,0.113112256527193,2021-03-29
"587",293,0.181237267760509,0.115056183146193,0.0453228201357024,0.113280043948105,2021-03-30
"588",293.5,0.181537060495908,0.115197873590909,0.0453567837920218,0.113446922143965,2021-03-30
"589",294,0.181835072712546,0.115391931602404,0.045390711733492,0.113612892223019,2021-03-31
"590",294.5,0.182131306926905,0.115628943578572,0.045424603792607,0.113777955359756,2021-03-31
"591",295,0.182425765785157,0.115887034923559,0.0454584598026916,0.113942112793924,2021-04-01
"592",295.5,0.182718452061213,0.116144601042065,0.0454922795979042,0.114105365829559,2021-04-01
"593",296,0.183009368654764,0.116401636941141,0.045526063013239,0.114267715834002,2021-04-02
"594",296.5,0.183298518589329,0.116647615898439,0.0455598098845285,0.114429164236929,2021-04-02
