"","time_point","num_antibody_positive","date","num_antibody_total","percent_positive"
"1",1,0,2020-06-15,4,0
"2",2,0,2020-06-16,3,0
"3",3,0,2020-06-17,3,0
"4",4,0,2020-06-18,3,0
"5",5,0,2020-06-19,3,0
"6",87,0,2020-09-09,18,0
"7",88,1,2020-09-10,14,0.0714285714285714
"8",89,0,2020-09-11,8,0
"9",90,1,2020-09-12,11,0.0909090909090909
"10",91,0,2020-09-13,12,0
"11",92,0,2020-09-14,12,0
"12",93,0,2020-09-15,5,0
"13",94,0,2020-09-16,1,0
"14",95,0,2020-09-17,1,0
"15",96,0,2020-09-18,2,0
"16",145,1,2020-11-06,27,0.037037037037037
"17",146,0,2020-11-07,7,0
"18",147,1,2020-11-08,1,1
"19",148,0,2020-11-09,3,0
"20",149,0,2020-11-10,3,0
"21",152,0,2020-11-13,16,0
"22",236,5,2021-02-05,32,0.15625
"23",237,3,2021-02-06,19,0.157894736842105
"24",238,1,2021-02-07,2,0.5
"25",239,3,2021-02-08,10,0.3
"26",240,2,2021-02-09,7,0.285714285714286
"27",241,0,2021-02-10,1,0
"28",242,0,2021-02-11,1,0
