"","time_point","num_antibody_positive","date","num_antibody_total","percent_positive"
"1",1,0,2020-06-10,8,0
"2",2,1,2020-06-11,20,0.05
"3",3,0,2020-06-12,21,0
"4",4,2,2020-06-13,26,0.0769230769230769
"5",6,0,2020-06-15,9,0
"6",7,0,2020-06-16,16,0
"7",8,0,2020-06-17,10,0
"8",9,0,2020-06-18,6,0
"9",10,0,2020-06-19,5,0
"10",92,1,2020-09-09,77,0.012987012987013
"11",93,1,2020-09-10,31,0.032258064516129
"12",94,1,2020-09-11,31,0.032258064516129
"13",95,3,2020-09-12,45,0.0666666666666667
"14",96,1,2020-09-13,22,0.0454545454545455
"15",97,4,2020-09-14,98,0.0408163265306122
"16",98,1,2020-09-15,38,0.0263157894736842
"17",99,2,2020-09-16,18,0.111111111111111
"18",100,1,2020-09-17,6,0.166666666666667
"19",101,0,2020-09-18,3,0
"20",102,0,2020-09-19,3,0
"21",150,10,2020-11-06,145,0.0689655172413793
"22",151,1,2020-11-07,57,0.0175438596491228
"23",152,2,2020-11-08,15,0.133333333333333
"24",153,2,2020-11-09,33,0.0606060606060606
"25",154,0,2020-11-10,18,0
"26",155,0,2020-11-11,14,0
"27",156,1,2020-11-12,9,0.111111111111111
"28",157,3,2020-11-13,39,0.0769230769230769
"29",158,2,2020-11-14,10,0.2
"30",159,0,2020-11-15,2,0
"31",241,13,2021-02-05,104,0.125
"32",242,7,2021-02-06,58,0.120689655172414
"33",243,2,2021-02-07,14,0.142857142857143
"34",244,0,2021-02-08,20,0
"35",245,7,2021-02-09,23,0.304347826086957
"36",246,1,2021-02-10,2,0.5
"37",247,1,2021-02-11,2,0.5
