"","time","top","med","bottom","pseudo_med","date"
"1",0,7.10936946110065e-05,2.42078528206362e-08,5.3051783675276e-28,3.55468473055032e-05,2020-06-10
"2",0.5,7.19359805684367e-05,2.4930461813624e-08,5.96064385411663e-28,3.59679902842183e-05,2020-06-10
"3",1,7.27875747933676e-05,2.5674922661471e-08,6.69709342349147e-28,3.63937873966838e-05,2020-06-11
"4",1.5,7.36485636675061e-05,2.64419044752887e-08,7.52453282240592e-28,3.6824281833753e-05,2020-06-11
"5",2,7.45190339596068e-05,2.72320970961346e-08,8.45420402780441e-28,3.72595169798034e-05,2020-06-12
"6",2.5,7.53990728155235e-05,2.80462117441841e-08,9.49873798555524e-28,3.76995364077617e-05,2020-06-12
"7",3,7.62887677478616e-05,2.88849816884268e-08,1.06723262203624e-27,3.81443838739308e-05,2020-06-13
"8",3.5,7.71882066252233e-05,2.97491629375433e-08,1.19909136484278e-27,3.85941033126116e-05,2020-06-13
"9",4,7.80974776610362e-05,3.06395349526362e-08,1.34724152125075e-27,3.90487388305181e-05,2020-06-14
"10",4.5,7.90166694019573e-05,3.17206779457306e-08,1.51369592826649e-27,3.95083347009787e-05,2020-06-14
"11",5,7.9945870715843e-05,3.28751185436459e-08,1.70071611296791e-27,3.99729353579215e-05,2020-06-15
"12",5.5,8.08851707792759e-05,3.40718959542686e-08,1.91084301866436e-27,4.0442585389638e-05,2020-06-15
"13",6,8.18346590646408e-05,3.53125744685081e-08,2.14693152733552e-27,4.09173295323204e-05,2020-06-16
"14",6.5,8.27944253267384e-05,3.65987765952538e-08,2.41218924738728e-27,4.13972126633692e-05,2020-06-16
"15",7,8.37645595889298e-05,3.79321852430045e-08,2.71022009371307e-27,4.18822797944649e-05,2020-06-17
"16",7.5,8.47451521288014e-05,3.9268460302256e-08,3.04507325215963e-27,4.23725760644007e-05,2020-06-17
"17",8,8.57362934633402e-05,4.05853626387272e-08,3.42129819365131e-27,4.28681467316701e-05,2020-06-18
"18",8.5,8.67380743336123e-05,4.18414562680331e-08,3.84400648542038e-27,4.33690371668062e-05,2020-06-18
"19",9,8.77505856889321e-05,4.3136471520239e-08,4.31894123913945e-27,4.38752928444661e-05,2020-06-19
"20",9.5,8.87739186705153e-05,4.44716158528319e-08,4.85255513951077e-27,4.43869593352577e-05,2020-06-19
"21",10,8.98081645946044e-05,4.58481342254907e-08,5.45209811344508e-27,4.49040822973022e-05,2020-06-20
"22",10.5,9.0853414935058e-05,4.72673102661739e-08,6.12571583094434e-27,4.5426707467529e-05,2020-06-20
"23",11,9.19097613053935e-05,4.87304674735036e-08,6.8825603759671e-27,4.59548806526967e-05,2020-06-21
"24",11.5,9.29772954402735e-05,5.0238970456577e-08,7.73291459090257e-27,4.64886477201368e-05,2020-06-21
"25",12,9.40561091764273e-05,5.17942262133727e-08,8.68833178405521e-27,4.70280545882137e-05,2020-06-22
"26",12.5,9.51462944329954e-05,5.33976854489525e-08,9.76179269827074e-27,4.75731472164977e-05,2020-06-22
"27",13,9.6247943191289e-05,5.50508439347006e-08,1.09678818733525e-26,4.81239715956445e-05,2020-06-23
"28",13.5,9.73611474739542e-05,5.6755243909877e-08,1.23229857984103e-26,4.86805737369771e-05,2020-06-23
"29",14,9.84859993235303e-05,5.86702636017519e-08,1.38455155463307e-26,4.92429996617652e-05,2020-06-24
"30",14.5,9.96225907803932e-05,6.07138332924716e-08,1.55561569151865e-26,4.98112953901966e-05,2020-06-24
"31",15,0.000100771013860073,6.28290584244529e-08,1.74781514751205e-26,5.03855069300365e-05,2020-06-25
"32",15.5,0.000101931360529937,6.40087800904517e-08,1.96376123391396e-26,5.09656802649683e-05,2020-06-25
"33",16,0.000103103722685226,6.60677105309617e-08,2.20638789480264e-26,5.15518613426132e-05,2020-06-26
"34",16.5,0.000104288192124441,6.81503091959983e-08,2.47899156896429e-26,5.21440960622204e-05,2020-06-26
"35",17,0.000105484860524054,7.02608007255184e-08,2.78527597684529e-26,5.27424302620268e-05,2020-06-27
"36",17.5,0.000106693819412556,7.24367277358772e-08,3.12940244102268e-26,5.33469097062782e-05,2020-06-27
"37",18,0.000107915160143816,7.46801214156105e-08,3.51604642387028e-26,5.39575800719082e-05,2020-06-28
"38",18.5,0.000109148973869742,7.69930760754904e-08,3.95046105056751e-26,5.45744869348708e-05,2020-06-28
"39",19,0.00011039535151224,7.93777511122833e-08,4.438548480504e-26,5.519767575612e-05,2020-06-29
"40",19.5,0.000111654383734467,8.18363730336619e-08,4.98694009676522e-26,5.58271918672334e-05,2020-06-29
"41",20,0.000112926160911348,8.43712375461784e-08,5.60308660319077e-26,5.64630804556738e-05,2020-06-30
"42",20.5,0.00011421077309937,8.69847117082624e-08,6.29535925310592e-26,5.71053865496848e-05,2020-06-30
"43",21,0.000115508310005631,8.96779413234552e-08,7.07316358506711e-26,5.77541550028154e-05,2020-07-01
"44",21.5,0.000116818860956138,9.19874521215609e-08,7.94706721088817e-26,5.84094304780691e-05,2020-07-01
"45",22,0.000118142514863345,9.43578793613694e-08,8.92894339213485e-26,5.90712574316725e-05,2020-07-02
"46",22.5,0.00011947936019292,9.67908662542773e-08,1.00321323557849e-25,5.97396800964602e-05,2020-07-02
"47",23,0.00012082948492974,9.92881012382176e-08,1.12716225407633e-25,6.04147424648699e-05,2020-07-03
"48",23.5,0.000122192976543089,1.01851319244168e-07,1.26642542378522e-25,6.10964882715447e-05,2020-07-03
"49",24,0.000123569921951075,1.04482302998638e-07,1.42289483897228e-25,6.17849609755377e-05,2020-07-04
"50",24.5,0.00012496040748423,1.07182884363164e-07,1.59869636596724e-25,6.24802037421149e-05,2020-07-04
"51",25,0.000126364518848306,1.09954945711879e-07,1.79621852617222e-25,6.31822594241529e-05,2020-07-05
"52",25.5,0.000127782341086252,1.12800421348256e-07,2.01814494762568e-25,6.38911705431261e-05,2020-07-05
"53",26,0.000129213958539362,1.16144020263286e-07,2.26749082602244e-25,6.46069792696812e-05,2020-07-06
"54",26.5,0.000130659454807589,1.19824011409127e-07,2.54764389056635e-25,6.53297274037947e-05,2020-07-06
"55",27,0.000132118912709018,1.23620984542059e-07,2.86241043123666e-25,6.60594563545088e-05,2020-07-07
"56",27.5,0.00013359241423849,1.27981404570635e-07,3.21606701281592e-25,6.67962071192448e-05,2020-07-07
"57",28,0.000135080040525375,1.31580919005898e-07,3.61341857829038e-25,6.75400202626873e-05,2020-07-08
"58",28.5,0.00013658187179048,1.35751703665401e-07,4.05986373104265e-25,6.82909358952399e-05,2020-07-08
"59",29,0.000138097987302092,1.40055124751899e-07,4.56146808279099e-25,6.9048993651046e-05,2020-07-09
"60",29.5,0.000139740107162792,1.4449541387066e-07,5.12504666381432e-25,6.98700535813961e-05,2020-07-09
"61",30,0.000142336529940936,1.49076938053514e-07,5.75825651512684e-25,7.11682649704682e-05,2020-07-10
"62",30.5,0.000144978781721514,1.53804204105866e-07,6.46970072060244e-25,7.24893908607569e-05,2020-07-10
"63",31,0.000147667578902738,1.58681863093625e-07,7.26904529247804e-25,7.38337894513688e-05,2020-07-11
"64",31.5,0.000150403645481567,1.63714714974558e-07,8.16715049829645e-25,7.52018227407833e-05,2020-07-11
"65",32,0.000153187712983885,1.68907713378725e-07,9.17621841355799e-25,7.65938564919424e-05,2020-07-12
"66",32.5,0.000156020520386506,1.74265970542808e-07,1.03099587047997e-24,7.8010260193253e-05,2020-07-12
"67",33,0.000158902814030676,1.79794762403308e-07,1.15837748955084e-24,7.94514070153378e-05,2020-07-13
"68",33.5,0.000161835347526723,1.85499533853711e-07,1.3014973645563e-24,8.09176737633615e-05,2020-07-13
"69",34,0.000164818881649512,1.91385904170943e-07,1.46229998875738e-24,8.24094408247561e-05,2020-07-14
"70",34.5,0.000167854184224336,1.97459672616554e-07,1.64297010147908e-24,8.39270921121678e-05,2020-07-14
"71",35,0.000170942030002875,2.03726824218283e-07,1.84596237099614e-24,8.54710150014377e-05,2020-07-15
"72",35.5,0.00017408320052886,2.10193535737815e-07,2.07403474479908e-24,8.704160026443e-05,2020-07-15
"73",36,0.000177278483993026,2.16866181830745e-07,2.33028592035301e-24,8.86392419965128e-05,2020-07-16
"74",36.5,0.00018052867507699,2.23751341404946e-07,2.61819744544422e-24,9.0264337538495e-05,2020-07-16
"75",37,0.000183834574785633,2.30855804183752e-07,2.9416810201094e-24,9.19172873928164e-05,2020-07-17
"76",37.5,0.000187196990267572,2.38186577480558e-07,3.30513164281378e-24,9.35984951337859e-05,2020-07-17
"77",38,0.000190616734623312,2.45750893191657e-07,3.71348732294661e-24,9.5308367311656e-05,2020-07-18
"78",38.5,0.00019409462670064,2.47028186639929e-07,4.17229617091598e-24,9.70473133503202e-05,2020-07-18
"79",39,0.000197631490876829,2.47396853630874e-07,4.68779177736012e-24,9.88157454384144e-05,2020-07-19
"80",39.5,0.000201228156827198,2.47960359082728e-07,5.26697790561227e-24,0.000100614078413599,2020-07-19
"81",40,0.000204885459279589,2.49529263570966e-07,5.91772364809043e-24,0.000102442729639795,2020-07-20
"82",40.5,0.00020860423775429,2.55405040925128e-07,6.6488703394509e-24,0.000104302118877145,2020-07-20
"83",41,0.000212385336288929,2.5178622337545e-07,7.47035167907767e-24,0.000106192668144465,2020-07-21
"84",41.5,0.00021622960314789,2.48750891846721e-07,8.39332869494749e-24,0.000108114801573945,2020-07-21
"85",42,0.000220137890515736,2.47383180723155e-07,9.4303413825528e-24,0.000110068945257868,2020-07-22
"86",42.5,0.000224111054174175,2.54437403325405e-07,1.05954790791193e-23,0.000112055527087088,2020-07-22
"87",43,0.000228149953162069,2.61702197162157e-07,1.19045718879018e-23,0.000114074976581034,2020-07-23
"88",43.5,0.000232255449417977,2.69184094706337e-07,1.33754057533377e-23,0.000116127724708989,2020-07-23
"89",44,0.000236428407404745,2.76889837250478e-07,1.50279641091697e-23,0.000118214203702372,2020-07-24
"90",44.5,0.000240669693715611,2.84826381729024e-07,1.68846993826814e-23,0.000120334846857805,2020-07-24
"91",45,0.000244980176661341,2.93000907766854e-07,1.89708380438281e-23,0.00012249008833067,2020-07-25
"92",45.5,0.000249360725837852,3.01420824961596e-07,2.13147233438042e-23,0.000124680362918926,2020-07-25
"93",46,0.000253812211673822,3.1094887092964e-07,2.39482003996507e-23,0.000126906105836911,2020-07-26
"94",46.5,0.000258335504957756,3.20680993504382e-07,2.69070488568429e-23,0.000129167752478878,2020-07-26
"95",47,0.000262931476343995,3.28691271974602e-07,3.02314690082137e-23,0.000131465738171998,2020-07-27
"96",47.5,0.000267600995837137,3.36916661973661e-07,3.39666279738499e-23,0.000133800497918569,2020-07-27
"97",48,0.000272344932254359,3.45363311545802e-07,3.81632733626163e-23,0.00013617246612718,2020-07-28
"98",48.5,0.00027716415266511,3.54037552975537e-07,4.28784227527988e-23,0.000138582076332555,2020-07-28
"99",49,0.000282059521807664,3.62945908491826e-07,4.81761383594715e-23,0.000141029760903832,2020-07-29
"100",49.5,0.000287031901482023,3.72095096152554e-07,5.41283974135789e-23,0.000143515950741012,2020-07-29
"101",50,0.000292082149918654,3.81492035915068e-07,6.08160700781099e-23,0.000146041074959327,2020-07-30
"102",50.5,0.000297211121122558,3.91143855898723e-07,6.83300181877864e-23,0.000148605560561279,2020-07-30
"103",51,0.000302419664192189,4.01057898845588e-07,7.67723297402568e-23,0.000151209832096094,2020-07-31
"104",51.5,0.000307708622612718,4.11241728785645e-07,8.62577059111662e-23,0.000153854311306359,2020-07-31
"105",52,0.00031307883352318,4.2170313791303e-07,9.69150194377356e-23,0.00015653941676159,2020-08-01
"106",52.5,0.000318531126957037,4.32450153680075e-07,1.08889065543775e-22,0.000159265563478519,2020-08-01
"107",53,0.0003240663250557,4.43491046116113e-07,1.22342529195015e-22,0.00016203316252785,2020-08-02
"108",53.5,0.00032968524125458,4.54834335378254e-07,1.37458195412796e-22,0.00016484262062729,2020-08-02
"109",54,0.000335388679441252,4.66488799541549e-07,1.54441432676483e-22,0.000167694339720626,2020-08-03
"110",54.5,0.000341177433085319,4.78463482636219e-07,1.73522983155241e-22,0.000170588716542659,2020-08-03
"111",55,0.00034705228433961,4.90767702939856e-07,1.94962097678593e-22,0.000173526142169805,2020-08-04
"112",55.5,0.000353014003112348,5.03411061532764e-07,2.19050058038891e-22,0.000176507001556174,2020-08-04
"113",56,0.000359063346109952,5.16403451124866e-07,2.46114134481381e-22,0.000179531673054976,2020-08-05
"114",56.5,0.000365201055850172,5.29755065162889e-07,2.76522032150137e-22,0.000182600527925086,2020-08-05
"115",57,0.00037142785964528,5.43068437003696e-07,3.10686886901353e-22,0.00018571392982264,2020-08-06
"116",57.5,0.000377744468555069,5.4906596391487e-07,3.49072878359456e-22,0.000188872234277534,2020-08-06
"117",58,0.000384151576309448,5.57220711971008e-07,3.92201536477608e-22,0.000192075788154724,2020-08-07
"118",58.5,0.000390649858200463,5.7164844684125e-07,4.40658827286486e-22,0.000195324929100231,2020-08-07
"119",59,0.000397239969943594,5.92060829964214e-07,4.95103114101614e-22,0.000198619984971797,2020-08-08
"120",59.5,0.000403922546508256,6.16066367070794e-07,5.56274102353908e-22,0.000201961273254128,2020-08-08
"121",60,0.000413443546012487,6.41050886167601e-07,6.25002889572085e-22,0.000206721773006243,2020-08-09
"122",60.5,0.000423188518406463,6.67054537444268e-07,7.02223257060658e-22,0.000211594259203231,2020-08-09
"123",61,0.000433138388196485,6.94119126573245e-07,7.88984356687531e-22,0.000216569194098242,2020-08-10
"124",61.5,0.000443296225745205,7.22288183302208e-07,8.86464965149775e-22,0.000221648112872602,2020-08-10
"125",62,0.000453665082983288,7.5160703290004e-07,9.95989499382694e-22,0.000226832541491644,2020-08-11
"126",62.5,0.000464247989176943,7.8212287057541e-07,1.11904601070499e-21,0.000232123994588472,2020-08-11
"127",63,0.000475047946481703,8.10098351076931e-07,1.25730640217681e-21,0.000237523973240852,2020-08-12
"128",63.5,0.000486067925277172,8.38499710532733e-07,1.41264914385326e-21,0.000243033962638586,2020-08-12
"129",64,0.000497310859277619,8.63049194637326e-07,1.58718479455314e-21,0.00024865542963881,2020-08-13
"130",64.5,0.000508779640413507,8.86237003225578e-07,1.78328467689382e-21,0.000254389820206754,2020-08-13
"131",65,0.000520477113479302,9.09660581222999e-07,2.00361309518444e-21,0.000260238556739651,2020-08-14
"132",65.5,0.000532406070543157,9.34861330964607e-07,2.25116353390479e-21,0.000266203035271579,2020-08-14
"133",66,0.000544569245114416,9.66920154328809e-07,2.52929932857932e-21,0.000272284622557208,2020-08-15
"134",66.5,0.000556969306065205,1.00008075411297e-06,2.84179936161952e-21,0.000278484653032602,2020-08-15
"135",67,0.000569608851302809,1.03438107284313e-06,3.19290940397996e-21,0.000284804425651404,2020-08-16
"136",67.5,0.000582490401189948,1.06986036200621e-06,3.58739980017935e-21,0.000291245200594974,2020-08-16
"137",68,0.00059561639171058,1.0926892091378e-06,4.03063028042233e-21,0.00029780819585529,2020-08-17
"138",68.5,0.000608989167379389,1.10580844770418e-06,4.52862278038962e-21,0.000304494583689695,2020-08-17
"139",69,0.000622610973893708,1.10642385877248e-06,5.08814325806011e-21,0.000311305486946854,2020-08-18
"140",69.5,0.000636483950527273,1.12692128712453e-06,5.71679361916632e-21,0.000318241975263637,2020-08-18
"141",70,0.000650610122265926,1.147961329236e-06,6.42311500022521e-21,0.000325305061132963,2020-08-19
"142",70.5,0.000664991391686102,1.16956017907891e-06,7.2167038123959e-21,0.000332495695843051,2020-08-19
"143",71,0.00067962953057781,1.19048909540745e-06,8.10834212278987e-21,0.000339814765288905,2020-08-20
"144",71.5,0.000694526171314652,1.19013656951305e-06,9.11014414465508e-21,0.000347263085657326,2020-08-20
"145",72,0.000709682797974399,1.2032545522473e-06,1.02357208267178e-20,0.0003548413989872,2020-08-21
"146",72.5,0.000725100737214646,1.22655570595727e-06,1.15003647778694e-20,0.000362550368607323,2020-08-21
"147",73,0.000740781148909133,1.25049418341688e-06,1.29212580396713e-20,0.000370390574454566,2020-08-22
"148",73.5,0.00075672501655147,1.2750894523646e-06,1.45177055295721e-20,0.000378362508275735,2020-08-22
"149",74,0.000772933137434226,1.30576710545625e-06,1.63113973265044e-20,0.000386466568717113,2020-08-23
"150",74.5,0.000789406112612585,1.34453043193359e-06,1.83267033623968e-20,0.000394703056306292,2020-08-23
"151",75,0.000806144336663158,1.3853668268249e-06,2.05910045234159e-20,0.000403072168331579,2020-08-24
"152",75.5,0.000829615673098619,1.42800006993107e-06,2.3135064659435e-20,0.00041480783654931,2020-08-24
"153",76,0.000859711637919027,1.47194610354885e-06,2.59934485560225e-20,0.000429855818959514,2020-08-25
"154",76.5,0.000890790728087128,1.51724536688219e-06,2.92049915477127e-20,0.000445395364043564,2020-08-25
"155",77,0.000922876709143127,1.56393954468331e-06,3.28133271529435e-20,0.000461438354571564,2020-08-26
"156",77.5,0.00095599325668628,1.61207160557432e-06,3.68674798993539e-20,0.00047799662834314,2020-08-26
"157",78,0.000990163890869688,1.66168584154411e-06,4.14225313938436e-20,0.000495081945434844,2020-08-27
"158",78.5,0.00102541190552076,1.71282790865649e-06,4.65403686869312e-20,0.000512705952760381,2020-08-27
"159",79,0.00106176029166318,1.76554486900624e-06,5.22905250990386e-20,0.000530880145831588,2020-08-28
"160",79.5,0.00109923165522392,1.81988523396127e-06,5.87511249325575e-20,0.000549615827611961,2020-08-28
"161",80,0.00113784812871972,1.87589900872982e-06,6.60099449049985e-20,0.00056892406435986,2020-08-29
"162",80.5,0.0011776312767305,1.93363773829291e-06,7.41656067243453e-20,0.000588815638365249,2020-08-29
"163",81,0.00121860199498448,1.99315455474379e-06,8.33289170094995e-20,0.000609300997492242,2020-08-30
"164",81.5,0.00126078040289994,2.05450422607673e-06,9.36243727605984e-20,0.000630390201449968,2020-08-30
"165",82,0.00130418572945274,2.11774320646944e-06,1.05191852833227e-19,0.000652092864726372,2020-08-31
"166",82.5,0.0013488361922678,2.18292968810415e-06,1.18188518397681e-19,0.000674418096133902,2020-08-31
"167",83,0.0013947488698651,2.25286991951927e-06,1.32790948203802e-19,0.000697374434932548,2020-09-01
"168",83.5,0.00144193956702936,2.3270092811854e-06,1.49197537662092e-19,0.000720969783514679,2020-09-01
"169",84,0.00149042267331545,2.40359216919001e-06,1.67631194336135e-19,0.000745211336657724,2020-09-02
"170",84.5,0.00154021101474991,2.48269921385659e-06,1.88342366468551e-19,0.000770105507374954,2020-09-02
"171",85,0.00159131569884365,2.56441370746969e-06,2.11612445687428e-19,0.000795657849421827,2020-09-03
"172",85.5,0.00164374595309078,2.64882169208317e-06,2.37757590124003e-19,0.000821872976545391,2020-09-03
"173",86,0.00169750895719483,2.73601205021433e-06,2.67133019884245e-19,0.000848754478597415,2020-09-04
"174",86.5,0.00175260966933631,2.82607659851803e-06,3.00137843234609e-19,0.000876304834668158,2020-09-04
"175",87,0.00180905064687418,2.911974562609e-06,3.37220479072777e-19,0.000904525323437089,2020-09-05
"176",87.5,0.00186683186195883,2.99611878417245e-06,3.78884749355594e-19,0.000933415930979416,2020-09-05
"177",88,0.00192595051262581,3.082771812526e-06,4.2569672425876e-19,0.000962975256312903,2020-09-06
"178",88.5,0.00198640083003614,3.17201063017409e-06,4.78292413069815e-19,0.000993200415018072,2020-09-06
"179",89,0.00204817388263268,3.26391464008433e-06,5.37386405306451e-19,0.00102408694131634,2020-09-07
"180",89.5,0.00211125737808933,3.35856574321279e-06,6.03781579462429e-19,0.00105562868904467,2020-09-07
"181",90,0.00217563546404342,3.45604841853992e-06,6.78380011288627e-19,0.00108781773202171,2020-09-08
"182",90.5,0.0022412885287174,3.55644980569826e-06,7.62195229814219e-19,0.0011206442643587,2020-09-08
"183",91,0.00230819300265629,3.65985979027598e-06,8.56365987623977e-19,0.00115409650132814,2020-09-09
"184",91.5,0.00237632116292833,3.76637109188273e-06,9.62171732481116e-19,0.00118816058146417,2020-09-09
"185",92,0.00244564094125865,3.87760362273788e-06,1.08104999050034e-18,0.00122282047062932,2020-09-10
"186",92.5,0.00251611573768689,3.99560578797369e-06,1.21461589704696e-18,0.00125805786884344,2020-09-10
"187",93,0.00258770424145876,4.11736051053458e-06,1.36468414071804e-18,0.00129385212072938,2020-09-11
"188",93.5,0.00266036026097563,4.25375968659516e-06,1.53329361854657e-18,0.00133018013048782,2020-09-11
"189",94,0.0027340325647345,4.40570783105818e-06,1.72273513740598e-18,0.00136701628236725,2020-09-12
"190",94.5,0.00280866473529015,4.55089274569962e-06,1.93558253797887e-18,0.00140433236764508,2020-09-12
"191",95,0.00288419503835958,4.65430958556353e-06,2.17472766415506e-18,0.00144209751917979,2020-09-13
"192",95.5,0.00296055630926376,4.76270825084815e-06,2.44341965296906e-18,0.00148027815463188,2020-09-13
"193",96,0.00303767585896039,4.97844560180771e-06,2.74530907888876e-18,0.0015188379294802,2020-09-14
"194",96.5,0.00311547540196105,5.20453532098151e-06,3.0844975522199e-18,0.00155773770098053,2020-09-14
"195",97,0.00319387100844401,5.35917110164825e-06,3.46559344549346e-18,0.00159693550422201,2020-09-15
"196",97.5,0.00327277308286761,5.50803196919845e-06,3.89377450496059e-18,0.00163638654143381,2020-09-15
"197",98,0.00335208637135504,5.66126103321507e-06,4.37485819786409e-18,0.00167604318567752,2020-09-16
"198",98.5,0.00343171000005801,5.8189924629157e-06,4.91538075125703e-18,0.00171585500002901,2020-09-16
"199",99,0.00351153754661092,5.98136468873236e-06,5.52268595622688e-18,0.00175576877330546,2020-09-17
"200",99.5,0.00359145714665684,6.14852054041109e-06,6.2050249440607e-18,0.00179572857332842,2020-09-17
"201",100,0.0036713516372608,6.32060738961235e-06,6.97166828995657e-18,0.0018356758186304,2020-09-18
"202",100.5,0.00375109873882196,6.49777729715713e-06,7.83303196737488e-18,0.00187554936941099,2020-09-18
"203",101,0.00383057127685464,6.68018716506747e-06,8.80081886430357e-18,0.00191528563842732,2020-09-19
"204",101.5,0.00390963744472787,6.8679988935553e-06,9.88817778414343e-18,0.00195481872236394,2020-09-19
"205",102,0.00398816110813529,7.029338015269e-06,1.11098820914734e-17,0.00199408055406765,2020-09-20
"206",102.5,0.00406600215171185,7.18392117753526e-06,1.24825304298606e-17,0.00203300107585593,2020-09-20
"207",103,0.00414301686782472,7.36300270670412e-06,1.40247722387602e-17,0.00207150843391237,2020-09-21
"208",103.5,0.00421905838714396,7.56744659443754e-06,1.57575611334837e-17,0.00210952919357199,2020-09-21
"209",104,0.00429397715014916,7.77776592035261e-06,1.77044395907727e-17,0.00214698857507459,2020-09-22
"210",104.5,0.00436762141825498,7.99413472481648e-06,1.98918588078499e-17,0.0021838107091275,2020-09-22
"211",105,0.00443983782274758,8.21673232398228e-06,2.23495380807004e-17,0.0022199189113738,2020-09-23
"212",105.5,0.00451047194922076,8.4457434717029e-06,2.51108685842652e-17,0.00225523597461039,2020-09-23
"213",106,0.00457936895469358,8.68135852639085e-06,2.82133670404913e-17,0.0022896844773468,2020-09-24
"214",106.5,0.00464637421408644,8.92377362296984e-06,3.16991854379844e-17,0.00232318710704323,2020-09-24
"215",107,0.00471133399224015,9.17319085006769e-06,3.56156837285532e-17,0.00235566699612009,2020-09-25
"216",107.5,0.00477409613718965,9.42981843260375e-06,4.00160732815658e-17,0.00238704806859485,2020-09-25
"217",108,0.00483451078996064,9.69387091992834e-06,4.49601398383906e-17,0.00241725539498034,2020-09-26
"218",108.5,0.00489243110575249,9.96556937967537e-06,5.05150557893156e-17,0.00244621555287627,2020-09-26
"219",109,0.00494771398101266,1.02549375923439e-05,5.67562928089195e-17,0.00247385699050636,2020-09-27
"220",109.5,0.00500022078060591,1.05328222828266e-05,6.37686472493839e-17,0.00250011039030299,2020-09-27
"221",110,0.005049818059043,1.0828853280913e-05,7.1647392223216e-17,0.00252490902952154,2020-09-28
"222",110.5,0.00509637826956619,1.11334837911889e-05,8.04995720281169e-17,0.00254818913478314,2020-09-28
"223",111,0.00513978045479829,1.14703959593183e-05,9.04454565006513e-17,0.00256989022739919,2020-09-29
"224",111.5,0.00517991091265306,1.1869872670262e-05,1.01620175058247e-16,0.00258995545632658,2020-09-29
"225",112,0.00521666383128186,1.22832620639347e-05,1.14175552630379e-16,0.00260833191564099,2020-09-30
"226",112.5,0.00524994188699471,1.27110478023869e-05,1.28282172422753e-16,0.00262497094349742,2020-09-30
"227",113,0.00527965679934568,1.31537302680868e-05,1.44131693540167e-16,0.00263982839967291,2020-10-01
"228",113.5,0.00530572983790946,1.36118271341887e-05,1.61939454956347e-16,0.00265286491895481,2020-10-01
"229",114,0.00532809227569561,1.3965058751611e-05,1.81947401209507e-16,0.0026640461378479,2020-10-02
"230",114.5,0.00534668578464441,1.42688148803526e-05,2.04427369573507e-16,0.00267334289232231,2020-10-02
"231",115,0.00536146276921588,1.45820944441206e-05,2.29684783365621e-16,0.00268073138460806,2020-10-03
"232",115.5,0.00537238663471421,1.49052307714687e-05,2.58062801569936e-16,0.00268619331735723,2020-10-03
"233",116,0.00537943198767219,1.52422217017059e-05,2.89946981155098e-16,0.00268971599383624,2020-10-04
"234",116.5,0.00538258476634569,1.57193824105482e-05,3.25770515430801e-16,0.00269129238317301,2020-10-04
"235",117,0.00538184230012194,1.61468280565719e-05,3.66020119613802e-16,0.00269092115006115,2020-10-05
"236",117.5,0.00537721329741801,1.65859518808997e-05,4.11242643567477e-16,0.00268860664870921,2020-10-05
"237",118,0.00536871776242165,1.70370734461667e-05,4.62052501558686e-16,0.00268435888121106,2020-10-06
"238",118.5,0.00535638684179486,1.75005210176525e-05,5.19140019976088e-16,0.00267819342089769,2020-10-06
"239",119,0.00534026260320703,1.7976631796018e-05,5.83280816425886e-16,0.00267013130160381,2020-10-07
"240",119.5,0.00532039774827784,1.84657521559705e-05,6.55346337633763e-16,0.00266019887413925,2020-10-07
"241",120,0.0052968552631786,1.89682378909934e-05,7.36315699325863e-16,0.00264842763158967,2020-10-08
"242",120.5,0.00526970801075438,1.93812169988423e-05,8.27288988950936e-16,0.00263485400537761,2020-10-08
"243",121,0.00523903826857903,1.96081577180693e-05,9.2950221198064e-16,0.00261951913428998,2020-10-09
"244",121.5,0.00520493721783315,1.9843634953964e-05,1.04434408485539e-15,0.0026024686089171,2020-10-09
"245",122,0.00516750438829663,2.00878922401403e-05,1.17337490273251e-15,0.0025837521941489,2020-10-10
"246",122.5,0.0051268470650663,2.0341180233869e-05,1.31834773838277e-15,0.00256342353253381,2020-10-10
"247",123,0.00508307966284531,2.08713070595841e-05,1.48123226025329e-15,0.00254153983142339,2020-10-11
"248",123.5,0.00503632307380169,2.15095955629779e-05,1.6642414933002e-15,0.00251816153690168,2020-10-11
"249",124,0.00498670399506078,2.21673577038834e-05,1.86986188617607e-15,0.00249335199753133,2020-10-12
"250",124.5,0.00493435424188235,2.28451841985319e-05,2.10088709327912e-15,0.00246717712094222,2020-10-12
"251",125,0.00487941005248192,2.35436834538981e-05,2.3440135064948e-15,0.00243970502624213,2020-10-13
"252",125.5,0.00482201139029262,2.42634820827459e-05,2.53419193287892e-15,0.00241100569514758,2020-10-13
"253",126,0.00476230124923422,2.50052254327223e-05,2.73980023360537e-15,0.00238115062461848,2020-10-14
"254",126.5,0.00470042496726865,2.57695781298221e-05,2.96209029106033e-15,0.00235021248363581,2020-10-14
"255",127,0.00463652955318178,2.65572246365482e-05,3.20241555744666e-15,0.00231826477659249,2020-10-15
"256",127.5,0.00457076303114986,2.73688698250944e-05,3.46223929551632e-15,0.00228538151557666,2020-10-15
"257",128,0.00450327380723309,2.82052395658826e-05,3.74314348790349e-15,0.00225163690361842,2020-10-16
"258",128.5,0.00443421006149673,2.90118963705817e-05,4.04683846930483e-15,0.00221710503075039,2020-10-16
"259",129,0.00436371916900147,2.98249658185231e-05,4.37517334015375e-15,0.00218185958450292,2020-10-17
"260",129.5,0.0042919471524356,3.06610052381579e-05,4.73014722519438e-15,0.00214597357622017,2020-10-17
"261",130,0.00421903816869158,3.15206648853728e-05,5.11392144550501e-15,0.00210951908434835,2020-10-18
"262",130.5,0.00414513403122381,3.24046132363077e-05,5.52883267808252e-15,0.00207256701561467,2020-10-18
"263",131,0.00407037376957105,3.33135374792383e-05,5.97740718311219e-15,0.00203518688478852,2020-10-19
"264",131.5,0.00399489322698967,3.42481440183952e-05,6.46237618554819e-15,0.00199744661349806,2020-10-19
"265",132,0.00391882469672918,3.52091589899183e-05,6.98669250465826e-15,0.00195941234836808,2020-10-20
"266",132.5,0.00393768802887708,3.6197328790141e-05,7.55354853278432e-15,0.00196884401444232,2020-10-20
"267",133,0.00405717170987268,3.72134206163967e-05,8.16639567278607e-15,0.00202858585494042,2020-10-21
"268",133.5,0.00417785274632667,3.82582230205328e-05,8.82896535251575e-15,0.00208892637316775,2020-10-21
"269",134,0.00429955180877619,3.93325464753144e-05,9.54529174427445e-15,0.00214977590439287,2020-10-22
"270",134.5,0.00442207574190437,4.04372239538935e-05,1.03197363275813e-14,0.00221103787095734,2020-10-22
"271",135,0.00454521762686068,4.15731115225092e-05,1.11570144448106e-14,0.00227260881343592,2020-10-23
"272",135.5,0.0046687569501533,4.2741088946583e-05,1.2062224011385e-14,0.00233437847508268,2020-10-23
"273",136,0.00479245988694905,4.40260242533177e-05,1.3040876555332e-14,0.00239622994348105,2020-10-24
"274",136.5,0.00491607970591245,4.5420457569484e-05,1.40989307751946e-14,0.00245803985296328,2020-10-24
"275",137,0.00503935730181667,4.68587550856252e-05,1.52428288206175e-14,0.00251967865091596,2020-10-25
"276",137.5,0.00516202186106015,4.83422770325729e-05,1.64795355165108e-14,0.00258101093053831,2020-10-25
"277",138,0.00528379166392224,4.98724245517909e-05,1.78165807696146e-14,0.00264189583197003,2020-10-26
"278",138.5,0.00540437502589358,5.14506408430827e-05,1.92621054156634e-14,0.00270218751295642,2020-10-26
"279",139,0.00552347137873082,5.29350907172355e-05,2.08249107862997e-14,0.00276173568937583,2020-10-27
"280",139.5,0.00564077249002676,5.45174295572038e-05,2.25145122975335e-14,0.00282038624502464,2020-10-27
"281",140,0.00575596381807608,5.60854893271634e-05,2.434119738603e-14,0.00287798190905021,2020-10-28
"282",140.5,0.00586872599668298,5.76987403100409e-05,2.63160881459812e-14,0.00293436299835465,2020-10-28
"283",141,0.00597873644233213,5.92900459935819e-05,2.84512090479375e-14,0.00298936822118029,2020-10-29
"284",141.5,0.00608567107386977,6.11906327627404e-05,3.07595601519163e-14,0.00304283553695027,2020-10-29
"285",142,0.00618920613256211,6.31515568622515e-05,3.32551962605588e-14,0.00309460306629768,2020-10-30
"286",142.5,0.00628902008816215,6.50831930581803e-05,3.59533124942745e-14,0.00314451004409905,2020-10-30
"287",143,0.00638479561447841,6.66977891448268e-05,3.88703368094098e-14,0.00319239780725864,2020-10-31
"288",143.5,0.00647622161595278,6.79000091012172e-05,4.20240300227569e-14,0.0032381108079974,2020-10-31
"289",144,0.00656299528497687,6.91441707855809e-05,4.54335939514174e-14,0.00328149764251115,2020-11-01
"290",144.5,0.00664482416816022,7.04140909464355e-05,4.91197883264513e-14,0.00332241208410467,2020-11-01
"291",145,0.00672142821856075,7.18397984225526e-05,5.31050571921593e-14,0.00336071410930693,2020-11-02
"292",145.5,0.00679254181004436,7.33970786683415e-05,5.7413665560603e-14,0.00339627090505089,2020-11-02
"293",146,0.00685791568949552,7.49885638268536e-05,6.20718471534087e-14,0.0034289578447788,2020-11-03
"294",146.5,0.0069173188425853,7.66149989427091e-05,6.71079641304063e-14,0.0034586594213262,2020-11-03
"295",147,0.00697054024923742,7.82771443822053e-05,7.25526797776395e-14,0.00348527012465498,2020-11-04
"296",147.5,0.00701739050582698,7.99757760903324e-05,7.84391452061887e-14,0.00350869525295271,2020-11-04
"297",148,0.00705770329249652,8.17116858487346e-05,8.48032011985546e-14,0.00352885164629066,2020-11-05
"298",148.5,0.00709133666576541,8.34856815343953e-05,9.16835964315817e-14,0.00354566833292855,2020-11-05
"299",149,0.00711817415881208,8.52985873788079e-05,9.91222234046075e-14,0.0035590870794556,2020-11-06
"300",149.5,0.00713812567438474,8.71839103161092e-05,1.07164373509331e-13,0.00356906283724595,2020-11-06
"301",150,0.00715112815819242,8.92088771317963e-05,1.15859012794433e-13,0.00357556407915414,2020-11-07
"302",150.5,0.00715714604378378,9.12137075568883e-05,1.25259080104002e-13,0.00357857302195452,2020-11-07
"303",151,0.00715617146326574,9.32625428860297e-05,1.35421809405011e-13,0.00357808573170058,2020-11-08
"304",151.5,0.00714822422167363,9.53562941348225e-05,1.4640907826642e-13,0.00357411211091002,2020-11-08
"305",152,0.00713335153629874,9.75480019211876e-05,1.58287784611665e-13,0.00356667576822851,2020-11-09
"306",152.5,0.00711162754573061,0.00010006539771353,1.71130254038452e-13,0.00355581377295087,2020-11-09
"307",153,0.00708315259670013,0.000102649007349441,1.85014680185916e-13,0.00354157629844257,2020-11-10
"308",153.5,0.00704805231994353,0.000105300566071234,2.00025600830373e-13,0.00352402616007178,2020-11-10
"309",154,0.00700647650917906,0.000108021852137173,2.16254412608476e-13,0.00350323825469766,2020-11-11
"310",154.5,0.0069585978198387,0.000110963671217448,2.33799927501751e-13,0.00347929891003625,2020-11-11
"311",155,0.00690461030637917,0.000114088995170611,2.52768974470763e-13,0.00345230515331597,2020-11-12
"312",155.5,0.00684472781877185,0.000116622520371252,2.7327704990208e-13,0.00342236390952257,2020-11-12
"313",156,0.00677918228011641,0.000119641388983408,2.95449020828378e-13,0.00338959114020593,2020-11-13
"314",156.5,0.00670822186822418,0.000124710531733059,3.13150711527382e-13,0.00335411093426866,2020-11-13
"315",157,0.00663210912447609,0.000127281821698156,2.95233872260118e-13,0.00331605456238566,2020-11-14
"316",157.5,0.00655111901328609,0.000129749701863038,2.78342140449135e-13,0.00327555950678222,2020-11-14
"317",158,0.00646553695511798,0.000132094708569442,2.62416864828926e-13,0.0032327684776902,2020-11-15
"318",158.5,0.00638460584678566,0.000136007741263023,2.47402749851401e-13,0.00319230292351653,2020-11-15
"319",159,0.00640709332592972,0.000140045092563446,2.33247663689359e-13,0.00320354666308148,2020-11-16
"320",159.5,0.00642430952073245,0.000144485214349514,2.19902457224993e-13,0.00321215476047618,2020-11-16
"321",160,0.00643620785141767,0.000148013849694129,2.07320793394917e-13,0.0032181039258125,2020-11-17
"322",160.5,0.00644275961578661,0.000151860827561251,1.95458986299184e-13,0.00322137980799103,2020-11-17
"323",161,0.00644395414055792,0.000154262259922643,1.84275849515636e-13,0.0032219770703711,2020-11-18
"324",161.5,0.00643979880190095,0.00015723342028421,1.73732553092907e-13,0.00321989940103734,2020-11-18
"325",162,0.00643031891539446,0.000160322283778298,1.6379248872554e-13,0.00321515945777913,2020-11-19
"326",162.5,0.00641555749727698,0.000164706990661103,1.54421142643077e-13,0.0032077787487157,2020-11-19
"327",163,0.00639557490044627,0.000169895395944261,1.45585975771763e-13,0.00319778745029593,2020-11-20
"328",163.5,0.00637044833018446,0.000174477848444343,1.3725631075277e-13,0.00318522416516086,2020-11-20
"329",164,0.00634027124600343,0.000178600051180719,1.29403225424648e-13,0.00317013562306642,2020-11-21
"330",164.5,0.00630515265729782,0.000183870685104656,1.21999452400144e-13,0.00315257632870991,2020-11-21
"331",165,0.00626521632163782,0.000188659341654729,1.15019284388717e-13,0.00313260816087642,2020-11-22
"332",165.5,0.00622059985551394,0.000192268621996826,1.08438484935993e-13,0.00311029992781119,2020-11-22
"333",166,0.0061714537681463,0.000195976516741013,1.02234204270245e-13,0.00308572688412427,2020-11-23
"334",166.5,0.00611794042958444,0.000200703767291778,9.63848999636924e-14,0.00305897021484041,2020-11-23
"335",167,0.00618760550921603,0.000208073379017258,9.08702621331474e-14,0.00309380275465345,2020-11-24
"336",167.5,0.00632872264599387,0.00021248599863,8.56711429202848e-14,0.00316436132303977,2020-11-24
"337",168,0.00646486081145935,0.000216850562980196,8.07694900066818e-14,0.00323243040577006,2020-11-25
"338",168.5,0.00659539034265753,0.000221410860443115,7.61482839327776e-14,0.00329769517136684,2020-11-25
"339",169,0.0067196879401184,0.000228468268055655,7.17914790031134e-14,0.0033598439700951,2020-11-26
"340",169.5,0.00683714249271456,0.000235815678217785,6.76839475726637e-14,0.00341857124639112,2020-11-26
"341",170,0.00694716106319623,0.00024307502604088,6.38114275208119e-14,0.00347358053163002,2020-11-27
"342",170.5,0.00704917494292717,0.00024779829847358,6.01604727305884e-14,0.00352458747149366,2020-11-27
"343",171,0.00714264567693151,0.000252612058107393,5.67184064012269e-14,0.00357132283849411,2020-11-28
"344",171.5,0.00722707095515982,0.000259136242928805,5.34732770319316e-14,0.00361353547760665,2020-11-28
"345",172,0.00730199026322978,0.000267826210409744,5.04138169240212e-14,0.0036509951316401,2020-11-29
"346",172.5,0.007366990186053,0.000276820397963509,4.75294030573632e-14,0.00368349509305026,2020-11-29
"347",173,0.00742170926088651,0.000286126760445359,4.48100202052521e-14,0.00371085463046566,2020-11-30
"348",173.5,0.00746584228249621,0.000294349520848973,4.2246226159662e-14,0.00373292114126923,2020-11-30
"349",174,0.0074991439722179,0.000299895806358682,3.98291189461261e-14,0.00374957198612887,2020-12-01
"350",174.5,0.00752143193455472,0.00029905640484249,3.755030591441e-14,0.00376071596729613,2020-12-01
"351",175,0.00753258883923964,0.000306383618340086,3.54018745976531e-14,0.00376629441963752,2020-12-02
"352",175.5,0.00753256378299199,0.000313906552676479,3.33763652387982e-14,0.00376628189151268,2020-12-02
"353",176,0.0075213728029868,0.000319702680784293,3.14667448889134e-14,0.00376068640150914,2020-12-03
"354",176.5,0.00749909853274647,0.000325803306015885,2.96663829874726e-14,0.00374954926638807,2020-12-03
"355",177,0.00746588901012368,0.000333152890054063,2.79690283398039e-14,0.00373294450507583,2020-12-04
"356",177.5,0.00742195566563056,0.000344893145291327,2.6368787411768e-14,0.00371097783282846,2020-12-04
"357",178,0.00736757053695703,0.000353860024950304,2.48601038662999e-14,0.00368378526849094,2020-12-05
"358",178.5,0.00730306277153811,0.000360013976376659,2.34377392707638e-14,0.00365153138578077,2020-12-05
"359",179,0.00722881449297545,0.000365215718930113,2.20967549081308e-14,0.00361440724649877,2020-12-06
"360",179.5,0.00714525611859152,0.000370953224176791,2.08324946288255e-14,0.00357262805930618,2020-12-06
"361",180,0.00705286122410685,0.000379089369260628,1.96405686837007e-14,0.00352643061206324,2020-12-07
"362",180.5,0.00695214105721341,0.000387404085483753,1.85168384820034e-14,0.00347607052861597,2020-12-07
"363",181,0.00684363880462684,0.000397813928404714,1.74574022214104e-14,0.00342181940232215,2020-12-08
"364",181.5,0.00672792371711033,0.000407577501790329,1.64585813402381e-14,0.00336396185856339,2020-12-08
"365",182,0.00660558519415446,0.000411959248247897,1.55169077447852e-14,0.00330279259708499,2020-12-09
"366",182.5,0.00647722692474187,0.000412715480191742,1.46291117674601e-14,0.00323861346237825,2020-12-09
"367",183,0.00634346117326761,0.000418976611855942,1.37921108138804e-14,0.0031717305866407,2020-12-10
"368",183.5,0.00634459865425437,0.000425096937824071,1.30029986595273e-14,0.00317229932713369,2020-12-10
"369",184,0.00637739477565263,0.000429747427662439,1.22590353587869e-14,0.00318869738783244,2020-12-11
"370",184.5,0.00640660420676502,0.000433381243754779,1.15576377313455e-14,0.00320330210338829,2020-12-11
"371",185,0.00643216788393087,0.000438655028892703,1.08963703929018e-14,0.00321608394197088,2020-12-12
"372",185.5,0.0064540352235263,0.000444833486447085,1.02729372990551e-14,0.00322701761176829,2020-12-12
"373",186,0.00647216434757927,0.000451045556426946,9.6851737730084e-15,0.00323608217379448,2020-12-13
"374",186.5,0.00648652226499068,0.000457917043330158,9.1310389894035e-15,0.00324326113249991,2020-12-13
"375",187,0.00649708500693919,0.000467687317473336,8.60860888819228e-15,0.0032485425034739,2020-12-14
"376",187.5,0.00650383771545887,0.000476500050962503,8.11606949393875e-15,0.00325191885773349,2020-12-14
"377",188,0.00650677468460231,0.000484946092978285,7.65171061735565e-15,0.00325338734230498,2020-12-15
"378",188.5,0.00669590283199679,0.000490753436218828,7.21391991720605e-15,0.003347951416002,2020-12-15
"379",189,0.0070068991938973,0.000493669229411613,6.80117730195171e-15,0.00350344959695205,2020-12-16
"380",189.5,0.00732303144588254,0.000511356104751762,6.41204965170975e-15,0.00366151572294448,2020-12-16
"381",190,0.00764327774209676,0.000522210715848385,6.04518584219126e-15,0.0038216388710514,2020-12-17
"382",190.5,0.00796649411366985,0.000526626088747391,5.69931205334402e-15,0.00398324705683778,2020-12-17
"383",191,0.0082914152875638,0.000525988342726872,5.37322734640996e-15,0.00414570764378458,2020-12-18
"384",191.5,0.00861665765544131,0.000526003868377535,5.06579949404028e-15,0.00430832882772319,2020-12-18
"385",192,0.00894072461758489,0.000542901183106602,4.77596104898942e-15,0.00447036230879483,2020-12-19
"386",192.5,0.00926201448984283,0.000550720684884092,4.50270563773772e-15,0.00463100724492367,2020-12-19
"387",193,0.00957883111114809,0.000547834575322727,4.24508446617359e-15,0.00478941555557617,2020-12-20
"388",193.5,0.00988939722528864,0.000553193916516491,4.00220302520206e-15,0.00494469861264632,2020-12-20
"389",194,0.0101918706340076,0.000560338130913626,3.77321798484127e-15,0.00509593531700569,2020-12-21
"390",194.5,0.0104843630307598,0.000563805399300313,3.55733426602236e-15,0.00524218151538166,2020-12-21
"391",195,0.0107649613280666,0.000577006636861551,3.35380227992557e-15,0.00538248066403496,2020-12-22
"392",195.5,0.0110317511898626,0.000588792889966648,3.16191532526712e-15,0.00551587559493286,2020-12-22
"393",196,0.0112828423778423,0.000591806700892835,2.98100713449958e-15,0.00564142118892265,2020-12-23
"394",196.5,0.0115163954226446,0.000595789387710005,2.81044956040581e-15,0.0057581977113237,2020-12-23
"395",197,0.0117306490422413,0.000603229728757485,2.64965039505387e-15,0.00586532452112196,2020-12-24
"396",197.5,0.0119239476567596,0.000606490444274125,2.49805131353982e-15,0.00596197382838103,2020-12-24
"397",198,0.0120947682965018,0.000606201138402793,2.35512593537878e-15,0.00604738414825206,2020-12-25
"398",198.5,0.0122417461727972,0.0006139419279533,2.22037799681306e-15,0.0061208730863997,2020-12-25
"399",199,0.0123636981830537,0.000627082923571521,2.09333962769115e-15,0.00618184909152791,2020-12-26
"400",199.5,0.0124596436540138,0.000625414151755394,1.97356972693467e-15,0.00622982182700786,2020-12-26
"401",200,0.0125288216910164,0.000629918321553854,1.86065243095263e-15,0.00626441084550912,2020-12-27
"402",200.5,0.0125707045943508,0.000641896676559351,1.75419566968485e-15,0.00628535229717629,2020-12-27
"403",201,0.0125850069229425,0.000649813182418678,1.65382980526116e-15,0.00629250346147207,2020-12-28
"404",201.5,0.0125716899252673,0.00066117210113333,1.55920634854921e-15,0.00628584496263445,2020-12-28
"405",202,0.0125309612107333,0.000670287956552984,1.46999674913482e-15,0.00626548060536741,2020-12-29
"406",202.5,0.0124632696940137,0.000684032208248279,1.38589125453316e-15,0.00623163484700757,2020-12-29
"407",203,0.0123692960017802,0.000688715777489918,1.30659783467e-15,0.00618464800089073,2020-12-30
"408",203.5,0.0122499386779565,0.000698024379992822,1.23184116789842e-15,0.00612496933897884,2020-12-30
"409",204,0.0121062966527655,0.000707393726812404,1.16136168503033e-15,0.00605314832638331,2020-12-31
"410",204.5,0.0119396485465065,0.000727454316091965,1.09491466806354e-15,0.00596982427325377,2020-12-31
"411",205,0.0117514294568766,0.000739588491055264,1.03226940047482e-15,0.0058757147284388,2021-01-01
"412",205.5,0.0115432059263043,0.000742522754669189,9.73208366128863e-16,0.00577160296315263,2021-01-01
"413",206,0.0113166498027143,0.000766858822897781,9.17526494021379e-16,0.00565832490135759,2021-01-02
"414",206.5,0.0110735116947366,0.000784915076762613,8.65030446234052e-16,0.00553675584736873,2021-01-02
"415",207,0.0108155946835524,0.000803232090062124,8.1553794662898e-16,0.00540779734177661,2021-01-03
"416",207.5,0.0105447288925191,0.000802345662483921,7.68877147951688e-16,0.00527236444625991,2021-01-03
"417",208,0.0102627474374619,0.000805488840891112,7.24886035145178e-16,0.00513137371873133,2021-01-04
"418",208.5,0.00997146419048605,0.0008216754839109,6.83411862803229e-16,0.00498573209524336,2021-01-04
"419",209,0.00967265369378322,0.000830200759864153,6.44310624809649e-16,0.00483632684689193,2021-01-05
"420",209.5,0.00936803346227328,0.00083543792649723,6.07446554321999e-16,0.00468401673113694,2021-01-05
"421",210,0.00905924881948753,0.000864997159018186,5.72691652363613e-16,0.00452962440974405,2021-01-06
"422",210.5,0.00874786032353973,0.00089688342744214,5.39925243387107e-16,0.00437393016177014,2021-01-06
"423",211,0.00843533376209001,0.000927226336069385,5.09033556266219e-16,0.00421766688104526,2021-01-07
"424",211.5,0.00834365733372015,0.000942944604794553,4.79909329261083e-16,0.00417182866686031,2021-01-07
"425",212,0.00874245838617298,0.000939106248316252,4.52451437585328e-16,0.00437122919308672,2021-01-08
"426",212.5,0.00914687188824043,0.000942902004150893,4.26564542281822e-16,0.00457343594412043,2021-01-08
"427",213,0.0095553041188532,0.000945876693022056,4.02158759187907e-16,0.0047776520594268,2021-01-09
"428",213.5,0.00996598247406845,0.000950136936774704,3.79149346840705e-16,0.00498299123703442,2021-01-09
"429",214,0.0103769602237222,0.00095166286374264,3.5745641223884e-16,0.00518848011186127,2021-01-10
"430",214.5,0.0107861251875028,0.000953078491344066,3.37004633438936e-16,0.00539306259375155,2021-01-10
"431",215,0.0111912126473411,0.00096089281153167,3.17722998023677e-16,0.00559560632367071,2021-01-11
"432",215.5,0.0115898227175416,0.00096125515333462,2.99544556533359e-16,0.00579491135877095,2021-01-11
"433",216,0.0119794422728269,0.000969224711714728,2.82406190004792e-16,0.00598972113641357,2021-01-12
"434",216.5,0.0123574713891995,0.000986036996090442,2.66248390810404e-16,0.00617873569459987,2021-01-12
"435",217,0.0127212540869229,0.000991714487464675,2.51015056036578e-16,0.0063606270434616,2021-01-13
"436",217.5,0.0130681129847129,0.00099581769098134,2.36653292683805e-16,0.00653405649235659,2021-01-13
"437",218,0.0133953872871304,0.000985662264697847,2.23113234012247e-16,0.00669769364356533,2021-01-14
"438",218.5,0.0137004733426558,0.000986067362202191,2.1034786639506e-16,0.00685023667132802,2021-01-14
"439",219,0.0139808668387785,0.00102938638765553,1.9831286607824e-16,0.00699043341938935,2021-01-15
"440",219.5,0.0142342055540848,0.00104373433838911,1.86966445280235e-16,0.00711710277704248,2021-01-15
"441",220,0.0144583114770004,0.00106887445228564,1.76269207096909e-16,0.00722915573850031,2021-01-16
"442",220.5,0.0146512310366379,0.00108188800547454,1.66184008708101e-16,0.00732561551831902,2021-01-16
"443",221,0.0148112721810851,0.00108870520317219,1.56675832410766e-16,0.00740563609054261,2021-01-17
"444",221.5,0.0149370370874218,0.00108940329054611,1.47711664030945e-16,0.00746851854371096,2021-01-17
"445",222,0.0150274493969954,0.00112827443457054,1.39260378292341e-16,0.00751372469849776,2021-01-18
"446",222.5,0.0150817750361439,0.0011453119147631,1.31292630743521e-16,0.00754088751807202,2021-01-18
"447",223,0.0150996358995335,0.00113449046672562,1.23780755868467e-16,0.0075498179497668,2021-01-19
"448",223.5,0.0150810159296685,0.00114164901443527,1.16698671026706e-16,0.00754050796483429,2021-01-19
"449",224,0.0150262594079337,0.00114453308984369,1.10021785889487e-16,0.00751312970396693,2021-01-20
"450",224.5,0.0149360615637169,0.00114480453041975,1.03726917057539e-16,0.00746803078185852,2021-01-20
"451",225,0.0148114518919874,0.001140892260551,9.77922075639538e-17,0.00740572594599375,2021-01-21
"452",225.5,0.0146537708300697,0.0011339295280207,9.21970509826922e-17,0.00732688541503489,2021-01-21
"453",226,0.014464640667074,0.00112358970563508,8.6922019879203e-17,0.00723232033353703,2021-01-22
"454",226.5,0.0142459317333945,0.00111277009019493,8.19487983547209e-17,0.00712296586669731,2021-01-22
"455",227,0.0139997250355104,0.00110650188595122,7.72601184500256e-17,0.00699986251775522,2021-01-23
"456",227.5,0.0137282725598358,0.00114553213861458,7.28397001878444e-17,0.00686413627991793,2021-01-23
"457",228,0.0134339564695222,0.00116824205461407,6.86721950457132e-17,0.00671697823476115,2021-01-24
"458",228.5,0.0131658018691574,0.00119978389588974,6.47431326630236e-17,0.00658290093457875,2021-01-24
"459",229,0.013890742550958,0.00121864173472559,6.10388705972132e-17,0.00694537127547905,2021-01-25
"460",229.5,0.0146250029254748,0.00124132374464468,5.75465469546425e-17,0.00731250146273742,2021-01-25
"461",230,0.015364266496269,0.00124409084994749,5.42540357316845e-17,0.00768213324813454,2021-01-26
"462",230.5,0.0161037128088534,0.00126060865255938,5.11499047109627e-17,0.00805185640442674,2021-01-26
"463",231,0.0168380481278153,0.00127452425893399,4.82233757665446e-17,0.00841902406390766,2021-01-27
"464",231.5,0.01756155325805,0.00129423710586374,4.54642874402648e-17,0.00878077662902503,2021-01-27
"465",232,0.0182681494227941,0.00131498976826929,4.28630596592332e-17,0.00913407471139707,2021-01-28
"466",232.5,0.0189514823916301,0.00132466754059959,4.04106604720226e-17,0.00947574119581509,2021-01-28
"467",233,0.0196050241829158,0.00132227112306158,3.80985746880372e-17,0.00980251209145791,2021-01-29
"468",233.5,0.0202221906831332,0.00131339780437202,3.59187743111713e-17,0.0101110953415666,2021-01-29
"469",234,0.0207964724849847,0.00131092770419645,3.38636906650988e-17,0.0103982362424924,2021-01-30
"470",234.5,0.0213215752179742,0.00129098611892701,3.19261881134081e-17,0.0106607876089871,2021-01-30
"471",235,0.0217915647133772,0.00126552584785585,3.00995392833312e-17,0.0108957823566886,2021-01-31
"472",235.5,0.0222010115989074,0.00124878418463,2.83774017070428e-17,0.0111005057994537,2021-01-31
"473",236,0.0225451294420675,0.00123334396880036,2.67537957994205e-17,0.0112725647210338,2021-02-01
"474",236.5,0.0228199004257917,0.00121680806037971,2.52230840958017e-17,0.0114099502128959,2021-02-01
"475",237,0.0230221827915317,0.00120803484651638,2.37799516776482e-17,0.0115110913957659,2021-02-02
"476",237.5,0.0234457717742487,0.0012161948525032,2.24193877181501e-17,0.0117228858871244,2021-02-02
"477",238,0.0239765136698852,0.00120450519558295,2.11366680836942e-17,0.0119882568349426,2021-02-03
"478",238.5,0.0244215404686665,0.00120165026050655,1.99273389307851e-17,0.0122107702343332,2021-02-03
"479",239,0.0247742916474498,0.00119756297389362,1.87872012414637e-17,0.0123871458237249,2021-02-04
"480",239.5,0.0250296146203976,0.00117493028914316,1.77122962435279e-17,0.0125148073101988,2021-02-04
"481",240,0.0251839378095291,0.00116384596187966,1.66988916649328e-17,0.0125919689047646,2021-02-05
"482",240.5,0.0252353888816573,0.00115306214564904,1.57434687746405e-17,0.0126176944408287,2021-02-05
"483",241,0.0251838509525707,0.00115944468162227,1.4842710164925e-17,0.0125919254762854,2021-02-06
"484",241.5,0.025030953461235,0.00115746035476826,1.39934882327099e-17,0.0125154767306175,2021-02-06
"485",242,0.0247799986396631,0.00113950959603177,1.31928543199429e-17,0.0123899993198316,2021-02-07
"486",242.5,0.0244358286299783,0.00113013649009737,1.2438028475301e-17,0.0122179143149892,2021-02-07
"487",243,0.0243733135603034,0.00113437098379452,1.17263898016778e-17,0.0121866567801517,2021-02-08
"488",243.5,0.0246261745072852,0.00112704409665393,1.1055467355936e-17,0.0123130872536426,2021-02-08
"489",244,0.0247895352271127,0.00110535111963128,1.04229315693291e-17,0.0123947676135563,2021-02-09
"490",244.5,0.0248615946279454,0.00107665138206102,9.82658615880103e-18,0.0124307973139727,2021-02-09
"491",245,0.0248419638160133,0.00105761143101885,9.26436050107883e-18,0.0124209819080067,2021-02-10
"492",245.5,0.0247316677137982,0.00105743058820862,8.73430244307975e-18,0.0123658338568991,2021-02-10
"493",246,0.0245330991229488,0.00105729606353461,8.23457152366915e-18,0.0122665495614744,2021-02-11
"494",246.5,0.0242499281825993,0.00104557924025257,7.76343258323367e-18,0.0121249640912997,2021-02-11
"495",247,0.0238869726860429,0.00102976761689928,7.31924973888124e-18,0.0119434863430215,2021-02-12
"496",247.5,0.0242138452862087,0.00101405430612986,6.90048070434833e-18,0.0121069226431043,2021-02-12
"497",248,0.0255750887839879,0.00100122215211419,6.50567143489243e-18,0.012787544391994,2021-02-13
"498",248.5,0.0269008026924143,0.000984358227177245,6.1334510785756e-18,0.0134504013462072,2021-02-13
"499",249,0.0281719621638811,0.0009693598872863,5.78252721640902e-18,0.0140859810819406,2021-02-14
"500",249.5,0.0293688353252419,0.000952279223377658,5.45168137483155e-18,0.0146844176626209,2021-02-14
"501",250,0.0304715599937339,0.000955779722067539,5.13976479494064e-18,0.0152357799968669,2021-02-15
"502",250.5,0.0314608005604387,0.000953686342787708,4.8456944437857e-18,0.0157304002802193,2021-02-15
"503",251,0.0323184536934647,0.000940187281887709,4.56844925387422e-18,0.0161592268467324,2021-02-16
"504",251.5,0.0330283625961496,0.000936193601480767,4.30706657783372e-18,0.0165141812980748,2021-02-16
"505",252,0.033576993517843,0.000943489278007801,4.06063884591921e-18,0.0167884967589215,2021-02-17
"506",252.5,0.0339540263394473,0.000936780890708374,3.82831041476059e-18,0.0169770131697236,2021-02-17
"507",253,0.0341528141828404,0.000930059754421692,3.60927459640817e-18,0.0170764070914202,2021-02-18
"508",253.5,0.0341706752829583,0.000922383815285204,3.40277085736059e-18,0.0170853376414792,2021-02-18
"509",254,0.0340089931674001,0.000916030501058829,3.20808217784964e-18,0.0170044965837,2021-02-19
"510",254.5,0.0336731170910763,0.000906839914366956,3.02453256221299e-18,0.0168365585455382,2021-02-19
"511",255,0.0331720716853607,0.000901484197347472,2.85148469171023e-18,0.0165860358426803,2021-02-20
"512",255.5,0.0325181006915019,0.000879756412820292,2.68833771163254e-18,0.0162590503457509,2021-02-20
"513",256,0.0317260824261291,0.000857390328586091,2.53452514502229e-18,0.0158630412130645,2021-02-21
"514",256.5,0.030812862788455,0.000839812499450762,2.38951292575859e-18,0.0154064313942275,2021-02-21
"515",257,0.0297965544668446,0.000829368538019746,2.2527975441795e-18,0.0148982772334223,2021-02-22
"516",257.5,0.0299893535551272,0.000828388867175288,2.12390429880182e-18,0.0149946767775636,2021-02-22
"517",258,0.0313616813833128,0.000822796714991152,2.00238564806843e-18,0.0156808406916564,2021-02-23
"518",258.5,0.0326034943065461,0.00081940660249152,1.88781965639995e-18,0.016301747153273,2021-02-23
"519",259,0.0336872930695796,0.000815948811261759,1.77980852915514e-18,0.0168436465347898,2021-02-24
"520",259.5,0.0345879857018016,0.000811781509588381,1.67797723141319e-18,0.0172939928509008,2021-02-24
"521",260,0.0352841417058203,0.000798477587333016,1.58197218578203e-18,0.0176420708529101,2021-02-25
"522",260.5,0.035759127974257,0.000790343132073027,1.49146004471126e-18,0.0178795639871285,2021-02-25
"523",261,0.0360020231707169,0.00078226310526728,1.40612653304677e-18,0.0180010115853585,2021-02-26
"524",261.5,0.0360082218999451,0.000772579034281836,1.32567535680843e-18,0.0180041109499726,2021-02-26
"525",262,0.0357796676250783,0.00078325112006526,1.24982717440175e-18,0.0178898338125391,2021-02-27
"526",262.5,0.0353246905049182,0.000785539470514185,1.17831862669134e-18,0.0176623452524591,2021-02-27
"527",263,0.0346574675467257,0.00078007497696825,1.11090142256857e-18,0.0173287337733629,2021-02-28
"528",263.5,0.0337971611567037,0.000774088185587561,1.0473414768382e-18,0.0168985805783518,2021-02-28
"529",264,0.0327668222631101,0.000775154834776256,9.87418097430624e-19,0.0163834111315551,2021-03-01
"530",264.5,0.0315921614511315,0.000768740467960816,9.30923219117515e-19,0.0157960807255657,2021-03-01
"531",265,0.0303002944005943,0.000768196242347356,8.77660681070316e-19,0.0151501472002971,2021-03-02
"532",265.5,0.028918557529874,0.000753985180209591,8.27445545752978e-19,0.014459278764937,2021-03-02
"533",266,0.0274734694705861,0.000734077860693116,7.80103456784103e-19,0.0137367347352931,2021-03-03
"534",266.5,0.0259898883366709,0.00071102766093325,7.35470033538841e-19,0.0129949441683355,2021-03-03
"535",267,0.0244903882712607,0.000700984005409791,6.93390300388483e-19,0.0122451941356303,2021-03-04
"536",267.5,0.0229948551824813,0.000699064284505161,6.53718148595975e-19,0.0114974275912406,2021-03-04
"537",268,0.0215202833085937,0.000682875699111233,6.16315828998936e-19,0.0107601416542968,2021-03-05
"538",268.5,0.0200807422575444,0.00066701101693298,5.81053473718696e-19,0.0100403711287722,2021-03-05
"539",269,0.0186874782295904,0.000651467008979203,5.47808645234627e-19,0.00934373911479521,2021-03-06
"540",269.5,0.0173491122416001,0.000634642565376764,5.16465911258077e-19,0.00867455612080005,2021-03-06
"541",270,0.016071900936938,0.000617707496169139,4.86916443929782e-19,0.00803595046846898,2021-03-07
"542",270.5,0.0148600305602607,0.00060402127011142,4.59057641949097e-19,0.00743001528013034,2021-03-07
"543",271,0.013715920669446,0.000595811064194802,4.32792774323011e-19,0.00685796033472302,2021-03-08
"544",271.5,0.0126405202170083,0.000590685591115743,4.08030644497971e-19,0.00632026010850413,2021-03-08
"545",272,0.0116335841510539,0.000575290136546037,3.84685273708318e-19,0.00581679207552693,2021-03-09
"546",272.5,0.0106939233325456,0.00056686710890307,3.62675602441863e-19,0.00534696166627281,2021-03-09
"547",273,0.0098196242278322,0.000556783290042708,3.41925208986039e-19,0.0049098121139161,2021-03-10
"548",273.5,0.00928079863908866,0.000538915361530683,3.22362044077359e-19,0.00464039931954433,2021-03-10
"549",274,0.00963953069973671,0.000530261930262985,3.0391818073284e-19,0.00481976534986836,2021-03-11
"550",274.5,0.0100009041652754,0.000527577635402623,2.86529578394762e-19,0.00500045208263771,2021-03-11
"551",275,0.0103637736294836,0.000520256234668913,2.7013586056982e-19,0.0051818868147418,2021-03-12
"552",275.5,0.0107269021938441,0.000509813928892203,2.54680105190604e-19,0.00536345109692207,2021-03-12
"553",276,0.0110889658111069,0.000499457305041748,2.40108646971485e-19,0.00554448290555344,2021-03-13
"554",276.5,0.0114485592647569,0.000487136266610318,2.26370891072665e-19,0.00572427963237847,2021-03-13
"555",277,0.0118042038511965,0.000462910884090096,2.13419137425392e-19,0.00590210192559827,2021-03-14
"556",277.5,0.0121543567975448,0.000456862423350271,2.01208415108361e-19,0.00607717839877241,2021-03-14
"557",278,0.0124974224084453,0.000448438439697977,1.89696326200229e-19,0.00624871120422263,2021-03-15
"558",278.5,0.012831764890857,0.000437604745549771,1.78842898566067e-19,0.00641588244542852,2021-03-15
"559",279,0.0131557227575488,0.000430423873008761,1.68610447066601e-19,0.00657786137877438,2021-03-16
"560",279.5,0.0134676246593101,0.000424692195912143,1.58963442708332e-19,0.00673381232965504,2021-03-16
"561",280,0.0137658064444657,0.0004172631834265,1.49868389280196e-19,0.00688290322223284,2021-03-17
"562",280.5,0.0140486291941019,0.000405467388040677,1.41293707048427e-19,0.00702431459705095,2021-03-17
"563",281,0.01431449793468,0.000396323224211785,1.33209623105789e-19,0.00715724896734002,2021-03-18
"564",281.5,0.0145618806886787,0.000387916885886719,1.25588067994454e-19,0.00728094034433934,2021-03-18
"565",282,0.0147893274908254,0.000376233573199589,1.1840257824357e-19,0.00739466374541269,2021-03-19
"566",282.5,0.0149954889744177,0.000369817273782699,1.11628204483119e-19,0.00749774448720883,2021-03-19
"567",283,0.0151791341209656,0.000359513761281402,1.05241424815018e-19,0.0075895670604828,2021-03-20
"568",283.5,0.0153391667682409,0.000346536299301402,9.92200631406741e-20,0.00766958338412043,2021-03-20
"569",284,0.0154746404875585,0.000332436048405884,9.35432121614007e-20,0.00773732024377926,2021-03-21
"570",284.5,0.0155847714708658,0.000319416936164801,8.81911607843528e-20,0.00779238573543291,2021-03-21
"571",285,0.0156689491113855,0.000309534997597098,8.31453256819089e-20,0.00783447455569277,2021-03-22
"572",285.5,0.0157267440168697,0.000299381845256235,7.83881867668677e-20,0.00786337200843486,2021-03-22
"573",286,0.0157579132600092,0.000292362535723584,7.39032263594142e-20,0.00787895663000458,2021-03-23
"574",286.5,0.0157624027436898,0.000286890117386954,6.96748718346334e-20,0.00788120137184488,2021-03-23
"575",287,0.0157403466366256,0.000278398991808361,6.56884415514315e-20,0.00787017331831279,2021-03-24
"576",287.5,0.0156920639142001,0.000269060702088608,6.19300938751205e-20,0.00784603195710003,2021-03-24
"577",288,0.0156180521168036,0.000261637329463957,5.83867791166626e-20,0.00780902605840182,2021-03-25
"578",288.5,0.0155189785103796,0.00025759572052634,5.50461942216993e-20,0.00775948925518979,2021-03-25
"579",289,0.0153956688983953,0.000251585757916631,5.18967400520352e-20,0.00769783444919764,2021-03-26
"580",289.5,0.0155454773570818,0.00024185236080294,4.89274811112523e-20,0.00777273867854088,2021-03-26
"581",290,0.0162378697902517,0.000231429894553759,4.61281075746119e-20,0.00811893489512584,2021-03-27
"582",290.5,0.0169211307204525,0.000223487408308967,4.3488899491407e-20,0.00846056536022624,2021-03-27
"583",291,0.0175899195364895,0.000216973990971282,4.10006930354679e-20,0.00879495976824475,2021-03-28
"584",291.5,0.0182386462283352,0.000211507032840266,3.86548486866361e-20,0.0091193231141676,2021-03-28
"585",292,0.0188615536773698,0.000207269557409298,3.64432212327281e-20,0.00943077683868492,2021-03-29
"586",292.5,0.0194528131233298,0.000200378472266666,3.43581314878287e-20,0.0097264065616649,2021-03-29
"587",293,0.0200066308543029,0.000193265842729841,3.2392339628715e-20,0.0100033154271515,2021-03-30
"588",293.5,0.020517363376987,0.000187480652177096,3.05390200568305e-20,0.0102586816884935,2021-03-30
"589",294,0.0209796375920428,0.000181322195150312,2.87917376985249e-20,0.0104898187960214,2021-03-31
"590",294.5,0.0213884718871004,0.000175423478219198,2.71444256612697e-20,0.0106942359435502,2021-03-31
"591",295,0.0217393936301681,0.000168063422627611,2.55913641682679e-20,0.010869696815084,2021-04-01
"592",295.5,0.0220285483532537,0.000162041179248996,2.41271606983144e-20,0.0110142741766268,2021-04-01
"593",296,0.0222527959993326,0.000158763707145975,2.27467312619501e-20,0.0111263979996663,2021-04-02
"594",296.5,0.0224097899835488,0.00015556356591231,2.14452827488949e-20,0.0112048949917744,2021-04-02
