"","time","top","med","bottom","pseudo_med","date"
"1",0,6.75428759131972e-05,2.34541056786089e-05,3.5389972690944e-06,3.55409365911458e-05,2020-06-10
"2",0.5,6.82391963485801e-05,2.37714535507213e-05,3.60929546122105e-06,3.59242459049006e-05,2020-06-10
"3",1,6.8942085846025e-05,2.41060685433485e-05,3.68098810776097e-06,3.6311536976893e-05,2020-06-11
"4",1.5,6.96515932434459e-05,2.44569282770828e-05,3.75410279161509e-06,3.67028480175305e-05,2020-06-11
"5",2,7.03677674496708e-05,2.47906809742646e-05,3.8286676381581e-06,3.70982175439144e-05,2020-06-12
"6",2.5,7.1090657436852e-05,2.51289283736358e-05,3.90471132578159e-06,3.74976843813168e-05,2020-06-12
"7",3,7.18203122326694e-05,2.54717292402484e-05,3.98226309663696e-06,3.79012876646532e-05,2020-06-13
"8",3.5,7.25567809123247e-05,2.58191430567415e-05,4.06135276758173e-06,3.83090668399532e-05,2020-06-13
"9",4,7.33001125903217e-05,2.61712300306444e-05,4.14201074133301e-06,3.87210616658274e-05,2020-06-14
"10",4.5,7.40503564120308e-05,2.65280511017108e-05,4.22426801783157e-06,3.91373122149312e-05,2020-06-14
"11",5,7.48075615450333e-05,2.68896679492826e-05,4.30815620582055e-06,3.95578588754269e-05,2020-06-15
"12",5.5,7.55717771702436e-05,2.72561429996813e-05,4.39370753464234e-06,3.9982742352443e-05,2020-06-15
"13",6,7.6343052472805e-05,2.76275394336247e-05,4.48095486625773e-06,4.04120036695314e-05,2020-06-16
"14",6.5,7.71214366327555e-05,2.80039211936702e-05,4.56993170749112e-06,4.08456841701233e-05,2020-06-16
"15",7,7.79069788154625e-05,2.83853529916791e-05,4.66067222250576e-06,4.12838255189841e-05,2020-06-17
"16",7.5,7.86997281618199e-05,2.87635202091897e-05,4.75321124551313e-06,4.17264697036665e-05,2020-06-17
"17",8,7.94997337782075e-05,2.9128863285326e-05,4.84758429372055e-06,4.2173659035964e-05,2020-06-18
"18",8.5,8.03070447262076e-05,2.94987566942975e-05,4.94382758052112e-06,4.26254361533644e-05,2020-06-18
"19",9,8.11217100120758e-05,2.98732547498922e-05,5.04197802893026e-06,4.3081844020503e-05,2020-06-19
"20",9.5,8.19437785759632e-05,3.0252412352597e-05,5.14207328527308e-06,4.35429259306181e-05,2020-06-19
"21",10,8.27732992808871e-05,3.06362849942999e-05,5.24415173312702e-06,4.40087255070071e-05,2020-06-20
"22",10.5,8.36103209014456e-05,3.10427128473017e-05,5.34825250752402e-06,4.44792867044848e-05,2020-06-20
"23",11,8.44548921122748e-05,3.14681368702802e-05,5.45441550941675e-06,4.49546538108458e-05,2020-06-21
"24",11.5,8.53070614762434e-05,3.19000805232365e-05,5.56268142041345e-06,4.54348714483285e-05,2020-06-21
"25",12,8.6166877432384e-05,3.23165964563321e-05,5.67309171778594e-06,4.5919984575085e-05,2020-06-22
"26",12.5,8.70343882835553e-05,3.27221983689576e-05,5.78568868975534e-06,4.64100384866553e-05,2020-06-22
"27",13,8.79096421838343e-05,3.31378498813035e-05,5.9005154510604e-06,4.69050788174473e-05,2020-06-23
"28",13.5,8.87926871256341e-05,3.35797954310807e-05,6.01761595881305e-06,4.74051515422236e-05,2020-06-23
"29",14,8.96835709265452e-05,3.40275112087303e-05,6.13703502864601e-06,4.79103029775956e-05,2020-06-24
"30",14.5,9.05823412158966e-05,3.44810691405729e-05,6.25881835115745e-06,4.8420579783527e-05,2020-06-24
"31",15,9.14890454210339e-05,3.49405419555536e-05,6.38301250865752e-06,4.89360289648457e-05,2020-06-25
"32",15.5,9.24037307533114e-05,3.54060031915592e-05,6.50966499222184e-06,4.94566978727666e-05,2020-06-25
"33",16,9.33264441937967e-05,3.58775272017064e-05,6.63882421905697e-06,4.99826342064268e-05,2020-06-26
"34",16.5,9.42572324786822e-05,3.63551891605956e-05,6.77053955018305e-06,5.05138860144326e-05,2020-06-26
"35",17,9.51961420844034e-05,3.68390650705285e-05,6.90486130843872e-06,5.1050501696421e-05,2020-06-27
"36",17.5,9.614321921246e-05,3.7329231767685e-05,7.04184079681363e-06,5.15925300046368e-05,2020-06-27
"37",18,9.70985097739375e-05,3.78338591224232e-05,7.18153031711381e-06,5.21400200455256e-05,2020-06-28
"38",18.5,9.80620593737258e-05,3.83462297208131e-05,7.32398318896527e-06,5.26930212813455e-05,2020-06-28
"39",19,9.90339132944347e-05,3.88581207495194e-05,7.46925376916126e-06,5.3251583531798e-05,2020-06-29
"40",19.5,0.00010001411648,3.93580594404127e-05,7.61739747135872e-06,5.38157569756794e-05,2020-06-29
"41",20,0.000101002713518983,3.98642649038967e-05,7.76847078612925e-06,5.43855921525561e-05,2020-06-30
"42",20.5,0.000101999748627554,4.03739596040295e-05,7.92253130137053e-06,5.49611399644625e-05,2020-06-30
"43",21,0.000103005265632168,4.09218850454878e-05,8.07963772308348e-06,5.55424516776256e-05,2020-07-01
"44",21.5,0.000104019307951914,4.14212259253848e-05,8.23984989652108e-06,5.61295789242176e-05,2020-07-01
"45",22,0.00010504191858056,4.19532462501252e-05,8.40322882771454e-06,5.67225737041374e-05,2020-07-02
"46",22.5,0.000106073140068265,4.24919110228399e-05,8.56983670538255e-06,5.73214883868239e-05,2020-07-02
"47",23,0.000107113014502976,4.30372980668616e-05,8.73973692322958e-06,5.79263757131028e-05,2020-07-03
"48",23.5,0.000108161583491499,4.35894859775521e-05,8.91299410263896e-06,5.85372887970688e-05,2020-07-03
"49",24,0.000109218888140244,4.4148554126089e-05,9.08967411576686e-06,5.91542811280054e-05,2020-07-04
"50",24.5,0.000110284969035648,4.47390368894559e-05,9.26984410904299e-06,5.97774065723454e-05,2020-07-04
"51",25,0.000111359866224261,4.53839393815378e-05,9.45357252708409e-06,6.04067193756725e-05,2020-07-05
"52",25.5,0.000112443619192511,4.60379509844424e-05,9.64092913702637e-06,6.10422741647685e-05,2020-07-05
"53",26,0.000113536266846131,4.67011943082993e-05,9.83198505328281e-06,6.16841259497069e-05,2020-07-06
"54",26.5,0.000114637847489263,4.73737934258121e-05,1.00268127627317e-05,6.23323301259971e-05,2020-07-06
"55",27,0.000115748398803218,4.8055873883846e-05,1.0225486150342e-05,6.29869424767801e-05,2020-07-07
"56",27.5,0.000116867957824916,4.87475627149101e-05,1.04280805252431e-05,6.36480191750795e-05,2020-07-07
"57",28,0.000117996560924979,4.93935381169744e-05,1.0634672647243e-05,6.4315616786111e-05,2020-07-08
"58",28.5,0.000119134243785501,5.00393890219883e-05,1.08453407538033e-05,6.49897922696519e-05,2020-07-08
"59",29,0.000120281041377474,5.06933769285488e-05,1.10601645874759e-05,6.5670602982475e-05,2020-07-09
"60",29.5,0.00012143698793789,5.13555960712944e-05,1.12792254238087e-05,6.63581066808494e-05,2020-07-09
"61",30,0.000122602116946497,5.20283143377426e-05,1.15026060997251e-05,6.70523615231112e-05,2020-07-10
"62",30.5,0.000123776461102231,5.2723067010708e-05,1.17303910423853e-05,6.7753426072308e-05,2020-07-10
"63",31,0.000124960052299305,5.34267338402077e-05,1.19626662985345e-05,6.846135929892e-05,2020-07-11
"64",31.5,0.000126152921602978,5.41394189474951e-05,1.21995195643451e-05,6.91762205836617e-05,2020-07-11
"65",32,0.000127355099224976,5.48612273804823e-05,1.24410402157584e-05,6.98980697203671e-05,2020-07-12
"66",32.5,0.000128566614498593,5.55230360853013e-05,1.26873193393323e-05,7.06269669189629e-05,2020-07-12
"67",33,0.000129787495853463,5.6229702782654e-05,1.29384497636025e-05,7.13629728085329e-05,2020-07-13
"68",33.5,0.000131017770789995,5.69612685609289e-05,1.31945260909609e-05,7.21061484404777e-05,2020-07-13
"69",34,0.000132257465853488,5.77019528393998e-05,1.345564473006e-05,7.28565552917738e-05,2020-07-14
"70",34.5,0.000133506606607923,5.84518585656972e-05,1.37219039287482e-05,7.36142552683358e-05,2020-07-14
"71",35,0.00013476521760943,5.92301810397819e-05,1.39934038075418e-05,7.4379310708486e-05,2020-07-15
"72",35.5,0.000136033322379433,6.00540041893517e-05,1.42702463936405e-05,7.51517843865365e-05,2020-07-15
"73",36,0.00013731094337748,6.08888926460191e-05,1.45525356554929e-05,7.59317395164867e-05,2020-07-16
"74",36.5,0.000138598101973767,6.1734983575654e-05,1.48403775379164e-05,7.67192397558415e-05,2020-07-16
"75",37,0.000139894818421333,6.25924155105454e-05,1.51338799977787e-05,7.7514349209556e-05,2020-07-17
"76",37.5,0.000141201111827969,6.34613283528878e-05,1.54331530402466e-05,7.83171324341078e-05,2020-07-17
"77",38,0.000142517000127806,6.43418633779113e-05,1.5738308755607e-05,7.91276544417066e-05,2020-07-18
"78",38.5,0.000143842500052616,6.5257005366598e-05,1.60494613566667e-05,7.99459807046414e-05,2020-07-18
"79",39,0.00014517762710281,6.60953969011146e-05,1.63667272167362e-05,8.07721771597731e-05,2020-07-19
"80",39.5,0.000146522395518152,6.68989821066361e-05,1.66902249082027e-05,8.16063102131771e-05,2020-07-19
"81",40,0.000147876818248182,6.76722331131848e-05,1.70200752416976e-05,8.24484467449396e-05,2020-07-20
"82",40.5,0.000149240906922366,6.86354936050845e-05,1.73564013058639e-05,8.32986541141148e-05,2020-07-20
"83",41,0.000150614671819965,6.95924301854246e-05,1.76993285077288e-05,8.41570001638471e-05,2020-07-21
"84",41.5,0.000151998121839643,7.04669371309344e-05,1.80489846136852e-05,8.50235532266642e-05,2020-07-21
"85",42,0.000153391264468805,7.13519335113641e-05,1.84054997910879e-05,8.58983821299463e-05,2020-07-22
"86",42.5,0.000154794105752687,7.22475317304511e-05,1.87690066504685e-05,8.67815562015775e-05,2020-07-22
"87",43,0.000156206650263195,7.31538450361735e-05,1.91396402883734e-05,8.76731452757842e-05,2020-07-23
"88",43.5,0.000157628901067505,7.40709875167995e-05,1.95175383308284e-05,8.85732196991669e-05,2020-07-23
"89",44,0.000159060859696428,7.4999074096557e-05,1.99028409774347e-05,8.94818503369315e-05,2020-07-24
"90",44.5,0.000160502526112551,7.59382205309109e-05,2.02956910460991e-05,9.03991085793248e-05,2020-07-24
"91",45,0.000161953898678161,7.68885434014378e-05,2.06962340184018e-05,9.13250663482813e-05,2020-07-25
"92",45.5,0.000163414974122968,7.78485399542643e-05,2.11046180856051e-05,9.22597961042864e-05,2020-07-25
"93",46,0.000164885747511619,7.88111590773608e-05,2.15209941953056e-05,9.32033708534624e-05,2020-07-26
"94",46.5,0.000166366212211036,7.97849305037319e-05,2.19455160987318e-05,9.41558641548841e-05,2020-07-26
"95",47,0.000167856359857565,8.07699633638215e-05,2.23783403986905e-05,9.51173501281277e-05,2020-07-27
"96",47.5,0.000169356180323964,8.17663673147902e-05,2.28196265981616e-05,9.60879034610628e-05,2020-07-27
"97",48,0.000170865661686234,8.27742525268239e-05,2.32695371495446e-05,9.70675994178895e-05,2020-07-28
"98",48.5,0.000172384790190304,8.38755719113979e-05,2.37282375045567e-05,9.80565138474305e-05,2020-07-28
"99",49,0.00017391355021858,8.50427669673312e-05,2.4195896164783e-05,9.90547231916817e-05,2020-07-29
"100",49.5,0.000175451924256378,8.62794329604208e-05,2.46726847328792e-05,0.000100062304494629,2020-07-29
"101",50,0.000176999892858245,8.75404915510389e-05,2.51587779644258e-05,0.000101079335411335,2020-07-30
"102",50.5,0.000178557434614183,8.86990954901238e-05,2.56543538204336e-05,0.000102105894217308,2020-07-30
"103",51,0.000180124526115799,8.98720448149597e-05,2.61595935204982e-05,0.000103142059818149,2020-07-31
"104",51.5,0.000181701141922381,9.10473913565468e-05,2.66746815966018e-05,0.000104187911759491,2020-07-31
"105",52,0.000183287254526918,9.22365267624421e-05,2.71998059475604e-05,0.000105243530237239,2020-08-01
"106",52.5,0.000184882834322094,9.34401165009137e-05,2.77351578941111e-05,0.000106308996108102,2020-08-01
"107",53,0.000186487849566244,9.46583070513455e-05,2.82809322346383e-05,0.000107384390900441,2020-08-02
"108",53.5,0.000188102266349317,9.58912455658387e-05,2.88373273015321e-05,0.000108469796825425,2020-08-02
"109",54,0.000189726048558839,9.71490418392561e-05,2.94045450181741e-05,0.000109565296788507,2020-08-03
"110",54.5,0.000191359157845909,9.84892525364702e-05,2.99827909565455e-05,0.000110670974401227,2020-08-03
"111",55,0.000193001553591232,9.96282827618202e-05,3.05722743954495e-05,0.000111786913993341,2020-08-04
"112",55.5,0.000194653192871224,0.000100948333244132,3.11732083793404e-05,0.000112913200625282,2020-08-04
"113",56,0.000196314030424185,0.000102313814947648,3.17858097777518e-05,0.000114049920100968,2020-08-05
"114",56.5,0.000197984018616581,0.00010348396092431,3.24102993453134e-05,0.000115197158980947,2020-08-05
"115",57,0.00019966310740944,0.000104632847023143,3.30469017823464e-05,0.000116355004595893,2020-08-06
"116",57.5,0.000201351244324884,0.000106024943631546,3.36958457960264e-05,0.000117523545060455,2020-08-06
"117",58,0.000203048374412822,0.000107523386327254,3.43573641621007e-05,0.000118702869287461,2020-08-07
"118",58.5,0.000204754440217823,0.000108942284871119,3.50316937871469e-05,0.000119893067002485,2020-08-07
"119",59,0.000206469381746189,0.000110436762002386,3.5719075771358e-05,0.000121094228758774,2020-08-08
"120",59.5,0.000208193136433244,0.000111950494024181,3.64197554718384e-05,0.000122306445952541,2020-08-08
"121",60,0.000209925639110876,0.000113530708915483,3.7133982566393e-05,0.000123529810838634,2020-08-09
"122",60.5,0.000211666821975341,0.000115095157476762,3.78620111177916e-05,0.000124764416546566,2020-08-09
"123",61,0.00021341661455536,0.000116679583106483,3.86040996384889e-05,0.000126010357096924,2020-08-10
"124",61.5,0.000215174943680523,0.000118284193572294,3.93605111557784e-05,0.000127267727418151,2020-08-10
"125",62,0.000216941733450041,0.000119835740057339,4.0131513277358e-05,0.0001285366233637,2020-08-11
"126",62.5,0.000218716905201853,0.000121178547812009,4.09173782572828e-05,0.000129817141729568,2020-08-11
"127",63,0.00022050037748212,0.000122794915659708,4.171838306228e-05,0.0001311093802722,2020-08-12
"128",63.5,0.000222292066015139,0.00012430557355788,4.25348094383973e-05,0.000132413437726768,2020-08-12
"129",64,0.00022409188367369,0.000125828628192253,4.33669439779571e-05,0.000133729413825824,2020-08-13
"130",64.5,0.000225899740449847,0.000127342990659703,4.4215078186784e-05,0.000135057409318316,2020-08-13
"131",65,0.000227715543426286,0.0001287766379199,4.5079508551674e-05,0.00013639752598898,2020-08-14
"132",65.5,0.000229539196748108,0.000130356480807542,4.59605366080703e-05,0.000137749866678089,2020-08-14
"133",66,0.000231506304374828,0.000132076821359053,4.68067827285836e-05,0.000139156543551706,2020-08-15
"134",66.5,0.000233806880651623,0.000133821823964477,4.7481778502133e-05,0.000140644329576878,2020-08-15
"135",67,0.000236124299325229,0.00013571632811555,4.81662448203756e-05,0.000142145272072802,2020-08-16
"136",67.5,0.000238458548716317,0.000137468944409257,4.88603068114557e-05,0.000143659427763886,2020-08-16
"137",68,0.000240809613532473,0.00013907744676805,4.95640910272469e-05,0.00014518685227986,2020-08-17
"138",68.5,0.00024317747479228,0.000140656823943975,5.02777254525418e-05,0.000146727600122411,2020-08-17
"139",69,0.000245562109749021,0.00014252049504578,5.100133951406e-05,0.000148281724631541,2020-08-18
"140",69.5,0.000247963491814006,0.000144320338090296,5.17350640892669e-05,0.000149849277951636,2020-08-18
"141",70,0.000250381590479578,0.000145921143962827,5.24790315149901e-05,0.000151430310997284,2020-08-19
"142",70.5,0.000252816371241832,0.000147561547741411,5.32333755958242e-05,0.000153024873418828,2020-08-19
"143",71,0.000255267795523065,0.000149193202845389,5.39982316123107e-05,0.000154633013567688,2020-08-20
"144",71.5,0.000257735820594014,0.000150952907034491,5.47737363288833e-05,0.000156254778461448,2020-08-20
"145",72,0.000260220399495908,0.000152730646016547,5.55600280015644e-05,0.000157890213748736,2020-08-21
"146",72.5,0.000262721480962383,0.000154396242961032,5.63572463854016e-05,0.000159539363673892,2020-08-21
"147",73,0.000265239009341295,0.000156266713910043,5.71655327416309e-05,0.000161202271041463,2020-08-22
"148",73.5,0.000267772924516472,0.000158367078694747,5.79850298445537e-05,0.000162878977180513,2020-08-22
"149",74,0.000270323161829461,0.000160163351348527,5.88158819881134e-05,0.000164569521908787,2020-08-23
"150",74.5,0.000272889652001299,0.000161720420480196,5.96582349921579e-05,0.000166273943496728,2020-08-23
"151",75,0.000275472321054373,0.000163482508779369,6.05122362083742e-05,0.000167992278631374,2020-08-24
"152",75.5,0.000278071090234405,0.000165484915128514,6.13780345258788e-05,0.000169724562380142,2020-08-24
"153",76,0.000280685875932609,0.000167605068232011,6.22557803764506e-05,0.00017147082815453,2020-08-25
"154",76.5,0.000283316589608095,0.000169643709805959,6.31456257393892e-05,0.000173231107673742,2020-08-25
"155",77,0.00028596313771054,0.000171733932639093,6.40477241459832e-05,0.000175005430928261,2020-08-26
"156",77.5,0.000288625421603206,0.000173888474280235,6.49622306835721e-05,0.000176793826143389,2020-08-26
"157",78,0.000291303337486354,0.000175869517080626,6.58893019991845e-05,0.000178596319742769,2020-08-27
"158",78.5,0.000293996776321105,0.000177751196427067,6.68290963027355e-05,0.00018041293631192,2020-08-27
"159",79,0.000296705623753815,0.000179649510692978,6.7781773369766e-05,0.00018224369856179,2020-08-28
"160",79.5,0.000299429760041018,0.000181564525503035,6.87474945437041e-05,0.000184088627292361,2020-08-28
"161",80,0.000302169059975013,0.000183332786010979,6.97264227376319e-05,0.000185947741356322,2020-08-29
"162",80.5,0.000304923392810131,0.000185104375665201,7.0718722435537e-05,0.000187821057622834,2020-08-29
"163",81,0.000307950568083783,0.000187225612715907,7.17245596930294e-05,0.000189837563888406,2020-08-30
"164",81.5,0.0003120882100445,0.000189225563362421,7.2744102137504e-05,0.000192416156091002,2020-08-30
"165",82,0.000316267353953317,0.000191174847383093,7.37775189677273e-05,0.000195022436460522,2020-08-31
"166",82.5,0.000320487990322017,0.000193139665727863,7.48249809528287e-05,0.000197656485637423,2020-08-31
"167",83,0.000324750094457889,0.000195120039020937,7.58866604306716e-05,0.00020031837744428,2020-09-01
"168",83.5,0.000329053626018525,0.000197334703895565,7.69627313055862e-05,0.000203008178662056,2020-09-01
"169",84,0.000333398528562974,0.000199800998396283,7.80533690454377e-05,0.000205725948804206,2020-09-02
"170",84.5,0.000337784729099563,0.000202060690308271,7.91587506780088e-05,0.000208471739888786,2020-09-02
"171",85,0.000342212137630713,0.000204214223444597,8.02790547866716e-05,0.000211245596208692,2020-09-03
"172",85.5,0.000346680646695098,0.000206747873090063,8.14144615053254e-05,0.000214047554100211,2020-09-03
"173",86,0.00035119013090753,0.000209455427686835,8.25651525125748e-05,0.000216877641710052,2020-09-04
"174",86.5,0.000355740446496939,0.000211877822936772,8.37313110251232e-05,0.000219735878761031,2020-09-04
"175",87,0.000360331430842868,0.000214900498780532,8.49131217903548e-05,0.000222622276316612,2020-09-05
"176",87.5,0.000364962902010913,0.000217959697447966,8.61107710780808e-05,0.000225536836544497,2020-09-05
"177",88,0.000369634658287541,0.000220840262102738,8.7324446671419e-05,0.00022847955247948,2020-09-06
"178",88.5,0.00037434647771478,0.00022283738425918,8.85543378567832e-05,0.000231450407785781,2020-09-06
"179",89,0.000379098117625249,0.000224817085380655,8.98006354129508e-05,0.0002344493765191,2020-09-07
"180",89.5,0.000383889314178049,0.000226963388418891,9.10635315991822e-05,0.000237476422888616,2020-09-07
"181",90,0.000388719781896049,0.000229739372091309,9.23432201423603e-05,0.000240531501019205,2020-09-08
"182",90.5,0.000393589213205112,0.000232542536103939,9.36398962231227e-05,0.000243614554714117,2020-09-08
"183",91,0.000398497277975846,0.000235107864942061,9.49537564609536e-05,0.0002467255172184,2020-09-09
"184",91.5,0.000403443623068468,0.000237936364589883,9.62849988982053e-05,0.000249864310983336,2020-09-09
"185",92,0.000408427871881401,0.000240301807681081,9.76338229830187e-05,0.00025303084743221,2020-09-10
"186",92.5,0.000413449623904247,0.000242602933000224,9.90004295511074e-05,0.000256225026727677,2020-09-10
"187",93,0.000418508454275784,0.000244925711299637,0.000100385020806376,0.00025944673754108,2020-09-11
"188",93.5,0.000423603913347684,0.00024801989339994,0.000101787800300335,0.00026269585682401,2020-09-11
"189",94,0.000428735526254635,0.000250927646636678,0.000103208972910286,0.000265972249582461,2020-09-12
"190",94.5,0.000433902792491603,0.000253222876892424,0.000104648744816228,0.000269275768653916,2020-09-12
"191",95,0.00043910518549897,0.000255531635077592,0.000106107323476468,0.000272606254487719,2020-09-13
"192",95.5,0.000444342152256309,0.000258035271397299,0.000107584917601885,0.000275963534929097,2020-09-13
"193",96,0.000449613112885576,0.000261112520006793,0.000109081737128816,0.000279347425007196,2020-09-14
"194",96.5,0.00045491746026452,0.000264346786487091,0.000110597993190534,0.000282757726727527,2020-09-14
"195",97,0.000460254559651124,0.000267477168820082,0.000112133898087267,0.000286194228869196,2020-09-15
"196",97.5,0.000465623748319925,0.000270196840728908,0.000113689665254728,0.000289656706787327,2020-09-15
"197",98,0.000471024335211034,0.000273592719269363,0.000115265509231123,0.000293144922221079,2020-09-16
"198",98.5,0.000476455600592765,0.00027687503413609,0.000116861645622578,0.000296658623107672,2020-09-16
"199",99,0.000481916795738711,0.000279904203886409,0.000118478291066976,0.000300197543402844,2020-09-17
"200",99.5,0.000487407142620196,0.000282589651014144,0.000120115663196128,0.000303761402908162,2020-09-17
"201",100,0.000492925833614993,0.000285008965601688,0.000121773980596268,0.00030734990710563,2020-09-18
"202",100.5,0.00049847203123323,0.00028816810898397,0.000123453462766811,0.000310962747000021,2020-09-18
"203",101,0.000504044867861422,0.000291903356481094,0.000125154330077348,0.000314599598969385,2020-09-19
"204",101.5,0.000509643445525555,0.000295675540457806,0.000126876803722813,0.000318260124624184,2020-09-19
"205",102,0.000515266835674185,0.000299231046741524,0.00012862110567681,0.000321943970675497,2020-09-20
"206",102.5,0.000520914078982485,0.000302136511885178,0.000130387458643025,0.000325650768812755,2020-09-20
"207",103,0.000526584185178218,0.000305325919591606,0.000132176086004712,0.000329380135591465,2020-09-21
"208",103.5,0.00053227613289058,0.000308923965344936,0.000133987211772173,0.000333131672331377,2020-09-21
"209",104,0.00053798886952288,0.000312586762777655,0.000135821060528227,0.000336904965025554,2020-09-22
"210",104.5,0.000543721311150022,0.000315169477429618,0.000137677857371588,0.000340699584260805,2020-09-22
"211",105,0.000549472342441741,0.000318348352784335,0.000139557827858128,0.000344515085149935,2020-09-23
"212",105.5,0.000555240816612547,0.000320895451835886,0.000141461197939984,0.000348351007276266,2020-09-23
"213",106,0.000561025555399327,0.000324121680814457,0.000143388193902436,0.000352206874650881,2020-09-24
"214",106.5,0.000566825349067537,0.00032705990041701,0.000145339042298547,0.000356082195683042,2020-09-24
"215",107,0.000572638956446919,0.000330326937467197,0.000147313969881491,0.000359976463164205,2020-09-25
"216",107.5,0.00057846510499765,0.000333736254476118,0.000149313203534537,0.000363889154266093,2020-09-25
"217",108,0.000584302490907814,0.000337204941536747,0.000151336970198636,0.000367819730553225,2020-09-26
"218",108.5,0.000590149779223096,0.000340274644031301,0.000153385496797578,0.000371767638010337,2020-09-26
"219",109,0.000596005604009533,0.000343975437534188,0.000155459010160649,0.000375732307085091,2020-09-27
"220",109.5,0.000601868568550172,0.000347703192742629,0.000157557736942772,0.000379713152746472,2020-09-27
"221",110,0.000607737245576438,0.000351457741606607,0.000159681903542059,0.000383709574559248,2020-09-28
"222",110.5,0.000613610177534994,0.000355328217739612,0.000161831736014745,0.00038772095677487,2020-09-28
"223",111,0.000619485876890838,0.0003587491163649,0.000164007459987456,0.000391746668439147,2020-09-29
"224",111.5,0.000625362826467354,0.000362185862555507,0.000166209300566756,0.000395786063517055,2020-09-29
"225",112,0.000631239479824,0.000365829132260618,0.000168437482245942,0.000399838481034971,2020-09-30
"226",112.5,0.000637114261672256,0.000369662199336985,0.000170692228809029,0.000403903245240643,2020-09-30
"227",113,0.000642985568330442,0.000373798191102168,0.000172973763231897,0.000407979665781169,2020-10-01
"228",113.5,0.000648851768217948,0.000377965553348276,0.000175282307580531,0.00041206703789924,2020-10-01
"229",114,0.000654711202389377,0.000381681268654105,0.000177618082906344,0.00041616464264786,2020-10-02
"230",114.5,0.000660562185109054,0.000384838064845565,0.000179981309138506,0.00042027174712378,2020-10-02
"231",115,0.000666403004466299,0.000388371045284923,0.000182372204973265,0.000424387604719782,2020-10-03
"232",115.5,0.000672231923031795,0.000392123949788614,0.000184790987760203,0.000428511455395999,2020-10-03
"233",116,0.000678047178555336,0.000396219380961521,0.000187237873385392,0.000432642525970364,2020-10-04
"234",116.5,0.000683846984705187,0.000401079679911525,0.00018971307615141,0.000436780030428299,2020-10-04
"235",117,0.000689629531849178,0.000406284311302619,0.000192216808654176,0.000440923170251677,2020-10-05
"236",117.5,0.000695392987877647,0.000410426493391621,0.000194749281656575,0.000445071134767111,2020-10-05
"237",118,0.000701135499068238,0.000414210190755045,0.000197310703958828,0.000449223101513533,2020-10-06
"238",118.5,0.000706855190992495,0.000417388231565855,0.000199901282265576,0.000453378236629036,2020-10-06
"239",119,0.000712550169464124,0.000420927835521694,0.000202521221049644,0.000457535695256884,2020-10-07
"240",119.5,0.000718218521528721,0.000424984153451531,0.000205170722412459,0.00046169462197059,2020-10-07
"241",120,0.000723858316494675,0.000428566952848011,0.00020784998594108,0.000465854151217877,2020-10-08
"242",120.5,0.000729467607004881,0.000432282192561265,0.000210559208561823,0.000470013407783352,2020-10-08
"243",121,0.000735044430148821,0.000436457613001682,0.000213298584390454,0.000474171507269637,2020-10-09
"244",121.5,0.000740586808614476,0.000439102841756579,0.000216068304578907,0.000478327556596691,2020-10-09
"245",122,0.000746092751879447,0.00044260900391505,0.000218868557158541,0.000482480654518994,2020-10-10
"246",122.5,0.000751560257440601,0.000445991184258432,0.000221699526879873,0.000486629892160237,2020-10-10
"247",123,0.000756987312081425,0.000449348649503711,0.000224561395048807,0.000490774353565116,2020-10-11
"248",123.5,0.000762371893176236,0.000451901969402046,0.000227454339359314,0.000494913116267775,2020-10-11
"249",124,0.000767711970030254,0.000454703271890479,0.000230378533722572,0.000499045251876413,2020-10-12
"250",124.5,0.000773005505254508,0.000458098587348169,0.000233334148092542,0.000503169826673525,2020-10-12
"251",125,0.000778250456174404,0.000461664630691657,0.000236321348287979,0.000507285902231191,2020-10-13
"252",125.5,0.000783444776270733,0.000465127268424672,0.000239340295810872,0.000511392536040803,2020-10-13
"253",126,0.000788586416651798,0.000469543352545393,0.000242391147661319,0.000515488782156558,2020-10-14
"254",126.5,0.000793673327555232,0.000474069100915179,0.000245474056148817,0.000519573691852025,2020-10-14
"255",127,0.00079870345987803,0.000477972524147049,0.00024858916870001,0.00052364631428902,2020-10-15
"256",127.5,0.000803674766733184,0.000481965848619184,0.000251736627662864,0.000527705697198024,2020-10-15
"257",128,0.000808585205031267,0.000486201714413101,0.000254916570107314,0.000531750887569291,2020-10-16
"258",128.5,0.000813432737085208,0.00049029120126443,0.000258129127622383,0.000535780932353796,2020-10-16
"259",129,0.000818215332236419,0.000493705649125289,0.000261374426109797,0.000539794879173108,2020-10-17
"260",129.5,0.00082293096850036,0.000497851694157385,0.000264652585574127,0.000543791777037243,2020-10-17
"261",130,0.000827577634229557,0.000501791084992258,0.000267963719909481,0.000547770677069519,2020-10-18
"262",130.5,0.000834460180316369,0.000505268922644255,0.00027130793668279,0.000552884058499579,2020-10-18
"263",131,0.000841792620551737,0.000509001618826149,0.000274685336913712,0.000558238978732724,2020-10-19
"264",131.5,0.000849103694057744,0.000513886901151057,0.000278096014851218,0.000563599854454481,2020-10-19
"265",132,0.00085639099877543,0.00051865825706495,0.00028154005774689,0.00056896552826116,2020-10-20
"266",132.5,0.000863652103387404,0.000522967136722474,0.000285017545625002,0.000574334824506203,2020-10-20
"267",133,0.000870884548554195,0.000527432478566295,0.000288528551049434,0.000579706549801814,2020-10-21
"268",133.5,0.00087808584820895,0.000531216450606727,0.000292073138887489,0.00058507949354822,2020-10-21
"269",134,0.000885253490910233,0.000536111987488497,0.000295651366070684,0.000590452428490458,2020-10-22
"270",134.5,0.000892384941252477,0.000540127579225159,0.000299263281352591,0.000595824111302534,2020-10-22
"271",135,0.000899477641333584,0.000545175599033321,0.000302908925063822,0.000601193283198703,2020-10-23
"272",135.5,0.000906529012279007,0.000549846869259185,0.000306588328864224,0.000606558670571615,2020-10-23
"273",136,0.000913536455821561,0.000553437855281827,0.000310301515492416,0.000611918985656989,2020-10-24
"274",136.5,0.000920497355936053,0.000556974836256552,0.00031404849851274,0.000617272927224397,2020-10-24
"275",137,0.000927409080527713,0.000560718070625243,0.000317829282059751,0.000622619181293732,2020-10-25
"276",137.5,0.000934268983173279,0.000564631963639851,0.000321643860580366,0.000627956421876822,2020-10-25
"277",138,0.000941074404913455,0.000569000877205386,0.000325492218573791,0.000633283311743623,2020-10-26
"278",138.5,0.000948797415649018,0.000573430707028895,0.000329374330329356,0.000639085872989187,2020-10-26
"279",139,0.000957988784619217,0.000578070018791994,0.000333290159662405,0.000645639472140811,2020-10-27
"280",139.5,0.000967123434449529,0.00058289366633084,0.000337239659648384,0.000652181547048957,2020-10-27
"281",140,0.000976196682080548,0.000587540354446175,0.000341222772355285,0.000658709727217916,2020-10-28
"282",140.5,0.000985203800012872,0.000591117553539246,0.000345239428574598,0.000665221614293735,2020-10-28
"283",141,0.000994140020459301,0.000595316484343141,0.000349289547550967,0.000671714784005134,2020-10-29
"284",141.5,0.00100300053966523,0.000598536311994043,0.000353373036710697,0.000678186788187965,2020-10-29
"285",142,0.00101178052239327,0.000601051398896736,0.000356454428098806,0.00068411747524604,2020-10-30
"286",142.5,0.00102047510656751,0.000603515748322635,0.000358097444714352,0.000689286275640932,2020-10-30
"287",143,0.00102907940807236,0.00060576486861736,0.000359735010790163,0.000694407209431259,2020-10-31
"288",143.5,0.00103758852570022,0.000607772750809782,0.000361366924141547,0.000699477724920885,2020-10-31
"289",144,0.00104599754624185,0.000610477961273112,0.000362992981714246,0.00070449526397805,2020-11-01
"290",144.5,0.00105430154971238,0.000614796870198169,0.000364612979627342,0.00070945726466986,2020-11-01
"291",145,0.00106249561470578,0.000618584498758509,0.000366226713217002,0.000714361163961391,2020-11-02
"292",145.5,0.00107057482386978,0.000621209354707902,0.000367833977081041,0.000719204400475409,2020-11-02
"293",146,0.00107853426949259,0.00062427423166597,0.00036943456512429,0.000723984417308442,2020-11-03
"294",146.5,0.00108636905919262,0.000627121746958458,0.000371028270604764,0.000728698664898694,2020-11-03
"295",147,0.00109407432170136,0.000629514631591259,0.000372614886180623,0.000733344603940989,2020-11-04
"296",147.5,0.00110164521272952,0.000631677126266783,0.000374194203957892,0.000737919708343708,2020-11-04
"297",148,0.00110907692090588,0.000634843298438583,0.000375766015538961,0.000742421468222421,2020-11-05
"298",148.5,0.00111636467377759,0.000637638557245085,0.00037733011207182,0.000746847392924703,2020-11-05
"299",149,0.0011235037438607,0.000640578482687591,0.00037888628430003,0.000751195014080364,2020-11-06
"300",149.5,0.00113048945472892,0.000643255692141048,0.000380434322613421,0.000755461888671169,2020-11-06
"301",150,0.00113731718712828,0.000646105211312666,0.000381974017099484,0.000759645602113881,2020-11-07
"302",150.5,0.00114398238510519,0.000648566193308902,0.00038350515759545,0.000763743771350318,2020-11-07
"303",151,0.00115048056213484,0.000650795956350715,0.000385027533741052,0.000767754047937943,2020-11-08
"304",151.5,0.00115680730723683,0.000653384191189682,0.000386540935031922,0.000771674121134375,2020-11-08
"305",152,0.0011629582910645,0.000657603329510374,0.000388045150873638,0.00077550172096907,2020-11-09
"306",152.5,0.00116892927195434,0.000661986526854971,0.000389539970636376,0.000779234621295357,2020-11-09
"307",153,0.00117471610192163,0.000665137556409503,0.000391025183710165,0.000782870642815898,2020-11-10
"308",153.5,0.00118031473258852,0.000667963228603944,0.000392500579560713,0.000786407656074614,2020-11-10
"309",154,0.00118572122103037,0.000669970209718161,0.000393965947785795,0.000789843584408082,2020-11-11
"310",154.5,0.0011909317355266,0.000671863083337791,0.000395421078172166,0.000793176406849381,2020-11-11
"311",155,0.00119594256120186,0.000674273768119643,0.000396865760752993,0.000796404160977426,2020-11-12
"312",155.5,0.00120075010554385,0.000676239496862126,0.000398299785865775,0.000799524945704811,2020-11-12
"313",156,0.0012053509037839,0.000677765939217418,0.000399722944210723,0.00080253692399731,2020-11-13
"314",156.5,0.00120974162412688,0.000680107973703803,0.000401135026909591,0.000805438325518236,2020-11-13
"315",157,0.00121391907281705,0.00068228318908887,0.000402535825564917,0.000808227449190985,2020-11-14
"316",157.5,0.00121788019902686,0.000683804215677258,0.000403877398248255,0.000810878798637556,2020-11-14
"317",158,0.00122162209955598,0.000684989887529479,0.000404878189320817,0.000813250144438397,2020-11-15
"318",158.5,0.00122514202332834,0.000686128407654354,0.00040586220600502,0.000815502114666679,2020-11-15
"319",159,0.00122843737567521,0.000688066566367227,0.00040682926938394,0.000817633322529575,2020-11-16
"320",159.5,0.00123150572239303,0.000689970311856612,0.000407779203037852,0.00081964246271544,2020-11-16
"321",160,0.00123434479356506,0.000692761912001988,0.000408711833110858,0.000821528313337957,2020-11-17
"322",160.5,0.00123695248713664,0.000695262427133455,0.000409626988376852,0.000823289737756747,2020-11-17
"323",161,0.00123932687223441,0.000696663488919066,0.00041052450030479,0.000824925686269601,2020-11-18
"324",161.5,0.00124146619222034,0.000697802450235448,0.000411404203123226,0.000826435197671783,2020-11-18
"325",162,0.00124336886747246,0.000701125452348175,0.00041226593388406,0.00082781740067826,2020-11-19
"326",162.5,0.00124503349788455,0.000702484649899447,0.000413109532525481,0.000829071515205015,2020-11-19
"327",163,0.00124645886507802,0.000703960337483951,0.000413934841934032,0.000830196853506028,2020-11-20
"328",163.5,0.00124764393431996,0.000704740077684958,0.00041474170800579,0.000831192821162875,2020-11-20
"329",164,0.00124858785614203,0.000705765915852741,0.000415529979706589,0.000832058917924312,2020-11-21
"330",164.5,0.00124928996765598,0.000708751690951409,0.000416299509131275,0.000832794738393629,2020-11-21
"331",165,0.00124974979356202,0.000711561941852886,0.000417050151561934,0.000833399972561979,2020-11-22
"332",165.5,0.00124996704684762,0.000714399459069904,0.000417781765525061,0.000833874406186338,2020-11-22
"333",166,0.00124994162917469,0.000716750695601031,0.000418494212847633,0.000834217921011164,2020-11-23
"334",166.5,0.00124967363095453,0.000717920183283335,0.000419187358712049,0.000834430494833291,2020-11-23
"335",167,0.00124916333111018,0.000719025980650759,0.000419861071709893,0.000834512201410036,2020-11-24
"336",167.5,0.00124841119652735,0.000720067701066056,0.000420515223894493,0.00083446321021092,2020-11-24
"337",168,0.00124741788119551,0.000720618116251655,0.000421149690832234,0.000834283786013871,2020-11-25
"338",168.5,0.00124618422504183,0.000722433185790924,0.000421764351652592,0.000833974288347212,2020-11-25
"339",169,0.00124471125246144,0.000724160423319898,0.000422359089096853,0.000833535170779149,2020-11-26
"340",169.5,0.00124300017054836,0.000724313578307627,0.000422933789565489,0.000832966980056925,2020-11-26
"341",170,0.00124105236703226,0.000725448565077989,0.000423488343164149,0.000832270355098205,2020-11-27
"342",170.5,0.00123886940792708,0.000727571037843948,0.000424022643748241,0.00083144602583766,2020-11-27
"343",171,0.00123645303489816,0.000729038843669536,0.000424536588966075,0.000830494811932116,2020-11-28
"344",171.5,0.00123516090526727,0.000729136419924673,0.000425030080300527,0.000830095492783901,2020-11-28
"345",172,0.0012418170287473,0.000729204714804732,0.000425503023109206,0.000833660025928254,2020-11-29
"346",172.5,0.00124828708142906,0.000729962557640971,0.000425955326663088,0.000837121204046074,2020-11-29
"347",173,0.00125456669094778,0.000731843081904831,0.000426386904183598,0.000840476797565688,2020-11-30
"348",173.5,0.00126065158374168,0.000731623332579855,0.000426797672878106,0.000843724628309891,2020-11-30
"349",174,0.00126653759105492,0.000732156487265501,0.000427187553973816,0.000846862572514366,2020-12-01
"350",174.5,0.00127222065485203,0.000733176959155274,0.000427556472750021,0.000849888563801027,2020-12-01
"351",175,0.00127769683362996,0.000730646694299291,0.00042790435856871,0.000852800596099333,2020-12-02
"352",175.5,0.00128296230811367,0.000729986751954452,0.000428231144903492,0.000855596726508581,2020-12-02
"353",176,0.00128801338682178,0.000729101387858903,0.000428536769366832,0.000858275078094307,2020-12-03
"354",176.5,0.00129284651148831,0.000729908246092738,0.000428821173735559,0.000860833842611933,2020-12-03
"355",177,0.00129745826232729,0.000730329169926298,0.000429084303974657,0.000863271283150972,2020-12-04
"356",177.5,0.00130184536312706,0.000730107262010479,0.000428875356017309,0.000865360359572183,2020-12-04
"357",178,0.00130600468616129,0.000729938926617247,0.000427380101713729,0.000866692393937509,2020-12-05
"358",178.5,0.0013099332569043,0.000729207837484009,0.000425867132983042,0.00086790019494367,2020-12-05
"359",179,0.00131362825853853,0.000728629174500135,0.000424336758977225,0.000868982508757877,2020-12-06
"360",179.5,0.00131708703624252,0.000729456718814844,0.000422789290539661,0.000869938163391088,2020-12-06
"361",180,0.00132030710124819,0.000727333155695116,0.000421225040082081,0.000870766070665136,2020-12-07
"362",180.5,0.0013232861346569,0.00072617413700437,0.000419644321462045,0.000871465228059473,2020-12-07
"363",181,0.00132602199100406,0.000726656583779593,0.000418047449861036,0.00087203472043255,2020-12-08
"364",181.5,0.00132851270156309,0.000727214000662295,0.000416434741663225,0.000872473721613156,2020-12-08
"365",182,0.00133075647737974,0.000724922286920109,0.00041480651433499,0.000872781495857366,2020-12-09
"366",182.5,0.00133275171202895,0.000723879042858397,0.000413163086305255,0.000872957399167101,2020-12-09
"367",183,0.00133449698408661,0.000724329291686185,0.000411504776846708,0.000873000880466659,2020-12-10
"368",183.5,0.00133599105930997,0.000723836724177449,0.000409831905957973,0.000872911482633972,2020-12-10
"369",184,0.0013372328925206,0.000724157958240785,0.000408144794246785,0.000872688843383694,2020-12-11
"370",184.5,0.00133822162918514,0.000723813947529282,0.000406443762814251,0.000872332695999694,2020-12-11
"371",185,0.00133895660668951,0.000723667958914086,0.000404729133140236,0.000871842869914873,2020-12-12
"372",185.5,0.00133943735530345,0.000723023589880147,0.000403001226969938,0.000871219291136695,2020-12-12
"373",186,0.00133966359883274,0.000720617043591387,0.000401260366201715,0.000870461982517227,2020-12-13
"374",186.5,0.00133963525495766,0.000719641426913263,0.000399506872776207,0.000869571063866932,2020-12-13
"375",187,0.00133935243525692,0.000718565150787097,0.000397741068566815,0.000868546751911869,2020-12-14
"376",187.5,0.00133881544491729,0.000717465405221558,0.000395963275271579,0.000867389360094433,2020-12-14
"377",188,0.00133802478212982,0.000714209215392566,0.000394173814306507,0.000866099298218164,2020-12-15
"378",188.5,0.00133698113717482,0.000712063264377594,0.000392373006700401,0.000864677071937612,2020-12-15
"379",189,0.00133568539119812,0.000709557315090132,0.000390561172991225,0.00086312328209467,2020-12-16
"380",189.5,0.00133413861468237,0.00070775306570707,0.000388738633124053,0.000861438623903212,2020-12-16
"381",190,0.0013323420656179,0.000706132449085281,0.000386905706350645,0.000859623885984273,2020-12-17
"382",190.5,0.00133029718737821,0.000704037520609528,0.000385062711130679,0.000857679949254443,2020-12-17
"383",191,0.00132800560630635,0.000701652955374709,0.000383209965034687,0.000855607785670519,2020-12-18
"384",191.5,0.00132546912901895,0.000699217619328554,0.000381347784648717,0.000853408456833835,2020-12-18
"385",192,0.00132268973943541,0.000695572955277912,0.000379476485480761,0.000851083112458086,2020-12-19
"386",192.5,0.00131966959554057,0.000692457446027143,0.000377596381868985,0.000848632988704778,2020-12-19
"387",193,0.00131641102588982,0.000690648053755111,0.000375707786891769,0.000846059406390793,2020-12-20
"388",193.5,0.00131291652586612,0.000688631202806724,0.000373811012279607,0.000843363769072864,2020-12-20
"389",194,0.00130918875369921,0.000686458598133541,0.000371906368328879,0.000840547561014046,2020-12-21
"390",194.5,0.00130523052625759,0.000683546454979979,0.000369994163817512,0.000837612345037552,2020-12-21
"391",195,0.00130104481462457,0.000680980218366045,0.000368074705922572,0.000834559760273569,2020-12-22
"392",195.5,0.00129663473947003,0.00067673777025414,0.000366148300139775,0.000831391519804901,2020-12-22
"393",196,0.00129200356623002,0.000672917440088914,0.000364215250204964,0.000828109408217495,2020-12-23
"394",196.5,0.00128715470010661,0.000669847413743932,0.000362275858017551,0.000824715279062078,2020-12-23
"395",197,0.00128209168090072,0.000668078552887531,0.00036033042356593,0.000821211052233325,2020-12-24
"396",197.5,0.00127681817769122,0.00066663031503626,0.000358379244854897,0.000817598711273057,2020-12-24
"397",198,0.00127133798337324,0.000665641761419765,0.000356422617835061,0.000813880300604149,2020-12-25
"398",198.5,0.00126565500906943,0.000663669120702324,0.000354460836334265,0.000810057922701848,2020-12-25
"399",199,0.00125977327842759,0.0006631768641247,0.000352494191991033,0.000806133735209311,2020-12-26
"400",199.5,0.00125369692181835,0.000662962036789572,0.000350522974190022,0.000802109948004186,2020-12-26
"401",200,0.00124743017044667,0.000660275695845504,0.000348547469999511,0.000797988820223088,2020-12-27
"402",200.5,0.00124097735039071,0.00065709277262255,0.000346567964110902,0.000793772657250804,2020-12-27
"403",201,0.00123434287658179,0.000654836814989701,0.000344584738780256,0.000789463807681022,2020-12-28
"404",201.5,0.00122753124673888,0.000653576428574491,0.000342598073771841,0.00078506466025536,2020-12-28
"405",202,0.00122054703527099,0.000651284347137278,0.000340608246303709,0.000780577640787347,2020-12-29
"406",202.5,0.00121339488716064,0.000648459706715153,0.000338615530995272,0.000776005209077954,2020-12-29
"407",203,0.00120607951184138,0.000645637385020114,0.000336620199816901,0.000771349855829138,2020-12-30
"408",203.5,0.00119860567708195,0.000642709446897808,0.000334622522041515,0.000766614099561732,2020-12-30
"409",204,0.00119097820288956,0.00063978537406156,0.000332622764198162,0.000761800483543859,2020-12-31
"410",204.5,0.00118320195544423,0.000636829708381407,0.000330621190027581,0.000756911572735905,2020-12-31
"411",205,0.00117528184107596,0.000634059309065746,0.000328291356397929,0.000751786598736946,2021-01-01
"412",205.5,0.00116722280029595,0.000631074270269492,0.000325929010084709,0.000746575905190328,2021-01-01
"413",206,0.00115902980189271,0.000628006513609696,0.000323567169276659,0.000741298485584685,2021-01-02
"414",206.5,0.00115070783710363,0.000624391504959089,0.000321206190194566,0.0007359570136491,2021-01-02
"415",207,0.00114226191387175,0.000621048529565699,0.000318846423631745,0.000730554168751748,2021-01-03
"416",207.5,0.00113369705119736,0.000618046741231605,0.000316488214910359,0.00072509263305386,2021-01-03
"417",208,0.0011250182735934,0.000615018426268824,0.000314131903841638,0.000719575088717518,2021-01-04
"418",208.5,0.00111623060565302,0.00061166720229461,0.000311777824689932,0.000714004215171475,2021-01-04
"419",209,0.00111337180118788,0.000607169130493443,0.000309426306140533,0.000711399053664209,2021-01-05
"420",209.5,0.00111151042177257,0.000602839140427678,0.000307077671271204,0.000709294046521886,2021-01-05
"421",210,0.00110951834889299,0.000599181619207707,0.000304732237527336,0.000707125293210164,2021-01-06
"422",210.5,0.00110739658700824,0.000596256571266254,0.000302390316700691,0.000704893451854466,2021-01-06
"423",211,0.00110514619926256,0.00059311377770381,0.000300052214911631,0.000702599207087097,2021-01-07
"424",211.5,0.00110276830637948,0.000590649965263751,0.000297718232594782,0.000700243269487128,2021-01-07
"425",212,0.00110026408550375,0.000587330525459637,0.000295388664488052,0.000697826374995902,2021-01-08
"426",212.5,0.00109763476899329,0.000583508037287615,0.000293063799624932,0.000695349284309113,2021-01-08
"427",213,0.00109488164316297,0.00058015387093276,0.000290743921330004,0.000692812782246489,2021-01-09
"428",213.5,0.00109200604698258,0.000576141376797392,0.000288429307217586,0.000690217677100083,2021-01-09
"429",214,0.0010890093707311,0.000573118558334238,0.000286120229193424,0.00068756479996226,2021-01-10
"430",214.5,0.00108589305460955,0.000568510993500456,0.000283816953459372,0.00068485500403446,2021-01-10
"431",215,0.00108265858731474,0.000564048642662912,0.000281519740520972,0.000682089163917857,2021-01-11
"432",215.5,0.00107930750457623,0.000559580445507895,0.000279212503536125,0.000679260004056179,2021-01-11
"433",216,0.00107584138765892,0.000555107430596668,0.000276177140882626,0.000676009264270774,2021-01-12
"434",216.5,0.00107226186183369,0.000550915621609716,0.000273162258238101,0.000672712060035894,2021-01-12
"435",217,0.0010685705948185,0.000547209842978167,0.000270168042824581,0.000669369318821538,2021-01-13
"436",217.5,0.00106476929519248,0.000543214837522995,0.000267194671566738,0.00066598198337961,2021-01-13
"437",218,0.00106085971078543,0.000538618588234094,0.000264242311269699,0.000662551011027564,2021-01-14
"438",218.5,0.00105684362704517,0.00053491294777157,0.00026131111879811,0.000659077372921638,2021-01-14
"439",219,0.00105272286538537,0.000531283422565279,0.000258401241256275,0.00065556205332082,2021-01-15
"440",219.5,0.00104849928151623,0.000528215005165238,0.00025551281616917,0.000652006048842698,2021-01-15
"441",220,0.00104417476376051,0.000524379743305545,0.000252645971664162,0.000648410367712337,2021-01-16
"442",220.5,0.00103975123135742,0.000521587174778185,0.000249800826653247,0.000644776029005336,2021-01-16
"443",221,0.00103523063275674,0.000517841778895444,0.00024697749101565,0.000641104061886194,2021-01-17
"444",221.5,0.00103061494390564,0.000513927279763355,0.000244176065780611,0.000637395504843128,2021-01-17
"445",222,0.00102590616653067,0.000511099635404235,0.000241396643310212,0.000633651404920441,2021-01-18
"446",222.5,0.00102110632641707,0.000507110308542655,0.000238639307482085,0.000629872816949577,2021-01-18
"447",223,0.00101621747168797,0.000503047976979228,0.000235904133871864,0.000626060802779918,2021-01-19
"448",223.5,0.00101124167108563,0.000499124775016243,0.000233191189935231,0.000622216430510429,2021-01-19
"449",224,0.00100618101225691,0.000496836124269228,0.000230500535189434,0.000618340773723172,2021-01-20
"450",224.5,0.00100103760004536,0.000493236835388458,0.000227832221394141,0.00061443491071975,2021-01-20
"451",225,0.000995813554791816,0.00048910287095341,0.00022518629273151,0.000610499923761663,2021-01-21
"452",225.5,0.000990511010645796,0.000484092436956698,0.000222562785985362,0.000606536898315579,2021-01-21
"453",226,0.000985132113889579,0.00048023596527751,0.000219961730719337,0.000602546922304458,2021-01-22
"454",226.5,0.000979679021276999,0.000476462175355548,0.000217383149453936,0.000598531085365468,2021-01-22
"455",227,0.000974153898388822,0.000472691551277942,0.000214827057842343,0.000594490478115582,2021-01-23
"456",227.5,0.000968558918006537,0.000468239127550246,0.000212293464844931,0.000590426191425734,2021-01-23
"457",228,0.000962896258506325,0.000463360373350844,0.000209782372902369,0.000586339315704347,2021-01-24
"458",228.5,0.000957168102274879,0.000458503436243639,0.000207293778107232,0.000582230940191056,2021-01-24
"459",229,0.000952104117346227,0.000453857608645303,0.000204827670374042,0.000578465893860135,2021-01-25
"460",229.5,0.000947652439834141,0.000449771174935584,0.00020238403360766,0.000575018236720901,2021-01-25
"461",230,0.00094314770713524,0.000445697478624938,0.000199962845869967,0.000571555276502604,2021-01-26
"462",230.5,0.000938591255083215,0.000441637087727671,0.000197564079544745,0.00056807766731398,2021-01-26
"463",231,0.000933984423297626,0.000436966215352295,0.000195187701500723,0.000564586062399175,2021-01-27
"464",231.5,0.000929328554446425,0.000432387136483934,0.000192833673252707,0.000561081113849566,2021-01-27
"465",232,0.000924624993517202,0.000428382004089501,0.000190501951120756,0.000557563472318979,2021-01-28
"466",232.5,0.000919875087097718,0.000424019973127113,0.000188192486387337,0.000554033786742528,2021-01-28
"467",233,0.00091508018266625,0.000420063921568574,0.000185905225452436,0.000550492704059343,2021-01-29
"468",233.5,0.000910241627892244,0.00041653847568978,0.000183640109986556,0.0005469408689394,2021-01-29
"469",234,0.000905360769947769,0.000413022673586487,0.000181397077081582,0.000543378923514676,2021-01-30
"470",234.5,0.000900962150284134,0.000409516951341697,0.000179176059399477,0.000540069104841806,2021-01-30
"471",235,0.000897846908194604,0.000405408475296542,0.000176976985318762,0.000537411946756683,2021-01-31
"472",235.5,0.000894663554367164,0.000402188176063416,0.000174799779078767,0.000534731666722965,2021-01-31
"473",236,0.000891413196054145,0.000399509762597075,0.000172644360921626,0.000532028778487885,2021-02-01
"474",236.5,0.000888096956460011,0.000397199273868682,0.000170510647231987,0.000529303801845999,2021-02-01
"475",237,0.000884715973964225,0.000394281280033829,0.000168398550674419,0.000526557262319322,2021-02-02
"476",237.5,0.000881271401341098,0.000390947241540478,0.000166137215894177,0.000523704308617638,2021-02-02
"477",238,0.000877764404977472,0.000387625758113075,0.000163896797545126,0.000520830601261299,2021-02-03
"478",238.5,0.000874196164089073,0.000384219119567344,0.000161682244096209,0.000517939204092641,2021-02-03
"479",239,0.000870567869936368,0.000379748964810431,0.00015949338250178,0.000515030626219074,2021-02-04
"480",239.5,0.00086688072504074,0.000375537488148038,0.000157330036964012,0.000512105381002376,2021-02-04
"481",240,0.000863135942401789,0.00037263173567707,0.000155192029085271,0.00050916398574353,2021-02-05
"482",240.5,0.00085933474471654,0.000369685017155476,0.000153079178016786,0.000506206961366663,2021-02-05
"483",241,0.000855478363601341,0.000365163483799877,0.00015099130060367,0.000503234832102506,2021-02-06
"484",241.5,0.000851568038817201,0.000361246047887764,0.000148928211526295,0.000500248125171748,2021-02-06
"485",242,0.000847605017499311,0.000357675241388697,0.000146889723438089,0.0004972473704687,2021-02-07
"486",242.5,0.000843590553391464,0.000353811301485319,0.000144875647099764,0.000494233100245614,2021-02-07
"487",243,0.000839525906086087,0.000349974960795193,0.000142885791510039,0.000491205848798063,2021-02-08
"488",243.5,0.000835412340270553,0.00034634652673586,0.000140919964032876,0.000488166152151714,2021-02-08
"489",244,0.00083125112498044,0.000342553183944054,0.000138977970521287,0.000485114547750864,2021-02-09
"490",244.5,0.000827043532860385,0.00033956915149265,0.000137059615437753,0.000482051574149069,2021-02-09
"491",245,0.00082279083943313,0.000336741841746809,0.000135164701971287,0.000478977770702208,2021-02-10
"492",245.5,0.000818494322377384,0.00033392367485769,0.000133293032151211,0.000475893677264297,2021-02-10
"493",246,0.000814155260815043,0.000330168496342378,0.000131444406957667,0.000472799833886355,2021-02-11
"494",246.5,0.000809774934608345,0.000325450635725385,0.00012961862642893,0.000469696780518638,2021-02-11
"495",247,0.000805354623667461,0.000320824476446263,0.000127815489765563,0.000466585056716512,2021-02-12
"496",247.5,0.000800895607269041,0.000317296098306916,0.000126034795431462,0.000463465201350251,2021-02-12
"497",248,0.000796399163386187,0.000314824968860571,0.000124276341251845,0.000460337752319016,2021-02-13
"498",248.5,0.000791866568030298,0.000312438860676807,0.000122539924508237,0.000457203246269268,2021-02-13
"499",249,0.000787299094605227,0.000309859307143667,0.000120825342030494,0.000454062218317861,2021-02-14
"500",249.5,0.000782698013274142,0.000306270656751246,0.000119132390285925,0.000450915201780034,2021-02-14
"501",250,0.000778064590339479,0.000303098585610971,0.000117460865465562,0.00044776272790252,2021-02-15
"502",250.5,0.000773400087636332,0.000300649697624199,0.000115810563567625,0.000444605325601978,2021-02-15
"503",251,0.000768705761939614,0.000298210201791034,0.000114181280478246,0.00044144352120893,2021-02-16
"504",251.5,0.000763982864385296,0.000295780280058035,0.000112572812049484,0.00043827783821739,2021-02-16
"505",252,0.000759232639905992,0.000293360109309377,0.000110984954174711,0.000435108797040351,2021-02-17
"506",252.5,0.000754456326681156,0.000290949861409178,0.00010941750286139,0.000431936914771273,2021-02-17
"507",253,0.000749655155602122,0.000288549703245132,0.000107870254301326,0.000428762704951724,2021-02-18
"508",253.5,0.000744830349752189,0.000286159796773381,0.000106343004938419,0.000425586677345304,2021-02-18
"509",254,0.000739983123901935,0.000283780299064587,0.00010483555153399,0.000422409337717963,2021-02-19
"510",254.5,0.000735114684019928,0.000281411362351122,0.000103347691229713,0.000419231187624821,2021-02-19
"511",255,0.00073022622679896,0.000278767204767775,0.000101879221608225,0.000416052724203593,2021-02-20
"512",255.5,0.000725318939197936,0.00027549195183063,0.000100429940751441,0.000412874439974689,2021-02-20
"513",256,0.000720393997999491,0.000272186640412278,9.89996472966512e-05,0.000409696822648071,2021-02-21
"514",256.5,0.000715452569383426,0.000268913611976302,9.75881404904282e-05,0.000406520354936927,2021-02-21
"515",257,0.000710495808516,0.000265910524970938,9.61952202404071e-05,0.000403345514378204,2021-02-22
"516",257.5,0.00070552485915512,0.000263092595280601,9.48206871649845e-05,0.000400172773160052,2021-02-22
"517",258,0.000700540853271427,0.000260297298694797,9.34643426409852e-05,0.000397002597956206,2021-02-23
"518",258.5,0.000695544910685278,0.000257854317788012,9.21259888493447e-05,0.000393835449767311,2021-02-23
"519",259,0.000690538138719596,0.000255584211489236,9.08054288188583e-05,0.000390671783769227,2021-02-24
"520",259.5,0.000685521631868534,0.000253326622522882,8.95024664680406e-05,0.000387512049168287,2021-02-24
"521",260,0.000680496471481903,0.000250955413166221,8.82169066451452e-05,0.000384356689063524,2021-02-25
"522",260.5,0.000675463725465261,0.000248661843520619,8.69485551663904e-05,0.000381206140315826,2021-02-25
"523",261,0.000670424447995594,0.000246370304838211,8.56972188524357e-05,0.000378060833424015,2021-02-26
"524",261.5,0.000665379679252452,0.000244137615191576,8.44627055631555e-05,0.000374921192407804,2021-02-26
"525",262,0.000660330445164421,0.000241665441151321,8.32448242307539e-05,0.000371787634697588,2021-02-27
"526",262.5,0.000655277757170796,0.000238765096490802,8.2043384891265e-05,0.000368660571031031,2021-02-27
"527",263,0.000650222611998278,0.000235858693930685,8.08581987144812e-05,0.00036554040535638,2021-02-28
"528",263.5,0.000645165991452548,0.000232980635657638,7.96890780323533e-05,0.000362427534742451,2021-02-28
"529",264,0.00064010886222452,0.000230130835899949,7.85358363659034e-05,0.000359322349295212,2021-03-01
"530",264.5,0.000635052175711086,0.000227811004449411,7.73982884506917e-05,0.000356225232080889,2021-03-01
"531",265,0.000629996867850145,0.000225360389565253,7.6276250260879e-05,0.000353136559055512,2021-03-02
"532",265.5,0.000624943858969699,0.000222822545359875,7.51695390319232e-05,0.000350056699000811,2021-03-02
"533",266,0.000619894053650792,0.000220643824833359,7.40779732819507e-05,0.000346986013466371,2021-03-03
"534",266.5,0.00061484834060406,0.000218681805659794,7.30013728318394e-05,0.00034392485671795,2021-03-03
"535",267,0.000609807592559638,0.000216105723418311,7.19395588240523e-05,0.000340873575691845,2021-03-04
"536",267.5,0.00060477266617018,0.000213776556401177,7.08923537402587e-05,0.000337832509955219,2021-03-04
"537",268,0.000599744401926738,0.000211763138030875,6.98595814177787e-05,0.000334801991672258,2021-03-05
"538",268.5,0.000594723624087214,0.000209763842765526,6.88410670648876e-05,0.000331782345576051,2021-03-05
"539",269,0.000589711140617137,0.00020767180768943,6.78366372750142e-05,0.000328773888946076,2021-03-06
"540",269.5,0.00058470774314247,0.000205224835693136,6.68461200398679e-05,0.000325776931591169,2021-03-06
"541",270,0.000579714206914168,0.000202801713894552,6.58693447615282e-05,0.000322791775837848,2021-03-07
"542",270.5,0.000574731290784208,0.00020059432652502,6.49061422635295e-05,0.000319818716523869,2021-03-07
"543",271,0.000569759737192785,0.000198647003628573,6.39563448009725e-05,0.000316858040996879,2021-03-08
"544",271.5,0.000564800272166392,0.000196714017197841,6.30197860696954e-05,0.000313910029118044,2021-03-08
"545",272,0.000559853605326479,0.000194795361720698,6.20963012145338e-05,0.000310974953270506,2021-03-09
"546",272.5,0.000554920429908391,0.000192891029098916,6.11857268367011e-05,0.000308053078372546,2021-03-09
"547",273,0.000550001422790296,0.000191001008707413,6.0287901000318e-05,0.000305144661895307,2021-03-10
"548",273.5,0.000545097244531776,0.000189125287452977,5.94026632381201e-05,0.000302249953884948,2021-03-10
"549",274,0.000540208539421795,0.000186913234805255,5.85298545563712e-05,0.000299369196989083,2021-03-11
"550",274.5,0.000535335935535741,0.00018470315724127,5.76693174390117e-05,0.000296502626487376,2021-03-11
"551",275,0.000530480044801223,0.000182415908967839,5.68208958510661e-05,0.000293650470326144,2021-03-12
"552",275.5,0.000525641463072325,0.000180333365088953,5.59844352413382e-05,0.000290812949156831,2021-03-12
"553",276,0.000520820770212024,0.000178279913690066,5.5159782544419e-05,0.000287990276378222,2021-03-13
"554",276.5,0.000516018530182454,0.000176246161397922,5.43467861820308e-05,0.000285182658182242,2021-03-13
"555",277,0.000511235291142718,0.000174232014811744,5.35452960637346e-05,0.000282390293603226,2021-03-14
"556",277.5,0.000506471585553963,0.000172237378279796,5.27551635870218e-05,0.000279613374570492,2021-03-14
"557",278,0.000501727930291396,0.000170297100402762,5.19762416368153e-05,0.000276852085964106,2021-03-15
"558",278.5,0.000497004826762976,0.000168545039375827,5.12083845844015e-05,0.000274106605673689,2021-03-15
"559",279,0.000492302761034458,0.000166807690323411,5.04514482858161e-05,0.000271377104660137,2021-03-16
"560",279.5,0.000487622203960534,0.000165085004289117,4.97052900797036e-05,0.000268663747020119,2021-03-16
"561",280,0.000482963611321752,0.000163376930608442,4.89697687846732e-05,0.000265966690053213,2021-03-17
"562",280.5,0.000478327423966962,0.000161432949656284,4.82447446961707e-05,0.000263286084331566,2021-03-17
"563",281,0.000473714067960983,0.000159428162043858,4.75300795828849e-05,0.000260622073771934,2021-03-18
"564",281.5,0.000469123954737242,0.000157450272470617,4.68256366827103e-05,0.000257974795709976,2021-03-18
"565",282,0.000464557481255095,0.000155812906473928,4.61312806982826e-05,0.000255344380976689,2021-03-19
"566",282.5,0.000460015030161575,0.000154267274257987,4.54468777921061e-05,0.000252730953976841,2021-03-19
"567",283,0.000455496969957303,0.000152734487332925,4.47722955812906e-05,0.000250134632769297,2021-03-20
"568",283.5,0.000451003655166307,0.000151214493539148,4.41074031319154e-05,0.000247555529149111,2021-03-20
"569",284,0.000446535426509494,0.000149668233790685,4.34520709530363e-05,0.000244993748731265,2021-03-21
"570",284.5,0.000442092611081536,0.000147996680240048,4.28061709903527e-05,0.000242449391035944,2021-03-21
"571",285,0.000437675522530915,0.000146285767385969,4.21695766195495e-05,0.000239922549575232,2021-03-22
"572",285.5,0.000434021166465951,0.000144644594957284,4.1542162639331e-05,0.000237781664552641,2021-03-22
"573",286,0.000430591368020724,0.000143078568388621,4.0923805264159e-05,0.000235757586642441,2021-03-23
"574",286.5,0.000427172712985687,0.000141471058372833,4.03143821167123e-05,0.000233743547551199,2021-03-23
"575",287,0.000423765496093059,0.000139879315175609,3.97137722200797e-05,0.000231739634156569,2021-03-24
"576",287.5,0.000420370004877178,0.000138276084265001,3.91218559897008e-05,0.000229745930433439,2021-03-24
"577",288,0.000416986519716688,0.000136458302323475,3.85385152250676e-05,0.000227762517470878,2021-03-25
"578",288.5,0.000413615313879079,0.000134565953265278,3.79636331012004e-05,0.00022578947349014,2021-03-25
"579",289,0.000410256653567479,0.000132697822893463,3.73970941599088e-05,0.000223826873863694,2021-03-26
"580",289.5,0.000406910797969615,0.000131103441572705,3.68387843008514e-05,0.000221874791135233,2021-03-26
"581",290,0.000403577999308862,0.000129822559429388,3.62885907724053e-05,0.000219933295040633,2021-03-27
"582",290.5,0.000400258502897292,0.000128552084319456,3.5746402162356e-05,0.000218002452529824,2021-03-27
"583",291,0.000396952547190648,0.000126918992788865,3.52121083884194e-05,0.000216082327789534,2021-03-28
"584",291.5,0.000393660363845145,0.000125258291234512,3.46856006886068e-05,0.000214172982266876,2021-03-28
"585",292,0.000390382177776033,0.00012373894540162,3.4166771611441e-05,0.000212274474693737,2021-03-29
"586",292.5,0.000387118207217835,0.000122237636014294,3.36555150060366e-05,0.000210386861111936,2021-03-29
"587",293,0.000383868663786177,0.000120696886316794,3.31517260120513e-05,0.000208510194899114,2021-03-30
"588",293.5,0.000380633752541141,0.000119173940056137,3.26553010495184e-05,0.00020664452679533,2021-03-30
"589",294,0.000377413672052057,0.000117612248305129,3.216613780857e-05,0.000204789904930313,2021-03-31
"590",294.5,0.000374208614463655,0.00011608532763689,3.16841352390588e-05,0.000202946374851357,2021-03-31
"591",295,0.000371018765563521,0.000114633807386379,3.12091935400868e-05,0.000201113979551804,2021-04-01
"592",295.5,0.000367844304850755,0.000113206543507369,3.07412141494492e-05,0.000199292759500102,2021-04-01
"593",296,0.000364685405605788,0.000111724696805346,3.02800997330014e-05,0.000197482752669395,2021-04-02
"594",296.5,0.000361542234961265,0.000110207870444437,2.97580425508233e-05,0.000195650138756044,2021-04-02
