"","time","top","med","bottom","pseudo_med","date"
"1",0,0.000158954262503584,5.00579242198407e-05,7.98924706654822e-06,8.34717547850663e-05,2020-06-10
"2",0.5,0.000159612199888549,5.05012412746855e-05,8.12318616097583e-06,8.38676930247623e-05,2020-06-10
"3",1,0.000160269320659497,5.09449552501053e-05,8.25935966654222e-06,8.42643401630198e-05,2020-06-11
"4",1.5,0.000160925577860745,5.13728744466686e-05,8.39780448331637e-06,8.46616911720307e-05,2020-06-11
"5",2,0.000161580924244376,5.18040541051797e-05,8.53855810802861e-06,8.50597411762026e-05,2020-06-12
"6",2.5,0.000162235312275145,5.22385131865532e-05,8.6816586432849e-06,8.5458485459215e-05,2020-06-12
"7",3,0.000162888694135492,5.26762706545303e-05,8.82714480690843e-06,8.58579194712004e-05,2020-06-13
"8",3.5,0.000163541021730689,5.31173454732867e-05,8.97505594140985e-06,8.62580388360495e-05,2020-06-13
"9",4,0.000164192246694099,5.35617566049919e-05,9.12543202358719e-06,8.66588393588429e-05,2020-06-14
"10",4.5,0.00016484232039256,5.40095230073184e-05,9.27831367425682e-06,8.70603170334084e-05,2020-06-14
"11",5,0.000165491193931894,5.44606636309002e-05,9.43374216811658e-06,8.74624680500051e-05,2020-06-15
"12",5.5,0.000166138818162527,5.49151974167414e-05,9.59175944374229e-06,8.78652888031348e-05,2020-06-15
"13",6,0.000166785143685243,5.53891681217254e-05,9.75240811371875e-06,8.82687758994807e-05,2020-06-16
"14",6.5,0.000167430120857042,5.59117345271949e-05,9.9157314749065e-06,8.86729261659743e-05,2020-06-16
"15",7,0.000168073699797137,5.64388566479359e-05,1.00817735188453e-05,8.90777366579911e-05,2020-06-17
"16",7.5,0.000168715830393054,5.69705660731256e-05,1.02505789422956e-05,8.94832046676747e-05,2020-06-17
"17",8,0.000169356462306861,5.74948665304335e-05,1.04221931579192e-05,8.988932773239e-05,2020-06-18
"18",8.5,0.000169995544981514,5.79944400439633e-05,1.05966623050996e-05,9.02961036433067e-05,2020-06-18
"19",9,0.000170633027647317,5.84498093814813e-05,1.07740332609042e-05,9.07035304541109e-05,2020-06-19
"20",9.5,0.000171268859328509,5.89083646065666e-05,1.0954353651188e-05,9.11116064898484e-05,2020-06-19
"21",10,0.000171902988849953,5.93248919606098e-05,1.11376718618411e-05,9.15203303558971e-05,2020-06-20
"22",10.5,0.000172535364843959,5.96857862799851e-05,1.13240370501797e-05,9.19297009470694e-05,2020-06-20
"23",11,0.000173219186569541,6.00485914674248e-05,1.14987872216043e-05,9.23589868955728e-05,2020-06-21
"24",11.5,0.000174043095853523,6.04574130877192e-05,1.16599422715274e-05,9.28515190625254e-05,2020-06-21
"25",12,0.000174867088353318,6.08848721927367e-05,1.18233321262327e-05,9.33452102397751e-05,2020-06-22
"26",12.5,0.000175691110149724,6.13636301302622e-05,1.19889871022903e-05,9.38400486260073e-05,2020-06-22
"27",13,0.000176515106813713,6.18514430248234e-05,1.21569379083561e-05,9.43360223610347e-05,2020-06-23
"28",13.5,0.000177339023410103,6.23315973046879e-05,1.23272156496919e-05,9.48331195298975e-05,2020-06-23
"29",14,0.00017816280450141,6.28150400805117e-05,1.24998518327209e-05,9.53313281670653e-05,2020-06-24
"30",14.5,0.000178986394151867,6.31378802284372e-05,1.26748783696197e-05,9.58306362607433e-05,2020-06-24
"31",15,0.000179809735931619,6.34504221920467e-05,1.28523275829439e-05,9.63310317572815e-05,2020-06-25
"32",15.5,0.000180632772921086,6.39740308190039e-05,1.30322322102906e-05,9.68325025656882e-05,2020-06-25
"33",16,0.000181455447715502,6.44665487636396e-05,1.32146254089941e-05,9.7335036562248e-05,2020-06-26
"34",16.5,0.000182277702429632,6.49626079262968e-05,1.33995407608568e-05,9.78386215952443e-05,2020-06-26
"35",17,0.000183099478702662,6.55734717529692e-05,1.35870122769134e-05,9.83432454897878e-05,2020-06-27
"36",17.5,0.000183920717703269,6.60533839598398e-05,1.37770744022293e-05,9.88488960527493e-05,2020-06-27
"37",18,0.000184741360134866,6.65999584751318e-05,1.39697620207316e-05,9.9355561077799e-05,2020-06-28
"38",18.5,0.000185561346241028,6.71854216327308e-05,1.41651104600732e-05,9.98632283505508e-05,2020-06-28
"39",19,0.000186380615811098,6.77756041783833e-05,1.43631554965287e-05,0.000100371885653813,2020-06-29
"40",19.5,0.000187199108185972,6.83542363003388e-05,1.45639333599224e-05,0.000100881520772947,2020-06-29
"41",20,0.000188016762264065,6.88783030660631e-05,1.47674807385871e-05,0.000101392121501326,2020-06-30
"42",20.5,0.00018883351650746,6.92464049694032e-05,1.49738347843537e-05,0.000101903675645907,2020-06-30
"43",21,0.000189649308948237,6.96022252954787e-05,1.51830331175707e-05,0.000102416171032904,2020-07-01
"44",21.5,0.000190464077194988,6.99596500922572e-05,1.53951138321527e-05,0.00010292959551357,2020-07-01
"45",22,0.000191277758439506,7.05543288258775e-05,1.56101155006582e-05,0.000103443936970082,2020-07-02
"46",22.5,0.00019209028946367,7.11830863823827e-05,1.58280771793947e-05,0.000103959183321532,2020-07-02
"47",23,0.000193165069689929,7.18170523517784e-05,1.60490384135511e-05,0.00010460705405174,2020-07-03
"48",23.5,0.000195003279209971,7.24562603045308e-05,1.62730392423568e-05,0.000105638159226164,2020-07-03
"49",24,0.00019685327698232,7.30971971197235e-05,1.65001202042659e-05,0.000106676698593293,2020-07-04
"50",24.5,0.000198715012700305,7.38342307587719e-05,1.67303223421658e-05,0.000107722667521235,2020-07-04
"51",25,0.000200588432670563,7.4582331016059e-05,1.69636872086109e-05,0.000108776059939587,2020-07-05
"52",25.5,0.000202473479756831,7.52707544000297e-05,1.72002568710769e-05,0.000109836868313954,2020-07-05
"53",26,0.000204370093323848,7.57575875445226e-05,1.74400739172391e-05,0.000110905083620544,2020-07-06
"54",26.5,0.000206278209181421,7.62276041328192e-05,1.76831814602692e-05,0.000111980695320845,2020-07-06
"55",27,0.000208197759528681,7.69719545058733e-05,1.7929623144154e-05,0.000113063691336418,2020-07-07
"56",27.5,0.000210128672898576,7.76605691791363e-05,1.81794431490303e-05,0.000114154058023803,2020-07-07
"57",28,0.000212070874102635,7.82646094985795e-05,1.84326861965384e-05,0.000115251780149587,2020-07-08
"58",28.5,0.000214024284176049,7.87121944742105e-05,1.86893975551914e-05,0.00011635684086562,2020-07-08
"59",29,0.000215988820323104,7.92313961713191e-05,1.89496230457586e-05,0.000117469221684431,2020-07-09
"60",29.5,0.000217964395863019,7.97777509259227e-05,1.92134090466625e-05,0.000118588902454841,2020-07-09
"61",30,0.000219950920176229,8.02786192870978e-05,1.9480802499388e-05,0.000119715861337808,2020-07-10
"62",30.5,0.000221948298651146,8.07818286229536e-05,1.97518509139011e-05,0.000120850074782523,2020-07-10
"63",31,0.00022395643263147,8.13757504855466e-05,2.00266023740773e-05,0.000121991517502774,2020-07-11
"64",31.5,0.000225975219364075,8.20309484220943e-05,2.03051055431366e-05,0.000123140162453606,2020-07-11
"65",32,0.000228004551947524,8.26905992452712e-05,2.05874096690843e-05,0.000124295980808304,2020-07-12
"66",32.5,0.000230044319281272,8.33160825813212e-05,2.08735645901557e-05,0.000125458941935714,2020-07-12
"67",33,0.00023209440601559,8.35304733225329e-05,2.11636207402622e-05,0.000126629013377926,2020-07-13
"68",33.5,0.000234154692502282,8.4105304696273e-05,2.14576291544385e-05,0.00012780616082836,2020-07-13
"69",34,0.000236225054746225,8.47115582544824e-05,2.17556414742868e-05,0.000128990348110256,2020-07-14
"70",34.5,0.000238305364357807,8.53221687549723e-05,2.20577099534184e-05,0.000130181537155613,2020-07-14
"71",35,0.000240395488506299,8.58951343960154e-05,2.23638874628879e-05,0.000131379687984593,2020-07-15
"72",35.5,0.000242495289874223,8.66434289679326e-05,2.26742274966209e-05,0.000132584758685422,2020-07-15
"73",36,0.000244604626612784,8.73696705734294e-05,2.29887841768299e-05,0.000133796705394807,2020-07-16
"74",36.5,0.000246723352298392,8.81012235645245e-05,2.33076122594184e-05,0.000135015482278905,2020-07-16
"75",37,0.000248851315890372,8.88381118427958e-05,2.36307671393695e-05,0.000136241041514871,2020-07-17
"76",37.5,0.000250988361689879,8.95803591146984e-05,2.3958304856117e-05,0.000137473333272998,2020-07-17
"77",38,0.000253134329300112,9.03017756561742e-05,2.42902820988962e-05,0.000138712305699504,2020-07-18
"78",38.5,0.000255289053587866,9.10596349366698e-05,2.46267562120721e-05,0.000139957904899969,2020-07-18
"79",39,0.000257452364646483,9.18229506249152e-05,2.49677852004417e-05,0.000141210074923462,2020-07-19
"80",39.5,0.000259624087760281,9.26046701322808e-05,2.53134277345076e-05,0.000142468757747395,2020-07-19
"81",40,0.000261804043370497,9.33942629735015e-05,2.56637431557209e-05,0.000143733893263109,2020-07-20
"82",40.5,0.000263992047042826,9.41895444530663e-05,2.60187914816886e-05,0.000145005419262257,2020-07-20
"83",41,0.000266187909436609,9.50412433664005e-05,2.63786334113442e-05,0.000146283271423976,2020-07-21
"84",41.5,0.000268391436275739,9.58442899033077e-05,2.67433303300767e-05,0.000147567383302908,2020-07-21
"85",42,0.000270602428321341,9.65917491760685e-05,2.71129443148159e-05,0.000148857686318078,2020-07-22
"86",42.5,0.000272820681346297,9.71847123881193e-05,2.74875381390695e-05,0.000150154109742683,2020-07-22
"87",43,0.000275045986111679,9.80215608602617e-05,2.78671752779085e-05,0.000151456580694794,2020-07-23
"88",43.5,0.000277278128345144,9.89209469780045e-05,2.8251919912899e-05,0.000152765024129022,2020-07-23
"89",44,0.000279516888721377,9.98419307625535e-05,2.86418369369732e-05,0.000154079362829175,2020-07-24
"90",44.5,0.00028176204284462,0.000100770861531404,2.90369919592391e-05,0.00015539951740193,2020-07-24
"91",45,0.00028401336123338,0.000101803183922812,2.94374513097225e-05,0.000156725406271551,2020-07-25
"92",45.5,0.00028627060930735,0.000102826895809897,2.98432820440384e-05,0.000158056945675694,2020-07-25
"93",46,0.000288533547376637,0.000103730818600018,3.0254551947987e-05,0.000159394049662312,2020-07-26
"94",46.5,0.000290801930633336,0.00010464135479897,3.06713295420694e-05,0.000160736630087703,2020-07-26
"95",47,0.000293075509145537,0.000105609867309188,3.10936840859202e-05,0.000162084596615729,2020-07-27
"96",47.5,0.000295354027853808,0.000106598582939366,3.15216855826493e-05,0.000163437856718229,2020-07-27
"97",48,0.000297637226570229,0.000107571954057326,3.19554047830914e-05,0.00016479631567666,2020-07-28
"98",48.5,0.00029992483998004,0.000108753999734594,3.2394913189956e-05,0.000166159876584998,2020-07-28
"99",49,0.000302216597645959,0.000109934794407253,3.28402830618731e-05,0.000167528440353916,2020-07-29
"100",49.5,0.000304512224015235,0.000110788010388768,3.32915874173301e-05,0.000168901905716283,2020-07-29
"101",50,0.0003068114384295,0.0001116031913312,3.3748900038494e-05,0.000170280169233997,2020-07-30
"102",50.5,0.000309113955137468,0.000112410725928057,3.42122954749133e-05,0.000171663125306191,2020-07-30
"103",51,0.000311419483310561,0.000112968764292227,3.46818490470932e-05,0.000173050666178827,2020-07-31
"104",51.5,0.000313727727061492,0.000113402393959924,3.51576368499405e-05,0.000174442681955716,2020-07-31
"105",52,0.000316038385465891,0.000114274436646541,3.5639735756069e-05,0.00017583906061098,2020-08-01
"106",52.5,0.000318351152587004,0.000115212337599182,3.61282234189614e-05,0.000177239688002983,2020-08-01
"107",53,0.000320665717503535,0.000116248425858512,3.66231782759812e-05,0.000178644447889758,2020-08-02
"108",53.5,0.000322981764340683,0.000117154996334941,3.71246795512263e-05,0.000180053221945955,2020-08-02
"109",54,0.000325298972304412,0.000118252643948001,3.763280725822e-05,0.000181465889781316,2020-08-03
"110",54.5,0.000327617015719019,0.000119211030575524,3.81476422024305e-05,0.000182882328960725,2020-08-03
"111",55,0.000329935564068043,0.00012026869594897,3.8669265983613e-05,0.000184302415025828,2020-08-04
"112",55.5,0.000332254282038555,0.000120569834991907,3.91977609979666e-05,0.000185726021518261,2020-08-04
"113",56,0.000334572829568877,0.000121031270430226,3.97332104400984e-05,0.000187153020004488,2020-08-05
"114",56.5,0.00033689086189978,0.00012211118536662,4.02756983047881e-05,0.000188583280102284,2020-08-05
"115",57,0.000339208029629181,0.000123038567481752,4.08253093885438e-05,0.000190016669508863,2020-08-06
"116",57.5,0.000341523978770405,0.000124043123025281,4.13821292909425e-05,0.000191453054030674,2020-08-06
"117",58,0.000343838350814011,0.000125197825662457,4.19462444157454e-05,0.000192892297614878,2020-08-07
"118",58.5,0.000346150782793254,0.000126356787092993,4.25177419717814e-05,0.000194334262382518,2020-08-07
"119",59,0.00034846090735318,0.000127338380425693,4.30967099735887e-05,0.000195778808663385,2020-08-08
"120",59.5,0.000350768352823403,0.000128325413671575,4.36832372418063e-05,0.000197225795032605,2020-08-08
"121",60,0.000353072743294574,0.000128991663696081,4.42630137475019e-05,0.000198667878521038,2020-08-09
"122",60.5,0.000355373698698578,0.000129312537767909,4.47476324400074e-05,0.000200060665569293,2020-08-09
"123",61,0.000357670834892465,0.000129767842656322,4.52373063933303e-05,0.000201454070642898,2020-08-10
"124",61.5,0.000359963763746137,0.000130849748484296,4.57320827012515e-05,0.000202847923223694,2020-08-10
"125",62,0.000362252093233802,0.000131498565340794,4.62320087675031e-05,0.000204242051000653,2020-08-11
"126",62.5,0.000364535427529208,0.000132105103146022,4.67371323046666e-05,0.000205636279916937,2020-08-11
"127",63,0.000366813367104651,0.000133056993835905,4.72475013329716e-05,0.000207030434218811,2020-08-12
"128",63.5,0.000369085508833777,0.00013407066081532,4.77631641789924e-05,0.000208424336506385,2020-08-12
"129",64,0.000371351446098165,0.000135163896791634,4.82841694742401e-05,0.000209817807786202,2020-08-13
"130",64.5,0.000373610768897678,0.000136317263904077,4.88105661536475e-05,0.000211210667525663,2020-08-13
"131",65,0.000375863063964603,0.000137632815521794,4.93424034539445e-05,0.000212602733709274,2020-08-14
"132",65.5,0.000378107914881529,0.000138681644948745,4.98797309119206e-05,0.000213993822896725,2020-08-14
"133",66,0.000380344902202981,0.000139737983915595,5.04225983625726e-05,0.000215383750282777,2020-08-15
"134",66.5,0.000382573603580762,0.000141058059494046,5.0971055937134e-05,0.000216772329758948,2020-08-15
"135",67,0.000384793593893003,0.000142574936899821,5.15251540609847e-05,0.000218159373976994,2020-08-16
"136",67.5,0.000387004445376872,0.000143607861484688,5.20849434514352e-05,0.000219544694414154,2020-08-16
"137",68,0.000389205727764923,0.000144453841081628,5.26504751153869e-05,0.000220928101440155,2020-08-17
"138",68.5,0.000391397008425039,0.000145398231603038,5.32218003468602e-05,0.00022230940438595,2020-08-17
"139",69,0.00039357785250394,0.000146364984403595,5.37989707243931e-05,0.000223688411614167,2020-08-18
"140",69.5,0.000395747823074193,0.000147389168530147,5.43820381083019e-05,0.000225064930591248,2020-08-18
"141",70,0.000397906481284692,0.000148343642004362,5.49710546378052e-05,0.000226438767961249,2020-08-19
"142",70.5,0.000400053386514541,0.000149393899495765,5.55660727280056e-05,0.000227809729621273,2020-08-19
"143",71,0.000402188096530289,0.00015019416848241,5.6167145066727e-05,0.000229177620798508,2020-08-20
"144",71.5,0.000404310167646449,0.000151233426136824,5.67743246112038e-05,0.000230542246128827,2020-08-20
"145",72,0.00040641915488924,0.000152364897910643,5.7387664584619e-05,0.00023190340973693,2020-08-21
"146",72.5,0.000408514612163469,0.000153484940596508,5.80072184724885e-05,0.000233260915317979,2020-08-21
"147",73,0.000410596092422487,0.000154566744317135,5.8633040018887e-05,0.000234614566220687,2020-08-22
"148",73.5,0.000412663147841137,0.00015565331457134,5.92651832225133e-05,0.000235964165531825,2020-08-22
"149",74,0.000414715329991601,0.000156315423812608,5.99037023325908e-05,0.000237309516162096,2020-08-23
"150",74.5,0.000416752190022063,0.000156862332247977,6.05486518446008e-05,0.000238650420933332,2020-08-23
"151",75,0.000418773278838091,0.000157581021298367,6.12000864958437e-05,0.000239986682666967,2020-08-24
"152",75.5,0.000420778147286644,0.000158689549812571,6.18580612608254e-05,0.000241318104273734,2020-08-24
"153",76,0.000422766346342587,0.000159942000344557,6.24050307409362e-05,0.000242585688541761,2020-08-25
"154",76.5,0.00042473742729763,0.00016146293920423,6.25660491040199e-05,0.000243651738200825,2020-08-25
"155",77,0.000426690941951556,0.000162881885585599,6.27270352763694e-05,0.000244708988613963,2020-08-26
"156",77.5,0.000428626442805632,0.000164310678012198,6.28879857274133e-05,0.000245757214266523,2020-08-26
"157",78,0.000430543483258093,0.000165642240418196,6.3048896909775e-05,0.000246796190083934,2020-08-27
"158",78.5,0.00043244161780155,0.000166320135268674,6.32097652593644e-05,0.000247825691530457,2020-08-27
"159",79,0.000434320402222223,0.000166945316292359,6.33705871954717e-05,0.000248845494708848,2020-08-28
"160",79.5,0.000436179393800845,0.000167965608078356,6.35313591208631e-05,0.000249855376460854,2020-08-28
"161",80,0.000438018151515108,0.000168816916373386,6.36920774218779e-05,0.000250855114468493,2020-08-29
"162",80.5,0.000439836236243524,0.000169798610488712,6.38527384685287e-05,0.000251844487356026,2020-08-29
"163",81,0.000441633210970531,0.000171469267668577,6.40133386146023e-05,0.000252823274792567,2020-08-30
"164",81.5,0.000443408640992729,0.000173243382079924,6.41738741977631e-05,0.000253791257595246,2020-08-30
"165",82,0.000445162094126071,0.00017453083825556,6.43343415396589e-05,0.000254748217832865,2020-08-31
"166",82.5,0.000446893140913867,0.000175782373366317,6.43634492338539e-05,0.00025562829507386,2020-08-31
"167",83,0.000448601354835453,0.000176619370662957,6.4343194586411e-05,0.000256472274710932,2020-09-01
"168",83.5,0.000450286312515346,0.000177545190393187,6.4322504989226e-05,0.000257304408752286,2020-09-01
"169",84,0.000451947593932744,0.000178472088933694,6.4301381016475e-05,0.000258124487474609,2020-09-02
"170",84.5,0.000453584782631191,0.000179465872080051,6.4279823253907e-05,0.000258932302942549,2020-09-02
"171",85,0.000455197465928255,0.000180779851596979,6.42578322988101e-05,0.000259727649113533,2020-09-03
"172",85.5,0.000456785235125038,0.00018238964836743,6.41170487712859e-05,0.000260451141948162,2020-09-03
"173",86,0.000458347685715355,0.000183602413657404,6.39285266646176e-05,0.000261138106189986,2020-09-04
"174",86.5,0.000459884417594407,0.000184633074103605,6.37400580570741e-05,0.00026181223782574,2020-09-04
"175",87,0.000461395035266772,0.000185742533055006,6.35516472291815e-05,0.000262473341247977,2020-09-05
"176",87.5,0.000462879148053546,0.000186858174046233,6.33632984337911e-05,0.000263121223243669,2020-09-05
"177",88,0.000464336370298449,0.000188161951815709,6.3175015896011e-05,0.00026375569309723,2020-09-06
"178",88.5,0.000465766321572722,0.000189336758305254,6.29868038131395e-05,0.000264376562692931,2020-09-06
"179",89,0.000467168626878634,0.000190432278576738,6.27986663546017e-05,0.000264983646616618,2020-09-07
"180",89.5,0.000468542916851433,0.000191752757524073,6.26106076618893e-05,0.000265576762256661,2020-09-07
"181",90,0.000469888827959536,0.000193078252245877,6.24226318485032e-05,0.00026615572990402,2020-09-08
"182",90.5,0.000471206002702808,0.000194408711884221,6.22347429998988e-05,0.000266720372851354,2020-09-08
"183",91,0.000472494089808729,0.000195722931107598,6.20469451734344e-05,0.000267270517491082,2020-09-09
"184",91.5,0.000473752744426282,0.000196428198317181,6.18592423983222e-05,0.000267805993412302,2020-09-09
"185",92,0.000474981628317377,0.000196957601593883,6.16716386755828e-05,0.00026832663349648,2020-09-10
"186",92.5,0.000476180410045643,0.000197935593731025,6.14841379780012e-05,0.000268832274011822,2020-09-10
"187",93,0.000477348765162402,0.000199322552270496,6.12967442500871e-05,0.000269322754706245,2020-09-11
"188",93.5,0.000478486376389651,0.000200576934103451,6.11094614080367e-05,0.000269797918898844,2020-09-11
"189",94,0.000479592933799889,0.000201507187948954,6.09222933396982e-05,0.000270257613569793,2020-09-12
"190",94.5,0.000480668134992607,0.000202242967819359,6.07352439045394e-05,0.000270701689448573,2020-09-12
"191",95,0.000481711685267277,0.000203114228878256,6.05483169336182e-05,0.000271130001100448,2020-09-13
"192",95.5,0.000482723297792669,0.000203748012478063,6.03615162295558e-05,0.000271542407011113,2020-09-13
"193",96,0.000483702693772338,0.000204831052834156,6.01748455665124e-05,0.000271938769669425,2020-09-14
"194",96.5,0.00048464960260611,0.000206092559684409,5.99883086901659e-05,0.000272318955648138,2020-09-14
"195",97,0.000485563762047426,0.000207168034650582,5.98019093176927e-05,0.000272682835682559,2020-09-15
"196",97.5,0.000486444918356361,0.000207796436416411,5.96156511377515e-05,0.000273030284747056,2020-09-15
"197",98,0.000487292826448197,0.000208986001372106,5.94295378104694e-05,0.000273361182129333,2020-09-16
"198",98.5,0.000488107250037377,0.000209724062381341,5.92435729674306e-05,0.000273675411502404,2020-09-16
"199",99,0.000488887961776715,0.000210672353837215,5.90577602116677e-05,0.000273972860994191,2020-09-17
"200",99.5,0.000489634743391706,0.000211619054318814,5.88721031176555e-05,0.000274253423254681,2020-09-17
"201",100,0.000490347385809814,0.000212611024716,5.8686605231307e-05,0.00027451699552056,2020-09-18
"202",100.5,0.000491025689284597,0.000213031832039951,5.8501270069972e-05,0.000274763479677285,2020-09-18
"203",101,0.000491669463514553,0.000213624799580313,5.83161011224385e-05,0.000274992782318496,2020-09-19
"204",101.5,0.000492278527756554,0.000214638355510443,5.81311018489357e-05,0.000275204814802745,2020-09-19
"205",102,0.000492852710933762,0.000215628612258725,5.79462756811402e-05,0.000275399493307451,2020-09-20
"206",102.5,0.000493391851737915,0.000216667820973438,5.77616260221837e-05,0.000275576738880049,2020-09-20
"207",103,0.000493895798725869,0.000218618802206312,5.75771562466639e-05,0.000275736477486266,2020-09-21
"208",103.5,0.000494364410410313,0.000220242690475069,5.73928697006571e-05,0.000275878640055485,2020-09-21
"209",104,0.000494797555344548,0.000221812914512317,5.72087697017331e-05,0.00027600316252314,2020-09-22
"210",104.5,0.00049519511220125,0.000223601954693313,5.70248595389726e-05,0.000276109985870112,2020-09-22
"211",105,0.000495556969845139,0.00022539785193125,5.68411424729869e-05,0.000276199056159063,2020-09-23
"212",105.5,0.000495883027399464,0.000226827510094421,5.66576217359393e-05,0.000276270324567702,2020-09-23
"213",106,0.000496173194306264,0.000227757602780315,5.6474300531569e-05,0.000276323747418916,2020-09-24
"214",106.5,0.000496427390380305,0.000228573986022806,5.62911820352173e-05,0.000276359286207761,2020-09-24
"215",107,0.000496645545856673,0.000229949765672014,5.61082693938558e-05,0.000276376907625264,2020-09-25
"216",107.5,0.000496827601431951,0.000231029321212949,5.59255657261165e-05,0.000276376583579034,2020-09-25
"217",108,0.000496973508298947,0.000232336161000929,5.5743074122324e-05,0.000276358291210636,2020-09-26
"218",108.5,0.000497083228174936,0.000233384982879377,5.55607976445303e-05,0.000276322012909733,2020-09-26
"219",109,0.000497156733323391,0.000233874793303165,5.53787393265507e-05,0.000276267736324971,2020-09-27
"220",109.5,0.000497194006569174,0.00023468932499137,5.51969021740028e-05,0.000276195454371588,2020-09-27
"221",110,0.00049719504130718,0.000236494927903169,5.50152891643462e-05,0.000276105165235763,2020-09-28
"222",110.5,0.000497159841504424,0.000237417844590326,5.48339032469255e-05,0.000275996872375675,2020-09-28
"223",111,0.000499739427987273,0.000238623383783282,5.46527473430143e-05,0.000277196087665144,2020-09-29
"224",111.5,0.000504462275864576,0.000240234333305754,5.4471824345861e-05,0.000279467050105218,2020-09-29
"225",112,0.000509186965376834,0.00024154508692653,5.42911371207376e-05,0.000281739051248786,2020-09-30
"226",112.5,0.000513912315160318,0.000242742707707209,5.41106885049892e-05,0.000284011501832654,2020-09-30
"227",113,0.000518637121616541,0.00024405244935354,5.39304813080854e-05,0.000286283801462313,2020-10-01
"228",113.5,0.000523360159226042,0.000245518142354525,5.37505183116746e-05,0.000288555338768859,2020-10-01
"229",114,0.000528080180890725,0.000246983311650917,5.35708022696387e-05,0.000290825491580182,2020-10-02
"230",114.5,0.000532795918305126,0.000248142478127525,5.33913359081506e-05,0.000293093627106638,2020-10-02
"231",115,0.000537506082357001,0.000249299203392852,5.32121219257328e-05,0.000295359102141367,2020-10-03
"232",115.5,0.000542209363557525,0.000250019383465783,5.30331629933178e-05,0.000297621263275421,2020-10-03
"233",116,0.00054690443250142,0.000251285080433074,5.28544617543107e-05,0.000299879447127865,2020-10-04
"234",116.5,0.000551589940357243,0.00025221309054882,5.26760208246527e-05,0.000302132980590948,2020-10-04
"235",117,0.000556264519388048,0.000253382460269187,5.24978427928868e-05,0.000304381181090467,2020-10-05
"236",117.5,0.000560926783502573,0.000254056234157776,5.23199302202249e-05,0.000306623356861399,2020-10-05
"237",118,0.000565575328837086,0.000254708110491857,5.21422856406163e-05,0.000308858807238851,2020-10-06
"238",118.5,0.00057020873436795,0.000256259366049745,5.19649115608185e-05,0.000311086822964384,2020-10-06
"239",119,0.000574825562554919,0.000257949661781789,5.17878104604682e-05,0.000313306686507694,2020-10-07
"240",119.5,0.000579424360015154,0.000258952356362489,5.16109847921553e-05,0.000315517672403655,2020-10-07
"241",120,0.000584003658227862,0.000259949978989397,5.14344369814977e-05,0.00031771904760468,2020-10-08
"242",120.5,0.000588561974269428,0.000260942407640487,5.12581694272169e-05,0.000319910071848322,2020-10-08
"243",121,0.000593097811578842,0.000262078926435101,5.10821845012164e-05,0.000322089998040029,2020-10-09
"244",121.5,0.00059760966075319,0.000262911194360464,5.09064845486609e-05,0.000324258072650925,2020-10-09
"245",122,0.000602096000372873,0.000263887307901886,5.07310718880562e-05,0.000326413536130465,2020-10-10
"246",122.5,0.000606555297856226,0.000264967527880343,5.05559488113316e-05,0.000328555623333779,2020-10-10
"247",123,0.00061098601034308,0.000266239936707575,5.03811175839232e-05,0.000330683563963502,2020-10-11
"248",123.5,0.000615386585606803,0.000267510513591547,5.02065804448584e-05,0.000332796583025831,2020-10-11
"249",124,0.000619755462994259,0.000268779138673353,5.00323396068415e-05,0.00033489390130055,2020-10-12
"250",124.5,0.000624091074393084,0.00027001860388988,4.98583972563415e-05,0.000336974735824713,2020-10-12
"251",125,0.000628391845225609,0.000271169772360321,4.968475555368e-05,0.000339038300389644,2020-10-13
"252",125.5,0.000632656195468676,0.000271920683070652,4.95114166331212e-05,0.000341083806050899,2020-10-13
"253",126,0.000636882540698578,0.000272879292651168,4.93383826029624e-05,0.00034311046165077,2020-10-14
"254",126.5,0.000641069293160232,0.000273837071789,4.91656555456268e-05,0.00034511747435293,2020-10-14
"255",127,0.000645214862859683,0.000274788615439475,4.89932375177561e-05,0.000347104050188719,2020-10-15
"256",127.5,0.000649317658678931,0.000276141410718304,4.88211305503049e-05,0.000349069394614618,2020-10-15
"257",128,0.000653376089512052,0.000276713750159171,4.86493366486367e-05,0.000351012713080344,2020-10-16
"258",128.5,0.000657388565421481,0.000277604624612879,4.84778577926202e-05,0.000352933211607051,2020-10-16
"259",129,0.0006613534988133,0.000278627587348066,4.83066959367271e-05,0.000354830097375013,2020-10-17
"260",129.5,0.000665269305630286,0.000279909916230917,4.81358530101306e-05,0.000356702579320208,2020-10-17
"261",130,0.000669134406561443,0.000281741628124804,4.79653309168056e-05,0.000358549868739125,2020-10-18
"262",130.5,0.000672947228266655,0.000283874731385397,4.77951315356293e-05,0.000360371179901142,2020-10-18
"263",131,0.000679552279656826,0.000285029044709903,4.7625256720483e-05,0.000363588768188655,2020-10-19
"264",131.5,0.00068654803510214,0.000286364550692846,4.74557083003549e-05,0.000367001871701248,2020-10-19
"265",132,0.000693545632286792,0.000287781114940976,4.72864880794437e-05,0.000370416060183118,2020-10-20
"266",132.5,0.000700542954255831,0.0002884205430907,4.71175978372636e-05,0.000373830276046547,2020-10-20
"267",133,0.000707537841572343,0.000288919851460362,4.69490393287494e-05,0.000377243440450546,2020-10-21
"268",133.5,0.000714528093034776,0.000289744213753899,4.67808142843635e-05,0.00038065445365957,2020-10-21
"269",134,0.000721511466461074,0.000290248515144931,4.66129244102026e-05,0.000384062195435639,2020-10-22
"270",134.5,0.000728485679540546,0.000290735902502774,4.64453713881064e-05,0.000387465525464326,2020-10-22
"271",135,0.000735448410754244,0.000291992131137462,4.62781568757661e-05,0.000390863283815005,2020-10-23
"272",135.5,0.000742397300364581,0.000293323649658679,4.61112825068346e-05,0.000394254291435708,2020-10-23
"273",136,0.000749329951474756,0.000294466886354067,4.59447498910371e-05,0.000397637350682897,2020-10-24
"274",136.5,0.000756243931158466,0.000296156052804922,4.5778560614282e-05,0.000401011245886374,2020-10-24
"275",137,0.000763136771660249,0.000297535716551749,4.56127162387734e-05,0.000404374743949511,2020-10-25
"276",137.5,0.000770005971666682,0.000298450214009618,4.54472183031238e-05,0.000407726594984903,2020-10-25
"277",138,0.000776848997648508,0.00029916163282665,4.52820683224676e-05,0.000411065532985488,2020-10-26
"278",138.5,0.000783663285273653,0.000300313635070601,4.51172677885753e-05,0.000414390276531114,2020-10-26
"279",139,0.000790446240890916,0.000301458631154865,4.49528181699684e-05,0.000417699529530442,2020-10-27
"280",139.5,0.000797195243084007,0.000302596463804996,4.47887209120349e-05,0.000420991981998021,2020-10-27
"281",140,0.000803907644295416,0.000303628546820369,4.46249774371457e-05,0.000424266310866281,2020-10-28
"282",140.5,0.00081058077251947,0.000304348188264537,4.4461589144771e-05,0.000427521180832121,2020-10-28
"283",141,0.000817211933063752,0.000304714087114481,4.42985574115977e-05,0.000430755245237675,2020-10-29
"284",141.5,0.000823798410377912,0.000304828076364848,4.41358835916476e-05,0.00043396714698478,2020-10-29
"285",142,0.000830337469948714,0.000305286856310466,4.39735690163959e-05,0.000437155519482555,2020-10-30
"286",142.5,0.000836826360260018,0.00030597794405157,4.38116149948899e-05,0.000440318987627454,2020-10-30
"287",143,0.000843262314816189,0.000306727248352559,4.36500228138687e-05,0.000443456168815029,2020-10-31
"288",143.5,0.0008496425542273,0.000308297663978936,4.34887937378834e-05,0.000446565673982591,2020-10-31
"289",144,0.000855964288354275,0.000309783996946773,4.33279290094176e-05,0.000449646108681846,2020-11-01
"290",144.5,0.000862224718511979,0.000311007655543884,4.31674298490081e-05,0.000452696074180494,2020-11-01
"291",145,0.000868421039728067,0.000310986771066545,4.30072974553669e-05,0.000455714168591717,2020-11-02
"292",145.5,0.000874550443055232,0.000311940657812549,4.28475330055024e-05,0.000458698988030367,2020-11-02
"293",146,0.000880610117934347,0.000312779029575631,4.26881376548424e-05,0.000461649127794595,2020-11-03
"294",146.5,0.000886597254605767,0.000313192681044204,4.25291125373564e-05,0.000464563183571562,2020-11-03
"295",147,0.000892509046565956,0.000313302292281667,4.23704587656786e-05,0.000467439752665818,2020-11-04
"296",147.5,0.000898342693066388,0.00031333955042416,4.22121774312317e-05,0.00047027743524881,2020-11-04
"297",148,0.000904095401651525,0.000313653674020489,4.20542696043504e-05,0.000473074835627938,2020-11-05
"298",148.5,0.00090976439073253,0.000314020204341576,4.18967363344058e-05,0.000475830563533468,2020-11-05
"299",149,0.000915346892193197,0.000314136373786019,4.17395786499295e-05,0.000478543235421563,2020-11-06
"300",149.5,0.000920840154024446,0.000314253986675642,4.15827975587385e-05,0.000481211475791592,2020-11-06
"301",150,0.000926241442983582,0.00031508128184739,4.14263940480605e-05,0.000483833918515821,2020-11-07
"302",150.5,0.000931548047274394,0.00031589881047466,4.12703690846588e-05,0.000486409208179526,2020-11-07
"303",151,0.000936757279244019,0.000316886471076341,4.11147236149581e-05,0.000488936001429489,2020-11-08
"304",151.5,0.000941866478092406,0.000317634843404726,4.09594585651702e-05,0.000491412968328788,2020-11-08
"305",152,0.000946873012590068,0.000318374092719635,4.080457484142e-05,0.000493838793715744,2020-11-09
"306",152.5,0.000951774283799745,0.000318865056321415,4.06500733298719e-05,0.000496212178564809,2020-11-09
"307",153,0.000956567727797482,0.000318621822708892,4.04959548968561e-05,0.000498531841347169,2020-11-10
"308",153.5,0.000961250818388539,0.000318487687401734,4.03422203889951e-05,0.000500796519388767,2020-11-10
"309",154,0.000965821069813515,0.000319815020116632,4.01888706333307e-05,0.000503004970223423,2020-11-11
"310",154.5,0.000970276039439954,0.000321496545255479,4.00359064374507e-05,0.000505155972938702,2020-11-11
"311",155,0.000974613330434702,0.000321700960720433,3.98833285896162e-05,0.000507248329512159,2020-11-12
"312",155.5,0.000978830594412203,0.000321287290475871,3.97311378588886e-05,0.000509280866135546,2020-11-12
"313",156,0.000982925534053941,0.000321256140471281,3.9579334995257e-05,0.000511252434524599,2020-11-13
"314",156.5,0.000986895905694172,0.000321472668328382,3.94279207297653e-05,0.000513161913211969,2020-11-13
"315",157,0.00099073952186714,0.00032185022769555,3.92768957746403e-05,0.00051500820882089,2020-11-14
"316",157.5,0.000994454253810955,0.000322845126845395,3.91262608234186e-05,0.000516790257317187,2020-11-14
"317",158,0.000998038033923337,0.000324144648252491,3.89760165510745e-05,0.000518507025237206,2020-11-15
"318",158.5,0.0010014888581645,0.000325436900443664,3.88261636141478e-05,0.000520157510889322,2020-11-15
"319",159,0.00100480478840244,0.000326721682675966,3.86767026508709e-05,0.000521740745526655,2020-11-16
"320",159.5,0.0010079839546961,0.000327595778112749,3.85276342812973e-05,0.000523255794488697,2020-11-16
"321",160,0.0010110245575117,0.000328811937403663,3.83789591074286e-05,0.000524701758309566,2020-11-17
"322",160.5,0.00101392486986801,0.000329927618775231,3.82306777133425e-05,0.000526077773790677,2020-11-17
"323",161,0.00101668323940598,0.000330681905821991,3.80827906653205e-05,0.00052738301503565,2020-11-18
"324",161.5,0.00101929809037872,0.00033172412967472,3.79352985119755e-05,0.00052861669444535,2020-11-18
"325",162,0.00102176792555765,0.000332773047632214,3.77882017843794e-05,0.000529778063671015,2020-11-19
"326",162.5,0.00102409132805084,0.000333161802361489,3.76415009961906e-05,0.000530866414523516,2020-11-19
"327",163,0.0010262669630299,0.000333479054408002,3.74951966437816e-05,0.000531881079836839,2020-11-20
"328",163.5,0.00102829357936166,0.00033372424613608,3.73492892063662e-05,0.000532821434284011,2020-11-20
"329",164,0.00103017001114137,0.000333646868352898,3.72037791461271e-05,0.000533686895143746,2020-11-21
"330",164.5,0.00103189517912406,0.000333011875171732,3.70586669083429e-05,0.000534476923016201,2020-11-21
"331",165,0.00103346809205114,0.000333387156241537,3.69139529215153e-05,0.000535191022486329,2020-11-22
"332",165.5,0.00103488784786937,0.000333750075949655,3.67696375974961e-05,0.000535828742733433,2020-11-22
"333",166,0.00103615363483961,0.000334100583689675,3.66257213316141e-05,0.000536389678085613,2020-11-23
"334",166.5,0.00103726473253311,0.00033465030416464,3.64822045028017e-05,0.000536873468517954,2020-11-23
"335",167,0.00103822051271302,0.000335378380633559,3.63390874737215e-05,0.000537279800093368,2020-11-24
"336",167.5,0.00103902044009947,0.000335705944844021,3.61963705908928e-05,0.000537608405345183,2020-11-24
"337",168,0.00103966407301649,0.000335397012861739,3.60540541848179e-05,0.000537859063600656,2020-11-25
"338",168.5,0.00104015106391936,0.000335046523640417,3.59121385701079e-05,0.000538031601244735,2020-11-25
"339",169,0.00104048115980144,0.000334945746707327,3.57706240456087e-05,0.000538125891923526,2020-11-26
"340",169.5,0.00104065420247956,0.000334864702372133,3.56295108945268e-05,0.000538141856687045,2020-11-26
"341",170,0.00104067012875739,0.000334769853069496,3.54887993845545e-05,0.000538079464070973,2020-11-27
"342",170.5,0.00104052897046656,0.000334661215599475,3.53484897679955e-05,0.000537938730117279,2020-11-27
"343",171,0.00104023085438547,0.000334793621413927,3.52085822818894e-05,0.000537719718333678,2020-11-28
"344",171.5,0.00103977600203602,0.000334530472930466,3.50690771481369e-05,0.000537422539592076,2020-11-28
"345",172,0.00103916472935885,0.000334252776141051,3.49299745736243e-05,0.00053704735196624,2020-11-29
"346",172.5,0.00103839744626783,0.000334089199223407,3.47912747503475e-05,0.00053659436050909,2020-11-29
"347",173,0.00103747465608477,0.000333911951985427,3.46529778555364e-05,0.000536063816970152,2020-11-30
"348",173.5,0.00103639695485583,0.000333579092831513,3.45150840517781e-05,0.000535456019453803,2020-11-30
"349",174,0.00103516503055109,0.000333184032060307,3.43775934871411e-05,0.000534771312019118,2020-12-01
"350",174.5,0.00103377966214911,0.000333139221704383,3.42405062952978e-05,0.000534010084222204,2020-12-01
"351",175,0.00103224171860851,0.000333045711463463,3.41038225956478e-05,0.000533172770602077,2020-12-02
"352",175.5,0.00103055215772898,0.000332821797962655,3.39675424934404e-05,0.00053225985011121,2020-12-02
"353",176,0.00102871202490416,0.000332563241695696,3.38316660798966e-05,0.000531271845492029,2020-12-03
"354",176.5,0.00102672245176914,0.000332291273102611,3.36961934323316e-05,0.000530209322600735,2020-12-03
"355",177,0.00102458465474558,0.000332005937683866,3.35611246142759e-05,0.000529072889679929,2020-12-04
"356",177.5,0.00102229993348764,0.000331707283056247,3.34264596755969e-05,0.00052786319658162,2020-12-04
"357",178,0.00101986966923199,0.000331461672145705,3.32921986526199e-05,0.000526580933942305,2020-12-05
"358",178.5,0.00101729532305552,0.000331620880862946,3.31583415682484e-05,0.000525226832311886,2020-12-05
"359",179,0.00101457843404446,0.000331827071249662,3.30248884320846e-05,0.00052380166123827,2020-12-06
"360",179.5,0.00101172061737866,0.000331591784861833,3.28918392405496e-05,0.000522306228309606,2020-12-06
"361",180,0.00100872356233528,0.000330865211864738,3.27591939770022e-05,0.000520741378156141,2020-12-07
"362",180.5,0.0010055890302157,0.000330213723933936,3.26269526118587e-05,0.000519107991413781,2020-12-07
"363",181,0.00100231885220029,0.000329550205641497,3.24951151027115e-05,0.0005174069836515,2020-12-08
"364",181.5,0.000998914927135051,0.000329006411111749,3.23636813944476e-05,0.000515639304264749,2020-12-08
"365",182,0.000995379219254913,0.000328721737980111,3.22326514193662e-05,0.000513805935337139,2020-12-09
"366",182.5,0.000991713755847982,0.000328423803920788,3.21020250972969e-05,0.000511907890472639,2020-12-09
"367",183,0.000987920624865512,0.00032811265903304,3.19718023357166e-05,0.000509946213600615,2020-12-10
"368",183.5,0.000984001972482187,0.000327788355495318,3.18419830298664e-05,0.000507921977756027,2020-12-10
"369",184,0.000979960000611452,0.000327442462142446,3.17125670628678e-05,0.00050583628383716,2020-12-11
"370",184.5,0.000975796964380616,0.000326518827671395,3.15835543058391e-05,0.000503690259343227,2020-12-11
"371",185,0.000971515169570478,0.000326409140547799,3.14549446180106e-05,0.000501485057094244,2020-12-12
"372",185.5,0.000967116970024219,0.000326068947393094,3.13267378468397e-05,0.000499221853935529,2020-12-12
"373",186,0.000962604765030301,0.000326033236674581,3.1198933828126e-05,0.000496901849429213,2020-12-13
"374",186.5,0.000957980996684081,0.000326012193841856,3.10715323861251e-05,0.000494526264535103,2020-12-13
"375",187,0.00095324814723282,0.00032597833236197,3.09445333336628e-05,0.000492096340283241,2020-12-14
"376",187.5,0.000948408736408713,0.00032658828301931,3.08179364722481e-05,0.00048961333644048,2020-12-14
"377",188,0.000943465318754504,0.000326916260135312,3.06917415921863e-05,0.000487078530173345,2020-12-15
"378",188.5,0.000938420480946194,0.000326390710192746,3.05659484726916e-05,0.000484493214709443,2020-12-15
"379",189,0.000933276839117252,0.000325854719097778,3.04405568819988e-05,0.000481858697999626,2020-12-16
"380",189.5,0.000928037036188664,0.000325622553459977,3.0315566577475e-05,0.000479176301383069,2020-12-16
"381",190,0.000922703739209038,0.000325648081358372,3.01909773057307e-05,0.000476447358257384,2020-12-17
"382",190.5,0.000917279636708909,0.000325661676297854,3.00667888027302e-05,0.00047367321275582,2020-12-17
"383",191,0.000911767436073214,0.000325748802716328,2.9943000793902e-05,0.000470855218433558,2020-12-18
"384",191.5,0.00090616986093585,0.000326074071048355,2.98196129942481e-05,0.000467994736965049,2020-12-18
"385",192,0.000900489648600047,0.000326138307117886,2.96966251084533e-05,0.00046509313685425,2020-12-19
"386",192.5,0.000894729547488168,0.000326187044800253,2.95740368309939e-05,0.000462151792159581,2020-12-19
"387",193,0.000888892314624411,0.000326223828726053,2.94518478462459e-05,0.000459172081235328,2020-12-20
"388",193.5,0.000882980713153733,0.000326178177200812,2.93300578285923e-05,0.000456155385491163,2020-12-20
"389",194,0.000876997509900155,0.000325297906797009,2.92086664425309e-05,0.000453103088171343,2020-12-21
"390",194.5,0.000870945472967468,0.000324164519262607,2.90876733427804e-05,0.000450016573155124,2020-12-21
"391",195,0.000864827369385183,0.00032302144332828,2.89670781743867e-05,0.000446897223779785,2020-12-22
"392",195.5,0.000858645962802414,0.000321968339593896,2.88468805728288e-05,0.000443746421687621,2020-12-22
"393",196,0.000852404011232219,0.000321166515081652,2.87270801641235e-05,0.000440565545698171,2020-12-23
"394",196.5,0.000846104264848745,0.000320842453786258,2.86076765649307e-05,0.000437355970706838,2020-12-23
"395",197,0.000839749463839367,0.000320286708880085,2.84886693826566e-05,0.000434119066611012,2020-12-24
"396",197.5,0.000833342336313849,0.000319623170211229,2.83700582155581e-05,0.000430856197264703,2020-12-24
"397",198,0.000826885596272353,0.000318950522341069,2.82518426528456e-05,0.000427568719462599,2020-12-25
"398",198.5,0.000820381941634003,0.000317961716561403,2.81340222747851e-05,0.000424257981954394,2020-12-25
"399",199,0.000813834052327506,0.000316546652322359,2.80165966528011e-05,0.000420925324490153,2020-12-26
"400",199.5,0.000807244588445169,0.000315125411005685,2.78995653495773e-05,0.000417572076897373,2020-12-26
"401",200,0.000803030781386856,0.000313698199797409,2.7782927919158e-05,0.000415406854653007,2020-12-27
"402",200.5,0.000800124587707425,0.000312370844829682,2.76666839070483e-05,0.000413895635807237,2020-12-27
"403",201,0.000797142007643525,0.000311709412530108,2.75508328503141e-05,0.000412346420246919,2020-12-28
"404",201.5,0.000794084317530322,0.000311276369566456,2.74353742776815e-05,0.000410759845904002,2020-12-28
"405",202,0.000790952817306461,0.000310833046791276,2.73203077096355e-05,0.000409136562508048,2020-12-29
"406",202.5,0.000787748829395472,0.000310307346199088,2.72056326585185e-05,0.000407477231026995,2020-12-29
"407",203,0.000784473697578693,0.00030932799092906,2.70913486286275e-05,0.00040578252310366,2020-12-30
"408",203.5,0.000781128785861232,0.000308340523744719,2.6977455116312e-05,0.000404053120488772,2020-12-30
"409",204,0.000777715477332534,0.000307145056454601,2.68639516100702e-05,0.000402289714471302,2020-12-31
"410",204.5,0.000774235173023052,0.00030585417878676,2.67508375906451e-05,0.000400493005306849,2020-12-31
"411",205,0.000770689290758542,0.000304435803162941,2.66381125311203e-05,0.000398663701644831,2021-01-01
"412",205.5,0.000767079264013458,0.000303864781973581,2.65257758970148e-05,0.000396802519955236,2021-01-01
"413",206,0.000763406540764908,0.000303075353505314,2.64138271463775e-05,0.000394910183955643,2021-01-02
"414",206.5,0.00075967258234861,0.00030217892623711,2.63022657298812e-05,0.000392987424039246,2021-01-02
"415",207,0.000755878862318246,0.000301427784481084,2.61910910909157e-05,0.000391034976704581,2021-01-03
"416",207.5,0.000756188330887014,0.000300666889329803,2.6080302665681e-05,0.000391134316776347,2021-01-03
"417",208,0.000757408096458126,0.000299859397784358,2.5969899883279e-05,0.000391688998170702,2021-01-04
"418",208.5,0.000758573986383795,0.000298311418254943,2.58598821658058e-05,0.000392216934274801,2021-01-04
"419",209,0.000759685674264455,0.000296759395909695,2.57502489284423e-05,0.000392717961596449,2021-01-05
"420",209.5,0.00076074284897649,0.000295203544269622,2.56409995795452e-05,0.000393191924278018,2021-01-05
"421",210,0.000761745214858663,0.000293644075249455,2.55321335207366e-05,0.0003936386741897,2021-01-06
"422",210.5,0.000762692491889352,0.000292081199116007,2.5423650146994e-05,0.000394058071018173,2021-01-06
"423",211,0.000763584415854396,0.000290658757521995,2.53155488467385e-05,0.000394449982350567,2021-01-07
"424",211.5,0.000764420738505392,0.000289362722339765,2.52078290019239e-05,0.000394814283753658,2021-01-07
"425",212,0.00076520122770827,0.00028806269285259,2.51004899881238e-05,0.000395150858848197,2021-01-08
"426",212.5,0.000765925667581991,0.000286758820267672,2.49935311746195e-05,0.000395459599378305,2021-01-08
"427",213,0.000766593858627229,0.000285451255006071,2.48869519244861e-05,0.000395740405275857,2021-01-09
"428",213.5,0.000767205617844904,0.000284140146674982,2.47807515946788e-05,0.000395993184719791,2021-01-09
"429",214,0.00076776077884444,0.000282825644040638,2.46749295361186e-05,0.000396217854190279,2021-01-10
"430",214.5,0.000768259191941642,0.000281507895001859,2.45694850937772e-05,0.00039641433851771,2021-01-10
"431",215,0.000768700724246081,0.000280162438483682,2.44644176067613e-05,0.000396582570926421,2021-01-11
"432",215.5,0.000769085259737917,0.000278672987856577,2.43597264083968e-05,0.000396722493073157,2021-01-11
"433",216,0.000769412699334058,0.000277246983590746,2.42554108263115e-05,0.000396834055080185,2021-01-12
"434",216.5,0.000769682960943615,0.000275953934308081,2.41514701825187e-05,0.000396917215563067,2021-01-12
"435",217,0.000769895979512578,0.000274736970528429,2.40479037934987e-05,0.000396971941653038,2021-01-13
"436",217.5,0.000770051707057683,0.000273717009918149,2.39447109702807e-05,0.000396998209013982,2021-01-13
"437",218,0.000770150112689432,0.000272620241715623,2.38418910185239e-05,0.000396996001853978,2021-01-14
"438",218.5,0.00077019118262425,0.000271483576207326,2.37394432385982e-05,0.000396965312931424,2021-01-14
"439",219,0.000770174920185778,0.000270439405107426,2.36373669256636e-05,0.000396906143555721,2021-01-15
"440",219.5,0.000770101345795295,0.000269559874495437,2.35356613697503e-05,0.000396818503582522,2021-01-15
"441",220,0.000769970496951293,0.000268530201518353,2.34343258558369e-05,0.000396702411403565,2021-01-16
"442",220.5,0.000769782428198238,0.000267476366076193,2.33333596639293e-05,0.000396557893931084,2021-01-16
"443",221,0.000769537211084544,0.000266417347706276,2.32327620691381e-05,0.000396384986576841,2021-01-17
"444",221.5,0.000769234934109826,0.000265353278107852,2.31325323417558e-05,0.000396183733225791,2021-01-17
"445",222,0.000768875702661488,0.000264284288707098,2.30326697473335e-05,0.000395954186204411,2021-01-18
"446",222.5,0.000768459638940725,0.000262867091828677,2.2933173546757e-05,0.000395696406243741,2021-01-18
"447",223,0.000767986881878018,0.000261872660286048,2.28340429963223e-05,0.00039541046243717,2021-01-19
"448",223.5,0.000767457587038231,0.000260420614449447,2.27352773478106e-05,0.000395096432193021,2021-01-19
"449",224,0.000766871926515412,0.000258967915348525,2.26368758485626e-05,0.000394754401181987,2021-01-20
"450",224.5,0.000766230088817411,0.000257764870923155,2.25388377415528e-05,0.000394384463279482,2021-01-20
"451",225,0.00076553227874047,0.000256713644258802,2.24411622654622e-05,0.000393986720502966,2021-01-21
"452",225.5,0.000764778717233884,0.000255344595717237,2.23438486547517e-05,0.000393561282944318,2021-01-21
"453",226,0.000763969641254931,0.000253973977586005,2.22468961397338e-05,0.000393108268697333,2021-01-22
"454",226.5,0.000763105303614196,0.000252139808409458,2.21503039466448e-05,0.00039262780378042,2021-01-22
"455",227,0.000762185972811472,0.000249989961354014,2.20540712977156e-05,0.000392120022054594,2021-01-23
"456",227.5,0.000761211932862424,0.000248459260575792,2.19581974112425e-05,0.000391585065136833,2021-01-23
"457",228,0.000760183483116195,0.00024693086629975,2.18626815016571e-05,0.000391023082308926,2021-01-24
"458",228.5,0.000759100938064156,0.000245354775113655,2.1767522779596e-05,0.000390434230421876,2021-01-24
"459",229,0.000757964627140003,0.000244315547280829,2.16727204519698e-05,0.000389818673795987,2021-01-25
"460",229.5,0.000756774894511421,0.000243137329364357,2.15782737220313e-05,0.000389176584116726,2021-01-25
"461",230,0.000755532098863529,0.00024191516137237,2.14841817894438e-05,0.000388508140326486,2021-01-26
"462",230.5,0.000754236613174345,0.00024069258402335,2.13904438503482e-05,0.000387813528512346,2021-01-26
"463",231,0.000752888824482497,0.000239469698915172,2.129705909743e-05,0.000387092941789963,2021-01-27
"464",231.5,0.000751489133647428,0.000238366566614644,2.12040267199854e-05,0.000386346580183707,2021-01-27
"465",232,0.000750037955102349,0.000237400683401642,2.11113459039874e-05,0.000385574650503168,2021-01-28
"466",232.5,0.000748535716600184,0.000236077366901019,2.1019015832151e-05,0.000384777366216168,2021-01-28
"467",233,0.000746982858952776,0.000234855008901417,2.09270356839977e-05,0.000383954947318387,2021-01-29
"468",233.5,0.000745379835763623,0.000233907858779531,2.083540463592e-05,0.000383107620199771,2021-01-29
"469",234,0.000743727113154398,0.00023295827404668,2.07441218612449e-05,0.000382235617507822,2021-01-30
"470",234.5,0.000742025169485555,0.000232006342178141,2.06531865302972e-05,0.000381339178007926,2021-01-30
"471",235,0.000740274495071268,0.000231052150190129,2.05625978104621e-05,0.000380418546440865,2021-01-31
"472",235.5,0.00073847559188901,0.000229612992374109,2.04723548662471e-05,0.000379473973377629,2021-01-31
"473",236,0.000736628973284048,0.000228785171630589,2.03824568593442e-05,0.000378505715071696,2021-02-01
"474",236.5,0.00073473516366914,0.000227850842722792,2.02929029486904e-05,0.000377514033308915,2021-02-01
"475",237,0.000732794698219727,0.000226974076639253,2.02036922905284e-05,0.000376499195255128,2021-02-02
"476",237.5,0.000730808122564914,0.000226110164099681,2.01148240384672e-05,0.00037546147330169,2021-02-02
"477",238,0.000728775992474524,0.000225007750014737,2.00262973435408e-05,0.000374401144909032,2021-02-03
"478",238.5,0.000726698873542539,0.000223906353019309,1.99381113542681e-05,0.000373318492448403,2021-02-03
"479",239,0.000724577340867195,0.000222836887393476,1.98502652167108e-05,0.000372213803041953,2021-02-04
"480",239.5,0.000722411978728056,0.000221734872396005,1.97627580745319e-05,0.000371087368401294,2021-02-04
"481",240,0.00072020338026034,0.000220338119147746,1.96755890690531e-05,0.000369939484664697,2021-02-05
"482",240.5,0.000717952147126799,0.000218943992939506,1.95887573393115e-05,0.000368770452233055,2021-02-05
"483",241,0.000715658889187454,0.000217428826658453,1.9502262022117e-05,0.000367580575604786,2021-02-06
"484",241.5,0.000713324224167464,0.000215876665262056,1.94161022521073e-05,0.000366370163209786,2021-02-06
"485",242,0.000710948777323428,0.000214691564509688,1.93302771618044e-05,0.000365139527242616,2021-02-07
"486",242.5,0.000708533181108412,0.000213569739380188,1.92447858816691e-05,0.000363888983495041,2021-02-07
"487",243,0.000706078074835974,0.000212402276137156,1.91596275401557e-05,0.000362618851188065,2021-02-08
"488",243.5,0.000703584104343484,0.000211307752498651,1.90748012637662e-05,0.000361329452803625,2021-02-08
"489",244,0.000701051921655017,0.000210532097978603,1.89903061771038e-05,0.00036002111391606,2021-02-09
"490",244.5,0.000698482184644085,0.000209497805306262,1.89061414029262e-05,0.000358694163023505,2021-02-09
"491",245,0.000695875556696498,0.000208279022217941,1.8822306062198e-05,0.000357348931379348,2021-02-10
"492",245.5,0.000693232706373614,0.00020706254685484,1.8738799274143e-05,0.000355985752823878,2021-02-10
"493",246,0.000690554307076241,0.000205973056862067,1.8655620156296e-05,0.000354604963616268,2021-02-11
"494",246.5,0.00068784103670946,0.000204907986092339,1.85727678245536e-05,0.000353206902267007,2021-02-11
"495",247,0.000685093577348619,0.000203998941050328,1.84902413932255e-05,0.000351791909370922,2021-02-12
"496",247.5,0.000682312614906751,0.000203313054281057,1.84080399750845e-05,0.000350360327440918,2021-02-12
"497",248,0.00067949883880366,0.000202392019603031,1.8326162681416e-05,0.000348912500742538,2021-02-13
"498",248.5,0.000676652941636916,0.000200873635731302,1.8244608622068e-05,0.000347448775129492,2021-02-13
"499",249,0.000673775618854999,0.000199217668191793,1.81633769054995e-05,0.000345969497880249,2021-02-14
"500",249.5,0.000670867568432808,0.000197991460950575,1.80824666388288e-05,0.000344475017535818,2021-02-14
"501",250,0.000667929490549769,0.00019682904284078,1.8001876927882e-05,0.000342965683738825,2021-02-15
"502",250.5,0.000664962087270753,0.000195917904275516,1.792160687724e-05,0.000341441847073997,2021-02-15
"503",251,0.000661966062230018,0.000194979050451362,1.78416555902857e-05,0.000339903858910152,2021-02-16
"504",251.5,0.000658942120318366,0.000193544301415381,1.77620221692508e-05,0.000338352071243808,2021-02-16
"505",252,0.000655890967373732,0.000191947396220362,1.76827057152615e-05,0.000336786836544497,2021-02-17
"506",252.5,0.000652813309875375,0.000190576178650011,1.76037053283845e-05,0.00033520850760188,2021-02-17
"507",253,0.000649709854641863,0.00018924847307222,1.75250201076723e-05,0.000333617437374768,2021-02-18
"508",253.5,0.00064658130853303,0.000187522392858541,1.74466491512078e-05,0.000332013978842119,2021-02-18
"509",254,0.000643428378156066,0.00018607043202049,1.73685915561488e-05,0.000330398484856107,2021-02-19
"510",254.5,0.000640251769575908,0.000184802049192149,1.72908464187717e-05,0.00032877130799734,2021-02-19
"511",255,0.000637052188030085,0.000183746498044754,1.72134128345154e-05,0.0003271328004323,2021-02-20
"512",255.5,0.000633830337648157,0.000182970050678054,1.7136289898024e-05,0.00032548331377309,2021-02-20
"513",256,0.000630586921175897,0.000182193777718715,1.70594767031896e-05,0.000323823198939543,2021-02-21
"514",256.5,0.000627322639704348,0.000181090391201316,1.69829723431943e-05,0.000322152806023771,2021-02-21
"515",257,0.000624038192403871,0.000179399619540437,1.69067759105523e-05,0.000320472484157212,2021-02-22
"516",257.5,0.000620734276263308,0.000177722168045157,1.68308864971509e-05,0.00031878258138023,2021-02-22
"517",258,0.000617411585834372,0.000175903744800894,1.67553031942916e-05,0.000317083444514332,2021-02-23
"518",258.5,0.00061407081298136,0.000174593960666446,1.66800250927306e-05,0.000315375419037045,2021-02-23
"519",259,0.000610712646636298,0.000173350257543046,1.66050512827189e-05,0.000313658848959509,2021-02-24
"520",259.5,0.000607337772559587,0.000171471756926986,1.65303808540419e-05,0.000311934076706814,2021-02-24
"521",260,0.000603946873106247,0.00016961368222035,1.64560128960586e-05,0.000310201443001153,2021-02-25
"522",260.5,0.000600540626997832,0.000168423988558056,1.63819464977407e-05,0.000308461286747787,2021-02-25
"523",261,0.000597119709100075,0.000167598010456871,1.63081807477107e-05,0.000306713944923893,2021-02-26
"524",261.5,0.000593684790206328,0.000166856419760742,1.62347147342804e-05,0.000304959752470304,2021-02-26
"525",262,0.000590236536826854,0.000166099131362139,1.61615475454879e-05,0.000303199042186171,2021-02-27
"526",262.5,0.00058677561098401,0.000165002697746313,1.60886782691354e-05,0.000301432144626573,2021-02-27
"527",263,0.000583302670013372,0.000164123729663575,1.60161059928259e-05,0.000299659388003099,2021-02-28
"528",263.5,0.000579818366370822,0.000163345330943956,1.59438298039993e-05,0.00029788109808741,2021-02-28
"529",264,0.000576323347445631,0.00016225823664608,1.5871848789969e-05,0.0002960975981178,2021-03-01
"530",264.5,0.000572818255379569,0.000160972247341575,1.58001620379572e-05,0.000294309208708763,2021-03-01
"531",265,0.000569303726892034,0.000159693123504159,1.572876863513e-05,0.000292516247763582,2021-03-02
"532",265.5,0.000565780393111228,0.000158420897323271,1.56576676686329e-05,0.00029071903038993,2021-03-02
"533",266,0.000562248879411374,0.000157284612897897,1.55868582256247e-05,0.000288917868818499,2021-03-03
"534",266.5,0.000558709805255974,0.000156435263261364,1.55163393933119e-05,0.000287113072324643,2021-03-03
"535",267,0.0005551637840471,0.00015558746817824,1.54461102589824e-05,0.000285304947153041,2021-03-04
"536",267.5,0.000551611422980695,0.000154439291654872,1.53761699100389e-05,0.000283493796445367,2021-03-04
"537",268,0.000548053322907884,0.000152959159103846,1.53065174340318e-05,0.000281679920170958,2021-03-05
"538",268.5,0.000544490078202243,0.000151885012136706,1.52371519186918e-05,0.000279863615060467,2021-03-05
"539",269,0.00054092227663303,0.000150858035424008,1.51680724519625e-05,0.000278045174542496,2021-03-06
"540",269.5,0.000537350499244309,0.000149836442552757,1.50992781220316e-05,0.00027622488868317,2021-03-06
"541",270,0.000533775320239958,0.0001489201372986,1.50307680173633e-05,0.000274403044128661,2021-03-07
"542",270.5,0.000530197306874494,0.000148334502815967,1.49625412267287e-05,0.000272579924050611,2021-03-07
"543",271,0.000526617019349687,0.00014755859370411,1.48945968392369e-05,0.000270755808094462,2021-03-08
"544",271.5,0.000523035010716897,0.000146374436723572,1.48269339443656e-05,0.000268930972330631,2021-03-08
"545",272,0.000519451826785086,0.000145162960641903,1.47595516319909e-05,0.000267105689208539,2021-03-09
"546",272.5,0.00051586800603444,0.000144087622554485,1.46924489924173e-05,0.000265280227513428,2021-03-09
"547",273,0.000512284079535543,0.000143386676055194,1.46256251164069e-05,0.000263454852325975,2021-03-10
"548",273.5,0.000508700570874036,0.000142686973239693,1.45590790952086e-05,0.000261629824984622,2021-03-10
"549",274,0.000505117996080688,0.00014198854202964,1.44928100205865e-05,0.000259805403050637,2021-03-11
"550",274.5,0.000501536863566804,0.000140911630381795,1.44268169848486e-05,0.000257981840275826,2021-03-11
"551",275,0.000497957674064904,0.000139854916998839,1.43610990808749e-05,0.000256159386572889,2021-03-12
"552",275.5,0.000494380920574586,0.000138788548685558,1.42956554021445e-05,0.000254338287988365,2021-03-12
"553",276,0.00049080708831349,0.000137448156599785,1.42304850427635e-05,0.000252518786678127,2021-03-13
"554",276.5,0.000487236654673289,0.000136429153593612,1.41655870974919e-05,0.00025070112088539,2021-03-13
"555",277,0.000483670089180611,0.000135791772357477,1.41009606617699e-05,0.00024888552492119,2021-03-14
"556",277.5,0.000480107853462813,0.000135155815673892,1.40366048317449e-05,0.000247072229147279,2021-03-14
"557",278,0.000476550401218505,0.000134521303209013,1.39725187042971e-05,0.000245261459961401,2021-03-15
"558",278.5,0.000472998178192749,0.000133888254246972,1.39087013770651e-05,0.000243453439784907,2021-03-15
"559",279,0.000469451622156819,0.000133256687692959,1.38451519484716e-05,0.000241648387052645,2021-03-16
"560",279.5,0.00046591116289245,0.000132342047512006,1.37818695177484e-05,0.000239846516205099,2021-03-16
"561",280,0.000462377222180458,0.000131304393309523,1.37188531849609e-05,0.00023804803768271,2021-03-17
"562",280.5,0.000458850213793651,0.00013027293608052,1.36561020510331e-05,0.000236253157922342,2021-03-17
"563",281,0.000455330543493919,0.00012924767370916,1.35936152177708e-05,0.000234462079355845,2021-03-18
"564",281.5,0.000451818609033411,0.000128228603339205,1.35313917878863e-05,0.000232675000410649,2021-03-18
"565",282,0.000448314800159704,0.00012721572138811,1.34694308650215e-05,0.000230892115512363,2021-03-19
"566",282.5,0.000444819498624842,0.000126150015975196,1.34077315537713e-05,0.000229113615089307,2021-03-19
"567",283,0.000441333078198176,0.000124958078658843,1.3346292959706e-05,0.000227339685578941,2021-03-20
"568",283.5,0.00043785590468287,0.000123934329664981,1.32851141893945e-05,0.000225570509436132,2021-03-20
"569",284,0.000434388335935992,0.000122917749672489,1.32241943504264e-05,0.000223806265143209,2021-03-21
"570",284.5,0.000430930721892084,0.000122056649376158,1.31635325514338e-05,0.000222047127221759,2021-03-21
"571",285,0.000427483404590105,0.000121248885631816,1.31031279021134e-05,0.000220293266246109,2021-03-22
"572",285.5,0.00042404671820364,0.000120296803196875,1.30429795132475e-05,0.000218544848858444,2021-03-22
"573",286,0.000420620989074292,0.000119272708259217,1.29830864967253e-05,0.000216802037785509,2021-03-23
"574",286.5,0.000417206535748129,0.000118276742817462,1.2923447965564e-05,0.000215064991856846,2021-03-23
"575",287,0.000413803669015104,0.000117327269804549,1.2864063033929e-05,0.000213333866024517,2021-03-24
"576",287.5,0.000410412691951345,0.000116306536204599,1.28049308171542e-05,0.000211608811384249,2021-03-24
"577",288,0.000407033899964198,0.000115440818238047,1.27460504317623e-05,0.00020988997519798,2021-03-25
"578",288.5,0.000403667580839949,0.00011460792613456,1.26874209954843e-05,0.000208177500917717,2021-03-25
"579",289,0.000400314014794103,0.000113889324837539,1.2629041627279e-05,0.000206471528210691,2021-03-26
"580",289.5,0.000396973474524133,0.000113366071742296,1.25709114473519e-05,0.000204772192985743,2021-03-26
"581",290,0.000393646225264604,0.000112734989192157,1.25130295771747e-05,0.000203079627420889,2021-03-27
"582",290.5,0.000390332524844559,0.000112096565345565,1.24553951395034e-05,0.000201393959992031,2021-03-27
"583",291,0.0003870326237471,0.00011129945853704,1.2398007258397e-05,0.000199715315502749,2021-03-28
"584",291.5,0.000383746765171037,0.000110336386454682,1.23408650592351e-05,0.000198043815115136,2021-03-28
"585",292,0.000380475185094535,0.000109199752422375,1.22839676687366e-05,0.000196379576381636,2021-03-29
"586",292.5,0.00037721811234066,0.000108073130221455,1.22273142149763e-05,0.000194722713277818,2021-03-29
"587",293,0.000373975768644725,0.000106956469226968,1.2170903827403e-05,0.000193073336236064,2021-03-30
"588",293.5,0.000370748368723363,0.000105871748333777,1.21147356368562e-05,0.000191431552180109,2021-03-30
"589",294,0.00036753612034522,0.000104970743120889,1.20588087755827e-05,0.000189797464560402,2021-03-31
"590",294.5,0.000364339224403198,0.000104226176807896,1.20031223772538e-05,0.000188171173390226,2021-03-31
"591",295,0.000361157874988144,0.000103463510592505,1.1947675576981e-05,0.000186552775282563,2021-04-01
"592",295.5,0.000358363707145359,0.000102630228337822,1.18924675113324e-05,0.000185128087328346,2021-04-01
"593",296,0.000355828631605568,0.000101802518970419,1.18374973183483e-05,0.000183833064461958,2021-04-02
"594",296.5,0.000353298009841483,0.000101139670941277,1.17827641375569e-05,0.00018254038698952,2021-04-02
