"","time","top","med","bottom","pseudo_med","date"
"1",0,0.00694059750490564,0.00136210966280787,5.37603751725898e-05,0.00349717894003911,2020-06-10
"2",0.5,0.00656612218473262,0.00132832301063137,8.52753186731628e-05,0.00332569875170289,2020-06-10
"3",1,0.00621300300005428,0.00128483251317468,0.000114598236808106,0.00316380061843119,2020-06-11
"4",1.5,0.00588003471095402,0.00127757394751229,0.000141864661811033,0.00301094968638252,2020-06-11
"5",2,0.00556608022127748,0.00124734323973228,0.000149738129248591,0.00285790917526304,2020-06-12
"6",2.5,0.00527006672692758,0.00121361814608707,0.000154380494500582,0.00271222361071408,2020-06-12
"7",3,0.00499098208187696,0.0011771000496058,0.000155323066821609,0.00257315257434928,2020-06-13
"8",3.5,0.00472787136959152,0.0011471275194646,0.000152085635198205,0.00243997850239486,2020-06-13
"9",4,0.00447983366825397,0.00112691329783804,0.000149039030248975,0.00231443634925147,2020-06-14
"10",4.5,0.00426173457216659,0.00111451833460973,0.00014617453762973,0.00220395455489816,2020-06-14
"11",5,0.0041168625662768,0.00109395958182637,0.000143483859037149,0.00213017321265697,2020-06-15
"12",5.5,0.00397779944807205,0.00107079029672566,0.000140959092507069,0.00205937927028956,2020-06-15
"13",6,0.00384430921076325,0.00103732887727711,0.000138592713647014,0.00199145096220513,2020-06-16
"14",6.5,0.00379151663533414,0.00101873666621343,0.000136377557758684,0.00196394709654641,2020-06-16
"15",7,0.00374311373159812,0.000993487292585419,0.000134306802808187,0.00193871026720315,2020-06-17
"16",7.5,0.00369568386643816,0.000966354094877766,0.00013237395320385,0.001914028909821,2020-06-17
"17",8,0.00364920014121003,0.000947045304159854,0.000130572824343293,0.00188988648277666,2020-06-18
"18",8.5,0.00360363647547667,0.00092623453119384,0.000128897527893319,0.001866267001685,2020-06-18
"19",9,0.00355896758194127,0.000900586020876002,0.000127108554294627,0.00184303806811795,2020-06-19
"20",9.5,0.00351516894214105,0.000868620992569935,0.000124802682789684,0.00181998581246537,2020-06-19
"21",10,0.00347221678287884,0.000844896627830526,0.000122593743464055,0.00179740526317145,2020-06-20
"22",10.5,0.00343008805337021,0.000831163234626828,0.000120475599873447,0.00177528182662183,2020-06-20
"23",11,0.00338876040308456,0.000809164794479369,0.000118442536737923,0.00175360146991124,2020-06-21
"24",11.5,0.00334821216025932,0.000790059945073339,0.000116489230703647,0.00173235069548148,2020-06-21
"25",12,0.00330842231106697,0.000771689191287163,0.000114610723137302,0.00171151651710214,2020-06-22
"26",12.5,0.00326937047941516,0.000757788147713596,0.00011280239481186,0.00169108643711351,2020-06-22
"27",13,0.00323103690736092,0.000738461552959569,0.000111059942352174,0.00167104842485655,2020-06-23
"28",13.5,0.00319340243612036,0.000719846890885728,0.000109379356318057,0.00165139089621921,2020-06-23
"29",14,0.00315644848765601,0.00069768779411455,0.000107756900810969,0.00163210269423349,2020-06-24
"30",14.5,0.00312015704682433,0.000694427276986726,0.000106189094498389,0.00161317307066136,2020-06-24
"31",15,0.00308451064406648,0.000679023164190668,0.000104672692957285,0.00159459166851188,2020-06-25
"32",15.5,0.003049492338626,0.00065873578278839,0.000103204672244985,0.00157634850543549,2020-06-25
"33",16,0.00301508570227757,0.000646505686748589,9.96090615901014e-05,0.00155734738193384,2020-06-26
"34",16.5,0.00298127480355125,0.000634598578522261,9.46243927704159e-05,0.00153794959816083,2020-06-26
"35",17,0.00294804419243744,0.000621936638824432,9.00116957521028e-05,0.00151902794409477,2020-06-27
"36",17.5,0.00291537888555803,0.000617208884898676,8.57455858264982e-05,0.00150056223569226,2020-06-27
"37",18,0.00288326435178951,0.000616309684938529,8.18024413237082e-05,0.00148253339655661,2020-06-28
"38",18.5,0.00285168649832464,0.0006106596908729,7.81602815952273e-05,0.00146492338995993,2020-06-28
"39",19,0.0028206316571592,0.000605507260735808,7.47986534470385e-05,0.00144771515530312,2020-06-29
"40",19.5,0.00279008657199125,0.000600718264175391,7.16985254380232e-05,0.00143089254871463,2020-06-29
"41",20,0.0027683282371563,0.000598768419487856,6.88421894990286e-05,0.00141858521332766,2020-06-30
"42",20.5,0.00279729301554798,0.000596390812716238,6.62131693656597e-05,0.00143175309245682,2020-06-30
"43",21,0.00282571848975099,0.000590531388602304,6.37961353529651e-05,0.00144475731255198,2020-07-01
"44",21.5,0.00285361576135693,0.000580299448685128,6.15768250328624e-05,0.0014575962931949,2020-07-01
"45",22,0.00288099564461217,0.000565991517095753,5.95419694055557e-05,0.00147026880700886,2020-07-02
"46",22.5,0.00290786867360643,0.000560368867059747,5.76792241845089e-05,0.00148277394889547,2020-07-02
"47",23,0.00293424510928868,0.000549096256014001,5.59771058408772e-05,0.00149511110756478,2020-07-03
"48",23.5,0.0029601349463144,0.000538756388706665,5.44249320778255e-05,0.00150727993919611,2020-07-03
"49",24,0.00298554791972845,0.0005311935362821,5.30127664279801e-05,0.00151928034307821,2020-07-04
"50",24.5,0.00301049351148749,0.000525997296299937,5.17313666885068e-05,0.001531112439088,2020-07-04
"51",25,0.00303498095682583,0.000518001906713708,5.05721369280773e-05,0.00154277654687695,2020-07-05
"52",25.5,0.00305901925046852,0.000512319995855479,4.95270828183866e-05,0.00155427316664346,2020-07-05
"53",26,0.00308261715269547,0.000506528234938206,4.85887700600163e-05,0.00156560296137774,2020-07-06
"54",26.5,0.00310578319526003,0.000500857019012793,4.77502856883761e-05,0.0015767667404742,2020-07-06
"55",27,0.00312852568716584,0.000490084507008357,4.70052020602947e-05,0.00158776544461307,2020-07-07
"56",27.5,0.00315085272030509,0.000481835871812995,4.63475433356443e-05,0.00159860013182037,2020-07-07
"57",28,0.00317277217496175,0.000475650772447669,4.57717542812316e-05,0.00160927196462149,2020-07-08
"58",28.5,0.00319429172518299,0.000469406476062489,4.52726712361584e-05,0.00161978219820957,2020-07-08
"59",29,0.00321541884402192,0.000461186368042398,4.48454950889829e-05,0.00163013216955545,2020-07-09
"60",29.5,0.00323616080865491,0.000457050243589607,4.44857661273854e-05,0.00164032328739115,2020-07-09
"61",30,0.00325652470537631,0.000455543930542742,4.418934063068e-05,0.0016503570230035,2020-07-10
"62",30.5,0.00327651743447374,0.000448268233311378,4.39523690844995e-05,0.00166023490177912,2020-07-10
"63",31,0.00329614571498672,0.000442545023114339,4.37712759053334e-05,0.00166995849544602,2020-07-11
"64",31.5,0.00331541608935147,0.000433928694732296,4.36427405703781e-05,0.00167952941496092,2020-07-11
"65",32,0.0033343349279347,0.00043341701195659,4.3563680055398e-05,0.00168894930399505,2020-07-12
"66",32.5,0.00335290843345892,0.000432072432246033,4.35312324900344e-05,0.00169821983297448,2020-07-12
"67",33,0.00337114264532205,0.000430418225691465,4.35427419462698e-05,0.00170734269363416,2020-07-13
"68",33.5,0.00338904344381375,0.000429140200867338,4.35957442815936e-05,0.00171631959404767,2020-07-13
"69",34,0.00340661655423103,0.000425692506894625,4.36879539638471e-05,0.00172515225409744,2020-07-14
"70",34.5,0.00342386755089552,0.000426114566613282,4.38172518097838e-05,0.00173384240135265,2020-07-14
"71",35,0.00344080186107477,0.000420975597194789,4.39816735740853e-05,0.00174239176732443,2020-07-15
"72",35.5,0.00345742476880992,0.000421865289233014,4.41793993299566e-05,0.00175080208406994,2020-07-15
"73",36,0.00347374141865191,0.00042089582208208,4.44087435864997e-05,0.0017590750811192,2020-07-16
"74",36.5,0.00348975681930851,0.000416672651696515,4.46681460918611e-05,0.00176721248270018,2020-07-16
"75",37,0.00350547584720424,0.000414752281685261,4.49561632746783e-05,0.00177521600523946,2020-07-17
"76",37.5,0.00352090324995531,0.000410643351223341,4.45982935456596e-05,0.00178275077175049,2020-07-17
"77",38,0.00353604364976154,0.000409888048672639,4.21981070779334e-05,0.00178912087841974,2020-07-18
"78",38.5,0.00355090154671734,0.000407208064764033,3.99254075579829e-05,0.00179541347713766,2020-07-18
"79",39,0.00356548132204361,0.000399438016978273,3.77735550714638e-05,0.00180162743855754,2020-07-19
"80",39.5,0.00357978724124246,0.000397620949804108,3.57362451222254e-05,0.00180776174318235,2020-07-19
"81",40,0.00359382345717663,0.000394554682282145,3.38074925280691e-05,0.00181381547485235,2020-07-20
"82",40.5,0.00360759401307528,0.000389281119791894,3.19816160198966e-05,0.00181978781454759,2020-07-20
"83",41,0.0036211028454681,0.000385886038121484,3.02532235196328e-05,0.00182567803449387,2020-07-21
"84",41.5,0.00363435378704922,0.000386696450878877,2.86171980725833e-05,0.0018314854925609,2020-07-21
"85",42,0.00364735056947275,0.000387716672563358,2.70686844102275e-05,0.00183720962694149,2020-07-22
"86",42.5,0.0036600968260815,0.000388069809840621,2.56030761198476e-05,0.00184284995110067,2020-07-22
"87",43,0.00367259609457041,0.000387331873530989,2.42160033978414e-05,0.00184840604898413,2020-07-23
"88",43.5,0.0036848518195864,0.000388351604943091,2.2903321364053e-05,0.00185387757047522,2020-07-23
"89",44,0.00369686735526591,0.000389692417465744,2.16610989149785e-05,0.00185926422709045,2020-07-24
"90",44.5,0.00370864596771183,0.000384441376424018,2.04856080942513e-05,0.00186456578790304,2020-07-24
"91",45,0.00372019083741104,0.000382248511186733,1.93733139593789e-05,0.00186978207568521,2020-07-25
"92",45.5,0.0037315050615941,0.000379371615179928,1.83208649242912e-05,0.00187491296325919,2020-07-25
"93",46,0.0037425916565384,0.000378731352336133,1.73250835578546e-05,0.00187995837004813,2020-07-26
"94",46.5,0.00375345355981609,0.000377411846777036,1.63829578191114e-05,0.0018849182588176,2020-07-26
"95",47,0.00376409363248806,0.000372321473228852,1.54916327106125e-05,0.00188979263259934,2020-07-27
"96",47.5,0.00377451466124533,0.000370642134714401,1.46484023318203e-05,0.00189458153178858,2020-07-27
"97",48,0.0037847193604989,0.000369577728354145,1.38507023151677e-05,0.00189928503140703,2020-07-28
"98",48.5,0.00379471037441945,0.000368151921024227,1.30961026279608e-05,0.00190390323852371,2020-07-28
"99",49,0.00380449027892798,0.000364698367236916,1.23823007239121e-05,0.00190843628982595,2020-07-29
"100",49.5,0.00381406158363846,0.000362156788377731,1.17071150286814e-05,0.00191288434933357,2020-07-29
"101",50,0.00382342673375371,0.000359471406234657,1.10684787443798e-05,0.00191724760624904,2020-07-30
"102",50.5,0.00383258811191558,0.000362182743116464,1.04644339585655e-05,0.00192152627293707,2020-07-30
"103",51,0.00384154804001042,0.000361656151404161,9.89312604381569e-06,0.00192572058302712,2020-07-31
"104",51.5,0.00385030878093091,0.000360290980551311,9.3527983345074e-06,0.00192983078963271,2020-07-31
"105",52,0.00385887254029528,0.000360008076807837,8.84178706797067e-06,0.00193385716368162,2020-08-01
"106",52.5,0.0038672414681249,0.000357535672090327,8.35851657769889e-06,0.0019377999923513,2020-08-01
"107",53,0.00387541766048116,0.000355189808889672,7.9014947268042e-06,0.00194165957760398,2020-08-02
"108",53.5,0.00388340316106256,0.000354392013242765,7.46930857039735e-06,0.00194543623481648,2020-08-02
"109",54,0.00389119996276301,0.000352809149111635,7.06062023604694e-06,0.00194913029149953,2020-08-03
"110",54.5,0.00389881000919215,0.000348153891257647,6.67416301193373e-06,0.00195274208610204,2020-08-03
"111",55,0.00390623519615858,0.000342882245848099,6.30873763276187e-06,0.00195627196689567,2020-08-04
"112",55.5,0.00391347737311684,0.000340083184130178,5.96320875391985e-06,0.00195972029093538,2020-08-04
"113",56,0.00392053834457901,0.000338121787506656,5.63650160480054e-06,0.0019630874230919,2020-08-05
"114",56.5,0.0039274198714916,0.0003361434458517,5.327598812591e-06,0.0019663737351521,2020-08-05
"115",57,0.00393412367257877,0.000333679399779189,5.03553738823029e-06,0.0019695796049835,2020-08-06
"116",57.5,0.0039406514256523,0.000331363332927229,4.75940586660594e-06,0.00197270541575945,2020-08-06
"117",58,0.0039470047688894,0.000331776321355005,4.49834159341901e-06,0.00197575155524141,2020-08-07
"118",58.5,0.00395318530207888,0.000331285703696173,4.25152815149239e-06,0.00197871841511519,2020-08-07
"119",59,0.00395919458783638,0.000330704877815189,4.01819291962877e-06,0.00198160639037801,2020-08-08
"120",59.5,0.00396503415278955,0.000329673649428806,3.79760475744328e-06,0.0019844158787735,2020-08-08
"121",60,0.00397070548873361,0.000328601450811078,3.58907180990113e-06,0.00198714728027175,2020-08-09
"122",60.5,0.00397621005375814,0.000327179969154979,3.3919394255841e-06,0.00198980099659186,2020-08-09
"123",61,0.00398154927334566,0.00032818378291493,3.20558818299057e-06,0.00199237743076432,2020-08-10
"124",61.5,0.00398672454144259,0.000328663329810831,3.02943201944324e-06,0.00199487698673102,2020-08-10
"125",62,0.00399173722150337,0.000327656474065961,2.86291645743635e-06,0.0019973000689804,2020-08-11
"126",62.5,0.00399658864750811,0.000326672819826592,2.70551692350137e-06,0.0019996470822158,2020-08-11
"127",63,0.00400128012495454,0.00032578614323883,2.55673715490611e-06,0.00200191843105472,2020-08-12
"128",63.5,0.00400581293182478,0.000325304926005605,2.41610768972814e-06,0.00200411451975725,2020-08-12
"129",64,0.00401018831952738,0.000322476181757558,2.2831844360594e-06,0.00200623575198172,2020-08-13
"130",64.5,0.00401440751381541,0.000318598571986628,2.15754731630507e-06,0.00200828253056586,2020-08-13
"131",65,0.00401847171568085,0.000316875356786077,2.03879898273715e-06,0.00201025525733179,2020-08-14
"132",65.5,0.00402238210222601,0.000316799986945329,1.92656360065103e-06,0.00201215433291333,2020-08-14
"133",66,0.00402613982751245,0.000317946654677582,1.82048569565336e-06,0.00201398015660405,2020-08-15
"134",66.5,0.00402974602338775,0.000317637550111442,1.7202290617806e-06,0.00201573312622477,2020-08-15
"135",67,0.00403320180029084,0.000314353493253061,1.62547572731146e-06,0.00201741363800908,2020-08-16
"136",67.5,0.00403650824803615,0.000313527229272219,1.53592497529216e-06,0.00201902208650572,2020-08-16
"137",68,0.00403966643657722,0.000317172583341627,1.45129241594223e-06,0.00202055886449658,2020-08-17
"138",68.5,0.00404267741675008,0.000320400823164918,1.37130910825009e-06,0.00202202436292916,2020-08-17
"139",69,0.00404554222099689,0.000321702947159316,1.29572072820293e-06,0.00202341897086255,2020-08-18
"140",69.5,0.00404826186407035,0.000323644186839115,1.22428678122365e-06,0.00202474307542579,2020-08-18
"141",70,0.00405083734371912,0.00032658931486515,1.15677985651039e-06,0.00202599706178782,2020-08-19
"142",70.5,0.00405326964135487,0.000326493855589618,1.09298492109057e-06,0.00202718131313798,2020-08-19
"143",71,0.00405555972270114,0.000325020074710015,1.03269865151239e-06,0.00202829621067633,2020-08-20
"144",71.5,0.00405770853842467,0.000323877746229547,9.75728801202481e-07,0.00202934213361294,2020-08-20
"145",72,0.00405971702474928,0.000324727277443399,9.21893601618607e-07,0.00203031945917545,2020-08-21
"146",72.5,0.00406610470205468,0.000323411408101058,8.71021195422246e-07,0.00203348786162505,2020-08-21
"147",73,0.0041127479689174,0.000322608629084972,8.2294909998648e-07,0.0020567854590087,2020-08-22
"148",73.5,0.00415978340843679,0.000322188013465943,7.77523699641267e-07,0.00208028046606821,2020-08-22
"149",74,0.0042072103696064,0.000322202733506272,7.34599765140254e-07,0.00210397248468577,2020-08-23
"150",74.5,0.00425502808886916,0.000321266374980688,6.94039998911421e-07,0.00212786106443404,2020-08-23
"151",75,0.00430323568738482,0.000320932874145026,6.55714604728089e-07,0.00215194570099478,2020-08-24
"152",75.5,0.00435183216829497,0.000318494048330237,6.19500880507356e-07,0.00217622583458774,2020-08-24
"153",76,0.0044008164139872,0.0003156248920761,5.85282833010024e-07,0.00220070084841011,2020-08-25
"154",76.5,0.00445018718336023,0.00031318036878871,5.52950813279753e-07,0.00222537006708676,2020-08-25
"155",77,0.00449994310909162,0.000315492213981011,5.22401171719617e-07,0.00225023275513167,2020-08-26
"156",77.5,0.00455008269491003,0.000314028112386821,4.93535931761642e-07,0.00227528811542089,2020-08-26
"157",78,0.00460060431287392,0.000312828092642092,4.66262481139427e-07,0.00230053528767753,2020-08-27
"158",78.5,0.0046515062006587,0.000312556116425928,4.40493279825664e-07,0.00232597334696926,2020-08-27
"159",79,0.00470278645885441,0.00031181263703143,4.16145583745519e-07,0.00235160130221908,2020-08-28
"160",79.5,0.00475444304827601,0.000309301824808665,3.93141183423414e-07,0.00237741809472972,2020-08-28
"161",80,0.00480647378728869,0.000308554757860572,3.71406156765017e-07,0.00240342259672273,2020-08-29
"162",80.5,0.00485887634915032,0.000306098007690777,3.50870635218192e-07,0.00242961360989277,2020-08-29
"163",81,0.00491164825937346,0.000303968199679731,3.31468582596482e-07,0.00245598986397803,2020-08-30
"164",81.5,0.00496478689310952,0.000303189034733079,3.13137585886493e-07,0.0024825500153477,2020-08-30
"165",82,0.00501828947255741,0.000302628641857066,2.95818657396329e-07,0.0025092926456074,2020-08-31
"166",82.5,0.00507215306439935,0.000302437710992383,2.79456047636259e-07,0.00253621626022349,2020-08-31
"167",83,0.00512637457726657,0.00030325322449894,2.63997068354977e-07,0.00256331928716746,2020-09-01
"168",83.5,0.00518095075923755,0.000305321622217373,2.49391925185377e-07,0.00259060007558137,2020-09-01
"169",84,0.00523587819537166,0.000306215837951274,2.35593559382765e-07,0.00261805689446552,2020-09-02
"170",84.5,0.00529115330528105,0.000307929888565842,2.22557498165831e-07,0.00264568793138961,2020-09-02
"171",85,0.00534677234074373,0.000307132165048226,2.10241713196799e-07,0.00267349129122846,2020-09-03
"172",85.5,0.00540273138336092,0.000305207345509156,1.986064867618e-07,0.00270146499492384,2020-09-03
"173",86,0.00545902634226157,0.00030345346412211,1.87614285235924e-07,0.0027296069782734,2020-09-04
"174",86.5,0.0055156529518574,0.000302544775931629,1.77229639439557e-07,0.00275791509074842,2020-09-04
"175",87,0.0055726067696514,0.000301639470949511,1.67419031513612e-07,0.00278638709434146,2020-09-05
"176",87.5,0.00562988317410331,0.000300737531897458,1.58150787961163e-07,0.00281502066244564,2020-09-05
"177",88,0.00568747736255506,0.000301489651793601,1.49394978521841e-07,0.00284381337876679,2020-09-06
"178",88.5,0.00574538434921981,0.000302317157855203,1.41123320563212e-07,0.00287276273627019,2020-09-06
"179",89,0.00580359896323777,0.000303154222258547,1.33309088690272e-07,0.00290186613616323,2020-09-07
"180",89.5,0.00586211584680234,0.000302184964494411,1.25927029290234e-07,0.00293112088691582,2020-09-07
"181",90,0.00592092945336002,0.00030097244480913,1.18953279744936e-07,0.00296052420331989,2020-09-08
"182",90.5,0.00598003404588759,0.000299711781969005,1.12365292057611e-07,0.00299007320558982,2020-09-08
"183",91,0.00603942369525009,0.000298238448200212,1.06141760654334e-07,0.00301976491850537,2020-09-09
"184",91.5,0.00609909227864326,0.000298120468348593,1.00262554133396e-07,0.0030495962705987,2020-09-09
"185",92,0.00615903347812392,0.000298001833228442,9.47086507480237e-08,0.00307956409338733,2020-09-10
"186",92.5,0.006219240779232,0.000297882525475201,8.94620774194604e-08,0.00310966512065471,2020-09-10
"187",93,0.00627970746970785,0.00029776252851594,8.45058520883399e-08,0.00313989598777997,2020-09-11
"188",93.5,0.00634042663830838,0.000297641826536992,7.98239292226624e-08,0.0031702532311188,2020-09-11
"189",94,0.00640139117372585,0.000297520404452955,7.54011483104878e-08,0.00320073328743708,2020-09-12
"190",94.5,0.00646259376361284,0.000297398247877018,7.12231851747453e-08,0.00323133249339901,2020-09-12
"191",95,0.00652402689371708,0.000297258881472587,6.72765059563524e-08,0.00326204708511152,2020-09-13
"192",95.5,0.00658568284712985,0.000294830463016217,6.35483236201535e-08,0.00329287319772674,2020-09-13
"193",96,0.00664755370365149,0.000294395857144724,6.00265568460637e-08,0.00332380686510417,2020-09-14
"194",96.5,0.0067096313392777,0.000292982789807927,5.66997911752589e-08,0.00335484401953444,2020-09-14
"195",97,0.00677190742581015,0.000291581815701788,5.35572422883023e-08,0.00338598049152622,2020-09-15
"196",97.5,0.00683437343059506,0.000290192786361309,5.05887212987787e-08,0.00341721200965818,2020-09-15
"197",98,0.00689702061639312,0.000288815556414649,4.77846019523179e-08,0.00344853420049754,2020-09-16
"198",98.5,0.00695984004138435,0.00028714276899823,4.51357896268713e-08,0.00347994258858699,2020-09-16
"199",99,0.00702282255931122,0.000285042766197892,4.2633692035759e-08,0.00351143259650163,2020-09-17
"200",99.5,0.00708595881976345,0.000282958490986942,4.02701915403557e-08,0.00354299954497749,2020-09-17
"201",100,0.00714923926860778,0.000280889803316239,3.80376189843479e-08,0.00357463865311338,2020-09-18
"202",100.5,0.00721265414856589,0.000278836565431088,3.59287289662851e-08,0.00360634503864743,2020-09-18
"203",101,0.00727619349994362,0.000276798641798322,3.39366764716793e-08,0.00363811371831005,2020-09-19
"204",101.5,0.00733984716151462,0.000274775899036243,3.20549947901925e-08,0.0036699396082547,2020-09-19
"205",102,0.00740360477156129,0.000272768205847336,3.02775746475118e-08,0.00370181752456797,2020-09-20
"206",102.5,0.00746745576907596,0.000271006689408449,2.85986444853438e-08,0.00373374218386022,2020-09-20
"207",103,0.00753138939512495,0.000269396091560107,2.70127518265907e-08,0.00376570820393839,2020-09-21
"208",103.5,0.00759539469437835,0.000267317077816848,2.55147456662043e-08,0.00379771010456201,2020-09-21
"209",104,0.00765946051680777,0.000266372749848853,2.40997598314588e-08,0.0038297423082838,2020-09-22
"210",104.5,0.00772357551955466,0.000266572161622029,2.27631972584545e-08,0.00386179914137596,2020-09-22
"211",105,0.00778772816897141,0.000266812193171407,2.15007151345707e-08,0.00389387483484327,2020-09-23
"212",105.5,0.00785190674283716,0.000267092942618397,2.03082108593296e-08,0.00392596352552401,2020-09-23
"213",106,0.0079160993327506,0.000265417541868994,1.9181808778735e-08,0.00395805925727969,2020-09-24
"214",106.5,0.00798029384670116,0.000263134798783894,1.81178476506007e-08,0.00399015598227441,2020-09-24
"215",107,0.00804447801182057,0.000263060735492447,1.71128688007134e-08,0.00402224756234469,2020-09-25
"216",107.5,0.00810863937731599,0.000263042119308765,1.6163604931865e-08,0.00405432777046046,2020-09-25
"217",108,0.0081727653175861,0.000263031571792799,1.52669695498728e-08,0.00408639029227782,2020-09-26
"218",108.5,0.00823684303552121,0.000263029093714234,1.44200469726652e-08,0.00411842872778409,2020-09-26
"219",109,0.00830085956598827,0.000263034685941772,1.36200828903726e-08,0.00415043659303558,2020-09-27
"220",109.5,0.00836480177950144,0.000264250957334086,1.28644754461154e-08,0.00418240732198844,2020-09-27
"221",110,0.00842865638607874,0.000263951428251348,1.21507668088456e-08,0.00421433426842277,2020-09-28
"222",110.5,0.00849240993928505,0.000263449295667338,1.14766352111646e-08,0.00424621070796013,2020-09-28
"223",111,0.00855604884046142,0.000262427892317986,1.08398874265283e-08,0.00427802984017442,2020-09-29
"224",111.5,0.0086195593431406,0.000260602087876372,1.02384516616501e-08,0.00430978479079613,2020-09-29
"225",112,0.0086829275576484,0.000258788030455814,9.67037084124371e-09,0.00434146861400962,2020-09-30
"226",112.5,0.00874613945589005,0.000256985659070039,9.1337962634973e-09,0.00437307429484316,2020-09-30
"227",113,0.00880918087632093,0.000255194912834794,8.62698160586105e-09,0.00440459475165127,2020-10-01
"228",113.5,0.0088720375291003,0.000253415730970769,8.14827726184789e-09,0.00443602283868878,2020-10-01
"229",114,0.00893469500142681,0.000251723693802458,7.69612499060902e-09,0.0044673513487759,2020-10-02
"230",114.5,0.00899713876305411,0.000250914056663591,7.26905286204692e-09,0.00449857301605349,2020-10-02
"231",115,0.00905935417198452,0.000250108615202381,6.86567048117598e-09,0.0045296805188275,2020-10-03
"232",115.5,0.0091213264803389,0.000249307346602264,6.48466447633588e-09,0.00456066648250169,2020-10-03
"233",116,0.00918304084040004,0.000248510228232408,6.12479423670939e-09,0.00459152348259714,2020-10-04
"234",116.5,0.00924448231082695,0.000248290230742243,5.7848878853962e-09,0.00462224404785742,2020-10-04
"235",117,0.00930563586303726,0.000248672928504999,5.46383847505018e-09,0.00465282066343787,2020-10-05
"236",117.5,0.00936648638775428,0.000247470967536042,5.16060039380273e-09,0.00468324577417734,2020-10-05
"237",118,0.00942701870171539,0.000246279486511216,4.87418596986979e-09,0.00471351178795068,2020-10-06
"238",118.5,0.00948721755453801,0.000246195847841446,4.60366226387916e-09,0.00474361107910014,2020-10-06
"239",119,0.00954706763573903,0.00024668305501846,4.34814803855777e-09,0.00477353599194353,2020-10-07
"240",119.5,0.00960655358190351,0.000247171727293619,4.10681089598929e-09,0.0048032788443572,2020-10-07
"241",120,0.00966565998399807,0.000247612483448826,3.87886457319129e-09,0.00483283193143132,2020-10-08
"242",120.5,0.00972437139482414,0.000247525792246748,3.66356638727088e-09,0.00486218752919526,2020-10-08
"243",121,0.00978267233660601,0.000248398020241666,3.46021482189903e-09,0.00489133789841042,2020-10-09
"244",121.5,0.00984054730870835,0.000249141003448783,3.2681472472991e-09,0.0049202752884278,2020-10-09
"245",122,0.00989798079547758,0.000249636954368144,3.08673776637504e-09,0.00494899194110767,2020-10-10
"246",122.5,0.00995495727420128,0.000250134352486774,2.9153951800112e-09,0.00497748009479823,2020-10-10
"247",123,0.0100114612231796,0.000249323372863278,2.75356106495996e-09,0.00500573198837033,2020-10-11
"248",123.5,0.0100674771299021,0.000248672212506512,2.600707958096e-09,0.00503373986530504,2020-10-11
"249",124,0.0101229894993241,0.000249276166534509,2.45633764115964e-09,0.00506149597783086,2020-10-12
"250",124.5,0.0101779828622345,0.000249882678956742,2.3199795204354e-09,0.005088992591107,2020-10-12
"251",125,0.0102324417837098,0.000250491755132839,2.19118909611844e-09,0.00511622198744945,2020-10-13
"252",125.5,0.0102863508716455,0.00025003579199316,2.06954651641115e-09,0.00514317647059603,2020-10-13
"253",126,0.0103396947853584,0.000249248575218109,1.95465521166544e-09,0.00516984837000681,2020-10-14
"254",126.5,0.0103924582442515,0.000248465218901004,1.84614060414522e-09,0.00519623004519606,2020-10-14
"255",127,0.0104446260365347,0.000247685704778343,1.74364888922727e-09,0.00522231389009182,2020-10-15
"256",127.5,0.0104961830279922,0.000246910014659331,1.64684588409016e-09,0.00524809233741906,2020-10-15
"257",128,0.0105471141707889,0.000246138130424038,1.55541594015836e-09,0.00527355786310244,2020-10-16
"258",128.5,0.0105974045123077,0.000244959526405242,1.46906091577541e-09,0.00529870299068433,2020-10-16
"259",129,0.010647039204009,0.000243666671910394,1.38749920577414e-09,0.00532352029575412,2020-10-17
"260",129.5,0.0106960035103037,0.000243218000651437,1.31046482479652e-09,0.00534800241038424,2020-10-17
"261",130,0.010744282817431,0.00024277285597984,1.23770654138909e-09,0.00537214202756875,2020-10-18
"262",130.5,0.0107918626423328,0.00024233122183138,1.1689870600647e-09,0.00539593190565993,2020-10-18
"263",131,0.0108387286415148,0.000241893082247135,1.104082248676e-09,0.00541936487279851,2020-10-19
"264",131.5,0.0108848666198855,0.0002414584213698,1.04278040859321e-09,0.00544243383133297,2020-10-19
"265",132,0.0109302625395652,0.000240766596696925,9.8488158531717e-10,0.00546513176222338,2020-10-20
"266",132.5,0.0109749025286536,0.000239292649919626,9.30196917289404e-10,0.00548745172942528,2020-10-20
"267",133,0.0110187728899496,0.000237827019864026,8.78548020784937e-10,0.00550938688424881,2020-10-21
"268",133.5,0.0110618601096112,0.000236369669182968,8.29766408890332e-10,0.00553093046968881,2020-10-21
"269",134,0.0111041508657489,0.000234920560578419,7.83692942679878e-10,0.00555207582472092,2020-10-22
"270",134.5,0.0111456320369414,0.000233479656802565,7.40177312807202e-10,0.00557281638855935,2020-10-22
"271",135,0.0111862907106655,0.00023204692065892,6.99077549828202e-10,0.00559314570487155,2020-10-23
"272",135.5,0.011226114191631,0.000230622315003452,6.60259561664265e-10,0.00561305742594527,2020-10-23
"273",136,0.0112650900100102,0.000229205802745724,6.23596696702821e-10,0.00563254531680346,2020-10-24
"274",136.5,0.0113032059295554,0.000227797346850035,5.88969331115332e-10,0.00565160325926234,2020-10-24
"275",137,0.0113404499555923,0.000226396910336585,5.56264479051441e-10,0.00567022525592841,2020-10-25
"276",137.5,0.0113768103428838,0.000225004456282632,5.25375424442161e-10,0.00568840543412962,2020-10-25
"277",138,0.0114122756033519,0.000223619947823665,4.96201373215122e-10,0.00570613804977665,2020-10-26
"278",138.5,0.0114468345136522,0.000222243348154578,4.68647124791114e-10,0.00572341749114964,2020-10-26
"279",139,0.01148047612259,0.00022104740657309,4.42622761793756e-10,0.00574023828260638,2020-10-27
"280",139.5,0.0115131897583718,0.000220375291342638,4.1804335696321e-10,0.00575659508820756,2020-10-27
"281",140,0.0115449650356817,0.000219707752334208,3.94828696320755e-10,0.00577248271525518,2020-10-28
"282",140.5,0.0115757918625767,0.000219044764527473,3.72903017683745e-10,0.00578789611773986,2020-10-28
"283",141,0.0116056604471921,0.000218386302950176,3.52194763680372e-10,0.00580283039969341,2020-10-29
"284",141.5,0.0116345613042487,0.000218984367604754,3.32636348460704e-10,0.00581728081844255,2020-10-29
"285",142,0.0116624852613568,0.000219648480149598,3.14163937344991e-10,0.00583124278776036,2020-10-30
"286",142.5,0.0116894234651061,0.000220315217063535,2.96717238692223e-10,0.00584471188091169,2020-10-30
"287",143,0.0117153673869389,0.000220984587516027,2.80239307311661e-10,0.00585768383358912,2020-10-31
"288",143.5,0.0117403088287959,0.000221656600676141,2.64676358777546e-10,0.00587015454673614,2020-10-31
"289",144,0.0117642399285311,0.000222331265711727,2.4997759404263e-10,0.00588212008925437,2020-11-01
"290",144.5,0.0117871531650885,0.000223008591788594,2.36095033779644e-10,0.00589357670059176,2020-11-01
"291",145,0.0118090413634342,0.000223688588069686,2.22983361911447e-10,0.0059045207932088,2020-11-02
"292",145.5,0.0118298976992404,0.000224371263714262,2.10599777820454e-10,0.00591494895492009,2020-11-02
"293",146,0.0118497157033132,0.000225056627877078,1.98903856756169e-10,0.00592485795110855,2020-11-03
"294",146.5,0.0118684892657625,0.000225744689707565,1.87857417986319e-10,0.00593424472680994,2020-11-03
"295",147,0.0118862126399062,0.000225550863583074,1.77424400262229e-10,0.0059431064086653,2020-11-04
"296",147.5,0.0119028804459079,0.000224799048301904,1.67570744192905e-10,0.0059514403067393,2020-11-04
"297",148,0.0119184876741408,0.0002240527323379,1.58264281144744e-10,0.00595924391620253,2020-11-05
"298",148.5,0.0119330296882771,0.000223311882009238,1.49474628305011e-10,0.00596651491887586,2020-11-05
"299",149,0.011946502228098,0.000222576463738035,1.41173089567292e-10,0.00597325118463554,2020-11-06
"300",149.5,0.011958901412022,0.000221846444051477,1.33332561916055e-10,0.00597945077267728,2020-11-06
"301",150,0.0119702237393495,0.000221121789582922,1.25927447005367e-10,0.00598511193263846,2020-11-07
"302",150.5,0.0119804660922207,0.000220126195573978,1.18933567643688e-10,0.00599023310557711,2020-11-07
"303",151,0.011989625737286,0.000218635176376168,1.12328088912654e-10,0.00599481292480702,2020-11-08
"304",151.5,0.011997700327087,0.000217153625794919,1.06089443662828e-10,0.0059988502165882,2020-11-08
"305",152,0.0120046879011472,0.00021568149294293,1.0019726214366e-10,0.00600234400067222,2020-11-09
"306",152.5,0.0120105868867721,0.000214218727070808,9.4632305538328e-11,0.00600529349070221,2020-11-09
"307",153,0.0120153960995582,0.000212765277568871,8.93764031868788e-11,0.00600769809446728,2020-11-10
"308",153.5,0.0120191147436107,0.000211321093968909,8.44123932930619e-11,0.00600955741401156,2020-11-10
"309",154,0.012021742411472,0.000209886125945906,7.97240669216185e-11,0.00601087124559801,2020-11-11
"310",154.5,0.012023279083759,0.000208460323319723,7.52961151034866e-11,0.00601163957952756,2020-11-11
"311",155,0.0120237251285141,0.000207043636056733,7.11140788765089e-11,0.00601186259981409,2020-11-12
"312",155.5,0.0120230813002681,0.000205636014271428,6.7164302098792e-11,0.0060115406837162,2020-11-12
"313",156,0.0120213487388192,0.000204237408227978,6.34338868808907e-11,0.00601067440112654,2020-11-13
"314",156.5,0.0120185289677296,0.000202847768341754,5.99106514915276e-11,0.0060092645138201,2020-11-13
"315",157,0.0120146238925423,0.000201467045180814,5.6583090599608e-11,0.00600731197456267,2020-11-14
"316",157.5,0.0120096357987215,0.00020009518946735,5.34403377229069e-11,0.00600481792608094,2020-11-14
"317",158,0.0120035673493198,0.000198732152079097,5.04721297609917e-11,0.00600178369989597,2020-11-15
"318",158.5,0.0119964215823751,0.000197377884050704,4.76687734967317e-11,0.00599821081502191,2020-11-15
"319",159,0.0119882019080425,0.000195917992108227,4.50211139571646e-11,0.00599410097653183,2020-11-16
"320",159.5,0.0119789121054653,0.000194230075138565,4.25205045305457e-11,0.00598945607399289,2020-11-16
"321",160,0.0119685563193875,0.000192556417403583,4.01587787421268e-11,0.00598427817977311,2020-11-17
"322",160.5,0.0119571390565163,0.000190896905780345,3.79282235966223e-11,0.00597856954722229,2020-11-17
"323",161,0.0119446651816371,0.000189251427889072,3.58215544004195e-11,0.00597233260872935,2020-11-18
"324",161.5,0.0119311399134866,0.000187694201565476,3.38318909814175e-11,0.00596556997365926,2020-11-18
"325",162,0.0119165688203911,0.000186526954201157,3.19527352289329e-11,0.00595828442617191,2020-11-19
"326",162.5,0.0119009578156746,0.000185368971861859,3.01779498804118e-11,0.00595047892292629,2020-11-19
"327",163,0.0118843131528438,0.00018422017567441,2.85017384857547e-11,0.00594215659067277,2020-11-20
"328",163.5,0.0118666414205551,0.000183080487364888,2.69186264838965e-11,0.00593332072373684,2020-11-20
"329",164,0.0118479495373716,0.000181949829256138,2.54234433299129e-11,0.00592397478139753,2020-11-21
"330",164.5,0.0118282447463165,0.000180828124265254,2.40113056143467e-11,0.00591412238516388,2020-11-21
"331",165,0.0118075346092285,0.00017971529590102,2.26776011196841e-11,0.00590376731595306,2020-11-22
"332",165.5,0.0117858270009291,0.000178611268261315,2.14179737619656e-11,0.00589291351117352,2020-11-22
"333",166,0.0117631301032058,0.000177515966030488,2.02283093684037e-11,0.00588156506171703,2020-11-23
"334",166.5,0.0117394523986216,0.00017642931447669,1.91047222446037e-11,0.00586972620886318,2020-11-23
"335",167,0.0117148026641568,0.000175351239449184,1.80435424875594e-11,0.00585740134110018,2020-11-24
"336",167.5,0.0116891899646903,0.000174281667375615,1.70413040030294e-11,0.00584459499086579,2020-11-24
"337",168,0.01166262364633,0.000173220525259256,1.60947331881929e-11,0.00583131183121235,2020-11-25
"338",168.5,0.0116351133295988,0.000172426197879639,1.52007382426578e-11,0.00581755667239976,2020-11-25
"339",169,0.0116066689024844,0.000171893755138095,1.43563990729399e-11,0.0058033344584204,2020-11-26
"340",169.5,0.0115773005133613,0.000171599787460062,1.35589577574699e-11,0.00578865026346015,2020-11-26
"341",170,0.0115470185637929,0.000171423554514569,1.28058095410117e-11,0.00577350928829934,2020-11-27
"342",170.5,0.0115825817652037,0.000171252214015224,1.2094494329104e-11,0.00579129088864911,2020-11-27
"343",171,0.0117558719287724,0.000171085753574533,1.14226886547653e-11,0.00587793597009756,2020-11-28
"344",171.5,0.0119305006330334,0.000170769452211527,1.07881980912472e-11,0.00596525032191079,2020-11-28
"345",172,0.0121064339179172,0.00017002905831871,1.01889500860717e-11,0.00605321696405305,2020-11-29
"346",172.5,0.0122836361063608,0.000168698585062542,9.6229871929657e-12,0.00614181805799189,2020-11-29
"347",173,0.012462069786006,0.000167378564139858,9.08846067960232e-12,0.00623103489754721,2020-11-30
"348",173.5,0.0126416957926141,0.000166068915105499,8.58362449028518e-12,0.00632084790059885,2020-11-30
"349",174,0.0128224731952965,0.000165230318318661,8.10682954387028e-12,0.00641123660170165,2020-12-01
"350",174.5,0.0130043592836566,0.000164581547427797,7.65651834831303e-12,0.00650217964565655,2020-12-01
"351",175,0.0131873095569415,0.000163935908562628,7.23121991426183e-12,0.00659365478208635,2020-12-02
"352",175.5,0.013371277715299,0.000163293386132574,6.82954495109498e-12,0.00668563886106427,2020-12-02
"353",176,0.0135562156532356,0.000162653964599029,6.45018132971944e-12,0.00677810782984291,2020-12-03
"354",176.5,0.0137420734553695,0.000162017628475639,6.0918897973204e-12,0.00687103673073068,2020-12-03
"355",177,0.0139287993945699,0.000161384362328572,5.75349993007281e-12,0.00696439970016172,2020-12-04
"356",177.5,0.0141163399325751,0.000160754150776771,5.43390631060261e-12,0.00705816996900452,2020-12-04
"357",178,0.0143046397231739,0.00016012697849221,5.13206491771867e-12,0.00715231986415297,2020-12-05
"358",178.5,0.0144936416180379,0.000159502830200135,4.84698971662943e-12,0.00724682081144247,2020-12-05
"359",179,0.0146832866752858,0.000158881690679298,4.5777494385124e-12,0.00734164333993177,2020-12-06
"360",179.5,0.0148735141708561,0.000158263544762184,4.32346453892253e-12,0.00743675708758979,2020-12-06
"361",180,0.0150642616127655,0.000157648377335229,4.08330432510953e-12,0.00753213080842438,2020-12-07
"362",180.5,0.0152554647583195,0.000157036173339034,3.856484242865e-12,0.00762773238108799,2020-12-07
"363",181,0.0154470576343429,0.000156426917768566,3.6422633140414e-12,0.00772352881899258,2020-12-08
"364",181.5,0.015638972560488,0.000155820595673358,3.43994171637625e-12,0.00781948628196396,2020-12-08
"365",182,0.0158311401756758,0.000155217192157694,3.24885849771985e-12,0.00791557008946233,2020-12-09
"366",182.5,0.0160234894677185,0.000154616692380791,3.06838941720313e-12,0.00801174473539346,2020-12-09
"367",183,0.0162159478061645,0.000154019081556977,2.89794490629698e-12,0.00810797390453123,2020-12-10
"368",183.5,0.0164084409784016,0.000153424344955855,2.73696814310531e-12,0.00820422049056929,2020-12-10
"369",184,0.0166008932290466,0.000152832467902466,2.58493323360428e-12,0.00830044661581579,2020-12-11
"370",184.5,0.0167932273026418,0.000152243435777439,2.44134349388864e-12,0.00839661365254157,2020-12-11
"371",185,0.0169853644896706,0.000151657234017142,2.30572982781653e-12,0.00849268224598817,2020-12-12
"372",185.5,0.0171772246758987,0.000151073848113816,2.17764919475477e-12,0.00858861233903819,2020-12-12
"373",186,0.0173687263950356,0.000150493263615717,2.05668316242151e-12,0.00868436319854612,2020-12-13
"374",186.5,0.0175597868847045,0.000149915466127233,1.94243654010044e-12,0.00877989344332346,2020-12-13
"375",187,0.0177503221457008,0.000148995271580857,1.83453608776346e-12,0.00887516107376769,2020-12-14
"376",187.5,0.0179402470045071,0.000147925729212729,1.73262929688621e-12,0.00897012350311986,2020-12-14
"377",188,0.0181294751790256,0.000146863682012587,1.63638323897531e-12,0.00906473759033101,2020-12-15
"378",188.5,0.0183179193474802,0.000145809080570521,1.54548347804691e-12,0.00915895967451284,2020-12-15
"379",189,0.018505491220427,0.000144761875752979,1.45963304350513e-12,0.0092527456109433,2020-12-16
"380",189.5,0.0186921016158072,0.000143722018702001,1.37855146006607e-12,0.0093460508085929,2020-12-16
"381",190,0.0188776605369631,0.000142689460834458,1.30197383155943e-12,0.00943883026913256,2020-12-17
"382",190.5,0.0190620772535285,0.000141858006678564,1.22964997561557e-12,0.00953103862737908,2020-12-17
"383",191,0.0192452603850973,0.000141161246905592,1.16134360641219e-12,0.0096226301931293,2020-12-18
"384",191.5,0.0194271179875615,0.00014046906980875,1.09683156281137e-12,0.00971355899432916,2020-12-18
"385",192,0.0196075576420024,0.00013978144295254,1.03590307936643e-12,0.00980377882151916,2020-12-19
"386",192.5,0.0197864865460075,0.000139098334110441,9.78359097817572e-13,0.00989324327349293,2020-12-19
"387",193,0.0199638116072777,0.000138419711264019,9.24011616827749e-13,0.00998190580410085,2020-12-20
"388",193.5,0.0201394395393801,0.000137745542602025,8.7268307783506e-13,0.0100697197701264,2020-12-20
"389",194,0.0203132769594922,0.000137075796519498,8.24205785015751e-13,0.0101566384801582,2020-12-21
"390",194.5,0.0204852304879752,0.000136410441616859,7.78421357463474e-13,0.0102426152443768,2020-12-21
"391",195,0.0206552068496066,0.000135749446698997,7.35180211795531e-13,0.0103276034251709,2020-12-22
"392",195.5,0.0208231129762932,0.000135092780774361,6.94341073496267e-13,0.0104115564884938,2020-12-22
"393",196,0.02098885611108,0.000134440413054041,6.55770515401569e-13,0.0104944280558679,2020-12-23
"394",196.5,0.0211523439132618,0.000133792312950846,6.19342521817092e-13,0.0105761719569406,2020-12-23
"395",197,0.0213134845644003,0.000133148450078385,5.84938076846535e-13,0.0106567422824926,2020-12-24
"396",197.5,0.0214721868750406,0.000132508794250134,5.52444775585357e-13,0.0107360934377965,2020-12-24
"397",198,0.0216283603919193,0.000131873315478514,5.21756456909987e-13,0.0108141801962205,2020-12-25
"398",198.5,0.0217819155054501,0.000131241983973954,4.92772856663114e-13,0.0108909577529715,2020-12-25
"399",199,0.0219327635572676,0.00013061477014396,4.65399280102266e-13,0.0109663817788665,2020-12-26
"400",199.5,0.0220808169476094,0.000130302983342241,4.39546292541775e-13,0.0110404084740245,2020-12-26
"401",200,0.0222259892423134,0.000130079703304625,4.15129427177654e-13,0.0111129946213643,2020-12-27
"402",200.5,0.0223681952792027,0.000129856573283026,3.92068909141037e-13,0.0111840976397974,2020-12-27
"403",201,0.0225073512736338,0.000129633594225261,3.70289394878831e-13,0.0112536756370021,2020-12-28
"404",201.5,0.0226433749229801,0.000129410767074405,3.49719726010276e-13,0.0113216874616649,2020-12-28
"405",202,0.0227761855098242,0.000129188092768791,3.30292696855403e-13,0.0113880927550773,2020-12-29
"406",202.5,0.022905704003634,0.000128965572242013,3.11944834876028e-13,0.011452852001973,2020-12-29
"407",203,0.0230318531606994,0.000128743206422934,2.94616193312099e-13,0.011515926580497,2020-12-30
"408",203.5,0.0231545576221089,0.000128520996235684,2.78250155336025e-13,0.0115772788111936,2020-12-30
"409",204,0.0232737440095486,0.000128298942599666,2.62793249085261e-13,0.0116368720049057,2020-12-31
"410",204.5,0.0233893410187118,0.000128077046429561,2.48194972968947e-13,0.01169467050948,2020-12-31
"411",205,0.0235012795101094,0.000127855308635329,2.3440763067793e-13,0.0117506397551719,2021-01-01
"412",205.5,0.0236094925970817,0.000127633730122217,2.21386175359242e-13,0.0118047462986516,2021-01-01
"413",206,0.0237139157308132,0.000127412311790758,2.09088062445984e-13,0.0118569578655111,2021-01-02
"414",206.5,0.0238144867821631,0.00012719105453678,1.97473110661889e-13,0.0119072433911803,2021-01-02
"415",207,0.0239111461201311,0.000126969959251406,1.86503370746492e-13,0.0119555730601588,2021-01-03
"416",207.5,0.0240038366867839,0.000126749026821062,1.76143001472096e-13,0.01200191834348,2021-01-03
"417",208,0.0240925040684813,0.00012652825812748,1.66358152547499e-13,0.0120462520343239,2021-01-04
"418",208.5,0.0241770965632467,0.000126307654047701,1.57116854025984e-13,0.0120885482817019,2021-01-04
"419",209,0.0242575652441372,0.000126087215454083,1.4838891185628e-13,0.0121287826221428,2021-01-05
"420",209.5,0.0243338640184817,0.000125866943214302,1.40145809235297e-13,0.0121669320093109,2021-01-05
"421",210,0.0244059496828627,0.00012564683819136,1.32360613440375e-13,0.0122029748414975,2021-01-06
"422",210.5,0.0244737819737322,0.000125426901243588,1.25007887836689e-13,0.0122368909869286,2021-01-06
"423",211,0.0245373236135605,0.000125207133224652,1.18063608772356e-13,0.0122686618068393,2021-01-07
"424",211.5,0.0245965403524316,0.000124987534983558,1.1150508708976e-13,0.0122982701762715,2021-01-07
"425",212,0.0246514010050093,0.000124768107364657,1.05310893996686e-13,0.0123257005025573,2021-01-08
"426",212.5,0.0247018774828115,0.000124548851207649,9.94607910550859e-14,0.0123509387414555,2021-01-08
"427",213,0.0247479448217414,0.00012432976734759,9.39356640587813e-14,0.0123739724109176,2021-01-09
"428",213.5,0.0247895812048379,0.000124110856614899,8.87174605840704e-14,0.0123947906024633,2021-01-09
"429",214,0.0248267679802216,0.000123892119835359,8.37891310092365e-14,0.0124133839901527,2021-01-10
"430",214.5,0.0248594896742212,0.000123673557830127,7.91345728102709e-14,0.0124297448371502,2021-01-10
"431",215,0.0248877339996822,0.000123455171415737,7.47385779508311e-14,0.0124438669998785,2021-01-11
"432",215.5,0.0249114918594699,0.000123236961404107,7.05867831945619e-14,0.0124557459297702,2021-01-11
"433",216,0.0249307573451906,0.000123018928602545,6.66656231774523e-14,0.0124653786726286,2021-01-12
"434",216.5,0.0249455277311695,0.000122801073813753,6.296228608692e-14,0.0124727638656162,2021-01-12
"435",217,0.0249558034637317,0.000122583397835837,5.94646718028284e-14,0.0124779017318956,2021-01-13
"436",217.5,0.0249615881458481,0.000122365901462308,5.61613523636836e-14,0.0124807940729521,2021-01-13
"437",218,0.0249628885172171,0.000122148585482094,5.30415346288574e-14,0.0124814442586351,2021-01-14
"438",218.5,0.0249597144298633,0.000121931450679539,5.00950250148528e-14,0.0124798572149567,2021-01-14
"439",219,0.0249520788193468,0.000121714497834418,4.73121961904057e-14,0.0124760394096971,2021-01-15
"440",219.5,0.0249399976716851,0.000121497727721935,4.46839556216162e-14,0.0124699988358649,2021-01-15
"441",220,0.0249234899860987,0.000121281141112736,4.2201715864345e-14,0.0124617449930704,2021-01-16
"442",220.5,0.0249025777337026,0.00012106473877291,3.985736650682e-14,0.0124512888668712,2021-01-16
"443",221,0.0248772858122717,0.000120848521464003,3.76432476707879e-14,0.0124386429061547,2021-01-17
"444",221.5,0.0248476419972173,0.000120632489943015,3.55521249846389e-14,0.0124238209986264,2021-01-17
"445",222,0.0248136768889197,0.000120416644962416,3.35771659467382e-14,0.0124068384444766,2021-01-18
"446",222.5,0.0247754238565676,0.000120200987270146,3.17119176017445e-14,0.0123877119282997,2021-01-18
"447",223,0.0247329189786613,0.000119985517609628,2.99502854569796e-14,0.0123664594893456,2021-01-19
"448",223.5,0.0246862009803421,0.000119770236719769,2.8286513569969e-14,0.0123431004901852,2021-01-19
"449",224,0.0246353111677164,0.00011955514533497,2.67151657420966e-14,0.0123176555838716,2021-01-20
"450",224.5,0.0245802933593453,0.000119340244185134,2.52311077569316e-14,0.0122901466796852,2021-01-20
"451",225,0.0245211938150754,0.000119125533995671,2.38294906051986e-14,0.0122605969075496,2021-01-21
"452",225.5,0.0244580611623899,0.000118911015487508,2.25057346415835e-14,0.0122290305812062,2021-01-21
"453",226,0.0243909463204594,0.000118696689377093,2.12555146216156e-14,0.0121954731602403,2021-01-22
"454",226.5,0.0243199024220768,0.000118482556376405,2.00747455697368e-14,0.0121599512110484,2021-01-22
"455",227,0.0242449847336589,0.00011826861719296,1.89595694323895e-14,0.0121224923668389,2021-01-23
"456",227.5,0.0241662505734998,0.000118054872529819,1.79063424725148e-14,0.0120831252867589,2021-01-23
"457",228,0.0240837592284602,0.000117841323085596,1.69116233642774e-14,0.0120418796142386,2021-01-24
"458",228.5,0.0239975718692773,0.000117627969554464,1.59721619491214e-14,0.0119987859346467,2021-01-24
"459",229,0.023907751464678,0.000117414812626166,1.50848886164201e-14,0.0119538757323465,2021-01-25
"460",229.5,0.0238143626944765,0.000117201852986018,1.42469042740248e-14,0.0119071813472454,2021-01-25
"461",230,0.0237174718618372,0.000116989091314923,1.34554708759452e-14,0.0118587359309253,2021-01-26
"462",230.5,0.0236171468048774,0.000116776528289372,1.27080024762117e-14,0.0118085734024451,2021-01-26
"463",231,0.0235134568077872,0.000116564164581457,1.20020567796932e-14,0.0117567284038996,2021-01-27
"464",231.5,0.0234064725116337,0.000116352000858878,1.13353271622632e-14,0.0117032362558225,2021-01-27
"465",232,0.0232962658250197,0.000116140037784947,1.07056351342432e-14,0.0116481329125152,2021-01-28
"466",232.5,0.0231829098347577,0.000115783891172052,1.01109232224998e-14,0.0115914549173839,2021-01-28
"467",233,0.0230664787167176,0.000115375523373658,9.54924824793944e-15,0.0115332393583636,2021-01-29
"468",233.5,0.0229470476470036,0.000114968692224155,9.01877497643718e-15,0.0114735238235063,2021-01-29
"469",234,0.0228246927136067,0.000114563392289394,8.51777012245531e-15,0.0114123463568076,2021-01-30
"470",234.5,0.0226994908286771,0.000114159618145032,8.04459668576016e-15,0.0113497454143426,2021-01-30
"471",235,0.0225715196415544,0.000113757364376638,7.59770860273385e-15,0.011285759820781,2021-01-31
"472",235.5,0.0224408574526874,0.000113177732017376,7.17564569480554e-15,0.0112204287263473,2021-01-31
"473",236,0.0223075831285692,0.000112554222703374,6.77702889749712e-15,0.011153791564288,2021-02-01
"474",236.5,0.022171776017809,0.000111933974574936,6.4005557544957e-15,0.0110858880089077,2021-02-01
"475",237,0.0220335158684525,0.000111316972611638,6.04499616203052e-15,0.0110167579342293,2021-02-02
"476",237.5,0.0218928827466605,0.000110703201838282,5.70918834965027e-15,0.0109464413733331,2021-02-02
"477",238,0.0217499569568462,0.000110090502535108,5.39203508426864e-15,0.0108749784784258,2021-02-03
"478",238.5,0.0216048189633655,0.000109428447944108,5.09250008507581e-15,0.0108024094816853,2021-02-03
"479",239,0.0214575493138505,0.000108770219856652,4.80960463760231e-15,0.0107287746569277,2021-02-04
"480",239.5,0.0213082285642666,0.000108115798050205,4.54242439587242e-15,0.0106541142821356,2021-02-04
"481",240,0.0211569372057698,0.000107465162385723,4.29008636219868e-15,0.0105784686028871,2021-02-05
"482",240.5,0.0210037555934344,0.000106818292807615,4.0517660347498e-15,0.0105018777967192,2021-02-05
"483",241,0.0208487638769121,0.000106175169343691,3.82668471357199e-15,0.010424381938458,2021-02-06
"484",241.5,0.0206920419330821,0.000105535772105119,3.6141069562618e-15,0.0103460209665428,2021-02-06
"485",242,0.0205336693007406,0.000104900081286362,3.41333817497723e-15,0.010266834650372,2021-02-07
"486",242.5,0.0203737251173766,0.000104268077165123,3.22372236693586e-15,0.0101868625586899,2021-02-07
"487",243,0.0202122880580709,0.000103639740102278,3.0446399709848e-15,0.0101061440290369,2021-02-08
"488",243.5,0.0200494362765533,0.000103015050541807,2.87550584323912e-15,0.0100247181382781,2021-02-08
"489",244,0.0198852473484451,0.000102393989010723,2.71576734517456e-15,0.00994262367422392,2021-02-09
"490",244.5,0.0197197982167077,0.000101776536118993,2.56490253792765e-15,0.00985989910835513,2021-02-09
"491",245,0.0195531651393163,0.000101162672559454,2.42241847690342e-15,0.00977658256965937,2021-02-10
"492",245.5,0.0193854236391692,0.000100552379107731,2.28784960111861e-15,0.00969271181958575,2021-02-10
"493",246,0.0192166484562396,9.99456366221448e-05,2.16075621201774e-15,0.00960832422812089,2021-02-11
"494",246.5,0.0190469135019726,9.93424260436192e-05,2.04072303679196e-15,0.00952345675098731,2021-02-11
"495",247,0.0188762918159243,9.87427283955815e-05,1.92735787150634e-15,0.00943814590796314,2021-02-12
"496",247.5,0.0187048555246375,9.8146524783862e-05,1.82029029960239e-15,0.00935242776231967,2021-02-12
"497",248,0.0185326758027412,9.75537963965884e-05,1.71917048158856e-15,0.00926633790137144,2021-02-13
"498",248.5,0.0183598228362611,9.69645245040761e-05,1.62366801196431e-15,0.00917991141813134,2021-02-13
"499",249,0.0181863657881218,9.63786904587156e-05,1.53347083964288e-15,0.00909318289406164,2021-02-14
"500",249.5,0.0180123727658182,9.57962756948562e-05,1.44828424834527e-15,0.00900618638290982,2021-02-14
"501",250,0.0178379107912318,9.52172617286854e-05,1.3678298936342e-15,0.00891895539561661,2021-02-15
"502",250.5,0.017663045772563,9.46416301581058e-05,1.29184489344155e-15,0.00883152288628212,2021-02-15
"503",251,0.0174878424783474,9.40693626626085e-05,1.2200809691177e-15,0.0087439212391743,2021-02-16
"504",251.5,0.0173123645135244,9.35314773128206e-05,1.15230363419625e-15,0.00865618225676279,2021-02-16
"505",252,0.0171366742975189,9.31332696940925e-05,1.0882914282236e-15,0.00856833714875999,2021-02-17
"506",252.5,0.0169608330442989,9.27368950006721e-05,1.02783519314991e-15,0.00848041652214996,2021-02-17
"507",253,0.0167849007443684,9.26004867425147e-05,9.70737389917137e-16,0.00839245037218469,2021-02-18
"508",253.5,0.016608936148652,9.24844380334044e-05,9.16811453011234e-16,0.00830446807432646,2021-02-18
"509",254,0.0164329967542271,9.23685525910376e-05,8.65881180869582e-16,0.00821649837711398,2021-02-19
"510",254.5,0.016257138791858,9.22528301482526e-05,8.17780160151793e-16,0.00812856939592942,2021-02-19
"511",255,0.0160814172152843,9.18962543708448e-05,7.72351221992833e-16,0.00804070860764254,2021-02-20
"512",255.5,0.0159058856922148,9.1536916155688e-05,7.29445928461797e-16,0.00795294284610776,2021-02-20
"513",256,0.0157305965969779,9.11790236575304e-05,6.88924087548387e-16,0.00786529829848931,2021-02-21
"514",256.5,0.0155556010047779,9.08225714020392e-05,6.50653295092365e-16,0.00777780050238929,2021-02-21
"515",257,0.0153809486875055,9.04675539290055e-05,6.14508502159277e-16,0.00769047434375305,2021-02-22
"516",257.5,0.0152066881110514,9.01139657923944e-05,5.803716064489e-16,0.00760334405552598,2021-02-22
"517",258,0.015032866434071,8.97618015603931e-05,5.48131066401349e-16,0.00751643321703575,2021-02-23
"518",258.5,0.0148595295081467,8.94110558154588e-05,5.17681536740005e-16,0.00742976475407361,2021-02-23
"519",259,0.0146867218792967,8.90617231543638e-05,4.88923524260406e-16,0.00734336093964859,2021-02-24
"520",259.5,0.0145144867907758,8.87137981882406e-05,4.61763062740429e-16,0.00725724339538813,2021-02-24
"521",260,0.0143428661871174,8.83672755426253e-05,4.36111405909563e-16,0.00717143309355893,2021-02-25
"522",260.5,0.0141719007193631,8.80221498574994e-05,4.11884737474076e-16,0.00708595035968176,2021-02-25
"523",261,0.0140016297514278,8.76784157873308e-05,3.89003897250592e-16,0.00700081487571411,2021-02-26
"524",261.5,0.0138320913675493,8.73360680011134e-05,3.67394122513262e-16,0.00691604568377485,2021-02-26
"525",262,0.0136633223807699,8.69951011824057e-05,3.46984803709383e-16,0.00683166119038514,2021-02-27
"526",262.5,0.0134953583424002,8.66555100293675e-05,3.27709253745295e-16,0.00674767917120025,2021-02-27
"527",263,0.013328233552414,8.63172892547968e-05,3.09504490088709e-16,0.00666411677620717,2021-02-28
"528",263.5,0.0131619810707263,8.59804335861637e-05,2.92311028975505e-16,0.00658099053536329,2021-02-28
"529",264,0.012996632729303,8.56449377656447e-05,2.76072691048578e-16,0.00649831636465165,2021-03-01
"530",264.5,0.0128322191450577,8.53107965501553e-05,2.60736417793678e-16,0.006416109572529,2021-03-01
"531",265,0.0126687697334857,8.49780047113811e-05,2.46252098172459e-16,0.00633438486674297,2021-03-02
"532",265.5,0.0125063127229904,8.46465570358082e-05,2.32572404886266e-16,0.0062531563614953,2021-03-02
"533",266,0.0123448751698571,8.43164483247527e-05,2.19652639735669e-16,0.00617243758492863,2021-03-03
"534",266.5,0.0121844829738291,8.39876733943885e-05,2.07450587570463e-16,0.00609224148691464,2021-03-03
"535",267,0.0120251608942439,8.36602270757745e-05,1.95926378352925e-16,0.00601258044712206,2021-03-04
"536",267.5,0.0118669325666867,8.33341042148806e-05,1.85042356883625e-16,0.00593346628334346,2021-03-04
"537",268,0.0117098205201206,8.30092996726127e-05,1.74762959764137e-16,0.00585491026006037,2021-03-05
"538",268.5,0.0115538461944533,8.26858083248362e-05,1.65054599194619e-16,0.00577692309722674,2021-03-05
"539",269,0.0113990299585028,8.23636250623996e-05,1.55885553226586e-16,0.00569951497925149,2021-03-06
"540",269.5,0.0112453911283223,8.20427447911555e-05,1.47225862112287e-16,0.00562269556416125,2021-03-06
"541",270,0.0110929479858501,8.17231624319822e-05,1.39047230412001e-16,0.00554647399292513,2021-03-07
"542",270.5,0.0109417177978478,8.14048729208032e-05,1.31322934539396e-16,0.00547085889892395,2021-03-07
"543",271,0.0107917168350936,8.10878712086062e-05,1.24027735442875e-16,0.00539585841754687,2021-03-08
"544",271.5,0.0106429603917977,8.07721522614608e-05,1.17137796137574e-16,0.00532148019589889,2021-03-08
"545",272,0.0104954628052071,8.0457711060536e-05,1.10630603818577e-16,0.00524773140260363,2021-03-09
"546",272.5,0.0103492374753715,8.01445426021156e-05,1.04484896300833e-16,0.0051746187376858,2021-03-09
"547",273,0.0102042968850378,7.9832641897614e-05,9.86805925454503e-17,0.00510214844251895,2021-03-10
"548",273.5,0.0100606526196485,7.95220039735896e-05,9.31987270453269e-17,0.00503032630982428,2021-03-10
"549",274,0.00991831538741403,7.92126238717589e-05,8.80213878557659e-17,0.00495915769370706,2021-03-11
"550",274.5,0.00977729503943511,7.89044966490082e-05,8.31316580675628e-17,0.0048886475197176,2021-03-11
"551",275,0.00963760058984906,7.85976173774058e-05,7.85135605313464e-17,0.00481880029492457,2021-03-12
"552",275.5,0.00949924023597731,7.82919811442119e-05,7.41520056525574e-17,0.00474962011798869,2021-03-12
"553",276,0.00936222137845115,7.7987583051889e-05,7.00327420864868e-17,0.00468111068922561,2021-03-13
"554",276.5,0.0092265506412942,7.76844182181105e-05,6.61423101722736e-17,0.00461327532064713,2021-03-13
"555",277,0.00909223389194145,7.73824817757689e-05,6.24679979537077e-17,0.00454611694597076,2021-03-14
"556",277.5,0.00895927626117524,7.70817688729832e-05,5.89977996431387e-17,0.00447963813058765,2021-03-14
"557",278,0.00882768216295994,7.6782274673105e-05,5.57203763927726e-17,0.00441384108148,2021-03-15
"558",278.5,0.00869745531415799,7.64839943547245e-05,5.26250192451773e-17,0.00434872765707902,2021-03-15
"559",279,0.00856859875411086,7.61869231116754e-05,4.97016141419402e-17,0.00428429937705545,2021-03-16
"560",279.5,0.00844111486406949,7.58910561530384e-05,4.69406088761443e-17,0.00422055743203477,2021-03-16
"561",280,0.00831500538645968,7.55963887031453e-05,4.43329818806807e-17,0.00415750269322986,2021-03-17
"562",280.5,0.00819027144396894,7.53029160015809e-05,4.18702127504152e-17,0.00409513572198449,2021-03-17
"563",281,0.00806691355844185,7.50106333031851e-05,3.95442544018904e-17,0.00403345677922094,2021-03-18
"564",281.5,0.00794493166957223,7.47195358780538e-05,3.73475067795962e-17,0.00397246583478613,2021-03-18
"565",282,0.00782432515338098,7.44296190115394e-05,3.52727920228951e-17,0.00391216257669051,2021-03-19
"566",282.5,0.00770509284046928,7.414087800425e-05,3.33133310124604e-17,0.00385254642023465,2021-03-19
"567",283,0.00758723303403776,7.38533081720489e-05,3.1462721219594e-17,0.0037936165170189,2021-03-20
"568",283.5,0.00747074352766288,7.35669048460519e-05,2.97149157860462e-17,0.00373537176383145,2021-03-20
"569",284,0.00735562162282237,7.32816633726257e-05,2.80642037659828e-17,0.0036778108114112,2021-03-21
"570",284.5,0.00724186414616266,7.2997579113384e-05,2.65051914655392e-17,0.00362093207308134,2021-03-21
"571",285,0.00712946746650139,7.27146474451838e-05,2.503278481899e-17,0.00356473373325071,2021-03-22
"572",285.5,0.0070184275115592,7.2432863760121e-05,2.36421727439482e-17,0.00350921375577961,2021-03-22
"573",286,0.00690873978441532,7.21522234655252e-05,2.23288114212075e-17,0.00345436989220767,2021-03-23
"574",286.5,0.00680039937968223,7.18727219839536e-05,2.10884094478628e-17,0.00340019968984113,2021-03-23
"575",287,0.00669340099939517,7.15943547531846e-05,1.99169138151968e-17,0.00334670049969759,2021-03-24
"576",287.5,0.00658773896861278,7.13171172262108e-05,1.88104966655162e-17,0.0032938694843064,2021-03-24
"577",288,0.00648340725072597,7.10410048712312e-05,1.77655427846645e-17,0.00324170362536299,2021-03-25
"578",288.5,0.00638039946247205,7.07660131716428e-05,1.67786377893456e-17,0.00319019973123603,2021-03-25
"579",289,0.00627870888865232,7.04921376260316e-05,1.58465569706583e-17,0.00313935444432617,2021-03-26
"580",289.5,0.0061938681875201,7.02193737481633e-05,1.49662547573899e-17,0.00309693409376006,2021-03-26
"581",290,0.0061644591110064,6.99477170669727e-05,1.41348547646392e-17,0.00308222955550321,2021-03-27
"582",290.5,0.00613482415130333,6.96771631265537e-05,1.33496403952539e-17,0.00306741207565167,2021-03-27
"583",291,0.00610496968222579,6.94077074861471e-05,1.26080459633723e-17,0.0030524848411129,2021-03-28
"584",291.5,0.00607490207069859,6.91393457201297e-05,1.19076483110655e-17,0.0030374510353493,2021-03-28
"585",292,0.00604462767436199,6.88720734180013e-05,1.12461588906879e-17,0.003022313837181,2021-03-29
"586",292.5,0.00601415283921629,6.8605886184372e-05,1.06214162870658e-17,0.00300707641960815,2021-03-29
"587",293,0.00598348389730631,6.83143348440813e-05,1.00313791550887e-17,0.00299174194865316,2021-03-30
"588",293.5,0.00595262716444685,6.79749243170033e-05,9.4741195496294e-18,0.00297631358222343,2021-03-30
"589",294,0.00592158893799016,6.76371446182536e-05,8.94781662599648e-18,0.00296079446899508,2021-03-31
"590",294.5,0.00589037549463605,6.73009885008023e-05,8.45075069033654e-18,0.00294518774731803,2021-03-31
