"","time","top","med","bottom","pseudo_med","date"
"1",0,0.00555526364134073,0.00128332924450054,4.08814105416062e-05,0.00279807252594117,2020-06-10
"2",0.5,0.00530291570337792,0.00123372992610695,7.87012370217898e-05,0.00269080847019986,2020-06-10
"3",1,0.00506253171604526,0.00119897525857871,8.84724191765979e-05,0.00257550206761093,2020-06-11
"4",1.5,0.00483354928033233,0.00116561268742477,9.78141062047599e-05,0.00246568169326854,2020-06-11
"5",2,0.00461543247743335,0.00113259122650493,0.000106752356796695,0.00236109241711502,2020-06-12
"6",2.5,0.0044076706223064,0.00109468876569064,0.000115311731877374,0.00226149117709189,2020-06-12
"7",3,0.0042097770759059,0.00105510152643973,0.000123515381288152,0.00216664622859703,2020-06-13
"8",3.5,0.00402128811332667,0.00102612340452153,0.000131385125454365,0.00207633661939052,2020-06-13
"9",4,0.00384176184522749,0.000991110587943628,0.000138941532328733,0.00199035168877811,2020-06-14
"10",4.5,0.00367077719002626,0.000967840241033645,0.000146203989883793,0.00190849058995503,2020-06-14
"11",5,0.00350793289447671,0.000946885473059417,0.000153190774410812,0.00183056183444376,2020-06-15
"12",5.5,0.00335284660034938,0.000931365628501878,0.000159919114867716,0.00175638285760855,2020-06-15
"13",6,0.00320515395504639,0.000910784224088588,0.000166405253504553,0.00168577960427547,2020-06-16
"14",6.5,0.00306450776408217,0.000895479413445164,0.000172664502981797,0.00161858613353198,2020-06-16
"15",7,0.00293057718345917,0.000876557010195866,0.000178711300184327,0.00155464424182175,2020-06-17
"16",7.5,0.00280304695006085,0.000862615242613385,0.000184559256922191,0.00149380310349152,2020-06-17
"17",8,0.00268161664827211,0.000859789373600093,0.000190221207698222,0.00143591892798517,2020-06-18
"18",8.5,0.002566000011122,0.000853308968317008,0.000195709254712134,0.00138085463291707,2020-06-18
"19",9,0.00245592425432369,0.00083420710912775,0.000195036122958047,0.00132548018864087,2020-06-19
"20",9.5,0.00235112944166294,0.000819504612663474,0.000190404998346587,0.00127076722000476,2020-06-19
"21",10,0.00225136788025969,0.000811779587228489,0.000186166859475898,0.00121876736986779,2020-06-20
"22",10.5,0.00216710166800944,0.0008090968214061,0.000182299499725249,0.00117470058386735,2020-06-20
"23",11,0.00212284385704283,0.000805864862196662,0.00017878208861738,0.0011508129728301,2020-06-21
"24",11.5,0.00208054808155533,0.000800002570592672,0.000175595088478172,0.00112807158501675,2020-06-21
"25",12,0.00204014166928383,0.000795179822444086,0.000172720176170362,0.0011064309227271,2020-06-22
"26",12.5,0.00200155471356104,0.000790254515460873,0.000170140169592717,0.00108584744157688,2020-06-22
"27",13,0.00196666460625457,0.000782145169186982,0.000167838958654847,0.00106725178245471,2020-06-23
"28",13.5,0.00195279919928166,0.000775218248118155,0.000165801440455473,0.00105930031986857,2020-06-23
"29",14,0.00198429365477589,0.000766962698336861,0.000164013458408524,0.00107415355659221,2020-06-24
"30",14.5,0.00201552749071971,0.0007602491823479,0.000162461745076953,0.00108899461789833,2020-06-24
"31",15,0.00204650921262267,0.000757503266215239,0.000161133868488827,0.00110382154055575,2020-06-25
"32",15.5,0.00207724708647545,0.000752738977775451,0.000160018181723897,0.00111863263409968,2020-06-25
"33",16,0.0021077491443177,0.000743974771834824,0.000159103775571776,0.00113342645994474,2020-06-26
"34",16.5,0.00213802318966015,0.000737089530315134,0.000158380434074935,0.00114820181186754,2020-06-26
"35",17,0.00216807680276513,0.000732245485083661,0.000157838592781092,0.00116295769777311,2020-06-27
"36",17.5,0.00219791734578889,0.000725854120976959,0.000157469299540229,0.00117769332266456,2020-06-27
"37",18,0.00222755196778953,0.000721584634810827,0.00015726417769152,0.00119240807274053,2020-06-28
"38",18.5,0.00225698760960402,0.000715812183560994,0.000157215391494821,0.00120710150054942,2020-06-28
"39",19,0.00228623100859765,0.000715544290585852,0.000157315613670267,0.00122177331113396,2020-06-29
"40",19.5,0.0023152887032895,0.000712400778404156,0.000157557994917758,0.00123642334910363,2020-06-29
"41",20,0.00234416703785689,0.000709624901560159,0.000157936135295989,0.00125105158657644,2020-06-30
"42",20.5,0.00237287216652232,0.000707868477447195,0.000158444057347913,0.00126565811193512,2020-06-30
"43",21,0.00240141005782575,0.000705529989049593,0.000159076180866494,0.00128024311934612,2020-07-01
"44",21.5,0.00242978649878546,0.000705472765033238,0.000159827299200983,0.00129480689899322,2020-07-01
"45",22,0.00245800709895031,0.000708130044215629,0.000160692557010078,0.00130934982798019,2020-07-02
"46",22.5,0.00248607729434635,0.000703832381125897,0.00015790204060752,0.00132198966747693,2020-07-02
"47",23,0.00251400235132068,0.000702721462168166,0.000154357609594313,0.00133417998045749,2020-07-03
"48",23.5,0.00254178737028514,0.000702939677832883,0.000151205103811748,0.00134649623704845,2020-07-03
"49",24,0.00256943728936271,0.000703346490782508,0.000148418111851569,0.00135892770060714,2020-07-04
"50",24.5,0.00259695688793901,0.000703267614374169,0.000145972185960405,0.00137146453694971,2020-07-04
"51",25,0.00262435079012176,0.000700783992530699,0.00014384469924048,0.00138409774468112,2020-07-05
"52",25.5,0.00265162346811043,0.000696953451647887,0.000142014713282513,0.00139681909069647,2020-07-05
"53",26,0.0026787792454786,0.000700825940759596,0.000140462855469326,0.00140962105047397,2020-07-06
"54",26.5,0.00270582230037152,0.000702862948801692,0.00013917120524426,0.00142249675280789,2020-07-06
"55",27,0.00273275666862097,0.000707881110985038,0.000138123188690025,0.0014354399286555,2020-07-07
"56",27.5,0.00275958624677995,0.000713055808211104,0.000137303480811391,0.00144844486379567,2020-07-07
"57",28,0.00278631479507913,0.000717400601408221,0.000136697914959399,0.00146150635501926,2020-07-08
"58",28.5,0.00281294594030744,0.000720358826841714,0.000136293398875821,0.00147461966959163,2020-07-08
"59",29,0.00283948317861882,0.000722260896326378,0.000136077836874661,0.00148778050774674,2020-07-09
"60",29.5,0.00286592987826715,0.000723041091206891,0.000136040057712749,0.00150098496798995,2020-07-09
"61",30,0.00289228928227142,0.000725460227432191,0.00013616974773419,0.0015142295150028,2020-07-10
"62",30.5,0.00291856451101307,0.000728669084839067,0.000136457388903736,0.00152751094995841,2020-07-10
"63",31,0.00294475856476747,0.00072869338138306,0.000136894201372258,0.00154082638306986,2020-07-11
"64",31.5,0.00297087432617126,0.000733023614001529,0.000137472090243522,0.00155417320820739,2020-07-11
"65",32,0.00299691456262759,0.000739248913732916,0.000138183596235653,0.00156754907943162,2020-07-12
"66",32.5,0.0030228819286508,0.000745612145302574,0.000139021849953013,0.00158095188930191,2020-07-12
"67",33,0.00304877896815248,0.000752032736107196,0.000139980529505012,0.00159437974882875,2020-07-13
"68",33.5,0.00307460811667049,0.000756544308556721,0.000141053821227563,0.00160783096894903,2020-07-13
"69",34,0.00310037170354259,0.000760728645998086,0.000142236383280764,0.00162130404341168,2020-07-14
"70",34.5,0.0031260719540264,0.000765397310842575,0.000143523311912877,0.00163479763296964,2020-07-14
"71",35,0.00315171099136709,0.000769631406169595,0.000144910110196031,0.00164831055078156,2020-07-15
"72",35.5,0.00317729083881459,0.000775194311870509,0.000146392659053265,0.00166184174893393,2020-07-15
"73",36,0.00320281342159153,0.000781787050732647,0.000147967190409681,0.0016753903060006,2020-07-16
"74",36.5,0.00322828056881362,0.000788455090072444,0.000149630262312704,0.00168895541556316,2020-07-16
"75",37,0.0032536940153638,0.000794357578640777,0.000151378735877752,0.00170253637562078,2020-07-17
"76",37.5,0.00327905540372153,0.000799355668570057,0.000153209753926092,0.00171613257882381,2020-07-17
"77",38,0.00330436628574867,0.000805919043621575,0.00015512072119141,0.00172974350347004,2020-07-18
"78",38.5,0.00332962812443321,0.000812147052246641,0.0001571092859806,0.0017433687052069,2020-07-18
"79",39,0.00335484229559222,0.000817931958640782,0.000159173323182666,0.00175700780938744,2020-07-19
"80",39.5,0.0033800100895352,0.00082369049472447,0.000161310918527341,0.00177066050403127,2020-07-19
"81",40,0.00340513271268919,0.000829096771415012,0.000163520354002246,0.00178432653334572,2020-07-20
"82",40.5,0.00343021128918674,0.000834837414273233,0.000165800094344009,0.00179800569176537,2020-07-20
"83",41,0.00345524686241799,0.000841461589893578,0.000168148774525009,0.0018116978184715,2020-07-21
"84",41.5,0.003480240396548,0.000847519652771026,0.000170565188163043,0.00182540279235552,2020-07-21
"85",42,0.00350519277800049,0.000852416221508698,0.000173048276786595,0.00183912052739354,2020-07-22
"86",42.5,0.00353010481690897,0.000858138591507401,0.000175597119893232,0.0018528509684011,2020-07-22
"87",43,0.0035549772485365,0.000864287574622091,0.00017821092574325,0.00186659408713988,2020-07-23
"88",43.5,0.00357981073466504,0.000870546158086951,0.000180889022834907,0.00188034987874997,2020-07-23
"89",44,0.0036046058649554,0.000875880061858405,0.000183630852011465,0.00189411835848343,2020-07-24
"90",44.5,0.00362936315827881,0.000881219570521334,0.000186435959153934,0.00190789955871637,2020-07-24
"91",45,0.00365408306402114,0.000886590283054464,0.000189303988416739,0.00192169352621894,2020-07-25
"92",45.5,0.00367876596336064,0.000891991706633647,0.00019223467596667,0.00193550031966365,2020-07-25
"93",46,0.0037034121705201,0.000898344362153532,0.000195227844188343,0.00194932000735422,2020-07-26
"94",46.5,0.00372802193399453,0.000902491838099707,0.000198283396322098,0.00196315266515831,2020-07-26
"95",47,0.00375259543775499,0.000907944711699786,0.000200776653342962,0.00197668604554898,2020-07-27
"96",47.5,0.00377713280242962,0.000913718203470746,0.000202891156660505,0.00199001197954506,2020-07-27
"97",48,0.00380163408646257,0.000919687973672483,0.000205036817776209,0.00200333545211939,2020-07-28
"98",48.5,0.00382609928725185,0.000925491889665027,0.000207213390195209,0.00201665633872353,2020-07-28
"99",49,0.0038505283422666,0.00092923761109465,0.000209420663080981,0.00202997450267379,2020-07-29
"100",49.5,0.00387492113014489,0.000932776467445359,0.000211658458966921,0.00204328979455591,2020-07-29
"101",50,0.00389927747177254,0.000937867788593119,0.000213926631625091,0.00205660205169882,2020-07-30
"102",50.5,0.00392359713134386,0.0009439144836031,0.000216225064081351,0.0020699110977126,2020-07-30
"103",51,0.00394787981740495,0.000949998700406627,0.000218553666766828,0.00208321674208589,2020-07-31
"104",51.5,0.00397212518388035,0.000956120071639286,0.000220912375796371,0.00209651877983836,2020-07-31
"105",52,0.00399633283108356,0.000963541900998377,0.000223301151365261,0.00210981699122441,2020-08-01
"106",52.5,0.00402050230671231,0.000971404131028255,0.00022571997625606,0.00212311114148419,2020-08-01
"107",53,0.00404463310682907,0.000976866794848677,0.000228168854448046,0.00213640098063856,2020-08-02
"108",53.5,0.00406872467682746,0.000983670562520982,0.000230647809822152,0.0021496862433248,2020-08-02
"109",54,0.00409277641238519,0.000992726739773923,0.000233156884954877,0.00216296664867004,2020-08-03
"110",54.5,0.00411678766040423,0.00100079865659326,0.000235696139995031,0.00217624190019963,2020-08-03
"111",55,0.00414075771993853,0.00100946684885757,0.000238265651617609,0.00218951168577807,2020-08-04
"112",55.5,0.00416468584311009,0.00101746641292816,0.000240865512049504,0.0022027756775798,2020-08-04
"113",56,0.00418857123601392,0.00102451464294549,0.00024349582816209,0.00221603353208801,2020-08-05
"114",56.5,0.00421241305961219,0.00103211059429466,0.000246156720626079,0.00222928489011914,2020-08-05
"115",57,0.00423621043061837,0.00104058426933081,0.000248848323124342,0.00224252937687136,2020-08-06
"116",57.5,0.0042599624223717,0.0010494395183403,0.000251570781618717,0.00225576660199521,2020-08-06
"117",58,0.00428366806570245,0.00105695598924626,0.00025432425366704,0.00226899615968474,2020-08-07
"118",58.5,0.00430732634978863,0.00106619030790201,0.000257108907786961,0.00228221762878779,2020-08-07
"119",59,0.00433093622300432,0.00107284057527713,0.000259924922863278,0.0022954305729338,2020-08-08
"120",59.5,0.00435449659376035,0.00107939820935896,0.000262772487595788,0.00230863454067807,2020-08-08
"121",60,0.00437800633133751,0.00108560189462647,0.000265651799984847,0.00232182906566118,2020-08-09
"122",60.5,0.00440146426671287,0.00109162878179545,0.000268563066851995,0.00233501366678243,2020-08-09
"123",61,0.00442486919337958,0.00109924702635473,0.000271506503393244,0.00234818784838641,2020-08-10
"124",61.5,0.00444821986816041,0.00110682473513791,0.00027448233276271,0.00236135110046156,2020-08-10
"125",62,0.00447151501201557,0.00111523200059583,0.000277490785684504,0.00237450289885004,2020-08-11
"126",62.5,0.00449475331084508,0.00112037976764504,0.000280532100090888,0.00238764270546798,2020-08-11
"127",63,0.004517933416286,0.00112840858206771,0.000283606520784852,0.00240076996853543,2020-08-12
"128",63.5,0.00454105394650496,0.0011355249120477,0.000286714299125406,0.00241388412281518,2020-08-12
"129",64,0.00456411348698617,0.00114224910462269,0.000289855692733975,0.00242698458986007,2020-08-13
"130",64.5,0.00458711059131535,0.00115095019604001,0.000293030965220416,0.00244007077826788,2020-08-13
"131",65,0.00461004378195974,0.00115872003742006,0.000296240385927252,0.0024531420839435,2020-08-14
"132",65.5,0.00463291155104463,0.00116793968932178,0.000299484229690837,0.00246619789036773,2020-08-14
"133",66,0.00465571236112644,0.00117510459453604,0.000302762776618235,0.00247923756887234,2020-08-15
"134",66.5,0.0046784446459629,0.00118225576552875,0.000306076311878696,0.0024922604789208,2020-08-15
"135",67,0.00470110681128033,0.00119017569262179,0.000309425125508655,0.00250526596839449,2020-08-16
"136",67.5,0.00472369723553831,0.00119813260350311,0.000312809512229302,0.00251825337388381,2020-08-16
"137",68,0.00474621427069209,0.00120612628245701,0.000316229771275777,0.00253122202098393,2020-08-17
"138",68.5,0.00476865624295275,0.00121415651287569,0.000319686206237161,0.00254417122459496,2020-08-17
"139",69,0.00479102145354543,0.00122222307695999,0.000323179124906454,0.00255710028922594,2020-08-18
"140",69.5,0.00481330817946579,0.00122824233219939,0.000326708839139789,0.00257000850930279,2020-08-18
"141",70,0.00483551467423482,0.00123521743594921,0.00033027566472421,0.00258289516947951,2020-08-19
"142",70.5,0.00485763916865229,0.00124663856941313,0.000333879921253338,0.00259575954495281,2020-08-19
"143",71,0.00487967987154879,0.00125484825656497,0.000337521932010345,0.00260860090177957,2020-08-20
"144",71.5,0.00490163497053672,0.0012630931609013,0.000341202023857651,0.00262141849719719,2020-08-20
"145",72,0.00492350263276014,0.00127119568291048,0.00034492052713283,0.00263421157994648,2020-08-21
"146",72.5,0.0049452810056438,0.00127876699209566,0.000348677775550221,0.00264697939059701,2020-08-21
"147",73,0.00496696821764132,0.00128819129469014,0.000352474106107791,0.00265972116187456,2020-08-22
"148",73.5,0.00498856237898268,0.00129433957090601,0.00035630985899881,0.00267243611899075,2020-08-22
"149",74,0.00501006158242103,0.00130247643973617,0.000360185377527951,0.00268512347997449,2020-08-23
"150",74.5,0.00503202031454787,0.00131287329421462,0.000364101008031411,0.00269806066128964,2020-08-23
"151",75,0.00506421705214851,0.00132402890423034,0.000368057099800728,0.00271613707597462,2020-08-24
"152",75.5,0.00509634761347422,0.00133179491663173,0.000372054005009949,0.00273420080924208,2020-08-24
"153",76,0.00512840696793357,0.0013391061147551,0.000376092078645834,0.0027522495232897,2020-08-25
"154",76.5,0.00516039003341366,0.00134851771347436,0.000380171678440824,0.00277028085592724,2020-08-25
"155",77,0.00519229167787388,0.00135909890522811,0.000384293164808481,0.00278829242134118,2020-08-26
"156",77.5,0.00522410672097606,0.00136973600007237,0.000388456900781164,0.00280628181087861,2020-08-26
"157",78,0.00525582993575103,0.00138042875070857,0.000392663251949686,0.00282424659385036,2020-08-27
"158",78.5,0.00528745605030153,0.00139261678944343,0.000396912586404732,0.00284218431835313,2020-08-27
"159",79,0.00531897974954144,0.00140370450868951,0.000401205274679837,0.00286009251211064,2020-08-28
"160",79.5,0.00535039567697113,0.00141793458649996,0.000405541689695707,0.00287796868333342,2020-08-28
"161",80,0.00538169843648894,0.0014313680873752,0.000409922206705715,0.00289581032159733,2020-08-29
"162",80.5,0.00541288259423825,0.00144446072250712,0.000414347203242383,0.00291361489874032,2020-08-29
"163",81,0.0054439426804902,0.00145764098437168,0.000418817059064687,0.00293137986977744,2020-08-30
"164",81.5,0.00547487319156137,0.00147090876538887,0.000423332156106041,0.00294910267383371,2020-08-30
"165",82,0.00550566859176635,0.0014829374520356,0.000427892878422786,0.00296678073509457,2020-08-31
"166",82.5,0.00553632331540444,0.00149610687812178,0.000432499612143082,0.00298441146377376,2020-08-31
"167",83,0.00556683176878027,0.00151008332158015,0.000437152745416032,0.00300199225709815,2020-09-01
"168",83.5,0.00559718833225749,0.00152090339533094,0.000441852668360941,0.00301952050030921,2020-09-01
"169",84,0.00562738736234513,0.00153004828532767,0.000446599773016589,0.00303699356768086,2020-09-02
"170",84.5,0.0056574231938159,0.00154322478306986,0.000451394453290385,0.00305440882355314,2020-09-02
"171",85,0.00568729014185558,0.00155772239333938,0.000456237104907328,0.00307176362338145,2020-09-03
"172",85.5,0.00571698250424298,0.00157173600188058,0.000461128125358646,0.00308905531480081,2020-09-03
"173",86,0.00574649456355934,0.00157981382633404,0.000466067913850029,0.00310628123870468,2020-09-04
"174",86.5,0.00577582058942655,0.00158951492078591,0.000471056871249373,0.00312343873033796,2020-09-04
"175",87,0.00580495484077309,0.00160083765457669,0.000476095400033924,0.00314052512040351,2020-09-05
"176",87.5,0.00583389156812675,0.00161123170126745,0.000481183904236764,0.00315753773618176,2020-09-05
"177",88,0.00586262501593311,0.00162414417849643,0.000486322789392542,0.00317447390266282,2020-09-06
"178",88.5,0.00589114942489869,0.00164233897827386,0.000491512462482384,0.00319133094369054,2020-09-06
"179",89,0.00591945903435766,0.00165175733089823,0.000496753331877894,0.00320810618311778,2020-09-07
"180",89.5,0.00594754808466078,0.0016581200563557,0.000502045807284204,0.00322479694597249,2020-09-07
"181",90,0.00597541081958563,0.00166298527742053,0.000507390299681962,0.00324140055963379,2020-09-08
"182",90.5,0.0060030414887665,0.00167283391389456,0.000512787221268245,0.00325791435501737,2020-09-08
"183",91,0.00603043435014296,0.00167920129484624,0.00051823698539628,0.00327433566776962,2020-09-09
"184",91.5,0.00605758367242548,0.00168641038270248,0.000523740006513963,0.00329066183946972,2020-09-09
"185",92,0.00608448373757681,0.0016957090661777,0.00052737476256616,0.00330592925007148,2020-09-10
"186",92.5,0.00611112884330775,0.00170503311001552,0.000525858512938137,0.00331849367812294,2020-09-10
"187",93,0.00613751330558563,0.00171438216763843,0.000524342457192449,0.00333092788138904,2020-09-11
"188",93.5,0.00616363146115415,0.00172362420535567,0.000522826628448323,0.00334322904480123,2020-09-11
"189",94,0.00618947767006292,0.00173391720803745,0.000521311059785172,0.00335539436492405,2020-09-12
"190",94.5,0.00621504631820516,0.00173916567358504,0.000519795784230996,0.00336742105121808,2020-09-12
"191",95,0.00624033181986189,0.00174439697485035,0.000518280834751456,0.00337930632730667,2020-09-13
"192",95.5,0.00626532862025097,0.00174961077331841,0.000516766244239627,0.0033910474322453,2020-09-13
"193",96,0.00629003119807931,0.00176261068527561,0.000515252045506355,0.00340264162179283,2020-09-14
"194",96.5,0.00631443406809649,0.00176973933947203,0.000513738271271199,0.00341408616968385,2020-09-14
"195",97,0.00633853178364813,0.00177519797801402,0.000512224954153919,0.00342537836890102,2020-09-15
"196",97.5,0.00636231893922709,0.00178306253921614,0.000510712126666478,0.00343651553294679,2020-09-15
"197",98,0.00638579017302097,0.00179451719961112,0.000509199821205529,0.00344749499711325,2020-09-16
"198",98.5,0.00640894016945374,0.00180765038099352,0.000507688070045346,0.00345831411974954,2020-09-16
"199",99,0.00643176366172003,0.00182153641760987,0.000506176905331198,0.00346897028352562,2020-09-17
"200",99.5,0.00645425543431005,0.00183549489454416,0.000504666359073112,0.00347946089669158,2020-09-17
"201",100,0.00647641032552321,0.00184952553535179,0.000503156463140022,0.00348978339433161,2020-09-18
"202",100.5,0.00649822322996884,0.00186362805076656,0.00050164724925427,0.00349993523961156,2020-09-18
"203",101,0.00651968910105187,0.00187780213847381,0.000500138748986444,0.00350991392501915,2020-09-19
"204",101.5,0.00654080295344168,0.00189204748288604,0.000498630993750535,0.00351971697359611,2020-09-19
"205",102,0.00656155986552233,0.00190636375492105,0.000497124014799385,0.00352934194016086,2020-09-20
"206",102.5,0.00658195498182213,0.00191708406767372,0.00049561784322042,0.00353878641252127,2020-09-20
"207",103,0.00660198351542075,0.00192710710042027,0.000494112509931645,0.0035480480126762,2020-09-21
"208",103.5,0.00662164075033196,0.00193715301645424,0.000492608045677891,0.00355712439800493,2020-09-21
"209",104,0.00664092204386016,0.00194722143890013,0.000491104481027291,0.00356601326244373,2020-09-22
"210",104.5,0.00665982282892876,0.00195731198485878,0.000489601846367983,0.00357471233764837,2020-09-22
"211",105,0.00667833861637859,0.00197098632597751,0.000488100171905018,0.0035832193941418,2020-09-23
"212",105.5,0.00669646499723454,0.00198643537692106,0.000486599487657464,0.003591532242446,2020-09-23
"213",106,0.0067141976449385,0.00200196319774646,0.000485099823455704,0.0035996487341971,2020-09-24
"214",106.5,0.00673153231754682,0.00201756935481461,0.000483601208938897,0.00360756676324286,2020-09-24
"215",107,0.00674846485989057,0.00203325339633687,0.000482103673552612,0.00361528426672159,2020-09-25
"216",107.5,0.0067649912056967,0.00204900612090163,0.000480607246546623,0.00362279922612166,2020-09-25
"217",108,0.00678110737966849,0.00205581469361779,0.000479111956972837,0.00363010966832066,2020-09-26
"218",108.5,0.00679680949952341,0.00206082365846002,0.00047761783368338,0.0036372136666034,2020-09-26
"219",109,0.00681209377798688,0.00206421203916353,0.0004761249053288,0.00364410934165784,2020-09-27
"220",109.5,0.0068269565247401,0.00207287373458683,0.000474633200356404,0.00365079486254825,2020-09-27
"221",110,0.00684139414832042,0.00208445334515851,0.000473142747008712,0.00365726844766457,2020-09-28
"222",110.5,0.00685540315797272,0.00209049539746111,0.000471653573322016,0.00366352836564737,2020-09-28
"223",111,0.00686898016545002,0.00210220999058446,0.000470165707125057,0.00366957293628754,2020-09-29
"224",111.5,0.00688212188676211,0.00210759647583418,0.000468679176037794,0.00367540053139995,2020-09-29
"225",112,0.00689482514387048,0.00211255103156064,0.00046719400747027,0.00368100957567038,2020-09-30
"226",112.5,0.0069070868663283,0.00212124166978751,0.000465710228621567,0.00368639854747493,2020-09-30
"227",113,0.00691890409286391,0.00213069376033097,0.000464227866478853,0.00369156597967138,2020-10-01
"228",113.5,0.00693027397290668,0.00214376934214213,0.000462746947816503,0.00369651046036159,2020-10-01
"229",114,0.00694119376805382,0.00216090985362222,0.000461267499195299,0.00370123063362456,2020-10-02
"230",114.5,0.00695166085347691,0.00217849935104931,0.000459789546961708,0.00370572520021931,2020-10-02
"231",115,0.00696167271926709,0.00218752359592574,0.000458313117247225,0.00370999291825716,2020-10-03
"232",115.5,0.00697122697171771,0.00219801956452231,0.000456838235967783,0.00371403260384274,2020-10-03
"233",116,0.00698032133454332,0.00221309080805487,0.000455364928823228,0.00371784313168327,2020-10-04
"234",116.5,0.00698895365003416,0.00222817977143364,0.000453893221296852,0.00372142343566551,2020-10-04
"235",117,0.00699712188014508,0.00224483939801847,0.000452423138654985,0.00372477250940003,2020-10-05
"236",117.5,0.00700482410751798,0.00225644327785388,0.000450954705946642,0.00372788940673231,2020-10-05
"237",118,0.00701205853643707,0.00226891369697813,0.000449487948003217,0.00373077324222014,2020-10-06
"238",118.5,0.00701882349371613,0.00228712294398793,0.000448022889438238,0.00373342319157718,2020-10-06
"239",119,0.00702511742951699,0.0023038320518448,0.000446559554647154,0.00373583849208207,2020-10-07
"240",119.5,0.00703093891809877,0.00231979416092679,0.00044509796780718,0.00373801844295297,2020-10-07
"241",120,0.00703628665849718,0.00233380779201546,0.000443638152877179,0.00373996240568718,2020-10-08
"242",120.5,0.00704115947513339,0.0023421358755884,0.00044218013359759,0.00374166980436549,2020-10-08
"243",121,0.00704555631835216,0.00235606190131241,0.000440723933490388,0.00374314012592127,2020-10-09
"244",121.5,0.00704947626488867,0.00236235622565941,0.00043926957585909,0.00374437292037388,2020-10-09
"245",122,0.00705291851826394,0.00236992410883975,0.000437817083788791,0.00374536780102637,2020-10-10
"246",122.5,0.00705588240910848,0.00238347711990493,0.000436366480146242,0.00374612444462736,2020-10-10
"247",123,0.00705836739541408,0.00239130001421392,0.000434917787579953,0.00374664259149702,2020-10-11
"248",123.5,0.00706037306271361,0.0024011499979319,0.000433471028520333,0.00374692204561697,2020-10-11
"249",124,0.00706189912418884,0.0024075278890731,0.000432026225179863,0.00374696267468435,2020-10-12
"250",124.5,0.00706294542070628,0.00242001575237048,0.000430583399553291,0.00374676441012979,2020-10-12
"251",125,0.00706351192078117,0.00243116980228756,0.000429142573417863,0.00374632724709951,2020-10-13
"252",125.5,0.00706359872046981,0.00244045838383386,0.000427703768333577,0.00374565124440169,2020-10-13
"253",126,0.00706320604319049,0.00245785171635336,0.000426267005643464,0.00374473652441698,2020-10-14
"254",126.5,0.00706233423947328,0.00247522885371097,0.000424832306473897,0.00374358327297359,2020-10-14
"255",127,0.0070609837866391,0.00249230221767107,0.00042339969173492,0.00374219173918701,2020-10-15
"256",127.5,0.00705915528840846,0.00250626569844387,0.000421969182120601,0.00374056223526453,2020-10-15
"257",128,0.00705684947444056,0.00251671598112244,0.000420540798109417,0.00373869513627499,2020-10-16
"258",128.5,0.00705406719980296,0.00251957259215001,0.000419114559964644,0.0037365908798838,2020-10-16
"259",129,0.00705080944437293,0.00252520851627829,0.000417690487734781,0.00373424996605386,2020-10-17
"260",129.5,0.00704707731217072,0.00254042017964725,0.000416268601253995,0.00373167295671236,2020-10-17
"261",130,0.00704287203062583,0.00254705488630858,0.000414848920142573,0.0037288604753842,2020-10-18
"262",130.5,0.00703819494977693,0.0025628052711647,0.000413431463807409,0.00372581320679217,2020-10-18
"263",131,0.00703304754140641,0.00257348173974796,0.000412016251442497,0.00372253189642446,2020-10-19
"264",131.5,0.00702743139811038,0.00258194866463945,0.000410603302029451,0.00371901735006992,2020-10-19
"265",132,0.00702134823230517,0.00260160558522146,0.000409192634338032,0.0037152704333216,2020-10-20
"266",132.5,0.00701479987517142,0.00261971124275173,0.000407784266926703,0.00371129207104906,2020-10-20
"267",133,0.00700778827553674,0.00263165950832544,0.000406378218143192,0.00370708324683996,2020-10-21
"268",133.5,0.00700031549869817,0.0026344799860207,0.000404974506125075,0.00370264500241162,2020-10-21
"269",134,0.00699238372518562,0.00263813439919581,0.000403573148800369,0.00369797843699299,2020-10-22
"270",134.5,0.00698399524946746,0.00264977581691893,0.000402174163888149,0.00369308470667781,2020-10-22
"271",135,0.00697515247859968,0.00265364983696745,0.000400777568899167,0.00368796502374943,2020-10-23
"272",135.5,0.0069658579308198,0.00265643040612265,0.000399383381136497,0.00368262065597815,2020-10-23
"273",136,0.00695611423408698,0.00266340364337088,0.000397991617696184,0.00367705292589158,2020-10-24
"274",136.5,0.00694592412456979,0.00267045426879722,0.00039660229546791,0.00367126321001885,2020-10-24
"275",137,0.00693529044508293,0.00268333175354673,0.000395215431135676,0.00366525293810931,2020-10-25
"276",137.5,0.00692421614347459,0.0026943842428583,0.000393831041178486,0.00365902359232654,2020-10-25
"277",138,0.00691270427096572,0.00270692644493443,0.000392449141871058,0.00365257670641839,2020-10-26
"278",138.5,0.00690075798044302,0.00271644026534601,0.000391069749284529,0.00364591386486378,2020-10-26
"279",139,0.00688838052470707,0.00272847760494401,0.000389692879287187,0.00363903670199713,2020-10-27
"280",139.5,0.00687557525467716,0.00274064726866193,0.000388318547545205,0.00363194690111118,2020-10-27
"281",140,0.00690956799482522,0.00275276892906113,0.000386946769523388,0.00364825738217431,2020-10-28
"282",140.5,0.00698193931659676,0.00276434293004123,0.00038557756048593,0.00368375843854135,2020-10-28
"283",141,0.00705438995019595,0.00277535861789849,0.000384210935497178,0.00371930044284657,2020-10-29
"284",141.5,0.00712690021910453,0.0027863505810298,0.000382846909422416,0.00375487356426347,2020-10-29
"285",142,0.00719945003900889,0.00279731775491214,0.000381485496928645,0.00379046776796877,2020-10-30
"286",142.5,0.0072720189237948,0.00280825906686826,0.000380126712485379,0.00382607281814009,2020-10-30
"287",143,0.00734458599212015,0.0028163199006791,0.000378770570365454,0.0038616782812428,2020-10-31
"288",143.5,0.00741712997457302,0.00282834262678069,0.000377417084645836,0.00389727352960943,2020-10-31
"289",144,0.00748962922142125,0.00283725156718347,0.000376066269208442,0.00393284774531484,2020-11-01
"290",144.5,0.00756206171095909,0.00284925627463137,0.000374718137740975,0.00396838992435003,2020-11-01
"291",145,0.00763440505845538,0.00286065627326542,0.000373372703737757,0.00400388888109657,2020-11-02
"292",145.5,0.0077066365257067,0.00286787481475884,0.000372029980500573,0.00403933325310364,2020-11-02
"293",146,0.00777873303119818,0.00287501123418674,0.000370689981139529,0.00407471150616885,2020-11-03
"294",146.5,0.00785067116087322,0.00288398165420453,0.000369352718573906,0.00411001193972356,2020-11-03
"295",147,0.00792242717951268,0.00289389285191997,0.00036801820553303,0.00414522269252285,2020-11-04
"296",147.5,0.00799397704272263,0.00289986355711641,0.000366686454557147,0.00418033174863989,2020-11-04
"297",148,0.00806529640952881,0.0029048274277616,0.000365357477998299,0.00421532694376356,2020-11-05
"298",148.5,0.00813636065557466,0.0029075115918107,0.000364031288021215,0.00425019597179794,2020-11-05
"299",149,0.00820714488691855,0.00291482257339585,0.000362707896604201,0.00428492639176137,2020-11-06
"300",149.5,0.0082776239544247,0.00293011027459909,0.000361387315540042,0.00431950563498237,2020-11-06
"301",150,0.00834777246874086,0.00294062171816624,0.000360069556436903,0.00435392101258888,2020-11-07
"302",150.5,0.00841756481585455,0.00294861664589127,0.000358754630719243,0.00438815972328689,2020-11-07
"303",151,0.00848697517321853,0.00295883761611731,0.000357442549628729,0.00442220886142363,2020-11-08
"304",151.5,0.00855597752643459,0.00296871599580444,0.000356133324225157,0.00445605542532988,2020-11-08
"305",152,0.00862454568648359,0.00297460827995324,0.00035482696538738,0.00448968632593548,2020-11-09
"306",152.5,0.00869265330748817,0.00298038441741675,0.000353523483814239,0.00452308839565121,2020-11-09
"307",153,0.00876027390499352,0.00298490126716468,0.000352222890025496,0.00455624839750951,2020-11-10
"308",153.5,0.0088273808747498,0.00298869144300183,0.00035092519436278,0.00458915303455629,2020-11-10
"309",154,0.00889394751197886,0.00299234900183316,0.000349630406990527,0.00462178895948469,2020-11-11
"310",154.5,0.00895994703110637,0.00299818452044891,0.000348338537896931,0.00465414278450165,2020-11-11
"311",155,0.00902535258593909,0.00300492809763573,0.000347049596894901,0.004686201091417,2020-11-12
"312",155.5,0.00909013729026605,0.00301179675432425,0.000345763593623012,0.00471795044194453,2020-11-12
"313",156,0.00915427423886052,0.00301748919389827,0.000344480537546473,0.0047493773882035,2020-11-13
"314",156.5,0.00921773652885917,0.00302230409318288,0.000343200437958085,0.00478046848340863,2020-11-13
"315",157,0.00928049728149274,0.00302699510464236,0.000341923303979215,0.00481121029273598,2020-11-14
"316",157.5,0.00934252966414214,0.00303156146244829,0.000340649144560766,0.00484158940435145,2020-11-14
"317",158,0.00940380691269217,0.00303463788906661,0.000339377968484152,0.00487159244058816,2020-11-15
"318",158.5,0.00946430235415413,0.00303750809754922,0.000338109784362273,0.0049012060692582,2020-11-15
"319",159,0.00952398942952776,0.00304025958924394,0.000336844600640501,0.00493041701508413,2020-11-16
"320",159.5,0.00958284171687136,0.00304293132085765,0.000335582425597662,0.00495921207123451,2020-11-16
"321",160,0.00964083295454874,0.0030551247039355,0.00033432326734702,0.00498757811094788,2020-11-17
"322",160.5,0.00969793706461992,0.00306728226278425,0.000333067133837269,0.00501550209922859,2020-11-17
"323",161,0.00975412817634246,0.00307373724992939,0.000331814032853522,0.00504297110459799,2020-11-18
"324",161.5,0.00980938064974896,0.00308471284319416,0.000330563972018307,0.00506997231088363,2020-11-18
"325",162,0.0098636690992657,0.00309581776204785,0.00032931695879256,0.00509649302902913,2020-11-19
"326",162.5,0.00991696841733712,0.00310429536300972,0.000328073000476625,0.00512252070890687,2020-11-19
"327",163,0.00996925379801968,0.00310607319928675,0.000326832104211251,0.00514804295111546,2020-11-20
"328",163.5,0.0100205007605087,0.00310750642219156,0.000325594276978597,0.00517304751874366,2020-11-20
"329",164,0.0100706851725613,0.00310881714870295,0.000324359525603231,0.00519752234908228,2020-11-21
"330",164.5,0.0101197832737778,0.00311000518135948,0.000323127856753137,0.00522145556526546,2020-11-21
"331",165,0.0101677716987043,0.00311802566331727,0.00032189927694072,0.00524483548782251,2020-11-22
"332",165.5,0.0102146274997194,0.00312935505457766,0.000320673792523812,0.00526765064612158,2020-11-22
"333",166,0.010260328169666,0.0031339216453608,0.000319451409706682,0.00528988978968633,2020-11-23
"334",166.5,0.0103048516641925,0.00313122958128967,0.000318232134541045,0.00531154189936676,2020-11-23
"335",167,0.0103481764237642,0.00313760464674278,0.00031701597292707,0.00533259619834562,2020-11-24
"336",167.5,0.0103902813953091,0.00313885857412827,0.000315802930614396,0.00535304216296175,2020-11-24
"337",168,0.0104311460534606,0.00314101967699241,0.000314593013203136,0.00537286953333189,2020-11-25
"338",168.5,0.010470750421361,0.00314769851648676,0.000313386226144897,0.00539206832375294,2020-11-25
"339",169,0.0105090750909896,0.00315425825031928,0.000312182574743789,0.00541062883286668,2020-11-26
"340",169.5,0.0105461012429812,0.00316069778980775,0.000310982064157437,0.0054285416535693,2020-11-26
"341",170,0.0105818106658994,0.00317144948774526,0.000309784699397998,0.0054457976826487,2020-11-27
"342",170.5,0.0106161857749318,0.00318432259673451,0.000308590485333172,0.00546238813013248,2020-11-27
"343",171,0.0106492096299738,0.00319493440559417,0.000307399426687216,0.00547830452833052,2020-11-28
"344",171.5,0.0106808659530703,0.0031969844934899,0.000306211528041959,0.00549353874055615,2020-11-28
"345",172,0.0107111391451833,0.00320664729602436,0.000305026793837815,0.00550808296951057,2020-11-29
"346",172.5,0.0107400143022569,0.00321875823780187,0.000303845228374795,0.00552192976531585,2020-11-29
"347",173,0.0107674772305512,0.00322187957333587,0.000302666835813523,0.00553507203318237,2020-11-30
"348",173.5,0.0107935144612181,0.00322400672795482,0.000301491620176245,0.00554750304069718,2020-11-30
"349",174,0.0108181132640933,0.00322539558409098,0.000300319585347845,0.00555921642472058,2020-12-01
"350",174.5,0.0108412616606809,0.00322334249022463,0.000299150735076853,0.0055702061978789,2020-12-01
"351",175,0.0108629484363078,0.00322565197442981,0.000297985072976458,0.00558046675464211,2020-12-02
"352",175.5,0.0108831631514263,0.00322842114255537,0.000296822602525519,0.00558999287697589,2020-12-02
"353",176,0.0109018961520472,0.00323102722162491,0.000295663327069571,0.00559877973955838,2020-12-03
"354",176.5,0.010919138579284,0.00322751762807432,0.000294507249821837,0.00560682291455293,2020-12-03
"355",177,0.0109348823779932,0.00322390742805475,0.000293354373864233,0.00561411837592873,2020-12-04
"356",177.5,0.0109491203044966,0.00322019697413262,0.000292204702148376,0.00562066250332247,2020-12-04
"357",178,0.0109618459333727,0.00321638663225746,0.000291058237496587,0.00562645208543463,2020-12-05
"358",178.5,0.0109730536633078,0.00321247678168549,0.000289914982602896,0.00563148432295532,2020-12-05
"359",179,0.0109827387219966,0.00321640794102124,0.000288774940034046,0.00563575683101533,2020-12-06
"360",179.5,0.0109908971700874,0.00322128539360685,0.000287638112230489,0.00563926764115895,2020-12-06
"361",180,0.0109975259041651,0.00322796470414824,0.000286504501507393,0.00564201520283625,2020-12-07
"362",180.5,0.0110026226587708,0.00323649966629242,0.000285374110055632,0.00564399838441323,2020-12-07
"363",181,0.0110061860074559,0.00324353094538607,0.000284246939942791,0.00564521647369933,2020-12-08
"364",181.5,0.0110082153628715,0.00324990628722125,0.000283122993114151,0.00564566917799282,2020-12-08
"365",182,0.0110087109758969,0.003247558903521,0.000282002271393689,0.0056453566236453,2020-12-09
"366",182.5,0.0110076739338102,0.00324560764307828,0.000280884776485068,0.00564427935514765,2020-12-09
"367",183,0.0110051061575087,0.00324683373884203,0.000279770509972622,0.00564243833374067,2020-12-10
"368",183.5,0.0110010103977867,0.00325311442641116,0.000278659473322347,0.00563983493555455,2020-12-10
"369",184,0.0109953902306812,0.00325597993837527,0.000277551667882884,0.00563647094928203,2020-12-11
"370",184.5,0.0109882500518964,0.00326319007285645,0.000276447094886504,0.00563234857339145,2020-12-11
"371",185,0.010979595070322,0.00327231107761896,0.000275345755450086,0.00562747041288604,2020-12-12
"372",185.5,0.0109694313006587,0.0032801445974726,0.000274247650576096,0.00562183947561742,2020-12-12
"373",186,0.0109577655551692,0.00328651122121254,0.000273152781153565,0.00561545916816136,2020-12-13
"374",186.5,0.0109446054345713,0.00329275692388197,0.000272061147959059,0.0056083332912652,2020-12-13
"375",187,0.0109299593180957,0.00329888074876974,0.000270972751657655,0.00560046603487668,2020-12-14
"376",187.5,0.0109138363527258,0.00330488175597142,0.000269887592803905,0.00559186197276485,2020-12-14
"377",188,0.0108962464416461,0.00331075902268963,0.000268805671842806,0.00558252605674445,2020-12-15
"378",188.5,0.0108772002319202,0.00331651164352971,0.000267726989110759,0.0055724636105155,2020-12-15
"379",189,0.0108567091014253,0.00331929221419114,0.000266651544836536,0.00556168032313092,2020-12-16
"380",189.5,0.010834785145068,0.00332077645181986,0.000265579339142232,0.00555018224210509,2020-12-16
"381",190,0.0108114411603103,0.0033221161105715,0.000264510372044225,0.00553797576617724,2020-12-17
"382",190.5,0.0107866906320331,0.00332331110456032,0.000263444643454126,0.00552506763774361,2020-12-17
"383",191,0.0107605477167667,0.00332653023445427,0.000262382153179728,0.0055114649349732,2020-12-18
"384",191.5,0.0107330272263182,0.00333157805351156,0.000261322900925956,0.00549717506362208,2020-12-18
"385",192,0.0107041446108274,0.00333577213339193,0.000260266886295806,0.00548220574856161,2020-12-19
"386",192.5,0.0106739159412817,0.00333981869923301,0.00025921410879129,0.00546656502503648,2020-12-19
"387",193,0.0106423578915225,0.00334292861257573,0.000258164567814372,0.00545026122966844,2020-12-20
"388",193.5,0.0106094877197763,0.00334373542340546,0.000257118262667901,0.00543330299122211,2020-12-20
"389",194,0.010575323249742,0.00334440258734386,0.000256075192556543,0.00541569922114929,2020-12-21
"390",194.5,0.0105398828512694,0.00334599830810753,0.000255035356587711,0.00539745910392855,2020-12-21
"391",195,0.0105031854206609,0.00334989155157714,0.000253998753772487,0.00537859208721671,2020-12-22
"392",195.5,0.0104652503606318,0.00334694048511645,0.000252965383026545,0.00535910787182917,2020-12-22
"393",196,0.010426097559961,0.00334599024232984,0.000251935243171069,0.00533901640156601,2020-12-23
"394",196.5,0.0103857473728678,0.00334136582424065,0.000250908332933667,0.00531832785290071,2020-12-23
"395",197,0.0103442205981474,0.00333716939828491,0.000249884650949282,0.00529705262454835,2020-12-24
"396",197.5,0.0103015384580991,0.00333360852358721,0.000248864195761103,0.00527520132693009,2020-12-24
"397",198,0.01025772257728,0.00332940176643819,0.000247846965821463,0.00525278477155071,2020-12-25
"398",198.5,0.0102127949611183,0.00332386831382964,0.000246832959492748,0.0052298139603055,2020-12-25
"399",199,0.010166777974418,0.00331726845273721,0.000245822175048285,0.00520630007473313,2020-12-26
"400",199.5,0.0101196943197876,0.00330959192321083,0.000244814610673244,0.00518225446523044,2020-12-26
"401",200,0.0100715670160247,0.00330116224507112,0.000243810264465523,0.0051576886402451,2020-12-27
"402",200.5,0.0100224193764869,0.00329747652942111,0.000242809134436634,0.00513261425546176,2020-12-27
"403",201,0.00997227498748145,0.00329365101102466,0.000241811218512589,0.00510704310299702,2020-12-28
"404",201.5,0.00992115768670145,0.00328746113714356,0.000240816514534774,0.00508098710061811,2020-12-28
"405",202,0.00986909154173917,0.00327611146814602,0.00023982502026083,0.005054458281,2020-12-29
"406",202.5,0.00981610082870468,0.00326620037955371,0.000238836733365517,0.0050274687810351,2020-12-29
"407",203,0.00976221001097727,0.00326083125013893,0.000237851651441588,0.00500003083120943,2020-12-30
"408",203.5,0.00970744371811666,0.00325726364833809,0.000236869772000648,0.00497215674505865,2020-12-30
"409",204,0.00965182672495987,0.0032477591135003,0.000235891092474015,0.00494385890871694,2020-12-31
"410",204.5,0.00959538393092879,0.00323572257311782,0.000234915610213576,0.00491514977057118,2020-12-31
"411",205,0.0095381403395725,0.00322359515881124,0.000233943322492637,0.00488604183103257,2021-01-01
"412",205.5,0.0094801210383674,0.00321137877232247,0.000232974226506775,0.00485654763243709,2021-01-01
"413",206,0.0094213511787974,0.0031990753158478,0.000232008319374674,0.00482667974908604,2021-01-02
"414",206.5,0.00936185595673501,0.00318668669151527,0.000231045598138975,0.00479645077743699,2021-01-02
"415",207,0.00930166059314353,0.00317376952256163,0.000230086059767101,0.00476587332645532,2021-01-03
"416",207.5,0.00924079031511935,0.00316601262453041,0.000229129701152095,0.00473496000813572,2021-01-03
"417",208,0.00920060370156178,0.00315748862630155,0.000228176519113448,0.00471439011033761,2021-01-04
"418",208.5,0.00918133475212978,0.00314970375433013,0.000227226510397918,0.00470428063126385,2021-01-04
"419",209,0.00916149406841102,0.00314339258501718,0.000226279671680351,0.00469388687004569,2021-01-05
"420",209.5,0.0091410870647665,0.00313833038825705,0.0002253359995645,0.0046832115321655,2021-01-05
"421",210,0.00912011927835517,0.00313257444353558,0.000224395490583828,0.0046722573844695,2021-01-06
"422",210.5,0.00909859636612268,0.00312669561332638,0.000223458141202322,0.0046610272536625,2021-01-06
"423",211,0.00907652410174772,0.00312069484274036,0.000222523947815292,0.00464952402478151,2021-01-07
"424",211.5,0.00905390837254853,0.00311457309412589,0.000221592906750172,0.00463775063964935,2021-01-07
"425",212,0.0090307551763523,0.00310833134675874,0.000220665014267307,0.0046257100953098,2021-01-08
"426",212.5,0.00900707061833007,0.0031019705965275,0.000219740266560753,0.00461340544244541,2021-01-08
"427",213,0.00898286090779984,0.00309549185561475,0.000218818659759056,0.00460083978377945,2021-01-09
"428",213.5,0.00895813235500044,0.00308830869887691,0.000217900189926032,0.00458801627246324,2021-01-09
"429",214,0.00893289136783897,0.00307633624982913,0.000216984853061549,0.00457493811045026,2021-01-10
"430",214.5,0.0089071444486143,0.0030671565498617,0.000216072645102297,0.0045616085468583,2021-01-10
"431",215,0.00888089819071936,0.00305788525103505,0.000215163561922557,0.00454803087632096,2021-01-11
"432",215.5,0.00885415927532482,0.00304852394097362,0.000214257599334964,0.00453420843732989,2021-01-11
"433",216,0.00882693446804675,0.00304699230859848,0.000213354753091266,0.00452014461056901,2021-01-12
"434",216.5,0.00879923061560081,0.00304784131706424,0.000212455018883082,0.00450584281724195,2021-01-12
"435",217,0.00877105464244564,0.00304126840698846,0.000211558392342652,0.00449130651739415,2021-01-13
"436",217.5,0.00874241354741787,0.00303404002642091,0.000210664869043583,0.00447653920823073,2021-01-13
"437",218,0.00871331440036134,0.0030267051013489,0.000209774444501588,0.00446154442243147,2021-01-14
"438",218.5,0.00868376433875296,0.00301926491141577,0.000208887114175233,0.0044463257264641,2021-01-14
"439",219,0.00865377056432772,0.00301397069016172,0.00020800287346666,0.00443088671889719,2021-01-15
"440",219.5,0.00862334033970517,0.00300967841758855,0.000207121717722322,0.00441523102871374,2021-01-15
"441",220,0.0085924809850199,0.00300267318754998,0.000206243642233706,0.0043993623136268,2021-01-16
"442",220.5,0.00856119987455823,0.00299422589226013,0.000205368642238056,0.00438328425839814,2021-01-16
"443",221,0.00855787501718489,0.00298417111480185,0.000204496712919082,0.00438118586505199,2021-01-17
"444",221.5,0.00857156655478855,0.00297021668972681,0.00020362784940768,0.00438759720209811,2021-01-17
"445",222,0.00858467602700216,0.0029561749278119,0.000202762046782632,0.0043937190368924,2021-01-18
"446",222.5,0.0085972001175711,0.00294657547626263,0.000201899300071312,0.00439954970882121,2021-01-18
"447",223,0.00860913566690129,0.00293637182997742,0.000201039604250383,0.00440508763557584,2021-01-19
"448",223.5,0.00862047967373029,0.0029236231693373,0.000200182954246492,0.00441033131398839,2021-01-19
"449",224,0.00863122929670864,0.00291089662648574,0.000199329344936959,0.0044152793208228,2021-01-20
"450",224.5,0.00864138185589026,0.00290061119814723,0.000198478771150458,0.00441993031352036,2021-01-20
"451",225,0.00865093483413023,0.00288902540085885,0.000197631227667705,0.00442428303089897,2021-01-21
"452",225.5,0.00865988587838905,0.00287728987860819,0.000196786709222125,0.00442833629380559,2021-01-21
"453",226,0.00866823280094206,0.00286363466199284,0.000195945210500531,0.0044320890057213,2021-01-22
"454",226.5,0.00867597358049297,0.00284992254879745,0.000195106726143789,0.00443554015331838,2021-01-22
"455",227,0.00868310636319059,0.00283706000899935,0.000194271250747476,0.00443868880696903,2021-01-23
"456",227.5,0.00868962946354794,0.00283233108421522,0.000193438778862545,0.00444153412120524,2021-01-23
"457",228,0.00869554136526287,0.00282846551413347,0.000192609304995976,0.00444407533512942,2021-01-24
"458",228.5,0.00870084072193958,0.00282450803699873,0.000191782823611423,0.0044463117727755,2021-01-24
"459",229,0.00870552635771056,0.00281593986287293,0.000190959329129862,0.00444824284342021,2021-01-25
"460",229.5,0.0087095972677583,0.00280631448651054,0.000190138815930233,0.00444986804184427,2021-01-25
"461",230,0.00871305261873663,0.00279865909869051,0.00018932127835007,0.00445118694854335,2021-01-26
"462",230.5,0.00871589174909125,0.00278743192726206,0.000188506710686138,0.0044521992298887,2021-01-26
"463",231,0.00871811416927935,0.00277393723453371,0.000187695107195059,0.0044529046382372,2021-01-27
"464",231.5,0.00871971956188828,0.002752122118148,0.000186886462093935,0.00445330301199111,2021-01-27
"465",232,0.00872070778165335,0.00273957430258864,0.000186080769560965,0.00445339427560716,2021-01-28
"466",232.5,0.00872107885537475,0.00273050447822313,0.00018527802373606,0.0044531784395554,2021-01-28
"467",233,0.00872083298173399,0.00271296655114876,0.000184478218721454,0.00445265560022772,2021-01-29
"468",233.5,0.00871997053101014,0.00269568985727402,0.000183681348582306,0.00445182593979622,2021-01-29
"469",234,0.00871849204469632,0.00268383241463631,0.000182887407347306,0.00445068972602181,2021-01-30
"470",234.5,0.00871639823501691,0.00266415078928756,0.000182096389009264,0.00444924731201309,2021-01-30
"471",235,0.00871368998434624,0.00263602774822709,0.000181308287525712,0.00444749913593598,2021-01-31
"472",235.5,0.00871036834452941,0.0026211154854643,0.000180523096819483,0.00444544572067445,2021-01-31
"473",236,0.00870643453610603,0.00260446131973355,0.0001797408107793,0.00444308767344267,2021-02-01
"474",236.5,0.00870188994743794,0.00259014970666596,0.00017896142326035,0.00444042568534915,2021-02-01
"475",237,0.00869673613374173,0.00257585474824982,0.000178184928084866,0.0044374605309133,2021-02-02
"476",237.5,0.00869097481602732,0.00256378894959707,0.000177411319042691,0.00443419306753501,2021-02-02
"477",238,0.00868460787994369,0.0025544376499808,0.000176640589891848,0.00443062423491777,2021-02-03
"478",238.5,0.00867763737453305,0.00254304367462308,0.000175872734359099,0.00442675505444608,2021-02-03
"479",239,0.00867006551089491,0.00253162871895011,0.000175107746140505,0.00442258662851771,2021-02-04
"480",239.5,0.00866189466076126,0.00252378011529082,0.00017434561890198,0.00441812013983162,2021-02-04
"481",240,0.00865312735498461,0.00251358711846692,0.000173586346279835,0.00441335685063222,2021-02-05
"482",240.5,0.00864376628194038,0.00250112734282501,0.000172829921881329,0.00440829810191086,2021-02-05
"483",241,0.00863381428584529,0.00248865982899961,0.000172076339285207,0.00440294531256525,2021-02-06
"484",241.5,0.00862327436499352,0.00247748311501156,0.000171325592042233,0.00439729997851788,2021-02-06
"485",242,0.00861214966991247,0.00246872639193329,0.000170577673675728,0.0043913636717941,2021-02-07
"486",242.5,0.00860044350143997,0.00246395898216464,0.000169832577682095,0.00438513803956103,2021-02-07
"487",243,0.00858815930872484,0.00246165024046801,0.000169090297531339,0.00437862480312809,2021-02-08
"488",243.5,0.00857530068715294,0.00245721076949184,0.000168350826667595,0.00437182575691027,2021-02-08
"489",244,0.00856187137620056,0.00244741507319816,0.000167614158509634,0.0043647427673551,2021-02-09
"490",244.5,0.00854787525721743,0.00243638690778143,0.000166880286451381,0.00435737777183441,2021-02-09
"491",245,0.00853331635114151,0.00242534365918106,0.000166149203862417,0.00434973277750196,2021-02-10
"492",245.5,0.00851819881614759,0.00241357270991834,0.000165420904088487,0.00434180986011804,2021-02-10
"493",246,0.00850252694523228,0.00240036956935088,0.000164695380451993,0.00433361116284214,2021-02-11
"494",246.5,0.00848630516373732,0.00238717265696944,0.000163972626252492,0.0043251388949949,2021-02-11
"495",247,0.00846953802681386,0.00237398301572497,0.000163252634767185,0.00431639533079052,2021-02-12
"496",247.5,0.00845223021682993,0.00236080167624721,0.000162535399251407,0.00430738280804067,2021-02-12
"497",248,0.00843438654072354,0.00234762965678539,0.000161820912939103,0.00429810372683132,2021-02-13
"498",248.5,0.00841601192730383,0.00233446796315342,0.000161109169043312,0.00428856054817357,2021-02-13
"499",249,0.0083971114245028,0.00232131758867957,0.000160400160756635,0.00427875579262972,2021-02-14
"500",249.5,0.00837769019658006,0.00230817951416049,0.000159693881251714,0.00426869203891589,2021-02-14
"501",250,0.00835775352128311,0.00229505470781961,0.000158990323681689,0.0042583719224824,2021-02-15
"502",250.5,0.00833730678696565,0.00228194412526975,0.000158289481180666,0.00424779813407316,2021-02-15
"503",251,0.00831635548966654,0.00226884870948001,0.000157591346864173,0.00423697341826535,2021-02-16
"504",251.5,0.00829490523015187,0.00225576939074676,0.000156895913829614,0.00422590057199074,2021-02-16
"505",252,0.00827296171092279,0.00224270708666877,0.00015620317515672,0.00421458244303975,2021-02-17
"506",252.5,0.00825053073319152,0.00222966270212633,0.000155513123907996,0.00420302192854976,2021-02-17
"507",253,0.00822761819382825,0.00221663712926439,0.000154825753129162,0.00419122197347871,2021-02-18
"508",253.5,0.00820423008228142,0.00220363124747952,0.00015414105584959,0.00417918556906551,2021-02-18
"509",254,0.00818037247747388,0.00218833343212126,0.000153459025082742,0.00416691575127831,2021-02-19
"510",254.5,0.0081560515446776,0.00216974469898755,0.0001527796538266,0.0041544155992521,2021-02-19
"511",255,0.00813127353236938,0.00215835929892108,0.000152102935064092,0.00414168823371674,2021-02-20
"512",255.5,0.00810604476907004,0.00214982955736142,0.000151428861763512,0.00412873681541678,2021-02-20
"513",256,0.00808037166016975,0.00212970055961531,0.000150757426878945,0.00411556454352435,2021-02-21
"514",256.5,0.00805426068474179,0.00210921829017343,0.00015008862335068,0.00410217465404624,2021-02-21
"515",257,0.00802771839234738,0.00209927921453028,0.000149422444105619,0.0040885704182265,2021-02-22
"516",257.5,0.00800075139983387,0.00209145822826245,0.000148758882057688,0.00407475514094578,2021-02-22
"517",258,0.00797336638812883,0.00207955017914505,0.000148097930108242,0.00406073215911854,2021-02-23
"518",258.5,0.0079455700990323,0.00206974509832513,0.00014743958114646,0.00404650484008938,2021-02-23
"519",259,0.00791736933200969,0.00205768711045912,0.000146783828049747,0.00403207658002972,2021-02-24
"520",259.5,0.00788877094098752,0.00204102898914278,0.000146130663684125,0.00401745080233582,2021-02-24
"521",260,0.00785978183115435,0.00202533392123036,0.000145480080904622,0.00400263095602949,2021-02-25
"522",260.5,0.00783040895576914,0.00201272094322399,0.000144832072555656,0.0039876205141624,2021-02-25
"523",261,0.00780065931297921,0.00200133617094476,0.000144186631471422,0.00397242297222532,2021-02-26
"524",261.5,0.00777053994265002,0.00198997387571203,0.000143543750476264,0.00395704184656314,2021-02-26
"525",262,0.00774005792320883,0.0019806044348157,0.000142903422385054,0.00394148067279694,2021-02-27
"526",262.5,0.00770922036850438,0.0019683329967153,0.00014226564000356,0.00392574300425397,2021-02-27
"527",263,0.00767803442468452,0.00195543044504971,0.000141630396128817,0.00390983241040667,2021-02-28
"528",263.5,0.00764650726709388,0.00194255962230207,0.000140997683549489,0.00389375247532169,2021-02-28
"529",264,0.00761464609719345,0.00192716725540196,0.000140367495046227,0.00387750679611984,2021-03-01
"530",264.5,0.00758245813950394,0.00191169844777075,0.000139739823392031,0.00386109898144799,2021-03-01
"531",265,0.0075499506385748,0.00189677313410844,0.0001391146613526,0.0038445326499637,2021-03-02
"532",265.5,0.0075171308559806,0.00188329949587686,0.000138492001686682,0.00382781142883364,2021-03-02
"533",266,0.0074840060673466,0.00186989061837329,0.000137871837146421,0.00381093895224651,2021-03-03
"534",266.5,0.00745058355940499,0.00185654667882026,0.0001372541604777,0.00379391885994135,2021-03-03
"535",267,0.0074168706270837,0.0018432348639846,0.00013663896442048,0.00377675479575209,2021-03-04
"536",267.5,0.00738287457062897,0.00183005427577739,0.000136026241709138,0.00375945040616905,2021-03-04
"537",268,0.00734860269276352,0.00181706624466756,0.000135415985072796,0.00374200933891816,2021-03-05
"538",268.5,0.00731406229588154,0.00180717829650574,0.000134808187235656,0.0037244352415586,2021-03-05
"539",269,0.00727926067928191,0.00179731367637069,0.000134202840917319,0.00370673176009961,2021-03-06
"540",269.5,0.0072442051364411,0.00178803650676648,0.000133599938833115,0.00368890253763711,2021-03-06
"541",270,0.00720890295232684,0.00177882525045839,0.000132999473694414,0.00367095121301062,2021-03-07
"542",270.5,0.00717336140075386,0.0017683948734943,0.000132401438208952,0.0036528814194814,2021-03-07
"543",271,0.00713758774178287,0.00175621882807094,0.000131805825081135,0.003634696783432,2021-03-08
"544",271.5,0.00710158921916379,0.00174413165065754,0.000131212627012353,0.00361640092308807,2021-03-08
"545",272,0.00706537305782427,0.00173209140052444,0.000130621836701287,0.00359799744726278,2021-03-09
"546",272.5,0.00702894646140452,0.00172009850080028,0.000130033446844206,0.00357948995412436,2021-03-09
"547",273,0.00699231660983934,0.00170815336265675,0.000129447450135277,0.00356088202998731,2021-03-10
"548",273.5,0.00695549065698816,0.0016962563854192,0.000128863839266851,0.00354217724812751,2021-03-10
"549",274,0.00691847572831389,0.00168558951347574,0.000128282606929764,0.00352337916762183,2021-03-11
"550",274.5,0.00688127891861141,0.00167924299973447,0.000127703745813625,0.00350449133221252,2021-03-11
"551",275,0.00684390728978621,0.00167023044198092,0.000127127248607101,0.00348551726919665,2021-03-12
"552",275.5,0.00680636786868394,0.00165908744668238,0.000126553107998206,0.00346646048834107,2021-03-12
"553",276,0.00676866764497142,0.00164783907853824,0.000125981316674577,0.003447324480823,2021-03-13
"554",276.5,0.0067308135690695,0.00163650867517561,0.000125411867323754,0.00342811271819663,2021-03-13
"555",277,0.00669281255013838,0.00162543424518668,0.000124844752633458,0.00340882865138592,2021-03-14
"556",277.5,0.00665467145411571,0.00161719870444841,0.000124279965291856,0.00338947570970378,2021-03-14
"557",278,0.00661639710180779,0.0016100048529938,0.000123717497987837,0.00337005729989781,2021-03-15
"558",278.5,0.00657799626703422,0.00159949553332259,0.000123157343411273,0.00335057680522275,2021-03-15
"559",279,0.00653947567482627,0.00159052666905369,0.000122599494253286,0.00333103758453978,2021-03-16
"560",279.5,0.00650084199967906,0.00158232481444429,0.000122043943206503,0.00331144297144278,2021-03-16
"561",280,0.00646210186385778,0.00156626370576618,0.000121490682965317,0.00329179627341155,2021-03-17
"562",280.5,0.006423261835758,0.00155527981920738,0.00012093970622614,0.00327210077099207,2021-03-17
"563",281,0.00638432842832016,0.00154434314199865,0.000120391005687654,0.00325235971700391,2021-03-18
"564",281.5,0.0063453080974982,0.00153599728679759,0.000119844574051059,0.00323257633577463,2021-03-18
"565",282,0.00630620724078232,0.00152837710445404,0.00011930040402032,0.00321275382240132,2021-03-19
"566",282.5,0.00626703219577573,0.00151691981659394,0.000118758488302407,0.00319289534203907,2021-03-19
"567",283,0.00622778923882533,0.00150469155560986,0.000118218819607538,0.00317300402921644,2021-03-20
"568",283.5,0.00618848458370613,0.00149253450949222,0.000117681390649414,0.00315308298717777,2021-03-20
"569",284,0.00614912438035911,0.0014837472275205,0.000117146194145454,0.00313313528725228,2021-03-21
"570",284.5,0.00610971471368239,0.00147556702763553,0.000116613222817024,0.00311316396824971,2021-03-21
"571",285,0.00607026160237539,0.00146582958814944,0.000116082469389671,0.00309317203588253,2021-03-22
"572",285.5,0.00603077099783558,0.00145581405212087,0.000115553926593345,0.00307316246221446,2021-03-22
"573",286,0.00599124878310754,0.0014427406554441,0.000115027587162623,0.00305313818513508,2021-03-23
"574",286.5,0.00595170077188388,0.00143055248186474,0.00011450344383693,0.00303310210786041,2021-03-23
"575",287,0.00591213270755768,0.00141764775610874,0.000113981489360756,0.00301305709845922,2021-03-24
"576",287.5,0.00587255026232581,0.00140716063604464,0.000113461716483874,0.00299300598940484,2021-03-24
"577",288,0.0058329590363429,0.00139809391915353,0.000112944117961551,0.00297295157715222,2021-03-25
"578",288.5,0.00579336455692514,0.00138906976763164,0.000112428686554755,0.00295289662173995,2021-03-25
"579",289,0.00575377227780366,0.00138246119949134,0.00011191541503037,0.00293284384641701,2021-03-26
"580",289.5,0.00571418757842664,0.00137538711656854,0.000111404296161392,0.00291279593729402,2021-03-26
"581",290,0.0056746157633098,0.00136832952040447,0.000110895322727138,0.00289275554301847,2021-03-27
"582",290.5,0.00563506206143441,0.00136128863197863,0.000110388487513445,0.00287272527447393,2021-03-27
"583",291,0.00559553162569243,0.00135178865568586,0.000109883783312862,0.00285270770450264,2021-03-28
"584",291.5,0.0055560295323778,0.00134149426774298,0.000109381202924851,0.00283270536765133,2021-03-28
"585",292,0.00551656078072357,0.00132993553647396,0.000108880739155978,0.00281272075993978,2021-03-29
"586",292.5,0.00547713029248376,0.00131889325609834,0.000108382384820099,0.00279275633865193,2021-03-29
"587",293,0.00543774291155957,0.00130741949655808,0.000107886132738553,0.00277281452214906,2021-03-30
"588",293.5,0.00539840340366895,0.00130018429978962,0.000107391975740342,0.00275289768970465,2021-03-30
"589",294,0.00535911645605897,0.00129278058330223,0.000106899906662317,0.00273300818136064,2021-03-31
"590",294.5,0.00531988667726003,0.00128369786849913,0.000106409918349356,0.00271314829780469,2021-03-31
"591",295,0.0052807185968813,0.00127703159285621,0.000105922003654544,0.00269332030026792,2021-04-01
"592",295.5,0.00524161666544644,0.00126775561586248,0.000105436155439345,0.00267352641044289,2021-04-01
"593",296,0.00520258525426892,0.00125762280021372,0.000104952366573781,0.00265376881042135,2021-04-02
"594",296.5,0.00516362865536604,0.00125070242456345,0.000104470629936594,0.00263404964265132,2021-04-02
