"","time","top","med","bottom","pseudo_med","date"
"1",0,0.982185539893549,0.97691686189851,0.970801815167859,0.976493677530704,2020-06-10
"2",0.5,0.982145293980959,0.976894564269615,0.970745359542803,0.976445326761881,2020-06-10
"3",1,0.982104604036098,0.976864722430042,0.970688344863263,0.976396474449681,2020-06-11
"4",1.5,0.982063465599306,0.976820328286776,0.970630766395177,0.976347115997242,2020-06-11
"5",2,0.982021874176286,0.976775310829412,0.97057261938144,0.976297246778863,2020-06-12
"6",2.5,0.98197982523808,0.976748105680004,0.970513899042178,0.976246862140129,2020-06-12
"7",3,0.981937314221051,0.976729483613076,0.970454600575041,0.976195957398046,2020-06-13
"8",3.5,0.98189433652687,0.976693284108082,0.970394719155494,0.976144527841182,2020-06-13
"9",4,0.981850887522508,0.976665174201245,0.970334249937133,0.97609256872982,2020-06-14
"10",4.5,0.981806962540245,0.976645272510295,0.970273188051999,0.976040075296122,2020-06-14
"11",5,0.981762556877677,0.976625093638555,0.970211528610918,0.975987042744297,2020-06-15
"12",5.5,0.981717665797736,0.976604633822389,0.970149266703841,0.975933466250788,2020-06-15
"13",6,0.981672284528716,0.976583889249844,0.9700863974002,0.975879340964458,2020-06-16
"14",6.5,0.981631748613296,0.97656285606012,0.970022915749281,0.975827332181288,2020-06-16
"15",7,0.981608562375711,0.976539997638637,0.9699588167806,0.975783689578156,2020-06-17
"16",7.5,0.981585014989407,0.976514253425752,0.969894095504303,0.975739555246855,2020-06-17
"17",8,0.981561100975057,0.976471503841293,0.969828746911566,0.975694923943312,2020-06-18
"18",8.5,0.981536814774835,0.976438872485499,0.969762765975021,0.975649790374928,2020-06-18
"19",9,0.981512150751442,0.976390091357742,0.969696147649184,0.975604149200313,2020-06-19
"20",9.5,0.981487103187123,0.976346183796469,0.969628886870906,0.975557995029015,2020-06-19
"21",10,0.981461666282675,0.976303455345683,0.969560978559827,0.975511322421251,2020-06-20
"22",10.5,0.98143583415645,0.976257146359785,0.969492417618857,0.975464125887653,2020-06-20
"23",11,0.981409600843348,0.976231103241931,0.969423198934658,0.975416399889003,2020-06-21
"24",11.5,0.98138296029381,0.97618671278927,0.969353317378147,0.975368138835978,2020-06-21
"25",12,0.981355906372798,0.976137736257932,0.969282767805014,0.975319337088906,2020-06-22
"26",12.5,0.981328432858769,0.976102613934197,0.969211545056252,0.97526998895751,2020-06-22
"27",13,0.981300533442647,0.976053816649603,0.9691396439587,0.975220088700673,2020-06-23
"28",13.5,0.981272201726788,0.976023609700074,0.969067059325606,0.975169630526197,2020-06-23
"29",14,0.981243431223931,0.975990723079554,0.968993785957202,0.975118608590567,2020-06-24
"30",14.5,0.98121421535616,0.975946766854887,0.968919818641293,0.975067016998726,2020-06-24
"31",15,0.981184547453841,0.975901126210794,0.968845152153863,0.975014849803852,2020-06-25
"32",15.5,0.981154420754571,0.975854917068536,0.968769781259699,0.974962101007135,2020-06-25
"33",16,0.981123828402109,0.975798026783176,0.968693700713026,0.974908764557567,2020-06-26
"34",16.5,0.981092763445315,0.975753117867558,0.968616905258158,0.974854834351737,2020-06-26
"35",17,0.98106121883707,0.975726824657146,0.968539389630175,0.974800304233623,2020-06-27
"36",17.5,0.981029187433205,0.97568933470469,0.9684611485556,0.974745167994402,2020-06-27
"37",18,0.980996661991418,0.975652046765041,0.968382176753105,0.974689419372261,2020-06-28
"38",18.5,0.980963635170192,0.975621779904446,0.96830246893423,0.974633052052211,2020-06-28
"39",19,0.980930099527709,0.975577501899813,0.968222019804117,0.974576059665913,2020-06-29
"40",19.5,0.980896047520756,0.975523830998791,0.968140824062265,0.97451843579151,2020-06-29
"41",20,0.980861471503639,0.975470964803677,0.968058876403294,0.974460173953466,2020-06-30
"42",20.5,0.980826363727085,0.975422007593163,0.967976171517736,0.97440126762241,2020-06-30
"43",21,0.980790716337145,0.975374181472375,0.967892704092838,0.974341710214992,2020-07-01
"44",21.5,0.980754521374104,0.975333128231558,0.967808468813383,0.974281495093743,2020-07-01
"45",22,0.980717770771372,0.975273760693467,0.967723460362528,0.97422061556695,2020-07-02
"46",22.5,0.980680456354397,0.975220745532496,0.967637673422663,0.97415906488853,2020-07-02
"47",23,0.980642569839557,0.975169042904694,0.967551102676284,0.97409683625792,2020-07-03
"48",23.5,0.98060410283307,0.975129883955709,0.967463742806884,0.974033922819977,2020-07-03
"49",24,0.980565046829891,0.975092602629349,0.967375588499869,0.97397031766488,2020-07-04
"50",24.5,0.98052539321262,0.975054949237424,0.967286634443482,0.973906013828051,2020-07-04
"51",25,0.980485133250409,0.974987947263768,0.967196875329751,0.97384100429008,2020-07-05
"52",25.5,0.9804456215867,0.974915450695607,0.967106305855457,0.973775963721078,2020-07-05
"53",26,0.980425104016166,0.974875768086967,0.967014920723117,0.973720012369641,2020-07-06
"54",26.5,0.980404313102425,0.974854260863639,0.966922714641988,0.973663513872206,2020-07-06
"55",27,0.98038324529923,0.974824149297271,0.966829682329084,0.973606463814157,2020-07-07
"56",27.5,0.980361897016912,0.974801291144131,0.966735818510224,0.973548857763568,2020-07-07
"57",28,0.980340264621922,0.974766660827013,0.966641117921085,0.973490691271504,2020-07-08
"58",28.5,0.980318344436366,0.974722040321339,0.966545575308282,0.973431959872324,2020-07-08
"59",29,0.980296132737538,0.974662161359575,0.966449185430467,0.973372659084003,2020-07-09
"60",29.5,0.980273625757454,0.974605618423529,0.96635194305944,0.973312784408447,2020-07-09
"61",30,0.980250819682374,0.974548302674982,0.96625384298129,0.973252331331832,2020-07-10
"62",30.5,0.98022771065233,0.97449268617825,0.966154879997547,0.973191295324938,2020-07-10
"63",31,0.98020429476065,0.974453837803288,0.966055048926351,0.973129671843501,2020-07-11
"64",31.5,0.980180568053477,0.974407545591789,0.965954344603652,0.973067456328565,2020-07-11
"65",32,0.980156526529282,0.974366445150914,0.965852761884416,0.973004644206849,2020-07-12
"66",32.5,0.980132166138386,0.974302097977775,0.965750295643854,0.97294123089112,2020-07-12
"67",33,0.980107482782467,0.974255057436406,0.965646940778678,0.972877211780572,2020-07-13
"68",33.5,0.98008247231407,0.974208615176635,0.965542692208364,0.972812582261217,2020-07-13
"69",34,0.980057130536121,0.974128101655332,0.965437544876442,0.972747337706281,2020-07-14
"70",34.5,0.980031453201423,0.974078933825298,0.965331493751799,0.972681473476611,2020-07-14
"71",35,0.980005436012168,0.974024652276374,0.965224533830012,0.97261498492109,2020-07-15
"72",35.5,0.979979074619434,0.973955942897834,0.965116660134683,0.972547867377059,2020-07-15
"73",36,0.979952364622686,0.973888645764525,0.965007867718809,0.972480116170747,2020-07-16
"74",36.5,0.979925301569272,0.973836747276511,0.964898151666157,0.972411726617715,2020-07-16
"75",37,0.97989788095392,0.97379287560948,0.964787507092673,0.972342694023297,2020-07-17
"76",37.5,0.979870098218235,0.973731372815634,0.964675929147891,0.972273013683063,2020-07-17
"77",38,0.979841948750186,0.973692450060226,0.964563413016375,0.972202680883281,2020-07-18
"78",38.5,0.979813427883602,0.973644594420376,0.964449953919175,0.972131690901388,2020-07-18
"79",39,0.979784530897659,0.973585700658401,0.964335547115295,0.972060039006477,2020-07-19
"80",39.5,0.979755253016371,0.973527835605651,0.964220187903189,0.97198772045978,2020-07-19
"81",40,0.979725589408076,0.973470291271864,0.964103871622265,0.97191473051517,2020-07-20
"82",40.5,0.979695535184922,0.973418957862354,0.963986593654413,0.971841064419668,2020-07-20
"83",41,0.979665085402356,0.973365912325836,0.963868349425549,0.971766717413953,2020-07-21
"84",41.5,0.979634235058605,0.973295331806559,0.963749134407172,0.971691684732889,2020-07-21
"85",42,0.979602979094163,0.973240962269002,0.963628944117944,0.971615961606053,2020-07-22
"86",42.5,0.979571312391272,0.973182577432683,0.96350777412528,0.971539543258276,2020-07-22
"87",43,0.979539229773411,0.973109057616163,0.963385620046961,0.971462424910186,2020-07-23
"88",43.5,0.979506726004775,0.973044531570612,0.963259726637736,0.971383226321255,2020-07-23
"89",44,0.979473795789759,0.972987969463593,0.963111836628126,0.971292816208942,2020-07-24
"90",44.5,0.979440433772443,0.972933403887792,0.962962307608097,0.97120137069027,2020-07-24
"91",45,0.979406634536076,0.972870293804367,0.962811127511424,0.97110888102375,2020-07-25
"92",45.5,0.979372392602562,0.972803269374817,0.962658284340256,0.971015338471409,2020-07-25
"93",46,0.979337702431939,0.972735555753262,0.962503766170047,0.970920734300993,2020-07-26
"94",46.5,0.979302558421874,0.972667146782252,0.962347561154571,0.970825059788223,2020-07-26
"95",47,0.979266954907145,0.972598036271684,0.962189657531037,0.970728306219091,2020-07-27
"96",47.5,0.979230886159128,0.972528590748954,0.962030043625294,0.970630464892211,2020-07-27
"97",48,0.979194346385293,0.972463733298537,0.961868707857123,0.970531527121208,2020-07-28
"98",48.5,0.979157329728689,0.972398220101194,0.961705638745619,0.970431484237154,2020-07-28
"99",49,0.979119830267444,0.972332045389882,0.96154082491467,0.970330327591057,2020-07-29
"100",49.5,0.979081842014255,0.972265203366836,0.961374255098509,0.970228048556382,2020-07-29
"101",50,0.979043358915889,0.972197688203895,0.961205918147369,0.970124638531629,2020-07-30
"102",50.5,0.979004374852685,0.972129494042839,0.961035803033216,0.970020088942951,2020-07-30
"103",51,0.978964883638054,0.972055634455978,0.960863898855565,0.96991439124681,2020-07-31
"104",51.5,0.978924879017989,0.971980819538044,0.960690194847388,0.969807536932688,2020-07-31
"105",52,0.978884354670571,0.971911302375127,0.960514680381094,0.969699517525832,2020-08-01
"106",52.5,0.978843304205489,0.971844546773536,0.960337344974598,0.969590324590043,2020-08-01
"107",53,0.97880172116355,0.971776447715954,0.960158178297467,0.969479949730509,2020-08-02
"108",53.5,0.978759599016208,0.971688202732724,0.95997717017714,0.969368384596674,2020-08-02
"109",54,0.978716931165083,0.971599018910002,0.959794310605226,0.969255620885154,2020-08-03
"110",54.5,0.978673710941497,0.971521121810058,0.959609589743877,0.969141650342687,2020-08-03
"111",55,0.978629931606011,0.971433819568478,0.95942299793223,0.96902646476912,2020-08-04
"112",55.5,0.978585586347959,0.971352255343976,0.959234525692917,0.968910056020438,2020-08-04
"113",56,0.978540668285005,0.971270417378833,0.959044163738647,0.968792416011826,2020-08-05
"114",56.5,0.978495170462688,0.971206893019169,0.958851902978844,0.968673536720766,2020-08-05
"115",57,0.978449085853987,0.971137245822084,0.958657734526357,0.968553410190172,2020-08-06
"116",57.5,0.978402407358884,0.971053692675679,0.958461649704214,0.968432028531549,2020-08-06
"117",58,0.978355127803938,0.970968378937117,0.958263640052451,0.968309383928195,2020-08-07
"118",58.5,0.978307239941869,0.970888812191283,0.958063697334973,0.968185468638421,2020-08-07
"119",59,0.97825873645114,0.970799176153834,0.957861813546483,0.968060274998812,2020-08-08
"120",59.5,0.978209609935563,0.970712583848842,0.957657980919442,0.967933795427502,2020-08-08
"121",60,0.978159852923895,0.970626618388138,0.957452191931081,0.967806022427488,2020-08-09
"122",60.5,0.978109457869461,0.97053738520694,0.957244439310452,0.967676948589956,2020-08-09
"123",61,0.978058417149771,0.970449009087287,0.957034716045504,0.967546566597638,2020-08-10
"124",61.5,0.97800672306616,0.970372195878919,0.956823015390205,0.967414869228183,2020-08-10
"125",62,0.977954367843427,0.970280452039386,0.956609330871679,0.967281849357553,2020-08-11
"126",62.5,0.977901343629492,0.970187924043229,0.956393656297372,0.967147499963432,2020-08-11
"127",63,0.977847642495065,0.970094607436975,0.956175985762233,0.967011814128649,2020-08-12
"128",63.5,0.977793256433318,0.970000497786043,0.955956313655916,0.966874785044617,2020-08-12
"129",64,0.977738177359581,0.969888645237848,0.955734634669981,0.966736406014781,2020-08-13
"130",64.5,0.97768239711104,0.969797973426125,0.955510943805106,0.966596670458073,2020-08-13
"131",65,0.977625907446454,0.969713366525043,0.955285236378299,0.966455571912376,2020-08-14
"132",65.5,0.977568700045886,0.969616040764706,0.955057508030103,0.966313104037995,2020-08-14
"133",66,0.977510766510445,0.969517900107638,0.954827754731789,0.966169260621117,2020-08-15
"134",66.5,0.977452098362046,0.969418940255297,0.954595972792534,0.96602403557729,2020-08-15
"135",67,0.977399524213843,0.969313920104863,0.954362158866578,0.965880841540211,2020-08-16
"136",67.5,0.977357196154772,0.969194710771433,0.954126309960356,0.965741753057564,2020-08-16
"137",68,0.977314291155182,0.969089044381909,0.953888423439591,0.965601357297386,2020-08-17
"138",68.5,0.977270801860639,0.968984347567811,0.953648497036351,0.965459649448495,2020-08-17
"139",69,0.977226720837357,0.968878600102715,0.953406528856068,0.965316624846712,2020-08-18
"140",69.5,0.977182040571755,0.968759362188838,0.953162517384493,0.965172278978124,2020-08-18
"141",70,0.977136753470034,0.968648268420665,0.952916461494605,0.965026607482319,2020-08-19
"142",70.5,0.977090851857751,0.968531552636852,0.95266836045345,0.964879606155601,2020-08-19
"143",71,0.97704432797942,0.968411556611794,0.952418213928916,0.964731270954168,2020-08-20
"144",71.5,0.976997173998114,0.968290310692573,0.952166021996422,0.964581597997268,2020-08-20
"145",72,0.976949381995088,0.968167805655598,0.951911785145537,0.964430583570312,2020-08-21
"146",72.5,0.976900943969408,0.968044032298246,0.951655504286496,0.964278224127952,2020-08-21
"147",73,0.976851851837604,0.96791898144138,0.951397180756627,0.964124516297116,2020-08-22
"148",73.5,0.97680209743333,0.967792643931916,0.951136816326675,0.963969456880002,2020-08-22
"149",74,0.97675167250704,0.967677832197914,0.950874413207009,0.963813042857024,2020-08-23
"150",74.5,0.976700568725685,0.967577511955457,0.95060997405372,0.963655271389702,2020-08-23
"151",75,0.976648777672426,0.967476196890836,0.950343501974586,0.963496139823506,2020-08-24
"152",75.5,0.976596290846358,0.967373879364783,0.95007500053491,0.963335645690634,2020-08-24
"153",76,0.97654309966226,0.967263369256765,0.949804473763222,0.963173786712741,2020-08-25
"154",76.5,0.976489195450361,0.967116627111435,0.949531926156825,0.963010560803593,2020-08-25
"155",77,0.976434569456122,0.967008714242116,0.949257362687197,0.96284596607166,2020-08-26
"156",77.5,0.976379212840047,0.966900594121799,0.948980788805229,0.962680000822638,2020-08-26
"157",78,0.976323116677506,0.966778775315398,0.948702210446294,0.9625126635619,2020-08-27
"158",78.5,0.976266271958585,0.966636280655771,0.948421634035142,0.962343952996863,2020-08-27
"159",79,0.976208669587957,0.966495916079265,0.948139066490613,0.962173868039285,2020-08-28
"160",79.5,0.976150300384777,0.966366594270543,0.94785451523016,0.962002407807468,2020-08-28
"161",80,0.976091155082603,0.966225908496926,0.947567988174174,0.961829571628388,2020-08-29
"162",80.5,0.976031224329335,0.966083551404387,0.947279493750108,0.961655359039721,2020-08-29
"163",81,0.975970498687191,0.965939507808388,0.946949097346609,0.9614597980169,2020-08-30
"164",81.5,0.975908968632701,0.965794793909667,0.946593961104472,0.961251464868587,2020-08-30
"165",82,0.975846624556732,0.965645020819021,0.946237236779806,0.961041930668269,2020-08-31
"166",82.5,0.975783456764538,0.965485356223868,0.945878958383137,0.960831207573837,2020-08-31
"167",83,0.97571945547585,0.965323973546156,0.94551916060464,0.960619308040245,2020-09-01
"168",83.5,0.97565461082498,0.965163403103041,0.945157878803159,0.960406244814069,2020-09-01
"169",84,0.975588912860971,0.965001880962009,0.944795148994621,0.960192030927796,2020-09-02
"170",84.5,0.975522351547774,0.964838534859755,0.944431007839862,0.959976679693818,2020-09-02
"171",85,0.975454916764451,0.964673351554521,0.944065492631857,0.959760204698154,2020-09-03
"172",85.5,0.975386598305428,0.964506317902699,0.943698641282367,0.959542619793898,2020-09-03
"173",86,0.975317385880767,0.964337420865066,0.943330492308015,0.959323939094391,2020-09-04
"174",86.5,0.975247269116485,0.964177762885015,0.942961084815787,0.959104176966136,2020-09-04
"175",87,0.975176237554905,0.964012814650768,0.942590458487984,0.958883348021445,2020-09-05
"176",87.5,0.975104280655049,0.963850801054976,0.942218653566618,0.958661467110834,2020-09-05
"177",88,0.975031387793065,0.963675301328111,0.941845710837282,0.958438549315173,2020-09-06
"178",88.5,0.974957548262702,0.963529925346399,0.941471671612485,0.958214609937593,2020-09-06
"179",89,0.97488275127582,0.963360135740192,0.941096577714487,0.957989664495153,2020-09-07
"180",89.5,0.974806985962943,0.963158144639377,0.940720471457632,0.957763728710288,2020-09-07
"181",90,0.974730241373863,0.962978212560343,0.940343395630196,0.957536818502029,2020-09-08
"182",90.5,0.974652506478279,0.962806416789836,0.939965393475772,0.957308949977026,2020-09-08
"183",91,0.97457377016649,0.96262752747243,0.939586508674204,0.957080139420347,2020-09-09
"184",91.5,0.97449402125013,0.962425594227843,0.939206785322088,0.956850403286109,2020-09-09
"185",92,0.974413248462953,0.962250771952071,0.938826267912853,0.956619758187903,2020-09-10
"186",92.5,0.97433144046167,0.962054855951699,0.938445001316446,0.956388220889058,2020-09-10
"187",93,0.974248585826832,0.961856897204405,0.938063030758646,0.956155808292739,2020-09-11
"188",93.5,0.97416467306377,0.96169883249148,0.937680401800005,0.955922537431887,2020-09-11
"189",94,0.974079690603586,0.961536648581089,0.937297160314461,0.955688425459024,2020-09-12
"190",94.5,0.973993626804194,0.961371239307693,0.936913352467636,0.955453489635915,2020-09-12
"191",95,0.973906469951426,0.96122133971593,0.936529024694823,0.955217747323125,2020-09-13
"192",95.5,0.973818208260185,0.961098240296903,0.936144223678721,0.954981215969453,2020-09-13
"193",96,0.973728829875664,0.960933819608444,0.935758996326895,0.954743913101279,2020-09-14
"194",96.5,0.973638322874619,0.96075539872067,0.935373389749027,0.954505856311823,2020-09-14
"195",97,0.973546675266707,0.960575953510398,0.934987451233954,0.954267063250331,2020-09-15
"196",97.5,0.97345387499588,0.960365563803467,0.934601228226517,0.954027551611199,2020-09-15
"197",98,0.973359909941848,0.960160136788728,0.934214768304272,0.95378733912306,2020-09-16
"198",98.5,0.973264767921603,0.959960341834987,0.933828119154043,0.953546443537823,2020-09-16
"199",99,0.973168436691009,0.95978407635816,0.933441328548392,0.9533048826197,2020-09-17
"200",99.5,0.973070903946463,0.959602607885246,0.933054444321981,0.953062674134222,2020-09-17
"201",100,0.972972157326615,0.959364887744734,0.932667514347897,0.952819835837255,2020-09-18
"202",100.5,0.972872184414168,0.959112418295742,0.932280586513921,0.952576385464044,2020-09-18
"203",101,0.972770972737742,0.958901260097071,0.93189370869881,0.952332340718276,2020-09-19
"204",101.5,0.972668509773812,0.958677623741324,0.931506928748577,0.952087719261195,2020-09-19
"205",102,0.972564782948719,0.958472283791474,0.931120294452821,0.95184253870077,2020-09-20
"206",102.5,0.972459779640756,0.958213797012445,0.930733853521119,0.951596816580938,2020-09-20
"207",103,0.972360047557845,0.957948783043179,0.930347653559514,0.951353850558679,2020-09-21
"208",103.5,0.972267873590027,0.957678728724929,0.929961742047108,0.951114807818568,2020-09-21
"209",104,0.972174752244087,0.957509948820049,0.929576166312809,0.950875459278448,2020-09-22
"210",104.5,0.972080676621441,0.957366069906522,0.929190973512222,0.950635825066832,2020-09-22
"211",105,0.971985639839997,0.957221470880636,0.928806210604748,0.950395925222372,2020-09-23
"212",105.5,0.971889635036047,0.95707615255974,0.928421924330881,0.950155779683464,2020-09-23
"213",106,0.971792655366216,0.956930115832404,0.928038161189739,0.949915408277977,2020-09-24
"214",106.5,0.971694694009435,0.956688005930814,0.927654967416862,0.949674830713148,2020-09-24
"215",107,0.971595744168961,0.956506231994536,0.927272388962272,0.949434066565617,2020-09-25
"216",107.5,0.971495799074432,0.956322967853239,0.926890471468852,0.949193135271642,2020-09-25
"217",108,0.971394851983956,0.956124511470008,0.926509260251031,0.948952056117494,2020-09-26
"218",108.5,0.971292896186246,0.955924705040457,0.926128800273822,0.948710848230034,2020-09-26
"219",109,0.971189925002786,0.955650715405493,0.925749136132213,0.9484695305675,2020-09-27
"220",109.5,0.971085931790042,0.955403494092984,0.92537031203095,0.948228121910496,2020-09-27
"221",110,0.9709809099417,0.955197355774605,0.924992371764711,0.947986640853206,2020-09-28
"222",110.5,0.970874852890957,0.954955212426619,0.924615358698701,0.947745105794829,2020-09-28
"223",111,0.970767754112834,0.95468415374315,0.924239315749686,0.94750353493126,2020-09-29
"224",111.5,0.970659607126539,0.954457646978948,0.923864285367471,0.947261946247005,2020-09-29
"225",112,0.970550405497859,0.954257525441319,0.923490309516858,0.947020357507359,2020-09-30
"226",112.5,0.970440142841592,0.954065723784229,0.923117429660072,0.946778786250832,2020-09-30
"227",113,0.970328812824019,0.953906293983165,0.922745686739695,0.946537249781857,2020-10-01
"228",113.5,0.970216409165405,0.953701133990237,0.922375121162105,0.946295765163755,2020-10-01
"229",114,0.970102925642542,0.953494756789916,0.922005772781439,0.946054349211991,2020-10-02
"230",114.5,0.96998835609133,0.953287164282887,0.92163768088409,0.94581301848771,2020-10-02
"231",115,0.969872694409381,0.953059044924978,0.92127088417375,0.945571789291566,2020-10-03
"232",115.5,0.969755934558675,0.952792385460593,0.920905420757006,0.945330677657841,2020-10-03
"233",116,0.969638070568237,0.95253428884824,0.920541328129503,0.94508969934887,2020-10-04
"234",116.5,0.969519096536854,0.952290507829464,0.920178643162675,0.944848869849764,2020-10-04
"235",117,0.969399006635822,0.952045391728813,0.91981740209106,0.944608204363441,2020-10-05
"236",117.5,0.969277795111732,0.951797498386212,0.919457640500199,0.944367717805966,2020-10-05
"237",118,0.96915545628928,0.951517278688308,0.919099393315126,0.944127424802203,2020-10-06
"238",118.5,0.969031984574115,0.951297009956979,0.918742694789456,0.943887339681786,2020-10-06
"239",119,0.968907374455714,0.951119815263627,0.918387578495068,0.943647476475391,2020-10-07
"240",119.5,0.968781620510285,0.950901851803654,0.918034077312399,0.943407848911342,2020-10-07
"241",120,0.968654717403709,0.950673106487313,0.917682223421336,0.943168470412522,2020-10-08
"242",120.5,0.968526659894498,0.950360229859976,0.917332048292717,0.942929354093607,2020-10-08
"243",121,0.968397442836787,0.950126864097419,0.916983582680438,0.942690512758613,2020-10-09
"244",121.5,0.968267061183353,0.949897336893659,0.916636856614169,0.942451958898761,2020-10-09
"245",122,0.968135509988657,0.949604378553069,0.916291899392667,0.942213704690662,2020-10-10
"246",122.5,0.968002784411909,0.949399430850707,0.915948739577701,0.941975761994805,2020-10-10
"247",123,0.967868879720164,0.949161522338738,0.915607404988573,0.941738142354368,2020-10-11
"248",123.5,0.96773379129143,0.94891024437725,0.915267922697236,0.941500856994333,2020-10-11
"249",124,0.967597514617807,0.94865793378113,0.914930319024002,0.941263916820905,2020-10-12
"250",124.5,0.967460045308635,0.948404486108605,0.914594619533844,0.941027332421239,2020-10-12
"251",125,0.967321379093673,0.948090167067458,0.91426084903327,0.940791114063472,2020-10-13
"252",125.5,0.967181511826285,0.947804080007313,0.913929031567783,0.940555271697034,2020-10-13
"253",126,0.967040439486646,0.947544147565235,0.913599190419902,0.940319814953274,2020-10-14
"254",126.5,0.966898158184968,0.947265729457255,0.913271348107744,0.940084753146356,2020-10-14
"255",127,0.966754664164724,0.947004443993119,0.912945526384167,0.939850095274445,2020-10-15
"256",127.5,0.966609953805903,0.946753341087955,0.912621746236445,0.939615850021174,2020-10-15
"257",128,0.96646402362826,0.946446074740027,0.912300027886489,0.939382025757375,2020-10-16
"258",128.5,0.96631687029458,0.946138212949592,0.911980390791586,0.939148630543083,2020-10-16
"259",129,0.966168490613951,0.945872135110745,0.911662853645653,0.938915672129802,2020-10-17
"260",129.5,0.966018881545035,0.945603969876098,0.911347434381002,0.938683157963019,2020-10-17
"261",130,0.965868040199354,0.945336112059549,0.911034150170591,0.938451095184973,2020-10-18
"262",130.5,0.965715963844564,0.945031485843558,0.910723017430759,0.938219490637661,2020-10-18
"263",131,0.965562649907737,0.944699174381285,0.910414051824431,0.937988350866084,2020-10-19
"264",131.5,0.965408095978643,0.944364915298859,0.910107268264781,0.937757682121712,2020-10-19
"265",132,0.965252299813016,0.944028722861438,0.909773649344552,0.937512974578784,2020-10-20
"266",132.5,0.96509525933583,0.943757814425481,0.909318501067347,0.937206880201588,2020-10-20
"267",133,0.964936972644552,0.943514542871506,0.908864449681234,0.936900711162893,2020-10-21
"268",133.5,0.964777438012396,0.943203589693481,0.90841154162531,0.936594489818853,2020-10-21
"269",134,0.964616653891558,0.942885670678041,0.907959822836837,0.936288238364198,2020-10-22
"270",134.5,0.964454618916437,0.942543749573479,0.907509338733863,0.93598197882515,2020-10-22
"271",135,0.964291331906844,0.942209814227457,0.907060134198309,0.935675733052576,2020-10-23
"272",135.5,0.964126791871185,0.941966274555827,0.906612253559542,0.935369522715364,2020-10-23
"273",136,0.963960998009631,0.941722099197858,0.906165740578437,0.935063369294034,2020-10-24
"274",136.5,0.963793949717257,0.941477301381546,0.905720638431934,0.934757294074595,2020-10-24
"275",137,0.963625646587157,0.941146981676764,0.905276989698119,0.934451318142638,2020-10-25
"276",137.5,0.963456088413537,0.940809021713515,0.904834836341816,0.934145462377676,2020-10-25
"277",138,0.963285275194765,0.940469690147713,0.904394219700712,0.933839747447738,2020-10-26
"278",138.5,0.9631132071364,0.940181256332234,0.903955180472013,0.933534193804206,2020-10-26
"279",139,0.962939884654177,0.939889184270388,0.903517758699652,0.933228821676915,2020-10-27
"280",139.5,0.962765308376961,0.93957691309364,0.903081993762036,0.932923651069499,2020-10-27
"281",140,0.962589479149651,0.939263449780926,0.902647924360355,0.932618701755003,2020-10-28
"282",140.5,0.962412398036047,0.938948811728308,0.902215588507441,0.932313993271744,2020-10-28
"283",141,0.962234066321673,0.93863301666239,0.9017850235172,0.932009544919436,2020-10-29
"284",141.5,0.962054485516543,0.938368719696097,0.901356265994599,0.931705375755571,2020-10-29
"285",142,0.961873657357886,0.938137327891067,0.900929351826225,0.931401504592055,2020-10-30
"286",142.5,0.961691583812809,0.937853018758093,0.900504316171414,0.931097949992112,2020-10-30
"287",143,0.961508267080907,0.937517758754364,0.900081193453951,0.930794730267429,2020-10-31
"288",143.5,0.961323709596811,0.937181198311642,0.899660017354328,0.93049186347557,2020-10-31
"289",144,0.961137914032683,0.936843356364435,0.899240820802593,0.930189367417638,2020-11-01
"290",144.5,0.96095088330063,0.936504252187422,0.898823635971745,0.929887259636188,2020-11-01
"291",145,0.960762620555071,0.936165349082813,0.898408494271709,0.92958555741339,2020-11-02
"292",145.5,0.960573129195012,0.935869012858316,0.897995426343869,0.929284277769441,2020-11-02
"293",146,0.960382412866269,0.9356017606046,0.897584462056163,0.928983437461216,2020-11-03
"294",146.5,0.960190475463602,0.935303863633968,0.897175630498735,0.928683052981168,2020-11-03
"295",147,0.959997321132771,0.935050256361,0.896768959980135,0.928383140556453,2020-11-04
"296",147.5,0.959802954272525,0.934724975741716,0.896364478024073,0.928083716148299,2020-11-04
"297",148,0.959607379536486,0.934516204517511,0.895962211366709,0.927784795451597,2020-11-05
"298",148.5,0.959410601834966,0.93419661254275,0.895562185954478,0.927486393894722,2020-11-05
"299",149,0.959212626336687,0.933823330180477,0.89516442694245,0.927188526639569,2020-11-06
"300",149.5,0.959013458470407,0.933502260132651,0.894768958693203,0.926891208581805,2020-11-06
"301",150,0.958813103926455,0.933241186112633,0.894375804776217,0.926594454351336,2020-11-07
"302",150.5,0.958611568658173,0.932980337411204,0.893984987967771,0.926298278312972,2020-11-07
"303",151,0.958408858883255,0.932689730001173,0.893596530251337,0.926002694567296,2020-11-08
"304",151.5,0.958204981084981,0.932440471277189,0.893210452818461,0.925707716951721,2020-11-08
"305",152,0.957999942013356,0.932100248978686,0.892826776070129,0.925413359041743,2020-11-09
"306",152.5,0.957793748686134,0.931759032629915,0.892445519618597,0.925119634152366,2020-11-09
"307",153,0.957586408389739,0.931367325137433,0.892066702289681,0.92482655533971,2020-11-10
"308",153.5,0.957377928680073,0.930986983135592,0.891690342125497,0.924534135402785,2020-11-10
"309",154,0.957168317383207,0.930679377408983,0.891316456387642,0.924242386885425,2020-11-11
"310",154.5,0.956957582595967,0.930416397773187,0.890945061560797,0.923951322078382,2020-11-11
"311",155,0.956745732686387,0.930153797017912,0.89057617335675,0.923660953021568,2020-11-12
"312",155.5,0.956532776294058,0.9298505197825,0.890209806718827,0.923371291506442,2020-11-12
"313",156,0.956318722330344,0.929531224946525,0.889845975826703,0.923082349078524,2020-11-13
"314",156.5,0.956103579978481,0.92921199975504,0.889484694101616,0.922794137040049,2020-11-13
"315",157,0.955887358693548,0.928892867478105,0.889125974211926,0.922506666452737,2020-11-14
"316",157.5,0.955670068202309,0.928586839010014,0.888769828079054,0.922219948140682,2020-11-14
"317",158,0.95545171850293,0.928303994800659,0.888416266883749,0.921933992693339,2020-11-15
"318",158.5,0.955232319864563,0.928021539143159,0.888065301072696,0.92164881046863,2020-11-15
"319",159,0.955011882826801,0.927739489515889,0.887716940365444,0.921364411596122,2020-11-16
"320",159.5,0.954790418198994,0.927405049545482,0.887371193761639,0.921080805980317,2020-11-16
"321",160,0.954567937059437,0.927049910420828,0.887028069548555,0.920798003303996,2020-11-17
"322",160.5,0.954344450754418,0.926694405013007,0.886687575308905,0.920516013031661,2020-11-17
"323",161,0.954119970897128,0.926315483862782,0.886349717928924,0.920234844413026,2020-11-18
"324",161.5,0.953894509366439,0.926021334298373,0.886014503606713,0.919954506486576,2020-11-18
"325",162,0.953668078305535,0.925727267693574,0.885681937860818,0.919675008083176,2020-11-19
"326",162.5,0.95344069012041,0.925433304819938,0.885352025539053,0.919396357829732,2020-11-19
"327",163,0.953262857750622,0.92508542234037,0.885024770827538,0.91914381428908,2020-11-20
"328",163.5,0.953139669271197,0.924809927241132,0.884700177259943,0.91891992326557,2020-11-20
"329",164,0.953016355749486,0.92457619088661,0.884378247726933,0.918697301738209,2020-11-21
"330",164.5,0.95289292047889,0.924376178751127,0.884058984485791,0.918475952482341,2020-11-21
"331",165,0.952769366765945,0.924087101621212,0.88374238917022,0.918255877968083,2020-11-22
"332",165.5,0.952645697929971,0.923753222252063,0.883428462800293,0.918037080365132,2020-11-22
"333",166,0.952521917302727,0.923396671483682,0.883117205792564,0.917819561547645,2020-11-23
"334",166.5,0.952398028228055,0.923140886322844,0.882808617970309,0.917603323099182,2020-11-23
"335",167,0.95227403406153,0.922861457479587,0.88250269857389,0.91738836631771,2020-11-24
"336",167.5,0.9521499381701,0.92258007009757,0.882199446271238,0.917174692220669,2020-11-24
"337",168,0.952025743931724,0.922170889259007,0.881898859168438,0.916962301550081,2020-11-25
"338",168.5,0.951901454735015,0.921749473491664,0.881600934820399,0.916751194777707,2020-11-25
"339",169,0.951777073978871,0.921404710542739,0.881305670241618,0.916541372110244,2020-11-26
"340",169.5,0.951652605072108,0.921158503748118,0.881013061917003,0.916332833494555,2020-11-26
"341",170,0.951528051433091,0.920899035635368,0.880723105812766,0.916125578622928,2020-11-27
"342",170.5,0.951403416489364,0.920640346262009,0.880435797387359,0.915919606938361,2020-11-27
"343",171,0.951308563915899,0.920329544805031,0.880151131602459,0.915729847759179,2020-11-28
"344",171.5,0.951246056716083,0.920024552131165,0.879869102933977,0.91555757982503,2020-11-28
"345",172,0.951183762107165,0.919680273276671,0.8795897053831,0.915386733745133,2020-11-29
"346",172.5,0.951121680418378,0.919320973889435,0.879312932487331,0.915217306452854,2020-11-29
"347",173,0.951059811967005,0.919002584947566,0.87903877733155,0.915049294649277,2020-11-30
"348",173.5,0.950998157058437,0.918690106050859,0.878767232559061,0.914882694808749,2020-11-30
"349",174,0.950936715986234,0.918410814914604,0.878498290382631,0.914717503184433,2020-12-01
"350",174.5,0.950875489032179,0.918096460489705,0.878231942595507,0.914553715813843,2020-12-01
"351",175,0.950814476466339,0.917751470186816,0.877968180582409,0.914391328524374,2020-12-02
"352",175.5,0.95075367854713,0.917418576690161,0.877706995330483,0.914230336938806,2020-12-02
"353",176,0.950693095521375,0.917136593691696,0.877448377440216,0.914070736480795,2020-12-03
"354",176.5,0.95063272762437,0.916940069299871,0.8771923171363,0.913912522380335,2020-12-03
"355",177,0.950572575079944,0.916711640678074,0.876938804278441,0.913755689679192,2020-12-04
"356",177.5,0.950512638100526,0.916388638113894,0.876687828372102,0.913600233236314,2020-12-04
"357",178,0.95045291688721,0.916032448333014,0.876439378579187,0.913446147733199,2020-12-05
"358",178.5,0.950393411629821,0.915672096342794,0.876193443728638,0.91329342767923,2020-12-05
"359",179,0.950334122506983,0.915330803624342,0.875950012326963,0.913142067416973,2020-12-06
"360",179.5,0.950275049686183,0.915003730914654,0.875709072568672,0.912992061127427,2020-12-06
"361",180,0.950216193323844,0.914679957788395,0.875470612346627,0.912843402835236,2020-12-07
"362",180.5,0.950157553565393,0.914404773522191,0.875234619262294,0.912696086413843,2020-12-07
"363",181,0.950099130545328,0.914198127384899,0.875001080635896,0.912550105590612,2020-12-08
"364",181.5,0.950040924387293,0.913996668684893,0.87476998351646,0.912405453951877,2020-12-08
"365",182,0.949982935204146,0.913739176955944,0.874541314691762,0.912262124947954,2020-12-09
"366",182.5,0.949925163098033,0.913353634249825,0.874250861508015,0.912088012303024,2020-12-09
"367",183,0.949867608160457,0.913109449827203,0.873945630657581,0.911906619409019,2020-12-10
"368",183.5,0.949810270472358,0.912879965930357,0.873643638032722,0.91172695425254,2020-12-10
"369",184,0.949753150104178,0.912588491861908,0.873344872905374,0.911549011504776,2020-12-11
"370",184.5,0.949696247115943,0.912339601179683,0.873049323899751,0.911372785507847,2020-12-11
"371",185,0.949639561557335,0.912133061848118,0.872756979011242,0.911198270284288,2020-12-12
"372",185.5,0.949583093467764,0.911871956172177,0.872467825625254,0.911025459546509,2020-12-12
"373",186,0.949526842876452,0.911593160750493,0.872181850535965,0.910854346706208,2020-12-13
"374",186.5,0.9494708098025,0.911310663633594,0.871899039964975,0.910684924883737,2020-12-13
"375",187,0.949414994254972,0.911046262346781,0.871619379579858,0.910517186917415,2020-12-14
"376",187.5,0.949359396232972,0.910793986108246,0.871342854512576,0.910351125372774,2020-12-14
"377",188,0.949304015725716,0.910568731489424,0.871069449377764,0.91018673255174,2020-12-15
"378",188.5,0.949248852712618,0.910307941441249,0.870799148290854,0.910024000501736,2020-12-15
"379",189,0.949193907163363,0.910026591163176,0.870531934886053,0.909862921024708,2020-12-16
"380",189.5,0.949139179037988,0.909748050311199,0.870267792334132,0.90970348568606,2020-12-16
"381",190,0.949084668286964,0.909470821672709,0.870006703360038,0.909545685823501,2020-12-17
"382",190.5,0.949030374851272,0.909198633529341,0.86974865026032,0.909389512555796,2020-12-17
"383",191,0.948976298662484,0.908928660200649,0.869493614920337,0.909234956791411,2020-12-18
"384",191.5,0.948922439642848,0.908660243808643,0.869241578831269,0.909082009237059,2020-12-18
"385",192,0.948868797705362,0.908393395202555,0.868992523106901,0.908930660406132,2020-12-19
"386",192.5,0.94881537275386,0.908128124817902,0.868746428500182,0.908780900627021,2020-12-19
"387",193,0.948762164683091,0.907866822178282,0.868271597651279,0.908516881167185,2020-12-20
"388",193.5,0.948709173378804,0.907654672677733,0.867662578437289,0.908185875908047,2020-12-20
"389",194,0.948656398717826,0.907440535519987,0.867056897460627,0.907856648089227,2020-12-21
"390",194.5,0.948603840568146,0.907120492567836,0.866454611988783,0.907529226278464,2020-12-21
"391",195,0.948551498788997,0.906933073553987,0.8658557776617,0.907203638225348,2020-12-22
"392",195.5,0.948499373230941,0.906714891704502,0.86526044848171,0.906879910856325,2020-12-22
"393",196,0.948447463735947,0.906461299058883,0.864668676804954,0.906558070270451,2020-12-23
"394",196.5,0.948395770137481,0.906237569207466,0.864080513334265,0.906238141735873,2020-12-23
"395",197,0.94834429226058,0.90603148633531,0.863496007113506,0.905920149687043,2020-12-24
"396",197.5,0.948293029921943,0.905826894959328,0.862915205523331,0.905604117722637,2020-12-24
"397",198,0.948241982930012,0.905540478720007,0.862338154278354,0.905290068604183,2020-12-25
"398",198.5,0.948191151085054,0.905249198707151,0.861764897425702,0.904978024255378,2020-12-25
"399",199,0.948140534179247,0.904959630661979,0.861195477344929,0.904668005762088,2020-12-26
"400",199.5,0.948090131996761,0.904684706658738,0.860629934749256,0.904360033373008,2020-12-26
"401",200,0.948039944313843,0.90439242530076,0.86006830868812,0.904054126500981,2020-12-27
"402",200.5,0.947989970898904,0.904105378849618,0.859510636550996,0.90375030372495,2020-12-27
"403",201,0.947940211512597,0.903868143993629,0.858956954072464,0.90344858279253,2020-12-28
"404",201.5,0.947890665907904,0.903632607005002,0.858407295338493,0.903148980623199,2020-12-28
"405",202,0.947841333830222,0.903403102213167,0.857861692793897,0.902851513312059,2020-12-29
"406",202.5,0.947792215017442,0.903207136050188,0.857320177250944,0.902556196134193,2020-12-29
"407",203,0.947743309200036,0.903012614845338,0.856782777899084,0.90226304354956,2020-12-30
"408",203.5,0.947694616101142,0.902819538271277,0.85624952231574,0.901972069208441,2020-12-30
"409",204,0.947646135436645,0.902627905770175,0.855720436478158,0.901683285957401,2020-12-31
"410",204.5,0.94759786691526,0.902437716557298,0.855195544776247,0.901396705845754,2020-12-31
"411",205,0.947549810238622,0.902248969624619,0.854674870026404,0.901112340132513,2021-01-01
"412",205.5,0.94750196510136,0.90206166374446,0.854158433486257,0.900830199293809,2021-01-01
"413",206,0.94745433119119,0.901875797473168,0.853646254870312,0.900550293030751,2021-01-02
"414",206.5,0.947406908188992,0.901730579841863,0.85313835236645,0.900272630277721,2021-01-02
"415",207,0.947359695768896,0.901538788929556,0.852634742653247,0.899997219211072,2021-01-03
"416",207.5,0.947312693598365,0.901290460993689,0.852135440918075,0.89972406725822,2021-01-03
"417",208,0.947265901338276,0.901068300497831,0.851640460875935,0.899453181107106,2021-01-04
"418",208.5,0.947219318643008,0.900815132612985,0.851149814789011,0.899184566716009,2021-01-04
"419",209,0.947172945160517,0.90056366234163,0.850663513486874,0.898918229323696,2021-01-05
"420",209.5,0.947126780532428,0.900263188399697,0.850181566387323,0.898654173459875,2021-01-05
"421",210,0.947080824394108,0.900073482618933,0.849703981517813,0.89839240295596,2021-01-06
"422",210.5,0.947035076374754,0.899950407787514,0.849230765537438,0.898132920956096,2021-01-06
"423",211,0.946989536097475,0.899801449452466,0.848761923759426,0.89787572992845,2021-01-07
"424",211.5,0.946944203179371,0.899554687690601,0.84829746017412,0.897620831676745,2021-01-07
"425",212,0.946899077231615,0.899378970599391,0.847837377472395,0.897368227352005,2021-01-08
"426",212.5,0.946854157859539,0.89915029219451,0.847381677069485,0.897117917464512,2021-01-08
"427",213,0.946809444662708,0.898891153824032,0.846930359129186,0.896869901895947,2021-01-09
"428",213.5,0.946764937235005,0.898618101876393,0.84648342258839,0.896624179911698,2021-01-09
"429",214,0.946720635164713,0.898356536471965,0.846040865181928,0.896380750173321,2021-01-10
"430",214.5,0.94667653803459,0.898152032225071,0.845602683467681,0.896139610751135,2021-01-10
"431",215,0.946632645421955,0.897948938256193,0.845168872851927,0.895900759136941,2021-01-11
"432",215.5,0.946588956898765,0.897747256412841,0.844739427614902,0.895664192256833,2021-01-11
"433",216,0.946545472031693,0.897546988296577,0.844314340936523,0.895429906484108,2021-01-12
"434",216.5,0.946502190382211,0.897374400789705,0.84389360492227,0.89519789765224,2021-01-12
"435",217,0.946459111506665,0.897238910568904,0.843477210629168,0.894968161067916,2021-01-13
"436",217.5,0.946416234956356,0.897022546510677,0.843065148091868,0.894740691524112,2021-01-13
"437",218,0.946373560277619,0.896798333593528,0.842657406348781,0.8945154833132,2021-01-14
"438",218.5,0.946331087011898,0.896575464820552,0.84225397346824,0.894292530240069,2021-01-14
"439",219,0.946288814695824,0.896353942966207,0.841854836574676,0.89407182563525,2021-01-15
"440",219.5,0.946246742861297,0.896133770601922,0.841459981874762,0.893853362368029,2021-01-15
"441",220,0.946204871035556,0.89593618341343,0.841069394683523,0.893637132859539,2021-01-16
"442",220.5,0.94616319874126,0.895782836695975,0.840683059450376,0.893423129095818,2021-01-16
"443",221,0.946121725496563,0.895630789244269,0.84030095978507,0.893211342640816,2021-01-17
"444",221.5,0.946080450815189,0.895434012552039,0.839923078483529,0.893001764649359,2021-01-17
"445",222,0.946039374206511,0.895234920633427,0.839549397553547,0.892794385880029,2021-01-18
"446",222.5,0.945998495175619,0.895037223144764,0.83917989824034,0.892589196707979,2021-01-18
"447",223,0.945957813223401,0.894782171547826,0.838814561051921,0.892386187137661,2021-01-19
"448",223.5,0.945917327846617,0.894574032713849,0.838453365784285,0.892185346815451,2021-01-19
"449",224,0.945877038537967,0.894393554845583,0.838096291546389,0.891986665042178,2021-01-20
"450",224.5,0.945836944786171,0.894231603855831,0.837743316784901,0.891790130785536,2021-01-20
"451",225,0.945797046076038,0.894071153407615,0.837394419308723,0.89159573269238,2021-01-21
"452",225.5,0.945757341888543,0.893912196045846,0.837049576313239,0.891403459100891,2021-01-21
"453",226,0.945717831700891,0.89375472420328,0.836708764404319,0.891213298052605,2021-01-22
"454",226.5,0.945678514986599,0.893598730204507,0.836371959622019,0.891025237304309,2021-01-22
"455",227,0.945639391215559,0.893444206269911,0.836039137464005,0.890839264339782,2021-01-23
"456",227.5,0.945600459854114,0.893291144519568,0.83571027290866,0.890655366381387,2021-01-23
"457",228,0.945561720365126,0.893119293866623,0.835385340437883,0.890473530401504,2021-01-24
"458",228.5,0.945523172208045,0.892876142809855,0.835064314059561,0.890293743133803,2021-01-24
"459",229,0.945484814838982,0.892634758837764,0.834747167329701,0.890115991084341,2021-01-25
"460",229.5,0.945446647710777,0.892371148532913,0.834433873374227,0.889940260542502,2021-01-25
"461",230,0.945408670273064,0.892116575124482,0.834124404910424,0.889766537591744,2021-01-26
"462",230.5,0.945370881972345,0.89200184300272,0.833818734268018,0.889594808120182,2021-01-26
"463",231,0.945333282252052,0.891809335736654,0.833516833409902,0.889425057830977,2021-01-27
"464",231.5,0.945295870552619,0.891579795994308,0.833218673952483,0.889257272252551,2021-01-27
"465",232,0.945258646311546,0.891489886984896,0.832924227185662,0.889091436748604,2021-01-28
"466",232.5,0.945221608963467,0.891424595628839,0.832633464092433,0.88892753652795,2021-01-28
"467",233,0.945184757940212,0.891359973239601,0.832346355368093,0.888765556654152,2021-01-29
"468",233.5,0.945148092670878,0.891296013887002,0.832062871439073,0.888605482054976,2021-01-29
"469",234,0.945111612581891,0.891228820196838,0.83178298248138,0.888447297531635,2021-01-30
"470",234.5,0.945075317097068,0.891121958825663,0.831506658438642,0.888290987767855,2021-01-30
"471",235,0.945039205637687,0.89101615663606,0.831233869039768,0.888136537338727,2021-01-31
"472",235.5,0.945003277622543,0.89091140618246,0.830964583816205,0.887983930719374,2021-01-31
"473",236,0.944967532468016,0.890767502876544,0.830698772118812,0.887833152293414,2021-02-01
"474",236.5,0.944931969588134,0.890577928890019,0.830436403134331,0.887684186361232,2021-02-01
"475",237,0.944896588394629,0.89038957100483,0.830177445901464,0.887537017148047,2021-02-02
"476",237.5,0.944861388297005,0.890266027497738,0.829921869326561,0.887391628811783,2021-02-02
"477",238,0.944826368702596,0.890139325663659,0.82966964219891,0.887248005450753,2021-02-03
"478",238.5,0.944791529016626,0.889928386424014,0.829420733205639,0.887106131111133,2021-02-03
"479",239,0.944756868642269,0.889712844147698,0.82917511094623,0.88696598979425,2021-02-04
"480",239.5,0.944722386980711,0.88959191433829,0.828932743946638,0.886827565463675,2021-02-04
"481",240,0.944688083431205,0.889472127169711,0.828693600673033,0.886690842052119,2021-02-05
"482",240.5,0.944653957391131,0.889353475769762,0.828457649545156,0.886555803468144,2021-02-05
"483",241,0.944620008256055,0.889235953216853,0.828224858949298,0.886422433602676,2021-02-06
"484",241.5,0.944586235419785,0.889146808616097,0.827995197250896,0.886290716335341,2021-02-06
"485",242,0.94455263827443,0.888988205393523,0.827768632806768,0.886160635540599,2021-02-07
"486",242.5,0.944519216210451,0.88881508983834,0.827545133976972,0.886032175093712,2021-02-07
"487",243,0.944485968616724,0.888594201907125,0.827324669136298,0.885905318876511,2021-02-08
"488",243.5,0.944452894880591,0.888425719833458,0.827107206685405,0.885780050782998,2021-02-08
"489",244,0.944419994387914,0.888343014535506,0.826892715061602,0.885656354724758,2021-02-09
"490",244.5,0.944387266523133,0.88826118615977,0.826681162749273,0.885534214636203,2021-02-09
"491",245,0.944354710669316,0.888173308695503,0.826472518289959,0.885413614479638,2021-02-10
"492",245.5,0.944322326208216,0.888003462703798,0.826266750292096,0.885294538250156,2021-02-10
"493",246,0.94429011252032,0.887842455962281,0.826063827440418,0.885176969980369,2021-02-11
"494",246.5,0.944258068984905,0.887682786860738,0.825863718505029,0.885060893744967,2021-02-11
"495",247,0.944226194980085,0.887524449904134,0.825666392350142,0.884946293665114,2021-02-12
"496",247.5,0.944194489882868,0.887382512183794,0.82547181794251,0.884833153912689,2021-02-12
"497",248,0.944162953069202,0.887264185771552,0.825279964359525,0.884721458714363,2021-02-13
"498",248.5,0.944131583914027,0.887147134152872,0.825090800797023,0.884611192355525,2021-02-13
"499",249,0.944100381791325,0.887031347220189,0.824904296576772,0.884502339184049,2021-02-14
"500",249.5,0.944069346074171,0.886916814857859,0.824720421153669,0.88439488361392,2021-02-14
"501",250,0.944038476134775,0.886815415239832,0.82453914412264,0.884288810128707,2021-02-15
"502",250.5,0.944007771344539,0.886730869384394,0.824360435225254,0.884184103284897,2021-02-15
"503",251,0.943977231074097,0.886668934535608,0.824184264356059,0.884080747715078,2021-02-16
"504",251.5,0.943946854693369,0.886585577957205,0.824010601568632,0.883978728131001,2021-02-16
"505",252,0.943916641571601,0.886495866106142,0.823839417081372,0.883878029326487,2021-02-17
"506",252.5,0.943886591077417,0.886407151939635,0.82367068128302,0.883778636180218,2021-02-17
"507",253,0.94385670257886,0.886315224738243,0.823504364737923,0.883680533658391,2021-02-18
"508",253.5,0.94382697544344,0.886199551712469,0.823340438191048,0.883583706817244,2021-02-18
"509",254,0.943797409038177,0.88607317316577,0.823178872572748,0.883488140805462,2021-02-19
"510",254.5,0.943768002729648,0.885947762882547,0.823019639003281,0.883393820866465,2021-02-19
"511",255,0.943738755884026,0.885872735767194,0.822862708797109,0.883300732340568,2021-02-20
"512",255.5,0.943709667867127,0.885806716700644,0.822708053466949,0.883208860667038,2021-02-20
"513",256,0.943680738044452,0.885741432209825,0.822555644727615,0.883118191386034,2021-02-21
"514",256.5,0.943651965781228,0.885673467911478,0.822405454499634,0.883028710140431,2021-02-21
"515",257,0.943623350442448,0.885590721101733,0.822257454912653,0.882940402677551,2021-02-22
"516",257.5,0.943594891392918,0.885512264428266,0.822111618308639,0.882853254850779,2021-02-22
"517",258,0.943566587997292,0.88544943386506,0.821967917244876,0.882767252621084,2021-02-23
"518",258.5,0.943538439620115,0.885396308848809,0.821826324496764,0.882682382058439,2021-02-23
"519",259,0.94351044562586,0.885343846851043,0.821686813060437,0.882598629343148,2021-02-24
"520",259.5,0.943482605378972,0.88529204017035,0.821549356155183,0.882515980767078,2021-02-24
"521",260,0.943454918243903,0.885225379606614,0.821413927225695,0.882434422734799,2021-02-25
"522",260.5,0.94342738358515,0.885158819237967,0.821280499944139,0.882353941764644,2021-02-25
"523",261,0.943400000767295,0.88509302079563,0.821149048212057,0.882274524489676,2021-02-26
"524",261.5,0.943372769155042,0.885027976681878,0.821019546162105,0.882196157658574,2021-02-26
"525",262,0.943345688113251,0.884946696424884,0.820891968159634,0.882118828136442,2021-02-27
"526",262.5,0.943318757006979,0.884857757834798,0.820766288804104,0.882042522905542,2021-02-27
"527",263,0.943291975201512,0.884769728180128,0.820642482930368,0.88196722906594,2021-02-28
"528",263.5,0.943265342062402,0.884682123393071,0.820520525609793,0.881892933836098,2021-02-28
"529",264,0.943238856955502,0.884583692315399,0.82040039215125,0.881819624553376,2021-03-01
"530",264.5,0.943212519247001,0.884486205398446,0.820282058101966,0.881747288674483,2021-03-01
"531",265,0.943186328303456,0.884389655616363,0.820165499248242,0.881675913775849,2021-03-02
"532",265.5,0.943160283491828,0.884294035951968,0.820050691616052,0.88160548755394,2021-03-02
"533",266,0.943134384179514,0.884199339397825,0.819937611471505,0.88153599782551,2021-03-03
"534",266.5,0.94310862973438,0.884105558957292,0.819826235321207,0.881467432527794,2021-03-03
"535",267,0.943083019524793,0.884012687645545,0.819716539912491,0.881399779718642,2021-03-04
"536",267.5,0.943057552919652,0.883924489018322,0.819608502233548,0.8813330275766,2021-03-04
"537",268,0.943032229288421,0.883877239384834,0.81950209951345,0.881267164400935,2021-03-05
"538",268.5,0.94300704800116,0.88383049595352,0.819397309222065,0.881202178611612,2021-03-05
"539",269,0.942982008428553,0.883784254029301,0.819294109069884,0.881138058749218,2021-03-06
"540",269.5,0.94295710994194,0.883738508944578,0.81919247700774,0.88107479347484,2021-03-06
"541",270,0.942932351913347,0.883639604667614,0.819092391226449,0.881012371569898,2021-03-07
"542",270.5,0.942907733715514,0.883533877576576,0.818993830156354,0.880950781935934,2021-03-07
"543",271,0.942883254721923,0.883429315656775,0.818896772466786,0.880890013594355,2021-03-08
"544",271.5,0.94285891430683,0.883325908869717,0.818801197065456,0.880830055686143,2021-03-08
"545",272,0.942834711845288,0.883223647192832,0.818707083097748,0.880770897471518,2021-03-09
"546",272.5,0.942810646713177,0.883104390783617,0.818614409945961,0.880712528329569,2021-03-09
"547",273,0.942786718287233,0.882977473002764,0.81852315722846,0.880654937757847,2021-03-10
"548",273.5,0.942762925945069,0.8828520320287,0.818433304798779,0.880598115371924,2021-03-10
"549",274,0.942739269065208,0.882728054806374,0.818344832744636,0.880542050904922,2021-03-11
"550",274.5,0.942715747027103,0.88260552828813,0.818257721386911,0.880486734207007,2021-03-11
"551",275,0.942692359211167,0.882495622656401,0.818171951278542,0.880432155244855,2021-03-12
"552",275.5,0.942669104998796,0.882392014356333,0.818087503203385,0.88037830410109,2021-03-12
"553",276,0.942645983772391,0.882289538407639,0.818004358175001,0.880325170973696,2021-03-13
"554",276.5,0.942622994915386,0.882188185022682,0.817922497435408,0.880272746175397,2021-03-13
"555",277,0.942600137812273,0.882087944430806,0.817841902453776,0.880221020133025,2021-03-14
"556",277.5,0.94257741184862,0.881988806880296,0.817762554925076,0.880169983386848,2021-03-14
"557",278,0.942554816411099,0.881899699384664,0.817684436768693,0.880119626589896,2021-03-15
"558",278.5,0.942532350887504,0.881823976263962,0.817607530126984,0.880069940507244,2021-03-15
"559",279,0.942510014666779,0.881758945969524,0.817531817363813,0.880020916015296,2021-03-16
"560",279.5,0.942487807139037,0.881702257551021,0.817457281063034,0.879972544101036,2021-03-16
"561",280,0.942465727695578,0.881639841859931,0.817383904026954,0.879924815861266,2021-03-17
"562",280.5,0.942443775728917,0.881568072248485,0.81731166927475,0.879877722501833,2021-03-17
"563",281,0.942421950632801,0.881499027280457,0.817240560040861,0.879831255336831,2021-03-18
"564",281.5,0.942400251802227,0.881438125924879,0.817170559773359,0.879785405787793,2021-03-18
"565",282,0.942378678633469,0.881377881046933,0.817092592270724,0.879735635452096,2021-03-19
"566",282.5,0.942357230524089,0.881318286328377,0.817002598131788,0.879679914327938,2021-03-19
"567",283,0.942335906872964,0.881259335493994,0.816913872072037,0.879624889472501,2021-03-20
"568",283.5,0.942314707080301,0.881214481399282,0.816826397573325,0.879570552326813,2021-03-20
"569",284,0.942293630547657,0.881176680875937,0.816740158293247,0.879516894420452,2021-03-21
"570",284.5,0.942272676677954,0.881139347445681,0.816655138064467,0.879463907371211,2021-03-21
"571",285,0.942251844875504,0.881102475709041,0.816571320893996,0.87941158288475,2021-03-22
"572",285.5,0.942231134546018,0.881066060319466,0.816488690962432,0.879359912754225,2021-03-22
"573",286,0.94221054509663,0.881030095983052,0.816407232623169,0.8793088888599,2021-03-23
"574",286.5,0.942190075935911,0.880994577458267,0.816326930401571,0.879258503168741,2021-03-23
"575",287,0.942169726473885,0.88095949955567,0.816247768994112,0.879208747733999,2021-03-24
"576",287.5,0.942149496122048,0.880924857137621,0.816169733267488,0.879159614694768,2021-03-24
"577",288,0.942129384293379,0.880890645117991,0.816092808257693,0.879111096275536,2021-03-25
"578",288.5,0.942109390402363,0.880856858461859,0.816016979169077,0.87906318478572,2021-03-25
"579",289,0.942089513864998,0.880823492185219,0.815942231373367,0.879015872619183,2021-03-26
"580",289.5,0.942069754098816,0.880776191561631,0.815868550408671,0.878969152253744,2021-03-26
"581",290,0.942050110522896,0.880725991034673,0.815795921978451,0.878923016250674,2021-03-27
"582",290.5,0.942030582557877,0.880676363366304,0.815724331950479,0.878877457254178,2021-03-27
"583",291,0.942011169625973,0.880627302574488,0.815653766355766,0.878832467990869,2021-03-28
"584",291.5,0.941991871150987,0.880578802726305,0.815584211387476,0.878788041269231,2021-03-28
"585",292,0.941972686558323,0.880530857937869,0.815515653399817,0.87874416997907,2021-03-29
"586",292.5,0.941953615275003,0.880483462374252,0.815448078906917,0.87870084709096,2021-03-29
"587",293,0.941934656729674,0.880402668425375,0.815381474581675,0.878658065655674,2021-03-30
"588",293.5,0.941915810352625,0.880310221080585,0.81531582725461,0.878615818803617,2021-03-30
"589",294,0.941897075575798,0.880248656044313,0.815251123912681,0.87857409974424,2021-03-31
"590",294.5,0.941878451832798,0.880210613336098,0.815187351698104,0.878532901765451,2021-03-31
"591",295,0.94185993855891,0.880173001143149,0.815124497907146,0.878492218233028,2021-04-01
"592",295.5,0.941841535191103,0.880135814948528,0.815062549988918,0.87845204259001,2021-04-01
"593",296,0.941823241168046,0.88009905027448,0.815001495544145,0.878412368356096,2021-04-02
"594",296.5,0.94180505593012,0.880062702682288,0.814941322323937,0.878373189127029,2021-04-02
