"","time","top","med","bottom","pseudo_med","date"
"1",0,0.983318632945104,0.977535540113974,0.971200077519426,0.977259355232265,2020-06-10
"2",0.5,0.983287586296174,0.977517179273771,0.971159934142577,0.977223760219375,2020-06-10
"3",1,0.983256284751719,0.977474053091857,0.971119612532213,0.977187948641966,2020-06-11
"4",1.5,0.9832247264617,0.977456374149448,0.971079112378999,0.97715191942035,2020-06-11
"5",2,0.98319290956687,0.977439885550961,0.97103843337862,0.977115671472745,2020-06-12
"6",2.5,0.983160832198808,0.977421970044087,0.970997575231855,0.977079203715332,2020-06-12
"7",3,0.983128492479948,0.977394305850681,0.970956537644636,0.977042515062292,2020-06-13
"8",3.5,0.983095888523621,0.977354448494372,0.970915320328115,0.977005604425868,2020-06-13
"9",4,0.983063018434084,0.977314352742651,0.97087392299873,0.976968470716407,2020-06-14
"10",4.5,0.983029880306564,0.977274017615048,0.97083234537827,0.976931112842417,2020-06-14
"11",5,0.982996472227297,0.977233442133271,0.97079058719394,0.976893529710619,2020-06-15
"12",5.5,0.98296279227357,0.977192625321307,0.970748648178428,0.976855720225999,2020-06-15
"13",6,0.982928838513768,0.977136706017571,0.970706528069967,0.976817683291867,2020-06-16
"14",6.5,0.982894609007416,0.977077869966793,0.970664226612408,0.976779417809912,2020-06-16
"15",7,0.982860101805233,0.977058891240538,0.970621743555277,0.976740922680255,2020-06-17
"16",7.5,0.982825314949179,0.977039738914513,0.970579078653848,0.976702196801513,2020-06-17
"17",8,0.98279024647251,0.977020411465721,0.970536231669206,0.976663239070858,2020-06-18
"18",8.5,0.982754894399832,0.976987965558184,0.970493202368312,0.976624048384072,2020-06-18
"19",9,0.982719256747158,0.976926675179092,0.970449990524072,0.976584623635615,2020-06-19
"20",9.5,0.982683331521968,0.976857485958474,0.970406595915401,0.976544963718684,2020-06-19
"21",10,0.982647116723271,0.976828434836441,0.970363018327288,0.97650506752528,2020-06-20
"22",10.5,0.982610610341666,0.976806546588635,0.970319257550867,0.976464933946267,2020-06-20
"23",11,0.982573810359414,0.976784456823264,0.970275313383477,0.976424561871445,2020-06-21
"24",11.5,0.9825367147505,0.976762163733497,0.970231185628731,0.976383950189616,2020-06-21
"25",12,0.98249932148071,0.976736156765193,0.970186874096583,0.976343097788646,2020-06-22
"26",12.5,0.9824616285077,0.976698879959314,0.970142378603392,0.976302003555546,2020-06-22
"27",13,0.982423633781072,0.976669120496224,0.970097698971991,0.976260666376531,2020-06-23
"28",13.5,0.982385335242456,0.976632466072675,0.970052835031748,0.976219085137102,2020-06-23
"29",14,0.982346730825587,0.976594119956951,0.970007786618636,0.976177258722111,2020-06-24
"30",14.5,0.982307818456391,0.976567027201176,0.969962553575297,0.976135186015844,2020-06-24
"31",15,0.982268596053069,0.976539745502799,0.969917135751108,0.976092865902089,2020-06-25
"32",15.5,0.982229061526187,0.976495246692721,0.969871533002249,0.976050297264218,2020-06-25
"33",16,0.982189212778765,0.976458417384683,0.969825745191764,0.976007478985264,2020-06-26
"34",16.5,0.982149047706374,0.976433075563757,0.969779772189628,0.975964409948001,2020-06-26
"35",17,0.982108564197233,0.976409395337605,0.969733613872813,0.975921089035023,2020-06-27
"36",17.5,0.982085536208218,0.976385474422078,0.969687270125355,0.975886403166787,2020-06-27
"37",18,0.982063192174793,0.976361310456148,0.969640740838416,0.975851966506605,2020-06-28
"38",18.5,0.982040598078185,0.976336901057996,0.969594025910347,0.975817311994266,2020-06-28
"39",19,0.982017751272139,0.976309058314917,0.969547125246758,0.975782438259448,2020-06-29
"40",19.5,0.981994649085912,0.976279685053217,0.969500038760578,0.975747343923245,2020-06-29
"41",20,0.981971288824131,0.976241224217269,0.969452766372121,0.975712027598126,2020-06-30
"42",20.5,0.981947667766645,0.976202952195546,0.96940530800915,0.975676487887898,2020-06-30
"43",21,0.981923783168392,0.976180595902099,0.96935766360694,0.975640723387666,2020-07-01
"44",21.5,0.98189963225925,0.976157979304893,0.969309833108341,0.975604732683796,2020-07-01
"45",22,0.981875212243905,0.97612907369658,0.969261816463845,0.975568514353875,2020-07-02
"46",22.5,0.981850520301711,0.976083802175667,0.969213613631642,0.975532066966676,2020-07-02
"47",23,0.981825553586554,0.976029457992391,0.969165224577689,0.975495389082121,2020-07-03
"48",23.5,0.981800309226721,0.975983145077661,0.96911664927577,0.975458479251246,2020-07-03
"49",24,0.981774784324767,0.975948790144034,0.969067887707559,0.975421336016163,2020-07-04
"50",24.5,0.981748975957383,0.975915535184788,0.969018939862678,0.975383957910031,2020-07-04
"51",25,0.981722881175271,0.975881882454621,0.968969805738766,0.975346343457018,2020-07-05
"52",25.5,0.981696497003014,0.975854670263514,0.968920485341531,0.975308491172272,2020-07-05
"53",26,0.981669820438958,0.975825770201275,0.968870978684818,0.975270399561888,2020-07-06
"54",26.5,0.981642848455084,0.975796109349333,0.968821285790666,0.975232067122875,2020-07-06
"55",27,0.981615577996893,0.975766135465887,0.968771406689369,0.975193492343131,2020-07-07
"56",27.5,0.981588005983285,0.975735845432507,0.968721341419536,0.975154673701411,2020-07-07
"57",28,0.98156012930645,0.975705236104337,0.968671090028146,0.975115609667298,2020-07-08
"58",28.5,0.98153194483175,0.975674304309989,0.968620652570616,0.975076298701183,2020-07-08
"59",29,0.981503449397614,0.97564309800121,0.968570029110848,0.975036739254231,2020-07-09
"60",29.5,0.98147463981543,0.975616617343422,0.968519219721295,0.974996929768362,2020-07-09
"61",30,0.981445512869439,0.97558987295323,0.968446733767133,0.974946123318286,2020-07-10
"62",30.5,0.981416065316639,0.975562862373878,0.968366594266768,0.974891329791703,2020-07-10
"63",31,0.981386293886684,0.975523204442419,0.968285986133442,0.974836140010063,2020-07-11
"64",31.5,0.981356195281793,0.975477690187891,0.968204908225274,0.974780551753533,2020-07-11
"65",32,0.981325766176652,0.975436636577763,0.968123359421608,0.97472456279913,2020-07-12
"66",32.5,0.981295003218336,0.97539356925595,0.968041338623391,0.974668170920864,2020-07-12
"67",33,0.981263903026218,0.975350181268557,0.967958844753544,0.974611373889881,2020-07-13
"68",33.5,0.981232462191889,0.975306470155331,0.967875876757339,0.974554169474614,2020-07-13
"69",34,0.981200677279086,0.97526243343873,0.967792433602777,0.974496555440932,2020-07-14
"70",34.5,0.981168544823614,0.97521806862388,0.967708514280962,0.974438529552288,2020-07-14
"71",35,0.98113606133328,0.975171014494073,0.967624117806482,0.974380089569881,2020-07-15
"72",35.5,0.981103223287829,0.975112742875151,0.967539243217789,0.974321233252809,2020-07-15
"73",36,0.981070027138883,0.97504725287228,0.967453889577579,0.974261958358231,2020-07-16
"74",36.5,0.981036469309883,0.97500749601864,0.967368055973171,0.974202262641527,2020-07-16
"75",37,0.98100254619604,0.974955643685558,0.967281741516892,0.974142143856466,2020-07-17
"76",37.5,0.980968254164289,0.974900939644436,0.967194945346454,0.974081599755372,2020-07-17
"77",38,0.980933589553246,0.974845461541051,0.967107666625345,0.974020628089295,2020-07-18
"78",38.5,0.980898548673171,0.97479048634737,0.967019904543201,0.973959226608186,2020-07-18
"79",39,0.980863127805935,0.974741558558985,0.9669316583162,0.973897393061068,2020-07-19
"80",39.5,0.980827323204997,0.9747043910382,0.966842927187438,0.973835125196217,2020-07-19
"81",40,0.98079113109538,0.974659530687657,0.966753710427314,0.973772420761347,2020-07-20
"82",40.5,0.980754547673656,0.974611211244643,0.966664007333916,0.973709277503786,2020-07-20
"83",41,0.980717569107937,0.974562595611242,0.966573817233403,0.97364569317067,2020-07-21
"84",41.5,0.980680191537868,0.974513682399666,0.966483139480386,0.973581665509127,2020-07-21
"85",42,0.980642411074634,0.974465561732629,0.966391973458314,0.973517192266474,2020-07-22
"86",42.5,0.980604223800964,0.974420105960562,0.966300318579855,0.973452271190409,2020-07-22
"87",43,0.980565625771146,0.974377074367899,0.966208174287276,0.973386900029211,2020-07-23
"88",43.5,0.980526613011049,0.974333610836269,0.966115540052828,0.973321076531938,2020-07-23
"89",44,0.980487181518151,0.974282885604742,0.966022415379123,0.973254798448637,2020-07-24
"90",44.5,0.980447327261571,0.974231711778058,0.965928799799518,0.973188063530544,2020-07-24
"91",45,0.980407046182112,0.974180085866104,0.965834692878487,0.973120869530299,2020-07-25
"92",45.5,0.98036633419231,0.974128004361428,0.965740094212004,0.973053214202157,2020-07-25
"93",46,0.980325187176489,0.974075463739361,0.965645003427919,0.972985095302204,2020-07-26
"94",46.5,0.980283600990823,0.974022460458157,0.965549420186331,0.972916510588577,2020-07-26
"95",47,0.980241571463411,0.973970952069451,0.965453344179962,0.972847457821686,2020-07-27
"96",47.5,0.980199094394351,0.973932904773912,0.965356775134531,0.972777934764441,2020-07-27
"97",48,0.98015616555583,0.973889296831093,0.965259712809123,0.972707939182476,2020-07-28
"98",48.5,0.980112780692219,0.97383254418442,0.965162156996558,0.972637468844389,2020-07-28
"99",49,0.980068935520176,0.973776880426155,0.965064107523759,0.972566521521967,2020-07-29
"100",49.5,0.980024625728759,0.973738407985445,0.964965564252114,0.972495094990436,2020-07-29
"101",50,0.979979846979545,0.973676314597076,0.964866527077842,0.972423187028693,2020-07-30
"102",50.5,0.979934594906762,0.973591981329943,0.964766995932352,0.972350795419557,2020-07-30
"103",51,0.97988886511743,0.9735152228052,0.964666970782601,0.972277917950016,2020-07-31
"104",51.5,0.979842653191505,0.973454695835239,0.964566451631448,0.972204552411477,2020-07-31
"105",52,0.979795954682041,0.973401423825738,0.96446543851801,0.972130696600026,2020-08-01
"106",52.5,0.979748765115357,0.973353672965706,0.964363931518011,0.972056348316684,2020-08-01
"107",53,0.979701079991213,0.973305560062805,0.964261930744128,0.971981505367671,2020-08-02
"108",53.5,0.979652894783005,0.973252642985435,0.964159436346336,0.97190616556467,2020-08-02
"109",54,0.979604204937954,0.973188655782554,0.964056448512247,0.971830326725101,2020-08-03
"110",54.5,0.979555005877324,0.973128824627803,0.963952967467453,0.971753986672389,2020-08-03
"111",55,0.979505292996639,0.973076093177271,0.963848993475854,0.971677143236246,2020-08-04
"112",55.5,0.979455061665911,0.97302304586384,0.963744526839992,0.971599794252952,2020-08-04
"113",56,0.97940430722989,0.972952980067933,0.963639567901378,0.971521937565634,2020-08-05
"114",56.5,0.979353025008311,0.972876912751346,0.963534117040812,0.971443571024561,2020-08-05
"115",57,0.979301210296163,0.972800287998367,0.963428174678708,0.971364692487435,2020-08-06
"116",57.5,0.979248858363967,0.972727602216536,0.963321741275402,0.971285299819684,2020-08-06
"117",58,0.979195964458067,0.972669970741398,0.963214817331466,0.971205390894767,2020-08-07
"118",58.5,0.979142523800928,0.972612030556527,0.963107403388018,0.971124963594473,2020-08-07
"119",59,0.979088531591456,0.972548388172062,0.962999500027014,0.971044015809235,2020-08-08
"120",59.5,0.97903398300532,0.972471608026024,0.962891107871557,0.970962545438439,2020-08-08
"121",60,0.978978873195301,0.972386190415494,0.962782227586178,0.970880550390739,2020-08-09
"122",60.5,0.978923197291636,0.972326779136877,0.962672859877132,0.970798028584384,2020-08-09
"123",61,0.978866950402395,0.972264933869343,0.962563005492674,0.970714977947535,2020-08-10
"124",61.5,0.978810127613856,0.972187098353498,0.96245266522334,0.970631396418598,2020-08-10
"125",62,0.978752723990902,0.972112524912825,0.962341839902217,0.970547281946559,2020-08-11
"126",62.5,0.978694734577431,0.97205564980675,0.962230530405208,0.970462632491319,2020-08-11
"127",63,0.978636154396781,0.971984798891404,0.962118737651292,0.970377446024037,2020-08-12
"128",63.5,0.978576978452166,0.971920473446668,0.962006462602783,0.970291720527474,2020-08-12
"129",64,0.978517201727129,0.971848375122071,0.961871733410538,0.970194467568834,2020-08-13
"130",64.5,0.978456819186015,0.971778939976109,0.961730220338979,0.970093519762497,2020-08-13
"131",65,0.978395825774451,0.971695724674203,0.961588197678784,0.969992011726617,2020-08-14
"132",65.5,0.978334216419844,0.971617064869592,0.961445668846387,0.969889942633115,2020-08-14
"133",66,0.978271986031901,0.971549364677314,0.961302637326172,0.969787311679036,2020-08-15
"134",66.5,0.978209129503157,0.971475338022946,0.961159106670385,0.969684118086771,2020-08-15
"135",67,0.978145641709522,0.971400396063005,0.961015080499037,0.96958036110428,2020-08-16
"136",67.5,0.978081517510848,0.971318337416524,0.960870562499778,0.969476040005313,2020-08-16
"137",68,0.978016751751505,0.971238497000534,0.960725556427762,0.969371154089634,2020-08-17
"138",68.5,0.977951339260984,0.971156767368585,0.960580066105491,0.969265702683238,2020-08-17
"139",69,0.977885274854506,0.971072228251687,0.960434095422641,0.969159685138574,2020-08-18
"140",69.5,0.97781855333366,0.970984088725395,0.960287648335869,0.969053100834764,2020-08-18
"141",70,0.977751169487045,0.970893471262994,0.960140728868606,0.968945949177826,2020-08-19
"142",70.5,0.977683118090946,0.970805994841196,0.959993341110824,0.968838229600885,2020-08-19
"143",71,0.977614393910014,0.970716036257729,0.959793576563522,0.968703985236768,2020-08-20
"144",71.5,0.977544991697969,0.970625467140753,0.959592482515257,0.968568737106613,2020-08-20
"145",72,0.977474906198325,0.970542116201703,0.959390327431433,0.968432616814879,2020-08-21
"146",72.5,0.977404132145131,0.970480993031207,0.959187117853989,0.96829562499956,2020-08-21
"147",73,0.977332664263725,0.970429015686792,0.958982860547907,0.968157762405816,2020-08-22
"148",73.5,0.97726049727152,0.970358074971604,0.958777562501696,0.968019029886608,2020-08-22
"149",74,0.977187625878797,0.970283865417036,0.958571230927775,0.967879428403286,2020-08-23
"150",74.5,0.977114044789522,0.970207612814641,0.958363873262779,0.967738959026151,2020-08-23
"151",75,0.977039748702185,0.970111467646082,0.958155497167768,0.967597622934977,2020-08-24
"152",75.5,0.976964732310655,0.97003417960273,0.957946110528349,0.967455421419502,2020-08-24
"153",76,0.976888990305056,0.969972786967763,0.957735721454706,0.967312355879881,2020-08-25
"154",76.5,0.976812517372667,0.969894375410173,0.957524338281535,0.967168427827101,2020-08-25
"155",77,0.976771241752015,0.969815465282102,0.957311969567886,0.96704160565995,2020-08-26
"156",77.5,0.976738187450201,0.969711983573845,0.95709862409691,0.966918405773556,2020-08-26
"157",78,0.976704773537359,0.969634682004859,0.956884310875507,0.966794542206433,2020-08-27
"158",78.5,0.976670996355574,0.969528989958093,0.956669039133878,0.966670017744726,2020-08-27
"159",79,0.976636852215458,0.969450668504111,0.956452818324978,0.966544835270218,2020-08-28
"160",79.5,0.976602337396012,0.969355439008724,0.956235658123866,0.966418997759939,2020-08-28
"161",80,0.976567448144485,0.969268279151705,0.956017568426966,0.966292508285726,2020-08-29
"162",80.5,0.976532180676249,0.969172663835452,0.955798559351208,0.966165370013729,2020-08-29
"163",81,0.976496531174664,0.969076245758601,0.955578641233087,0.966037586203875,2020-08-30
"164",81.5,0.97646049579095,0.968983955914315,0.955357824627602,0.965909160209276,2020-08-30
"165",82,0.976424070644067,0.96890360850738,0.955136120307105,0.965780095475586,2020-08-31
"166",82.5,0.976387251820592,0.968836659065789,0.954913539260042,0.965650395540317,2020-08-31
"167",83,0.976350035374603,0.968769830460023,0.954690092689585,0.965520064032094,2020-09-01
"168",83.5,0.976312417327565,0.968701448802304,0.954465792012167,0.965389104669866,2020-09-01
"169",84,0.976274393668222,0.968604298674731,0.95424064885591,0.965257521262066,2020-09-02
"170",84.5,0.976235960352489,0.968504418405194,0.954014675058943,0.965125317705716,2020-09-02
"171",85,0.976197113303353,0.9684038023949,0.953787882667628,0.96499249798549,2020-09-03
"172",85.5,0.976157848410771,0.968295043716424,0.953560283934664,0.964859066172717,2020-09-03
"173",86,0.97611816153158,0.968204870091488,0.953331891317101,0.964725026424341,2020-09-04
"174",86.5,0.976078048489407,0.968141731510009,0.953102717474244,0.964590382981825,2020-09-04
"175",87,0.976037505074583,0.968053852339386,0.952872775265446,0.964455140170015,2020-09-05
"176",87.5,0.975996527044065,0.967936077090202,0.952642077747813,0.964319302395939,2020-09-05
"177",88,0.975955110121358,0.967817259995817,0.952410638173786,0.964182874147572,2020-09-06
"178",88.5,0.975913249996447,0.967701771507405,0.952178469988637,0.964045859992542,2020-09-06
"179",89,0.975870942325729,0.967597832334907,0.95194558682785,0.96390826457679,2020-09-07
"180",89.5,0.975828182731957,0.967503049119256,0.951712002514411,0.963770092623184,2020-09-07
"181",90,0.975784966804181,0.967414869950798,0.951477731055985,0.963631348930083,2020-09-08
"182",90.5,0.975741290097699,0.967324520938372,0.951242786642006,0.963492038369852,2020-09-08
"183",91,0.975697148134018,0.967211752730701,0.951007183640654,0.963352165887336,2020-09-09
"184",91.5,0.975652536400809,0.967119815492392,0.95077093659575,0.963211736498279,2020-09-09
"185",92,0.975607450351882,0.967021459502041,0.950534060223537,0.963070755287709,2020-09-10
"186",92.5,0.975561885407156,0.966924735786615,0.950296569409378,0.962929227408267,2020-09-10
"187",93,0.975515836952641,0.966812286052686,0.950058479204355,0.962787158078498,2020-09-11
"188",93.5,0.975469300340425,0.96667866626874,0.949819804821774,0.9626445525811,2020-09-11
"189",94,0.97542227088867,0.966575088426734,0.949580561633579,0.962501416261125,2020-09-12
"190",94.5,0.975374743881608,0.966473073187087,0.949340765166679,0.962357754524144,2020-09-12
"191",95,0.975326714569553,0.966376457628484,0.949100431099183,0.962213572834368,2020-09-13
"192",95.5,0.975278178168913,0.966283911886724,0.948859575256549,0.962068876712731,2020-09-13
"193",96,0.975229129862216,0.966197940335895,0.948618213607653,0.961923671734934,2020-09-14
"194",96.5,0.975179564798134,0.966131804114535,0.948376362260767,0.96177796352945,2020-09-14
"195",97,0.975129478091526,0.966049832135221,0.948134037459464,0.961631757775495,2020-09-15
"196",97.5,0.975078864823482,0.965954085028212,0.94789125557844,0.961485060200961,2020-09-15
"197",98,0.975027720041374,0.965858005015184,0.947648033119262,0.961337876580318,2020-09-16
"198",98.5,0.974976038758922,0.965761593197202,0.947404386706038,0.96119021273248,2020-09-16
"199",99,0.974923815956263,0.965664850703055,0.947160333081019,0.961042074518641,2020-09-17
"200",99.5,0.974871046580029,0.965563174355003,0.946915889100131,0.96089346784008,2020-09-17
"201",100,0.974817725543435,0.965451275854905,0.946671071728435,0.960744398635935,2020-09-18
"202",100.5,0.97476384772638,0.965338879377158,0.94642589803553,0.960594872880955,2020-09-18
"203",101,0.974709407975549,0.96522598586029,0.946180385190888,0.960444896583219,2020-09-19
"204",101.5,0.974654401104534,0.96514648366946,0.94593455045913,0.960294475781832,2020-09-19
"205",102,0.974598821893956,0.965082698309652,0.945688411195252,0.960143616544604,2020-09-20
"206",102.5,0.974542665091601,0.964997441447821,0.945441984839785,0.959992324965693,2020-09-20
"207",103,0.974485925412572,0.964901742173311,0.945195288913916,0.959840607163244,2020-09-21
"208",103.5,0.974428597539436,0.96480833310118,0.944948341014553,0.959688469276995,2020-09-21
"209",104,0.974370676122401,0.96471431820179,0.944701158809348,0.959535917465875,2020-09-22
"210",104.5,0.974312155779488,0.964607916148147,0.944453760031676,0.959382957905582,2020-09-22
"211",105,0.974253031096723,0.964500198231761,0.944206162475575,0.959229596786149,2020-09-23
"212",105.5,0.974193296628336,0.964391711199482,0.943958383990653,0.959075840309494,2020-09-23
"213",106,0.974132946896973,0.964282452699772,0.943710442476953,0.958921694686963,2020-09-24
"214",106.5,0.974071976393923,0.964194229968932,0.9434623558798,0.958767166136861,2020-09-24
"215",107,0.974010379579349,0.964080676956778,0.94321414218461,0.958612260881979,2020-09-25
"216",107.5,0.973948150882542,0.963920635637968,0.942965819411681,0.958456985147112,2020-09-25
"217",108,0.973885284702177,0.963798523364071,0.942717405610965,0.958301345156571,2020-09-26
"218",108.5,0.973821775406588,0.963668535163431,0.942468918856816,0.958145347131702,2020-09-26
"219",109,0.973757617334054,0.96354198222446,0.942220377242728,0.957988997288391,2020-09-27
"220",109.5,0.973692804793101,0.963414666738607,0.941971798876067,0.957832301834584,2020-09-27
"221",110,0.973627332062812,0.963264980391559,0.941723201872782,0.957675266967797,2020-09-28
"222",110.5,0.973561193393156,0.96313400888781,0.941474604352129,0.957517898872642,2020-09-28
"223",111,0.973494383005328,0.962995916383493,0.941226024431376,0.957360203718352,2020-09-29
"224",111.5,0.973426895092104,0.962852893627512,0.940977480220529,0.957202187656316,2020-09-29
"225",112,0.973358723818209,0.96273123513333,0.940728989817043,0.957043856817626,2020-09-30
"226",112.5,0.973289863320706,0.962640085486574,0.940480571300561,0.956885217310633,2020-09-30
"227",113,0.973220307709389,0.962504350964718,0.940232242727653,0.956726275218521,2020-10-01
"228",113.5,0.973150051067202,0.962371484370302,0.939984022126573,0.956567036596887,2020-10-01
"229",114,0.973079087450667,0.962242546410136,0.939735927492037,0.956407507471352,2020-10-02
"230",114.5,0.973007410890329,0.962111227953065,0.939487976780022,0.956247693835176,2020-10-02
"231",115,0.97293501539122,0.961979535070138,0.939240187902585,0.956087601646903,2020-10-03
"232",115.5,0.972861894933334,0.961870129960381,0.938992578722718,0.955927236828026,2020-10-03
"233",116,0.972788043472123,0.961733850977525,0.938745167049227,0.955766605260675,2020-10-04
"234",116.5,0.972713454939008,0.961576717003222,0.938497970631653,0.95560571278533,2020-10-04
"235",117,0.972638123241908,0.961420548769029,0.938251007155218,0.955444565198563,2020-10-05
"236",117.5,0.972562042265782,0.961239066650086,0.93800429423583,0.955283168250806,2020-10-05
"237",118,0.972485205873195,0.961106902397476,0.93775784941511,0.955121527644153,2020-10-06
"238",118.5,0.972407607904899,0.960973792197178,0.937511690155481,0.95495964903019,2020-10-06
"239",119,0.97232924218043,0.960823483529059,0.937265833835303,0.954797538007866,2020-10-07
"240",119.5,0.972250102498724,0.960672483471053,0.93702029774405,0.954635200121387,2020-10-07
"241",120,0.972170182638757,0.960536342415214,0.936775099077559,0.954472640858158,2020-10-08
"242",120.5,0.972089476360194,0.960428548609301,0.936530254933319,0.954309865646756,2020-10-08
"243",121,0.972007977404066,0.960282121754516,0.936285782305834,0.95414687985495,2020-10-09
"244",121.5,0.971957140041969,0.960094621796164,0.936041698082039,0.953999419062004,2020-10-09
"245",122,0.971918911224313,0.959930053209662,0.935798019036786,0.95385846513055,2020-10-10
"246",122.5,0.971880611443302,0.95981072570386,0.935554761828398,0.95371768663585,2020-10-10
"247",123,0.971842240901873,0.959710777130711,0.935311942994289,0.953577091948081,2020-10-11
"248",123.5,0.971803799805183,0.959568166747196,0.935069578946661,0.953436689375922,2020-10-11
"249",124,0.971765288360614,0.959410419381369,0.934827685968275,0.953296487164444,2020-10-12
"250",124.5,0.97172670677777,0.959240234194453,0.934586280208294,0.953156493493032,2020-10-12
"251",125,0.971688055268478,0.959104740515344,0.934345377678211,0.953016716473345,2020-10-13
"252",125.5,0.971649334046789,0.958999982283641,0.934104994247855,0.952877164147322,2020-10-13
"253",126,0.971610543328976,0.958867782828595,0.933865145641479,0.952737844485228,2020-10-14
"254",126.5,0.971571683333533,0.95873416441757,0.933625847433937,0.952598765383735,2020-10-14
"255",127,0.971532754281177,0.958597381365935,0.933387115046939,0.952459934664058,2020-10-15
"256",127.5,0.971493756394846,0.958410145424466,0.933148963745405,0.952321360070125,2020-10-15
"257",128,0.971454689899696,0.95825521242067,0.9329114086339,0.952183049266798,2020-10-16
"258",128.5,0.971415555023106,0.958118105123069,0.932674464653167,0.952045009838137,2020-10-16
"259",129,0.971376351994671,0.957973163128647,0.932438146576743,0.951907249285707,2020-10-17
"260",129.5,0.971337081046201,0.957801372722328,0.932202469007684,0.951769775026943,2020-10-17
"261",130,0.971297742411726,0.957628544779026,0.93196744637537,0.951632594393548,2020-10-18
"262",130.5,0.971258336327486,0.957457534075038,0.931733092932416,0.951495714629951,2020-10-18
"263",131,0.971218863031936,0.957348317627462,0.931499422751679,0.951359142891808,2020-10-19
"264",131.5,0.971179322765742,0.957250378363338,0.931266449723357,0.95122288624455,2020-10-19
"265",132,0.971139715771775,0.957152525391617,0.931034187552203,0.951086951661989,2020-10-20
"266",132.5,0.971100042295118,0.957054761284305,0.930802649754819,0.950951346024968,2020-10-20
"267",133,0.971060302583055,0.956941505417447,0.930571849657066,0.950816076120061,2020-10-21
"268",133.5,0.971020496885074,0.95675607607933,0.930341800391573,0.950681148638323,2020-10-21
"269",134,0.970980625452861,0.956609575770259,0.930112514895341,0.950546570174101,2020-10-22
"270",134.5,0.970940688540302,0.95647129945375,0.929884005907458,0.95041234722388,2020-10-22
"271",135,0.970900686403474,0.956324004793586,0.929656285966916,0.950278486185195,2020-10-23
"272",135.5,0.970860619300649,0.95613697580169,0.929429367410525,0.950144993355587,2020-10-23
"273",136,0.970820487492285,0.955965313359835,0.929203262370935,0.95001187493161,2020-10-24
"274",136.5,0.970780291241027,0.955806413464332,0.928977982774767,0.949879137007897,2020-10-24
"275",137,0.970740030811701,0.955640093969647,0.928753540340834,0.949746785576268,2020-10-25
"276",137.5,0.970699706471311,0.95547311504393,0.928529946578484,0.949614826524898,2020-10-25
"277",138,0.970659318489039,0.955295294681048,0.928307212786026,0.949483265637532,2020-10-26
"278",138.5,0.970618867136234,0.955115003290959,0.928085350049276,0.949352108592755,2020-10-26
"279",139,0.970578352686416,0.954959525962507,0.927864369240201,0.949221360963309,2020-10-27
"280",139.5,0.970537775415267,0.954791554321572,0.92764428101566,0.949091028215463,2020-10-27
"281",140,0.970497135600626,0.954623083152668,0.927425095816255,0.948961115708441,2020-10-28
"282",140.5,0.970456433522491,0.954473926945776,0.92720682386528,0.948831628693885,2020-10-28
"283",141,0.970415669463007,0.954343453884326,0.92698947516777,0.948702572315388,2020-10-29
"284",141.5,0.970374843706465,0.954199618961194,0.926773059509657,0.948573951608061,2020-10-29
"285",142,0.970333956539299,0.95403020020761,0.926557586457017,0.948445771498158,2020-10-30
"286",142.5,0.970293008250078,0.953898060766192,0.92634306535542,0.948318036802749,2020-10-30
"287",143,0.9702519991295,0.953749697317286,0.926129505329381,0.94819075222944,2020-10-31
"288",143.5,0.970210929470392,0.953568678680457,0.925916915281903,0.948063922376148,2020-10-31
"289",144,0.970169799567699,0.953424804116718,0.925705303894123,0.947937551730911,2020-11-01
"290",144.5,0.970128609718481,0.953247884284689,0.925494679625043,0.947811644671762,2020-11-01
"291",145,0.97008736022191,0.953099664170209,0.925285050711365,0.947686205466638,2020-11-02
"292",145.5,0.970046051379259,0.952951029199892,0.925076425167414,0.947561238273336,2020-11-02
"293",146,0.970004683493897,0.952785121362824,0.924868810785156,0.947436747139527,2020-11-03
"294",146.5,0.969963256871288,0.952602091351678,0.924662215134299,0.947312736002794,2020-11-03
"295",147,0.96992177181898,0.952412698314175,0.924456645562496,0.947189208690738,2020-11-04
"296",147.5,0.969880228646598,0.95222246485895,0.924252109195621,0.94706616892111,2020-11-04
"297",148,0.969838627665842,0.952001954597562,0.924048612938144,0.946943620301993,2020-11-05
"298",148.5,0.969796969190475,0.951839490579195,0.923846163473583,0.946821566332029,2020-11-05
"299",149,0.969755253536321,0.951646756960434,0.923644767265044,0.946700010400682,2020-11-06
"300",149.5,0.969713481021254,0.95146695038646,0.923444430555839,0.946578955788547,2020-11-06
"301",150,0.969671651965194,0.951307282432249,0.923245159370191,0.946458405667692,2020-11-07
"302",150.5,0.969629766690097,0.951165337465979,0.923046959514007,0.946338363102052,2020-11-07
"303",151,0.969587825519951,0.951046614306063,0.922849836575742,0.946218831047847,2020-11-08
"304",151.5,0.969545828780764,0.950933008873241,0.922653795927327,0.946099812354045,2020-11-08
"305",152,0.96950377680056,0.95081943675284,0.922458842725173,0.945981309762867,2020-11-09
"306",152.5,0.96946166990937,0.95063010224162,0.922264981911256,0.945863325910313,2020-11-09
"307",153,0.969419508439224,0.950513464086697,0.922072218214262,0.945745863326743,2020-11-10
"308",153.5,0.969377292724141,0.950362699497886,0.921880556150802,0.945628924437471,2020-11-10
"309",154,0.969335023100124,0.950202284502671,0.921690000026701,0.945512511563412,2020-11-11
"310",154.5,0.969292699905149,0.950065670578101,0.921500553938345,0.945396626921747,2020-11-11
"311",155,0.969250323479159,0.949906809643283,0.921312221774097,0.945281272626628,2020-11-12
"312",155.5,0.96920789416405,0.94974613229738,0.921125007215765,0.945166450689908,2020-11-12
"313",156,0.969165412303669,0.949553420831438,0.920938913740144,0.945052163021907,2020-11-13
"314",156.5,0.969122878243802,0.949354804518398,0.920753944620601,0.944938411432201,2020-11-13
"315",157,0.96908029233216,0.949219098182821,0.920570102928729,0.944825197630445,2020-11-14
"316",157.5,0.96903765491838,0.949117777330379,0.920387391536044,0.944712523227212,2020-11-14
"317",158,0.968994966354005,0.949016539698323,0.920205813115745,0.944600389734875,2020-11-15
"318",158.5,0.968952226992481,0.948908219362131,0.920025370144511,0.944488798568496,2020-11-15
"319",159,0.968909437189145,0.948711693936817,0.919846064904366,0.944377751046756,2020-11-16
"320",159.5,0.968866597301217,0.948555916719361,0.919667899484567,0.944267248392892,2020-11-16
"321",160,0.968823707687785,0.94838673445619,0.91949087578356,0.944157291735673,2020-11-17
"322",160.5,0.968780768709801,0.948217314989807,0.919314995510962,0.944047882110381,2020-11-17
"323",161,0.968737780730066,0.948047665479618,0.919140260189591,0.943939020459828,2020-11-18
"324",161.5,0.968694744113222,0.947845588270811,0.918966671157539,0.943830707635381,2020-11-18
"325",162,0.968651659225742,0.947645669069376,0.918794229570276,0.94372294439801,2020-11-19
"326",162.5,0.968608526435917,0.947470051634475,0.918622936402794,0.943615731419355,2020-11-19
"327",163,0.968565346113844,0.94730115469809,0.918452792451779,0.943509069282812,2020-11-20
"328",163.5,0.968522118631421,0.94712491450689,0.918283798337828,0.943402958484624,2020-11-20
"329",164,0.968478844362328,0.946974048255387,0.918115954507681,0.943297399435005,2020-11-21
"330",164.5,0.968435523682023,0.946810119351311,0.917949261236494,0.943192392459258,2020-11-21
"331",165,0.968392156967724,0.946656631142034,0.91778371863013,0.943087937798927,2020-11-22
"332",165.5,0.968348744598402,0.946479038912888,0.917619326627483,0.942984035612942,2020-11-22
"333",166,0.968305286954768,0.946294501895369,0.917456085002819,0.942880685978794,2020-11-23
"334",166.5,0.968261784419261,0.946105086191907,0.917293993368146,0.942777888893704,2020-11-23
"335",167,0.968218237376035,0.94589954061736,0.917133051175595,0.942675644275815,2020-11-24
"336",167.5,0.968174646210948,0.945714034155686,0.916973257719828,0.942573951965388,2020-11-24
"337",168,0.96813101131155,0.945554000275749,0.916814612140461,0.942472811726005,2020-11-25
"338",168.5,0.968087333067069,0.945348828472793,0.916657113424498,0.942372223245783,2020-11-25
"339",169,0.9680436118684,0.945143355962812,0.916500760408785,0.942272186138592,2020-11-26
"340",169.5,0.967999848108093,0.94493753080435,0.916345551782473,0.942172699945283,2020-11-26
"341",170,0.967956042180338,0.944689182367565,0.916102213568287,0.942029127874312,2020-11-27
"342",170.5,0.967912194480952,0.944499739613576,0.915720970866729,0.94181658267384,2020-11-27
"343",171,0.967868305407369,0.944321351452399,0.915336645764293,0.941602475585831,2020-11-28
"344",171.5,0.967824375358624,0.944137353968426,0.9148165303371,0.941320452847862,2020-11-28
"345",172,0.96778040473534,0.943960705506597,0.914296642336082,0.941038523535711,2020-11-29
"346",172.5,0.967736393939716,0.943769457447516,0.913777059971403,0.940756726955559,2020-11-29
"347",173,0.967692343375512,0.943579600980497,0.913257861248269,0.94047510231189,2020-11-30
"348",173.5,0.967648253448035,0.943370953312445,0.912739123920226,0.94019368868413,2020-11-30
"349",174,0.967604124564126,0.94316052428941,0.912220925442798,0.939912525003462,2020-12-01
"350",174.5,0.967559957132149,0.942949862079116,0.911703342927523,0.939631650029836,2020-12-01
"351",175,0.967515751561969,0.942742300186381,0.911186453096448,0.939351102329209,2020-12-02
"352",175.5,0.967471508264946,0.942527885441492,0.910670332237144,0.939070920251045,2020-12-02
"353",176,0.967427227653916,0.942316594806088,0.910155056158279,0.938791141906098,2020-12-03
"354",176.5,0.967382910143179,0.942141635355771,0.909640700145827,0.938511805144503,2020-12-03
"355",177,0.967338556148482,0.942001587151192,0.909127338919943,0.938232947534212,2020-12-04
"356",177.5,0.967294166087006,0.941861691466936,0.90861504659257,0.937954606339788,2020-12-04
"357",178,0.967249740377351,0.94172195235667,0.908103896625826,0.937676818501589,2020-12-05
"358",178.5,0.967205279439521,0.941582373850322,0.90759396179121,0.937399620615366,2020-12-05
"359",179,0.967160783694909,0.941457662435051,0.907085314129682,0.937123048912296,2020-12-06
"360",179.5,0.967116253566281,0.941341239577024,0.90657802491266,0.93684713923947,2020-12-06
"361",180,0.967071689477761,0.941201328284099,0.906072164603971,0.936571927040866,2020-12-07
"362",180.5,0.967027091854818,0.941006153878037,0.905567802822803,0.936297447338811,2020-12-07
"363",181,0.966982461124248,0.940832826105957,0.905065008307695,0.936023734715971,2020-12-08
"364",181.5,0.966937797714156,0.940614137540492,0.904563848881595,0.935750823297876,2020-12-08
"365",182,0.966893102053948,0.94039504605008,0.904064391418028,0.935478746735988,2020-12-09
"366",182.5,0.966848374574306,0.94027333525125,0.9035667018084,0.935207538191353,2020-12-09
"367",183,0.96680361570718,0.940159447253537,0.903070844930476,0.934937230318828,2020-12-10
"368",183.5,0.966758825885767,0.94004569905279,0.902576884618043,0.934667855251905,2020-12-10
"369",184,0.966714005544495,0.939926395503362,0.902084883631802,0.934399444588148,2020-12-11
"370",184.5,0.96666915511901,0.93976297556817,0.901594903631496,0.934132029375253,2020-12-11
"371",185,0.966624275046157,0.939591765507415,0.901107005149306,0.933865640097731,2020-12-12
"372",185.5,0.966579365763964,0.939425981169271,0.900621247564521,0.933600306664243,2020-12-12
"373",186,0.966534427711628,0.939266284271148,0.900137689079509,0.933336058395568,2020-12-13
"374",186.5,0.966489461329492,0.939096963356562,0.899656386696994,0.933072924013242,2020-12-13
"375",187,0.966444467059035,0.938905324963929,0.899177396198652,0.932810931628843,2020-12-14
"376",187.5,0.966399445342853,0.938713488440016,0.898700772125035,0.932550108733944,2020-12-14
"377",188,0.966354396624641,0.938521462054985,0.898226567756831,0.932290482190736,2020-12-15
"378",188.5,0.966309321349175,0.938319458048764,0.897754835097454,0.932032078223314,2020-12-15
"379",189,0.966264219962299,0.938148729267924,0.89728562485698,0.93177492240964,2020-12-16
"380",189.5,0.966219092910904,0.93797810479572,0.896818986437422,0.931519039674163,2020-12-16
"381",190,0.966173940642912,0.937820208808388,0.896354967919328,0.93126445428112,2020-12-17
"382",190.5,0.966128763607258,0.937704372673263,0.895893616049723,0.931011189828491,2020-12-17
"383",191,0.966083562253875,0.937588721861296,0.895434976231369,0.930759269242622,2020-12-18
"384",191.5,0.966038337033674,0.937420135972166,0.894979092513332,0.930508714773503,2020-12-18
"385",192,0.965993088398524,0.93719960413103,0.894526007582864,0.930259547990694,2020-12-19
"386",192.5,0.965947816801242,0.936978863819654,0.894075762758564,0.930011789779903,2020-12-19
"387",193,0.965902522695567,0.936788927860802,0.89362839798482,0.929765460340194,2020-12-20
"388",193.5,0.965857206536147,0.936588590471546,0.893183951827508,0.929520579181828,2020-12-20
"389",194,0.96581186877852,0.936388411322003,0.892742461470931,0.929277165124725,2020-12-21
"390",194.5,0.965766509879093,0.936189368858062,0.892303962715981,0.929035236297537,2020-12-21
"391",195,0.96572113029513,0.936070220810872,0.891868489979497,0.928794810137314,2020-12-22
"392",195.5,0.965675730484728,0.935965735721256,0.891436076294805,0.928555903389766,2020-12-22
"393",196,0.965630310906803,0.935865969685217,0.891006753313403,0.928318532110103,2020-12-23
"394",196.5,0.965584872021066,0.935766557483878,0.890580551307787,0.928082711664427,2020-12-23
"395",197,0.965539414288014,0.935630345501105,0.890157499175363,0.927848456731688,2020-12-24
"396",197.5,0.9654939381689,0.935467466088934,0.889737624443443,0.927615781306172,2020-12-24
"397",198,0.965448444125724,0.935304794092381,0.889320953275286,0.927384698700505,2020-12-25
"398",198.5,0.965402932621211,0.9351993805169,0.88890751047715,0.927155221549181,2020-12-25
"399",199,0.96535740411879,0.935089234206962,0.888497319506333,0.926927361812562,2020-12-26
"400",199.5,0.965311859082578,0.934976928097747,0.888090402480169,0.926701130781374,2020-12-26
"401",200,0.965266297977363,0.934820550191501,0.887686780185947,0.926476539081655,2020-12-27
"402",200.5,0.965220721268579,0.934658670850205,0.887286472091716,0.926253596680148,2020-12-27
"403",201,0.965175129422295,0.934490335926462,0.886889496357957,0.926032312890126,2020-12-28
"404",201.5,0.965129522905189,0.934320508621184,0.886495869850071,0.92581269637763,2020-12-28
"405",202,0.965083902184533,0.934142760852127,0.886105608151663,0.925594755168098,2020-12-29
"406",202.5,0.965038267728174,0.933919620896459,0.88571872557858,0.925378496653377,2020-12-29
"407",203,0.964992620004512,0.933734851050763,0.885335235193674,0.925163927599093,2020-12-30
"408",203.5,0.964946959482485,0.933572213796218,0.884955148822257,0.924951054152371,2020-12-30
"409",204,0.964901286631546,0.93343158674127,0.884578477068202,0.924739881849874,2020-12-31
"410",204.5,0.964855601921646,0.933293703541181,0.884205229330672,0.924530415626159,2020-12-31
"411",205,0.964809905823214,0.933137596409633,0.883835413821433,0.924322659822324,2021-01-01
"412",205.5,0.964764198807137,0.932981890308284,0.883469037582719,0.924116618194928,2021-01-01
"413",206,0.964718481344745,0.93286038022904,0.88310610650561,0.923912293925177,2021-01-02
"414",206.5,0.964672753907782,0.93270932914448,0.882746625348907,0.923709689628345,2021-01-02
"415",207,0.964627016968399,0.932558741144797,0.882390597758443,0.923508807363421,2021-01-03
"416",207.5,0.964581270999123,0.93240862088919,0.882038026286823,0.923309648642973,2021-01-03
"417",208,0.964535516472847,0.932258972964957,0.881688912413548,0.923112214443197,2021-01-04
"418",208.5,0.964489753862803,0.932108290668537,0.881343256565484,0.922916505214143,2021-01-04
"419",209,0.964443983642547,0.931951649314842,0.881001058137666,0.922722520890106,2021-01-05
"420",209.5,0.964398206285938,0.931826607811028,0.880662315514383,0.922530260900161,2021-01-05
"421",210,0.964352422267118,0.931708970388989,0.880327026090527,0.922339724178822,2021-01-06
"422",210.5,0.964306632060494,0.931584529470237,0.879995186293168,0.922150909176831,2021-01-06
"423",211,0.964260836140716,0.931466065828241,0.879666791603341,0.921963813872029,2021-01-07
"424",211.5,0.964215034982659,0.931352925014625,0.87934183657799,0.921778435780324,2021-01-07
"425",212,0.964169229061403,0.931228926186374,0.879020314872068,0.921594771966735,2021-01-08
"426",212.5,0.964123418852212,0.931065132370195,0.878702219260751,0.921412819056481,2021-01-08
"427",213,0.964077604830517,0.930898770708764,0.878387541661739,0.921232573246128,2021-01-09
"428",213.5,0.964031787471893,0.930760059910678,0.87807627315763,0.921054030314762,2021-01-09
"429",214,0.963985967252044,0.930633401766048,0.877768404018325,0.920877185635184,2021-01-10
"430",214.5,0.963940144646775,0.930508882346804,0.877463923723454,0.920702034185115,2021-01-10
"431",215,0.963894320131983,0.930384809559478,0.877162820984799,0.920528570558391,2021-01-11
"432",215.5,0.963848494183628,0.930261185768952,0.876865083768676,0.920356788976152,2021-01-11
"433",216,0.963802667277718,0.930138013288262,0.876570699318273,0.920186683297995,2021-01-12
"434",216.5,0.963756839890287,0.930015294378653,0.876279654175918,0.920018247033103,2021-01-12
"435",217,0.963711012497378,0.929882543435505,0.875991934205249,0.919851473351313,2021-01-13
"436",217.5,0.963665185575021,0.929728875229684,0.875707524613271,0.919686355094146,2021-01-13
"437",218,0.963619359599212,0.929575682425199,0.87542640997229,0.919522884785751,2021-01-14
"438",218.5,0.963573535045898,0.929422969574879,0.875148574241697,0.919361054643798,2021-01-14
"439",219,0.963527712390952,0.929270741161806,0.874874000789579,0.919200856590266,2021-01-15
"440",219.5,0.963481892110155,0.929119786667305,0.874602672414166,0.91904228226216,2021-01-15
"441",220,0.963436074679178,0.928952703558235,0.874334571365067,0.918885323022122,2021-01-16
"442",220.5,0.96339026057356,0.92878601061413,0.874069679364304,0.918729969968932,2021-01-16
"443",221,0.963344450268691,0.928619713431818,0.873807977627127,0.918576213947909,2021-01-17
"444",221.5,0.963298644239787,0.928467924228274,0.87354944688258,0.918424045561184,2021-01-17
"445",222,0.963252842961877,0.928346176269691,0.873294067393834,0.918273455177856,2021-01-18
"446",222.5,0.963207046909779,0.928229560444724,0.873041818978249,0.918124432944014,2021-01-18
"447",223,0.96316125655808,0.928113355073118,0.872792681027175,0.917976968792628,2021-01-19
"448",223.5,0.96311547238112,0.927974551608085,0.87254663252547,0.917831052453295,2021-01-19
"449",224,0.963069694852968,0.927792665998317,0.872303652070728,0.917686673461848,2021-01-20
"450",224.5,0.963023924447407,0.927630320393011,0.872063717892215,0.917543821169811,2021-01-20
"451",225,0.962978161637909,0.927463275214621,0.871826807869498,0.917402484753704,2021-01-21
"452",225.5,0.962932406897621,0.927261735715185,0.871592899550764,0.917262653224193,2021-01-21
"453",226,0.962886660699342,0.927069741642332,0.871361970170821,0.917124315435081,2021-01-22
"454",226.5,0.962840923515503,0.926882036311053,0.871133996668775,0.916987460092139,2021-01-22
"455",227,0.962795195818151,0.926705433444613,0.870908955705383,0.916852075761767,2021-01-23
"456",227.5,0.962749478078928,0.926564578746353,0.870686823680068,0.916718150879498,2021-01-23
"457",228,0.962703770769047,0.926424230663253,0.870467576747602,0.916585673758325,2021-01-24
"458",228.5,0.962658074359283,0.926270251276168,0.870251190834445,0.916454632596864,2021-01-24
"459",229,0.962612389319942,0.926119281090337,0.870037641654746,0.916325015487344,2021-01-25
"460",229.5,0.962566716120851,0.925970215344783,0.869826904725997,0.916196810423424,2021-01-25
"461",230,0.962521055231333,0.925844440958719,0.869618955384337,0.916070005307835,2021-01-26
"462",230.5,0.962475407120191,0.925719118559848,0.869413768799512,0.915944587959852,2021-01-26
"463",231,0.962443852743969,0.925569347576468,0.86921131998949,0.91582758636673,2021-01-27
"464",231.5,0.962421676818457,0.925413173699485,0.869011583834713,0.915716630326585,2021-01-27
"465",232,0.962399547154406,0.925267020458348,0.868814535092017,0.915607041123212,2021-01-28
"466",232.5,0.962377463758998,0.925152014500319,0.868620148408187,0.915498806083592,2021-01-28
"467",233,0.962355426638745,0.925042513010395,0.868428398333176,0.915391912485961,2021-01-29
"468",233.5,0.962333435799495,0.924889956821292,0.868239259332973,0.915286347566234,2021-01-29
"469",234,0.962311491246437,0.924775140541292,0.868052705802118,0.915182098524277,2021-01-30
"470",234.5,0.962289592984098,0.924618038613626,0.867868712075888,0.915079152529993,2021-01-30
"471",235,0.962267741016351,0.924449833314877,0.867687252442127,0.914977496729239,2021-01-31
"472",235.5,0.962245935346415,0.924344359283245,0.867508301152747,0.914877118249581,2021-01-31
"473",236,0.962224175976858,0.924246774426297,0.867331832434886,0.914778004205872,2021-02-01
"474",236.5,0.9622024629096,0.924155359679905,0.867157820501733,0.914680141705666,2021-02-01
"475",237,0.962180796145916,0.924073046647659,0.86698623956303,0.914583517854473,2021-02-02
"476",237.5,0.962159175686438,0.923963069215843,0.866817063835236,0.914488119760837,2021-02-02
"477",238,0.962137601531158,0.923831739363141,0.866650267551375,0.914393934541267,2021-02-03
"478",238.5,0.962116073679433,0.923638999968726,0.866485824970562,0.914300949324998,2021-02-03
"479",239,0.962094592129983,0.923495902855676,0.866323710387214,0.914209151258598,2021-02-04
"480",239.5,0.962073156880897,0.923353257143906,0.866163898139948,0.914118527510423,2021-02-04
"481",240,0.962051767929636,0.923211506033947,0.866006362620176,0.914029065274906,2021-02-05
"482",240.5,0.962030425273036,0.923070650342271,0.865851078280393,0.913940751776714,2021-02-05
"483",241,0.962009128907306,0.922925144947577,0.865698019642166,0.913853574274736,2021-02-06
"484",241.5,0.961987878828038,0.922741351185984,0.865547161303837,0.913767520065938,2021-02-06
"485",242,0.961966675030207,0.922558443336003,0.865398477947932,0.91368257648907,2021-02-07
"486",242.5,0.961945517508169,0.922454910641234,0.865251944348286,0.913598730928228,2021-02-07
"487",243,0.961924406255673,0.922373677975452,0.86510753537689,0.913515970816281,2021-02-08
"488",243.5,0.961903341265855,0.922292925975182,0.864965226010468,0.913434283638161,2021-02-08
"489",244,0.961882322531247,0.922212653403183,0.864824991336782,0.913353656934014,2021-02-09
"490",244.5,0.961861350043776,0.922115808661681,0.864686806560675,0.913274078302226,2021-02-09
"491",245,0.96184042379477,0.921990688935287,0.864550647009857,0.913195535402313,2021-02-10
"492",245.5,0.961819543774957,0.921857997505063,0.864416488140434,0.913118015957696,2021-02-10
"493",246,0.961798709974472,0.921691044511428,0.864284305542201,0.913041507758336,2021-02-11
"494",246.5,0.961777922382858,0.921509436228371,0.864154074943674,0.912965998663266,2021-02-11
"495",247,0.961757180989068,0.921328478813685,0.864025772216907,0.912891476602987,2021-02-12
"496",247.5,0.961736485781467,0.921148177335996,0.863899373382062,0.912817929581765,2021-02-12
"497",248,0.961715836747841,0.920968536764292,0.863774854611757,0.912745345679799,2021-02-13
"498",248.5,0.961695233875391,0.920789561967786,0.863652192235198,0.912673713055294,2021-02-13
"499",249,0.961674677150743,0.92063050962813,0.86353136274209,0.912603019946416,2021-02-14
"500",249.5,0.961654166559948,0.920483488665519,0.86341234278634,0.912533254673144,2021-02-14
"501",250,0.961633702088483,0.920337046060866,0.863295109189556,0.912464405639019,2021-02-15
"502",250.5,0.961613283721258,0.920191184434642,0.863179638944343,0.912396461332801,2021-02-15
"503",251,0.961592911442618,0.920063460302536,0.863065909217412,0.912329410330015,2021-02-16
"504",251.5,0.961572585236342,0.919946956071953,0.862953897352488,0.912263241294415,2021-02-16
"505",252,0.961552305085651,0.919830977576504,0.862843580873045,0.912197942979348,2021-02-17
"506",252.5,0.961532070973208,0.919715525370433,0.862734937484856,0.912133504229032,2021-02-17
"507",253,0.961511882881121,0.919543524360988,0.862627945078372,0.912069913979746,2021-02-18
"508",253.5,0.961491740790947,0.919369029438516,0.862522581730925,0.912007161260936,2021-02-18
"509",254,0.961471644683695,0.919228123670498,0.862418825708779,0.911945235196237,2021-02-19
"510",254.5,0.961451594539829,0.919104430298415,0.862316655469006,0.911884125004417,2021-02-19
"511",255,0.961431590339268,0.918985035149349,0.862216049661222,0.911823820000245,2021-02-20
"512",255.5,0.961411632061393,0.918869171084774,0.862116987129164,0.911764309595278,2021-02-20
"513",256,0.961391719685048,0.918753876700043,0.862019446912124,0.911705583298586,2021-02-21
"514",256.5,0.961371853188543,0.918639152119429,0.861923408246241,0.911647630717392,2021-02-21
"515",257,0.961352032549658,0.918524997421206,0.86182885056566,0.911590441557659,2021-02-22
"516",257.5,0.961332257745644,0.918411412638144,0.861735753503556,0.9115340056246,2021-02-22
"517",258,0.961312528753228,0.918298397757999,0.86164409689303,0.911478312823129,2021-02-23
"518",258.5,0.961292845548613,0.918185952724014,0.861553860767885,0.911423353158249,2021-02-23
"519",259,0.961273208107485,0.918077079667359,0.861465025363279,0.911369116735382,2021-02-24
"520",259.5,0.961253616405013,0.917976472200667,0.861377571116263,0.911315593760638,2021-02-24
"521",260,0.961234070415854,0.917876417823321,0.861291478666215,0.911262774541034,2021-02-25
"522",260.5,0.961214570114153,0.917776915605976,0.861206728855155,0.911210649484654,2021-02-25
"523",261,0.961195115473549,0.917677964587632,0.861123302727967,0.911159209100758,2021-02-26
"524",261.5,0.961175706467176,0.917579563776155,0.861041181532517,0.911108443999846,2021-02-26
"525",262,0.961156343067669,0.917481712148789,0.860960346719672,0.91105834489367,2021-02-27
"526",262.5,0.96113702524716,0.917396369021424,0.860880779943238,0.911008902595199,2021-02-27
"527",263,0.96111775297729,0.917324116519001,0.860802463059796,0.910960108018543,2021-02-28
"528",263.5,0.961098526229206,0.917252452240219,0.86072537812846,0.910911952178833,2021-02-28
"529",264,0.961079344973566,0.917181372925893,0.860649507410553,0.910864426192059,2021-03-01
"530",264.5,0.96106020918054,0.917110875306038,0.860574833369204,0.910817521274872,2021-03-01
"531",265,0.961041118819816,0.917040956100536,0.860501338668869,0.910771228744342,2021-03-02
"532",265.5,0.961022073860601,0.916971612019798,0.860429006174778,0.91072554001769,2021-03-02
"533",266,0.961003074271625,0.916902839765412,0.860357818952321,0.910680446611973,2021-03-03
"534",266.5,0.960984120021143,0.916834636030783,0.860287760266353,0.910635940143748,2021-03-03
"535",267,0.960965211076936,0.916766997501764,0.860218813580456,0.910592012328696,2021-03-04
"536",267.5,0.960946347406321,0.916699920857271,0.860150962556119,0.91054865498122,2021-03-04
"537",268,0.960927528976146,0.916633402769898,0.860084191051879,0.910505860014012,2021-03-05
"538",268.5,0.960908755752796,0.916563843126343,0.860018483122396,0.910463619437596,2021-03-05
"539",269,0.960890027702198,0.916484468360039,0.859953823017479,0.910421925359838,2021-03-06
"540",269.5,0.960871344789821,0.916405661291001,0.859890195181063,0.910380769985442,2021-03-06
"541",270,0.96085270698068,0.916327419488791,0.859827584250138,0.910340145615409,2021-03-07
"542",270.5,0.960834114239341,0.916249740504963,0.859765975053635,0.910300044646488,2021-03-07
"543",271,0.960815566529918,0.916172621873658,0.859705352611262,0.91026045957059,2021-03-08
"544",271.5,0.960797063816083,0.916096061112192,0.859645702132314,0.910221382974198,2021-03-08
"545",272,0.960778606061066,0.916020055721644,0.859587009014429,0.910182807537748,2021-03-09
"546",272.5,0.960760193227657,0.915944603187432,0.859529258842321,0.910144726034989,2021-03-09
"547",273,0.960741825278209,0.915869700979886,0.859472437386469,0.910107131332339,2021-03-10
"548",273.5,0.960723502174643,0.915795346554809,0.859416530601784,0.910070016388213,2021-03-10
"549",274,0.960705223878449,0.915721537354037,0.859361524626237,0.910033374252343,2021-03-11
"550",274.5,0.96068699035069,0.915648270805993,0.859307405779465,0.909997198065078,2021-03-11
"551",275,0.960668801552005,0.915575544326225,0.859254160561347,0.909961481056676,2021-03-12
"552",275.5,0.96065065744261,0.915503355317949,0.859201775650559,0.909926216546585,2021-03-12
"553",276,0.960632557982304,0.915419574465658,0.859150237903105,0.909891397942704,2021-03-13
"554",276.5,0.960614503130468,0.915327758658469,0.859099534350825,0.909857018740647,2021-03-13
"555",277,0.960596492846073,0.915236604190981,0.859049652199885,0.909823072522979,2021-03-14
"556",277.5,0.96057852708768,0.915146108515695,0.859000578829249,0.909789552958464,2021-03-14
"557",278,0.96056060581344,0.91505626905458,0.858952301789137,0.909756453801288,2021-03-15
"558",278.5,0.960542728981103,0.914967083199916,0.858904808799461,0.909723768890282,2021-03-15
"559",279,0.960524896548017,0.914878548315128,0.858858087748255,0.909691492148136,2021-03-16
"560",279.5,0.960507108471132,0.914790661735617,0.85881212669009,0.909659617580611,2021-03-16
"561",280,0.960489364707002,0.914703420769574,0.858766913844474,0.909628139275738,2021-03-17
"562",280.5,0.960471665211789,0.914645794077112,0.858722437594248,0.909597051403018,2021-03-17
"563",281,0.960454009941266,0.914595899188228,0.85867868648397,0.909566348212618,2021-03-18
"564",281.5,0.960436398850819,0.914546368150692,0.858635649218294,0.909536024034556,2021-03-18
"565",282,0.96041883189545,0.914481981404505,0.858593314660338,0.909506073277894,2021-03-19
"566",282.5,0.960401309029781,0.914400676939334,0.858551671830052,0.909476490429916,2021-03-19
"567",283,0.960383830208055,0.914319871488057,0.858510709902578,0.909447270055317,2021-03-20
"568",283.5,0.96036639538414,0.914239563414015,0.858470418206612,0.909418406795376,2021-03-20
"569",284,0.960349004511533,0.914159751063989,0.858430786222753,0.909389895367143,2021-03-21
"570",284.5,0.96033165754336,0.914080432768591,0.858391803581862,0.909361730562611,2021-03-21
"571",285,0.960314354432381,0.913995601262463,0.858353460063414,0.909333907247898,2021-03-22
"572",285.5,0.960297095130994,0.913876744871897,0.858315745593854,0.909306420362424,2021-03-22
"573",286,0.960279879591234,0.913758466322656,0.858278650244946,0.90927926491809,2021-03-23
"574",286.5,0.960262707764779,0.91368014949177,0.858242164232138,0.909252435998458,2021-03-23
"575",287,0.960245579602951,0.91361462198472,0.858206277912914,0.909225928757933,2021-03-24
"576",287.5,0.960228495056721,0.913549522781845,0.85817098178516,0.90919973842094,2021-03-24
"577",288,0.96021145407671,0.913484849993272,0.858136266485528,0.909173860281119,2021-03-25
"578",288.5,0.960194456613193,0.913420601723866,0.858102122787808,0.9091482897005,2021-03-25
"579",289,0.960177502616099,0.913367330748925,0.858068541601305,0.909123022108702,2021-03-26
"580",289.5,0.960160592035018,0.91332830924202,0.858035513969217,0.909098053002118,2021-03-26
"581",290,0.960143724819202,0.91328959575316,0.858003031067025,0.909073377943114,2021-03-27
"582",290.5,0.960126900917566,0.913249893889503,0.857971084200889,0.909048992559227,2021-03-27
"583",291,0.960110120278694,0.913200890378187,0.857939664806043,0.909024892542369,2021-03-28
"584",291.5,0.960093382850839,0.913116627768424,0.857908764445213,0.909001073648026,2021-03-28
"585",292,0.960076688581927,0.91301469132789,0.857878374807028,0.908977531694477,2021-03-29
"586",292.5,0.960060037419559,0.912913356580722,0.857848487704451,0.908954262562005,2021-03-29
"587",293,0.960043429311018,0.912812622784453,0.857819095073209,0.908931262192113,2021-03-30
"588",293.5,0.960026864203264,0.912735196910484,0.85779018897024,0.908908526586752,2021-03-30
"589",294,0.960010342042943,0.912664929721394,0.857761761572151,0.908886051807547,2021-03-31
"590",294.5,0.959993862776388,0.912595120378226,0.857733805173673,0.908863833975031,2021-03-31
"591",295,0.959977426349621,0.912525766956756,0.857706312186146,0.908841869267883,2021-04-01
"592",295.5,0.959961032708355,0.912456867524376,0.857679275135996,0.908820153922176,2021-04-01
"593",296,0.959944681798,0.912388420140404,0.857652686663237,0.908798684230619,2021-04-02
"594",296.5,0.959929180380682,0.912320422856405,0.857626539519975,0.908777859950329,2021-04-02
