"","time","top","med","bottom","pseudo_med","date"
"1",0,0.982382919785413,0.97803841356598,0.972039760621688,0.97721134020355,2020-06-10
"2",0.5,0.982372039572381,0.97801587168266,0.972028610700399,0.97720032513639,2020-06-10
"3",1,0.982361013295063,0.977996414856349,0.972017321424874,0.977189167359969,2020-06-11
"4",1.5,0.982349839023262,0.977980084090177,0.972005891085417,0.97717786505434,2020-06-11
"5",2,0.982338514802108,0.977960182801948,0.971994317952169,0.977166416377139,2020-06-12
"6",2.5,0.982327038651768,0.977940048146328,0.971982600274888,0.977154819463328,2020-06-12
"7",3,0.982315408567148,0.977921173136182,0.971970736282734,0.977143072424941,2020-06-13
"8",3.5,0.982303622517597,0.977908052240356,0.971958724184044,0.97713117335082,2020-06-13
"9",4,0.982291678446604,0.977894464138698,0.971946562166111,0.977119120306357,2020-06-14
"10",4.5,0.982279574271496,0.977879868424836,0.971934248394961,0.977106911333229,2020-06-14
"11",5,0.982267307883132,0.977866032525466,0.971921781015125,0.977094544449128,2020-06-15
"12",5.5,0.982254877145588,0.977848878869775,0.971909158149411,0.9770820176475,2020-06-15
"13",6,0.982242279895851,0.977833036524531,0.971896377898678,0.977069328897264,2020-06-16
"14",6.5,0.982229513943501,0.977820731843963,0.971883438341597,0.977056476142549,2020-06-16
"15",7,0.98221657707039,0.977808253575819,0.971870337534427,0.977043457302408,2020-06-17
"16",7.5,0.982203467030325,0.977795599310318,0.971857073510772,0.977030270270548,2020-06-17
"17",8,0.982190181548743,0.977782766605394,0.971843644281347,0.977016912915045,2020-06-18
"18",8.5,0.982176718322381,0.977771651931206,0.971830047833742,0.977003383078061,2020-06-18
"19",9,0.982163075018949,0.977762661605214,0.971816282132178,0.976989678575564,2020-06-19
"20",9.5,0.982149249276799,0.977753475680593,0.971802345117264,0.976975797197032,2020-06-19
"21",10,0.982135238704583,0.977738757483305,0.971788234705759,0.976961736705171,2020-06-20
"22",10.5,0.982121040880921,0.977721273411101,0.97177394879032,0.97694749483562,2020-06-20
"23",11,0.982106653354056,0.977702586363621,0.971759485239257,0.976933069296656,2020-06-21
"24",11.5,0.98209207364151,0.977682796905548,0.971744841896284,0.976918457768897,2020-06-21
"25",12,0.982077299229738,0.977660635413158,0.97173001658027,0.976903657905004,2020-06-22
"26",12.5,0.982062327573777,0.977637717693473,0.971715007084983,0.97688866732938,2020-06-22
"27",13,0.982047156096894,0.977614514339868,0.971699811178837,0.976873483637866,2020-06-23
"28",13.5,0.982031782190229,0.977591021928944,0.971684426604638,0.976858104397433,2020-06-23
"29",14,0.982016203212435,0.97756723699987,0.971668851079325,0.97684252714588,2020-06-24
"30",14.5,0.982000416489321,0.977543156054076,0.971653082293711,0.976826749391516,2020-06-24
"31",15,0.981984419313485,0.977523361109885,0.97163711791222,0.976810768612852,2020-06-25
"32",15.5,0.981968208943944,0.97750492431304,0.971620955572631,0.976794582258287,2020-06-25
"33",16,0.98195178260577,0.97748622982292,0.971604592885805,0.976778187745788,2020-06-26
"34",16.5,0.981935137489713,0.977466415476278,0.971588027435429,0.976761582462571,2020-06-26
"35",17,0.981918270751827,0.977443069584937,0.971571256777742,0.976744763764785,2020-06-27
"36",17.5,0.981901179513093,0.977416997475224,0.971554278441268,0.976727728977181,2020-06-27
"37",18,0.981883860859036,0.97739375396342,0.971537089926548,0.976710475392792,2020-06-28
"38",18.5,0.98186631183934,0.977377283525946,0.971519688705867,0.976693000272604,2020-06-28
"39",19,0.981848529467468,0.977360580932513,0.971502072222981,0.976675300845225,2020-06-29
"40",19.5,0.981830510720268,0.97734364298245,0.971484237892843,0.976657374306556,2020-06-29
"41",20,0.981812252537582,0.977326466433117,0.971466183101326,0.976639217819454,2020-06-30
"42",20.5,0.981793751821852,0.977302449501277,0.971447905204949,0.9766208285134,2020-06-30
"43",21,0.981775005437727,0.977276183272339,0.971429401530593,0.97660220348416,2020-07-01
"44",21.5,0.981756010211658,0.977249613468632,0.971410669375228,0.976583339793443,2020-07-01
"45",22,0.981736762931501,0.977228125356908,0.971391706005626,0.976564234468563,2020-07-02
"46",22.5,0.981726258262353,0.977196953608243,0.971372508658082,0.976549383460217,2020-07-02
"47",23,0.981718857048553,0.977168048420047,0.971353074538131,0.976535965793342,2020-07-03
"48",23.5,0.981711317846363,0.977140229953342,0.971333400820261,0.976522359333312,2020-07-03
"49",24,0.98170363810022,0.977116665660216,0.971313484647629,0.976508561373925,2020-07-04
"50",24.5,0.981695815207875,0.97709933375433,0.971264812374494,0.976480313791185,2020-07-04
"51",25,0.981687846519567,0.977077790334095,0.971209669889976,0.976448758204772,2020-07-05
"52",25.5,0.981679729337181,0.977047794720788,0.971153989956864,0.976416859647023,2020-07-05
"53",26,0.98167146091339,0.977017382770185,0.971097768147268,0.976384614530329,2020-07-06
"54",26.5,0.981663038450786,0.976986548939925,0.971041000013845,0.976352019232316,2020-07-06
"55",27,0.981654459100997,0.976955287620721,0.9709836810901,0.976319070095549,2020-07-07
"56",27.5,0.981645719963783,0.976925893268775,0.970925806890699,0.976285763427241,2020-07-07
"57",28,0.981636818086128,0.976895637401107,0.970867372911786,0.976252095498957,2020-07-08
"58",28.5,0.981627750461305,0.976864206143872,0.970808374631324,0.976218062546314,2020-07-08
"59",29,0.981618514027937,0.976840494472408,0.970748807509431,0.976183660768684,2020-07-09
"60",29.5,0.981609105669034,0.976816650868839,0.970688666988742,0.976148886328888,2020-07-09
"61",30,0.981599522211022,0.976804337966369,0.970627948494773,0.976113735352898,2020-07-10
"62",30.5,0.981589760422747,0.976791811808209,0.9705666474363,0.976078203929524,2020-07-10
"63",31,0.981579817014474,0.976774612526164,0.970504759205749,0.976042288110112,2020-07-11
"64",31.5,0.98156968863686,0.976749827022202,0.970442279179599,0.97600598390823,2020-07-11
"65",32,0.981559371879915,0.976724698856741,0.970379202718798,0.975969287299356,2020-07-12
"66",32.5,0.981548863271949,0.976699736206792,0.970315525169186,0.975932194220567,2020-07-12
"67",33,0.981538159278498,0.976684187126403,0.970251241861936,0.975894700570217,2020-07-13
"68",33.5,0.981527256301233,0.976668376855575,0.97018634811401,0.975856802207621,2020-07-13
"69",34,0.981516150676858,0.976648345636826,0.970120839228614,0.975818494952736,2020-07-14
"70",34.5,0.981504838675979,0.976617844896351,0.970054710495688,0.975779774585833,2020-07-14
"71",35,0.981493316501968,0.97658690302841,0.969987957192384,0.975740636847176,2020-07-15
"72",35.5,0.981481580289803,0.97655390339912,0.969920574583579,0.975701077436691,2020-07-15
"73",36,0.981469626104886,0.976523458834793,0.969852557922389,0.975661092013638,2020-07-16
"74",36.5,0.981457449941855,0.976485811064668,0.969783902450701,0.975620676196278,2020-07-16
"75",37,0.981445047723364,0.976438113019583,0.969714603399714,0.975579825561539,2020-07-17
"76",37.5,0.981432415298851,0.976399580526758,0.969644655990503,0.975538535644677,2020-07-17
"77",38,0.981419548443291,0.97636777450275,0.969574055434589,0.97549680193894,2020-07-18
"78",38.5,0.981406442855922,0.976348657836055,0.969502796934525,0.975454619895224,2020-07-18
"79",39,0.981393094158956,0.976321201626104,0.969430875684499,0.975411984921727,2020-07-19
"80",39.5,0.981379497896271,0.976288174088957,0.969358286870947,0.975368892383609,2020-07-19
"81",40,0.981365649532083,0.976253858211875,0.969285025673188,0.975325337602636,2020-07-20
"82",40.5,0.981351544449599,0.976214173869553,0.969211087264064,0.975281315856832,2020-07-20
"83",41,0.981337177949645,0.976160510385392,0.969136466810603,0.975236822380124,2020-07-21
"84",41.5,0.981322545249282,0.976115793382824,0.969061159474693,0.975191852361988,2020-07-21
"85",42,0.981307641480398,0.976081166448275,0.968985160413773,0.975146400947085,2020-07-22
"86",42.5,0.981292461688274,0.976033825875283,0.968908464781539,0.975100463234907,2020-07-22
"87",43,0.981277000830144,0.975990966789213,0.968831067728662,0.975054034279403,2020-07-23
"88",43.5,0.981261253773714,0.975950935772821,0.968752964403531,0.975007109088623,2020-07-23
"89",44,0.981245215295682,0.975900458087961,0.968674149952997,0.974959682624339,2020-07-24
"90",44.5,0.981228880080215,0.975859908601203,0.968594619523149,0.974911749801682,2020-07-24
"91",45,0.981212242717427,0.975824778440519,0.968514368260093,0.97486330548876,2020-07-25
"92",45.5,0.981195297701814,0.975789134576543,0.968433391310754,0.974814344506284,2020-07-25
"93",46,0.981178039430687,0.975752969725091,0.968351683823692,0.97476486162719,2020-07-26
"94",46.5,0.981160462202567,0.975708245545477,0.968269240949936,0.974714851576252,2020-07-26
"95",47,0.98114256021557,0.975654524041886,0.968186057843831,0.9746643090297,2020-07-27
"96",47.5,0.981124327565763,0.975610941791349,0.968102129663902,0.974613228614833,2020-07-27
"97",48,0.981105758245504,0.975571360335067,0.96801745157374,0.974561604909622,2020-07-28
"98",48.5,0.981086846141753,0.975531193388954,0.967932018742897,0.974509432442325,2020-07-28
"99",49,0.981067585034367,0.975490432608668,0.967845826347802,0.974456705691084,2020-07-29
"100",49.5,0.981047968594368,0.975449657277016,0.967758869572692,0.97440341908353,2020-07-29
"101",50,0.981027990382194,0.975415340952791,0.967671143610564,0.974349566996379,2020-07-30
"102",50.5,0.981007643845922,0.975375579491683,0.967582643664135,0.974295143755029,2020-07-30
"103",51,0.980986922319472,0.975349542428925,0.967493364946828,0.97424014363315,2020-07-31
"104",51.5,0.980965819020789,0.97531700497874,0.96740330268377,0.974184560852279,2020-07-31
"105",52,0.980944327049997,0.975259165009216,0.967312452112809,0.974128389581403,2020-08-01
"106",52.5,0.980922439387541,0.97519345379211,0.967220808485546,0.974071623936543,2020-08-01
"107",53,0.980900148892294,0.975153254733172,0.967128367068385,0.974014257980339,2020-08-02
"108",53.5,0.980877448299654,0.975124780073796,0.967035123143601,0.973956285721628,2020-08-02
"109",54,0.980854330219606,0.9750958638469,0.966941072010427,0.973897701115016,2020-08-03
"110",54.5,0.980830787134772,0.975046628732729,0.966846208986147,0.97383849806046,2020-08-03
"111",55,0.980806811398435,0.974990197573616,0.966750529407224,0.97377867040283,2020-08-04
"112",55.5,0.980782395232536,0.974925566084215,0.966654028630429,0.973718211931482,2020-08-04
"113",56,0.98075753072566,0.974870204740055,0.966556702033993,0.973657116379826,2020-08-05
"114",56.5,0.980732209830985,0.974814105660924,0.966458545018781,0.973595377424883,2020-08-05
"115",57,0.980706424364226,0.974759851147572,0.966359553009473,0.973532988686849,2020-08-06
"116",57.5,0.98068016600154,0.97470661056621,0.966259721455768,0.973469943728654,2020-08-06
"117",58,0.980653426277425,0.974667279046832,0.966159045833606,0.973406236055515,2020-08-07
"118",58.5,0.980626196582587,0.974627404273368,0.966057521646399,0.973341859114493,2020-08-07
"119",59,0.98059846816179,0.974575963988237,0.96595514442629,0.97327680629404,2020-08-08
"120",59.5,0.980570232111684,0.97451575284571,0.965851909735417,0.973211070923551,2020-08-08
"121",60,0.980541479378615,0.974461892904693,0.965747813167201,0.973144646272908,2020-08-09
"122",60.5,0.980512200756412,0.974390912178839,0.965642850347645,0.973077525552029,2020-08-09
"123",61,0.980482386884152,0.974341220028661,0.965537016936657,0.973009701910405,2020-08-10
"124",61.5,0.980452028243912,0.974290882681706,0.96543030862938,0.972941168436646,2020-08-10
"125",62,0.980421115158495,0.97422178208519,0.96532272115754,0.972871918158017,2020-08-11
"126",62.5,0.980389637789142,0.974152102103206,0.965214250290815,0.972801944039978,2020-08-11
"127",63,0.980357586133222,0.974081526119194,0.965104891838214,0.972731238985718,2020-08-12
"128",63.5,0.980324950021907,0.974005074443965,0.964994641649472,0.97265979583569,2020-08-12
"129",64,0.980291719117829,0.973927799805029,0.964883495616465,0.972587607367147,2020-08-13
"130",64.5,0.980257882912716,0.973856760696044,0.964771449674628,0.972514666293672,2020-08-13
"131",65,0.980223430725021,0.973793274069378,0.964658499804403,0.972440965264712,2020-08-14
"132",65.5,0.980188351697526,0.973727506815086,0.96454464203269,0.972366496865108,2020-08-14
"133",66,0.980152634794934,0.973651506672323,0.964429872434316,0.972291253614625,2020-08-15
"134",66.5,0.980116268801453,0.973569096141065,0.964314187133518,0.972215227967485,2020-08-15
"135",67,0.980079242318355,0.973492663400124,0.964197582305441,0.972138412311898,2020-08-16
"136",67.5,0.980041543761535,0.973426026677541,0.964080054177642,0.972060798969588,2020-08-16
"137",68,0.980003161359046,0.973348262915878,0.963961599031619,0.971982380195333,2020-08-17
"138",68.5,0.979964083148635,0.973273038543425,0.963842213204342,0.971903148176489,2020-08-17
"139",69,0.979924296975259,0.973202524889609,0.9637218930898,0.971823095032529,2020-08-18
"140",69.5,0.979883790488596,0.973144867974593,0.96360063514056,0.971742212814578,2020-08-18
"141",70,0.979842551140553,0.973086524323982,0.963478435869339,0.971660493504946,2020-08-19
"142",70.5,0.979800566182759,0.973018826761177,0.963355291850586,0.971577929016672,2020-08-19
"143",71,0.979757822664057,0.972953090378141,0.96323119972207,0.971494511193064,2020-08-20
"144",71.5,0.979714307427993,0.972885626647256,0.963106156186488,0.97141023180724,2020-08-20
"145",72,0.979670007110295,0.972802404006538,0.962980158013073,0.971325082561684,2020-08-21
"146",72.5,0.97962490813636,0.97272003456351,0.962853202039219,0.97123905508779,2020-08-21
"147",73,0.979578996718736,0.972636662420271,0.96272528517211,0.971152140945423,2020-08-22
"148",73.5,0.9795322588546,0.972552277272818,0.962596404390359,0.97106433162248,2020-08-22
"149",74,0.979484680323251,0.972466868761354,0.962466556745656,0.970975618534453,2020-08-23
"150",74.5,0.979436246683592,0.972380426471415,0.962335739364421,0.970885993024007,2020-08-23
"151",75,0.979386943271637,0.972292939935036,0.962203949449467,0.970795446360552,2020-08-24
"152",75.5,0.979336755198004,0.972195824905156,0.962071184281668,0.970703969739836,2020-08-24
"153",76,0.979285667345439,0.972100585597115,0.96193744122163,0.970611554283535,2020-08-25
"154",76.5,0.979233664366335,0.972029760546206,0.961802717711373,0.970518191038854,2020-08-25
"155",77,0.979180730680274,0.971926318335099,0.96166701127601,0.970423870978142,2020-08-26
"156",77.5,0.979126850471584,0.971840994126402,0.961530319525441,0.970328584998512,2020-08-26
"157",78,0.979072007686908,0.971761175876303,0.961392640156034,0.970232323921471,2020-08-27
"158",78.5,0.979016186032803,0.971675571454665,0.961253970952329,0.970135078492566,2020-08-27
"159",79,0.97895936897335,0.971572243838657,0.961114309788726,0.970036839381038,2020-08-28
"160",79.5,0.978901539727801,0.971481089001076,0.960973654631183,0.969937597179492,2020-08-28
"161",80,0.978842681268245,0.971383528314196,0.960832003538916,0.96983734240358,2020-08-29
"162",80.5,0.978782776317306,0.971281345115274,0.960689354666095,0.9697360654917,2020-08-29
"163",81,0.97872180734588,0.97117070879171,0.960545706263538,0.969633756804709,2020-08-30
"164",81.5,0.978659756570899,0.971071235665486,0.960401056680412,0.969530406625655,2020-08-30
"165",82,0.97859660595314,0.970983869914129,0.96025540436592,0.96942600515953,2020-08-31
"166",82.5,0.978532337195076,0.970898700379983,0.960108747870994,0.969320542533035,2020-08-31
"167",83,0.978466931738765,0.970830877271494,0.95996108584998,0.969214008794373,2020-09-01
"168",83.5,0.9784003707638,0.970724188072202,0.959812417062322,0.969106393913061,2020-09-01
"169",84,0.9783326351853,0.970638020103356,0.959662740374233,0.968997687779767,2020-09-02
"170",84.5,0.978263705651961,0.970550620074131,0.959512054760369,0.968887880206165,2020-09-02
"171",85,0.978193562544165,0.970461445580934,0.95936035930549,0.968776960924828,2020-09-03
"172",85.5,0.978122185972156,0.970382330246045,0.959207653206115,0.968664919589136,2020-09-03
"173",86,0.978049555774275,0.970293230323439,0.959053935772167,0.968551745773221,2020-09-04
"174",86.5,0.977975651515272,0.970178626590052,0.958899206428611,0.968437428971941,2020-09-04
"175",87,0.977900452484691,0.970053506679688,0.958743464717077,0.968321958600884,2020-09-05
"176",87.5,0.977823937695336,0.969927681023576,0.958586710297478,0.968205323996407,2020-09-05
"177",88,0.977746085881818,0.969789238130003,0.958428942949606,0.968087514415712,2020-09-06
"178",88.5,0.977666875499193,0.969672560199619,0.958270162574725,0.967968519036959,2020-09-06
"179",89,0.977586284721689,0.969543295793249,0.958110369197142,0.967848326959415,2020-09-07
"180",89.5,0.977504291441537,0.969403675712472,0.957949562965769,0.967726927203653,2020-09-07
"181",90,0.977420873267901,0.969262500322527,0.95778774415566,0.96760430871178,2020-09-08
"182",90.5,0.977336007525915,0.969123213059285,0.957624913169542,0.967480460347728,2020-09-08
"183",91,0.977249671255835,0.968998681130045,0.957461070539317,0.967355370897576,2020-09-09
"184",91.5,0.977161841212312,0.968877818669081,0.957296216927553,0.967229029069932,2020-09-09
"185",92,0.977072493863784,0.968755528494903,0.957130353128952,0.967101423496368,2020-09-10
"186",92.5,0.976981605392003,0.968631797413721,0.956963480071793,0.966972542731898,2020-09-10
"187",93,0.976889151691694,0.968506612205631,0.956795598819361,0.966842375255528,2020-09-11
"188",93.5,0.97679510837036,0.968379959627394,0.956626710571343,0.966710909470852,2020-09-11
"189",94,0.976699450748229,0.968251826415306,0.956456816665209,0.966578133706719,2020-09-12
"190",94.5,0.976602153858362,0.968122199288142,0.956285918577561,0.966444036217962,2020-09-12
"191",95,0.976503192446919,0.967980510582937,0.95611401792546,0.966308605186189,2020-09-13
"192",95.5,0.976402540973588,0.967827469632898,0.955941116467722,0.966171828720655,2020-09-13
"193",96,0.976300173612199,0.96767265354724,0.95576721610619,0.966033694859194,2020-09-14
"194",96.5,0.976196064251506,0.96753664409137,0.955592318886972,0.965894191569239,2020-09-14
"195",97,0.976090186496166,0.967420159019435,0.955416427001652,0.965753306748909,2020-09-15
"196",97.5,0.975982513667915,0.967305594054122,0.955239542788467,0.965611028228191,2020-09-15
"197",98,0.975873018806935,0.96718068174172,0.955061668733454,0.965467343770195,2020-09-16
"198",98.5,0.975761674673444,0.967044724986686,0.954882807471563,0.965322241072504,2020-09-16
"199",99,0.975648453749498,0.96687801628506,0.95470296178773,0.965175707768614,2020-09-17
"200",99.5,0.975533328241019,0.966708728575707,0.954522134617924,0.965027731429471,2020-09-17
"201",100,0.975416270080053,0.966548812330061,0.95434032905015,0.964878299565102,2020-09-18
"202",100.5,0.975297250927282,0.966394537331249,0.954157548325418,0.96472739962635,2020-09-18
"203",101,0.975176242174765,0.966251082196914,0.953973795838668,0.964575019006717,2020-09-19
"204",101.5,0.975053214948961,0.966105300423743,0.953789075139665,0.964421145044313,2020-09-19
"205",102,0.974928140113998,0.965943653519391,0.953603389933841,0.964265765023919,2020-09-20
"206",102.5,0.974800988275227,0.965775783224732,0.953416744083106,0.964108866179166,2020-09-20
"207",103,0.974671729783058,0.965638659809755,0.953229141606614,0.963950435694836,2020-09-21
"208",103.5,0.974540334737091,0.965504311856885,0.953040586681476,0.963790460709283,2020-09-21
"209",104,0.974406772990537,0.965352804627946,0.952851083643442,0.96362892831699,2020-09-22
"210",104.5,0.974271014154967,0.965178443236047,0.952660636987531,0.963465825571249,2020-09-22
"211",105,0.974133027605358,0.965021791764616,0.95246925136861,0.963301139486984,2020-09-23
"212",105.5,0.973992782485488,0.964865558109914,0.952276931601935,0.963134857043711,2020-09-23
"213",106,0.973850247713654,0.964698894431187,0.952083682663638,0.962966965188646,2020-09-24
"214",106.5,0.973705391988742,0.96452156611612,0.951889509691162,0.962797450839952,2020-09-24
"215",107,0.973558183796647,0.964352495574971,0.951694417983657,0.962626300890152,2020-09-25
"216",107.5,0.973408591417067,0.964164431980467,0.951498413002309,0.962453502209688,2020-09-25
"217",108,0.973256582930662,0.963985975227848,0.951301500370634,0.962279041650648,2020-09-26
"218",108.5,0.973141730873503,0.963821081967994,0.951103685874706,0.962122708374105,2020-09-26
"219",109,0.973036885821149,0.963664052662536,0.950904975463338,0.961970930642243,2020-09-27
"220",109.5,0.972930530827312,0.963494461058512,0.950705375248211,0.961817953037761,2020-09-27
"221",110,0.972822646740625,0.963314354989397,0.950504891503941,0.961663769122283,2020-09-28
"222",110.5,0.972713214246144,0.963106262017075,0.950303530668098,0.961508372457121,2020-09-28
"223",111,0.972602213866502,0.962923899489251,0.950101299341163,0.961351756603833,2020-09-29
"224",111.5,0.972489625963168,0.962748975505219,0.949898204286431,0.961193915124799,2020-09-29
"225",112,0.972375430737813,0.962569467512893,0.949694252429856,0.961034841583835,2020-09-30
"226",112.5,0.972259608233786,0.962385914125532,0.949489450859838,0.960874529546812,2020-09-30
"227",113,0.972142138337705,0.962212738828575,0.949283806826949,0.960712972582327,2020-10-01
"228",113.5,0.97202300078116,0.962035813395419,0.949077327743607,0.960550164262383,2020-10-01
"229",114,0.971902175142544,0.961832869795626,0.948870021183676,0.96038609816311,2020-10-02
"230",114.5,0.971779640849001,0.961608716750755,0.948661894882023,0.960220767865512,2020-10-02
"231",115,0.971655377178498,0.961366190930407,0.948452956734003,0.960054166956251,2020-10-03
"232",115.5,0.971529363262033,0.96115531395072,0.948243214794884,0.959886289028459,2020-10-03
"233",116,0.971401578085972,0.960955670611386,0.948032677279213,0.959717127682593,2020-10-04
"234",116.5,0.971272000494522,0.960762628750961,0.947821352560123,0.959546676527323,2020-10-04
"235",117,0.971140609192341,0.960576997931721,0.94760924916857,0.959374929180455,2020-10-05
"236",117.5,0.971007382747298,0.96039014934669,0.947396375792512,0.959201879269905,2020-10-05
"237",118,0.970872299593371,0.960213288444219,0.94718274127603,0.9590275204347,2020-10-06
"238",118.5,0.970735338033695,0.960019264578849,0.946968354618375,0.958851846326035,2020-10-06
"239",119,0.97059647624377,0.959798645272099,0.946753224972966,0.958674850608368,2020-10-07
"240",119.5,0.970455692274817,0.959581765907252,0.946537361646308,0.958496526960562,2020-10-07
"241",120,0.970312964057296,0.959350600476066,0.946320774096866,0.958316869077081,2020-10-08
"242",120.5,0.970168269404589,0.959110532441883,0.94610347193386,0.958135870669224,2020-10-08
"243",121,0.970021586016844,0.958867861097654,0.945885464916003,0.957953525466424,2020-10-09
"244",121.5,0.969872891484998,0.958632721930459,0.945666762950181,0.957769827217589,2020-10-09
"245",122,0.969722163294957,0.958412134047072,0.945447376090058,0.957584769692507,2020-10-10
"246",122.5,0.969569378831972,0.958189110425255,0.94522731453463,0.957398346683301,2020-10-10
"247",123,0.969414515385177,0.957963637053903,0.945006588626709,0.957210552005943,2020-10-11
"248",123.5,0.969257550152323,0.957741347479305,0.944785208851348,0.957021379501835,2020-10-11
"249",124,0.969098460244687,0.957548903689634,0.944563185834203,0.956830823039445,2020-10-12
"250",124.5,0.96893722269218,0.957320873078858,0.944340530339829,0.956638876516005,2020-10-12
"251",125,0.968773814448642,0.957059969766154,0.944117253269926,0.956445533859284,2020-10-13
"252",125.5,0.968608212397333,0.956797149191684,0.943893365661509,0.956250789029421,2020-10-13
"253",126,0.968440393356626,0.956583128623565,0.943668878685028,0.956054636020827,2020-10-14
"254",126.5,0.968270334085899,0.956357232265603,0.943443803642424,0.955857068864161,2020-10-14
"255",127,0.968098011291631,0.956117607218995,0.943218151965127,0.955658081628379,2020-10-15
"256",127.5,0.967923401633709,0.955883781657252,0.94296001005633,0.95544170584502,2020-10-15
"257",128,0.967746481731944,0.955618720598836,0.942610212648041,0.955178347189993,2020-10-16
"258",128.5,0.967567228172802,0.955386676822638,0.942258474281249,0.954912851227026,2020-10-16
"259",129,0.967385617516345,0.955155228326516,0.94190481620891,0.954645216862628,2020-10-17
"260",129.5,0.967201626303397,0.954915442369986,0.941549260318476,0.954375443310937,2020-10-17
"261",130,0.967015231062932,0.954685893467741,0.941191829129956,0.954103530096444,2020-10-18
"262",130.5,0.966826408319677,0.95442434237413,0.940832545793575,0.953829477056626,2020-10-18
"263",131,0.966635134601951,0.954126394349359,0.940471434087022,0.953553284344486,2020-10-19
"264",131.5,0.966441386449723,0.953764678040667,0.94010851841228,0.953274952431002,2020-10-19
"265",132,0.966245140422907,0.953545194953467,0.939743823792039,0.952994482107473,2020-10-20
"266",132.5,0.966046373109881,0.953331762281769,0.939377375865684,0.952711874487782,2020-10-20
"267",133,0.965845061136248,0.953117155423054,0.939009200884867,0.952427131010558,2020-10-21
"268",133.5,0.965641181173823,0.952901379600768,0.938639325708648,0.952140253441235,2020-10-21
"269",134,0.965450931164945,0.952684440256424,0.938267777798211,0.951859354481578,2020-10-22
"270",134.5,0.96530310548191,0.95244746292176,0.937894585211152,0.951598845346531,2020-10-22
"271",135,0.965153473841233,0.952192081652775,0.937519776595345,0.951336625218289,2020-10-23
"272",135.5,0.965002019378701,0.95195811231425,0.937143381182368,0.951072700280535,2020-10-23
"273",136,0.964848725214269,0.951724329286289,0.936765428780518,0.950807076997394,2020-10-24
"274",136.5,0.964693574456523,0.951498747161601,0.936385949767388,0.950539762111956,2020-10-24
"275",137,0.964536550207267,0.95123876008005,0.936004975082025,0.950270762644646,2020-10-25
"276",137.5,0.964377635566237,0.950946603604302,0.935622536216664,0.95000008589145,2020-10-25
"277",138,0.964216813635947,0.950702115031862,0.935238665208048,0.949727739421997,2020-10-26
"278",138.5,0.96405406752666,0.950416194644401,0.934853394628322,0.949453731077491,2020-10-26
"279",139,0.963889380361495,0.950112511439105,0.934466757575529,0.949178068968512,2020-10-27
"280",139.5,0.963722735281664,0.94980641719593,0.934078787663679,0.948900761472672,2020-10-27
"281",140,0.96355411545184,0.949497392444232,0.933689519012437,0.948621817232138,2020-10-28
"282",140.5,0.963383504065662,0.949182702833265,0.933298986236391,0.948341245151026,2020-10-28
"283",141,0.963210884351375,0.948884114800489,0.932907224433944,0.948059054392659,2020-10-29
"284",141.5,0.963036239577599,0.948604540421308,0.932514269175815,0.947775254376707,2020-10-29
"285",142,0.962859553059244,0.94830320053885,0.932120156493156,0.9474898547762,2020-10-30
"286",142.5,0.962680808163549,0.948013517354455,0.931724922865304,0.947202865514427,2020-10-30
"287",143,0.96249998831627,0.947713979359867,0.931328605207169,0.946914296761719,2020-10-31
"288",143.5,0.962317077007994,0.947364650575959,0.930931240856262,0.946624158932128,2020-10-31
"289",144,0.962132057800598,0.94700837738415,0.930532867559378,0.946332462679988,2020-11-01
"290",144.5,0.96194491433384,0.946687339038853,0.930133523458948,0.946039218896394,2020-11-01
"291",145,0.96175563033209,0.946401890832891,0.929733247079052,0.945744438705571,2020-11-02
"292",145.5,0.961564189611198,0.946114662482977,0.929332077311128,0.945448133461163,2020-11-02
"293",146,0.961370576085494,0.94580078932416,0.928930053399362,0.945150314742428,2020-11-03
"294",146.5,0.961174773774929,0.945425284266621,0.928527214925795,0.944850994350362,2020-11-03
"295",147,0.960976766812352,0.945089965868628,0.928123601795133,0.944550184303742,2020-11-04
"296",147.5,0.960776539450915,0.944761273371797,0.9277192542193,0.944247896835107,2020-11-04
"297",148,0.960574076071623,0.944389851924522,0.927314212701719,0.943944144386671,2020-11-05
"298",148.5,0.960369361191004,0.944092873583333,0.926908518021356,0.94363893960618,2020-11-05
"299",149,0.960162379468921,0.943796228887665,0.926502211216523,0.943332295342722,2020-11-06
"300",149.5,0.959953115716513,0.94348778603173,0.926095333568465,0.943024224642489,2020-11-06
"301",150,0.959741554904257,0.943190020057014,0.925687926584743,0.9427147407445,2020-11-07
"302",150.5,0.959527682170169,0.94286959836127,0.925280031982419,0.942403857076294,2020-11-07
"303",151,0.95931148282812,0.942507840715206,0.924871691671068,0.942091587249594,2020-11-08
"304",151.5,0.959092942376287,0.942116280972222,0.924462947735626,0.941777945055956,2020-11-08
"305",152,0.958872046505711,0.941823105240001,0.924053842419087,0.941462944462399,2020-11-09
"306",152.5,0.958648781108989,0.941558777403565,0.923644418105072,0.941146599607031,2020-11-09
"307",153,0.958423132289073,0.941293650508462,0.923234717300272,0.940828924794672,2020-11-10
"308",153.5,0.958195086368184,0.941008314946134,0.922824782616799,0.940509934492491,2020-11-10
"309",154,0.95796462989684,0.940696237224245,0.922414656754442,0.940189643325641,2020-11-11
"310",154.5,0.957731749662993,0.940382888684394,0.921969824378914,0.939850787020954,2020-11-11
"311",155,0.957496432701264,0.940104226828269,0.921410903428797,0.939453668065031,2020-11-12
"312",155.5,0.957258666302285,0.939788482870873,0.920850272914677,0.939054469608481,2020-11-12
"313",156,0.957018438022135,0.939453101021117,0.920288002304664,0.9386532201634,2020-11-13
"314",156.5,0.956775735691874,0.939116015816408,0.919724161900974,0.938249948796424,2020-11-13
"315",157,0.956530547427158,0.938753011434312,0.919158822806151,0.937844685116654,2020-11-14
"316",157.5,0.956282861637949,0.938370474458078,0.918592056888427,0.937437459263188,2020-11-14
"317",158,0.956032667038298,0.937986396086887,0.918023936746249,0.937028301892273,2020-11-15
"318",158.5,0.955779952656204,0.937603467069672,0.917454535672008,0.936617244164106,2020-11-15
"319",159,0.955524707843549,0.937230410266474,0.916883927615018,0.936204317729284,2020-11-16
"320",159.5,0.955266922286092,0.936872201818235,0.916312187143765,0.935789554714929,2020-11-16
"321",160,0.955006586013524,0.936565329731005,0.915739389407484,0.935372987710504,2020-11-17
"322",160.5,0.954743689409583,0.936274501352201,0.915165610097097,0.93495464975334,2020-11-17
"323",161,0.954478223222206,0.935983066685858,0.914590925405552,0.934534574313879,2020-11-18
"324",161.5,0.954210178573736,0.935674251844575,0.914015411987618,0.934112795280677,2020-11-18
"325",162,0.953939546971153,0.935307620221647,0.913439146919164,0.933689346945159,2020-11-19
"326",162.5,0.953666320316342,0.934957070032094,0.912862207655985,0.933264263986163,2020-11-19
"327",163,0.953390490916379,0.934600129106851,0.912284671992207,0.932837581454293,2020-11-20
"328",163.5,0.953112051493833,0.934205150225489,0.911706618018332,0.932409334756083,2020-11-20
"329",164,0.952830995197076,0.933848632364574,0.91112812407896,0.931979559638018,2020-11-21
"330",164.5,0.952547315610595,0.933474165991264,0.910549268730238,0.931548292170416,2020-11-21
"331",165,0.952261006765293,0.933098495295348,0.909970130697095,0.931115568731194,2020-11-22
"332",165.5,0.951972063148777,0.932757101712472,0.9093907888303,0.930681425989539,2020-11-22
"333",166,0.951680479715623,0.932343664056063,0.908811322063404,0.930245900889513,2020-11-23
"334",166.5,0.951386251897606,0.931993721253592,0.908231809369602,0.929809030633604,2020-11-23
"335",167,0.951089375613894,0.931670343892827,0.907652329718582,0.929370852666238,2020-11-24
"336",167.5,0.950789847281189,0.931324256923798,0.907072962033403,0.928931404657296,2020-11-24
"337",168,0.950487663823811,0.931013025814113,0.906493785147443,0.928490724485627,2020-11-25
"338",168.5,0.950182822683715,0.930615985091174,0.905914877761488,0.928048850222601,2020-11-25
"339",169,0.949875321830429,0.93020196847624,0.905336318400992,0.927605820115711,2020-11-26
"340",169.5,0.949565159770912,0.929852680983892,0.904758185373568,0.92716167257224,2020-11-26
"341",170,0.949252335559307,0.929509061757383,0.904180556726753,0.92671644614303,2020-11-27
"342",170.5,0.948936848806594,0.929174027951402,0.903603510206104,0.926270179506349,2020-11-27
"343",171,0.948618699690128,0.928780834793151,0.903027123213657,0.925822911451893,2020-11-28
"344",171.5,0.948297888963046,0.928331013363285,0.902451472766815,0.92537468086493,2020-11-28
"345",172,0.947974417963542,0.927916447830806,0.901876635457692,0.924925526710617,2020-11-29
"346",172.5,0.947648288623993,0.927508082449008,0.901302687412973,0.924475488018483,2020-11-29
"347",173,0.947319503479929,0.927095386199948,0.900729704254327,0.924024603867128,2020-11-30
"348",173.5,0.946988065678834,0.926666866137459,0.900157761059411,0.923572913369123,2020-11-30
"349",174,0.946653978988771,0.926224048890614,0.899586932323519,0.923120455656145,2020-12-01
"350",174.5,0.94631724780681,0.925843893589356,0.899017291921903,0.922667269864356,2020-12-01
"351",175,0.945977877167267,0.925544923162368,0.898448913072817,0.922213395120042,2020-12-02
"352",175.5,0.945635872749721,0.925216239787364,0.897881868301312,0.921758870525517,2020-12-02
"353",176,0.945291240886817,0.9248691792513,0.897316229403822,0.92130373514532,2020-12-03
"354",176.5,0.944943988571829,0.924522206175764,0.896752067413577,0.920848027992703,2020-12-03
"355",177,0.944594137975401,0.92417534971273,0.896189452566873,0.920391795271137,2020-12-04
"356",177.5,0.944308439922978,0.923792026145067,0.895628454270232,0.919968447096605,2020-12-04
"357",178,0.944031636470424,0.9233986667093,0.895069141068484,0.919550388769454,2020-12-05
"358",178.5,0.943807348891027,0.92300559566476,0.894511580613794,0.91915946475241,2020-12-05
"359",179,0.943582693697289,0.92261285497753,0.893955839635662,0.918769266666475,2020-12-06
"360",179.5,0.943357680415369,0.922220486463506,0.893401983911926,0.918379832163647,2020-12-06
"361",180,0.943132318633576,0.921814899568274,0.892850078240781,0.917991198437179,2020-12-07
"362",180.5,0.942906618000798,0.921430080426596,0.892300186413846,0.917603402207322,2020-12-07
"363",181,0.942680588224901,0.921084920273454,0.891752371190285,0.917216479707593,2020-12-08
"364",181.5,0.94245423907112,0.920733755186141,0.891206694272012,0.916830466671566,2020-12-08
"365",182,0.942227580360417,0.920406084712079,0.890663216279989,0.916445398320203,2020-12-09
"366",182.5,0.94200062196782,0.920000362340071,0.890121996731634,0.916061309349727,2020-12-09
"367",183,0.941773373820752,0.919590243986936,0.889583094019336,0.915678233920044,2020-12-10
"368",183.5,0.941545845897324,0.919215735519951,0.88904656539012,0.915296205643722,2020-12-10
"369",184,0.941318048224625,0.918799684336124,0.88851246692643,0.914915257575527,2020-12-11
"370",184.5,0.941089990876984,0.918413128265996,0.887980853528065,0.914535422202524,2020-12-11
"371",185,0.940861683974216,0.918079862930497,0.887451778895262,0.914156731434739,2020-12-12
"372",185.5,0.940633137679856,0.917767388266245,0.88692529551293,0.913779216596393,2020-12-12
"373",186,0.940404362199369,0.917387515610826,0.88640145463603,0.9134029084177,2020-12-13
"374",186.5,0.94017536777835,0.917048434564668,0.885880306276115,0.913027837027233,2020-12-13
"375",187,0.939946164700706,0.916716031191193,0.885361899189011,0.912654031944859,2020-12-14
"376",187.5,0.939716763286828,0.916310457905399,0.884846280863644,0.912281522075236,2020-12-14
"377",188,0.939487173891743,0.915917201772122,0.88433349751201,0.911910335701877,2020-12-15
"378",188.5,0.939257406903256,0.915589471398754,0.883823594060269,0.911540500481762,2020-12-15
"379",189,0.939027472740082,0.91522253065867,0.883316614140969,0.911172043440525,2020-12-16
"380",189.5,0.938797381849964,0.914912203698334,0.882812600086374,0.910804990968169,2020-12-16
"381",190,0.938567144707781,0.914582474996839,0.882311592922903,0.910439368815342,2020-12-17
"382",190.5,0.938336771813642,0.914236269487688,0.88181363236665,0.910075202090146,2020-12-17
"383",191,0.938106273690979,0.913898429413221,0.881318756819977,0.909712515255478,2020-12-18
"384",191.5,0.937875660884624,0.913525139146243,0.880827003369168,0.909351332126896,2020-12-18
"385",192,0.937644943958881,0.913193265526557,0.880338407783125,0.908991675871003,2020-12-19
"386",192.5,0.937414133495589,0.912828454197203,0.879853004513083,0.908633569004336,2020-12-19
"387",193,0.937183240092184,0.912441957199096,0.879370826693334,0.908277033392759,2020-12-20
"388",193.5,0.936952274359747,0.912056508654569,0.878891906142932,0.90792209025134,2020-12-20
"389",194,0.936721246921055,0.911672144062028,0.878416273368365,0.90756876014471,2020-12-21
"390",194.5,0.936490168408622,0.9113083307685,0.877943957567166,0.907217062987894,2020-12-21
"391",195,0.936259049462741,0.911013961759937,0.877474986632443,0.906867018047592,2020-12-22
"392",195.5,0.936027900729521,0.9107209829604,0.877009387158309,0.906518643943915,2020-12-22
"393",196,0.935796732858924,0.910302241924461,0.876547184446176,0.90617195865255,2020-12-23
"394",196.5,0.935565556502796,0.909832549362622,0.876088402511905,0.905826979507351,2020-12-23
"395",197,0.935334382312907,0.909363329897289,0.875633064093772,0.905483723203339,2020-12-24
"396",197.5,0.935103220938981,0.908974006519171,0.875181190661228,0.905142205800104,2020-12-24
"397",198,0.934872083026736,0.908600830225783,0.874732802424437,0.904802442725587,2020-12-25
"398",198.5,0.934640979215922,0.908229235114496,0.874287918344547,0.904464448780234,2020-12-25
"399",199,0.934409920138358,0.907859251449713,0.873846556144683,0.90412823814152,2020-12-26
"400",199.5,0.934178916415984,0.907490908880465,0.873408732321627,0.903793824368806,2020-12-26
"401",200,0.933947978658904,0.907124236433433,0.872974462158159,0.903461220408531,2020-12-27
"402",200.5,0.933717117463444,0.906762486806301,0.872543759736028,0.903130438599736,2020-12-27
"403",201,0.933486343410211,0.906414699343295,0.872116637949537,0.902801490679874,2020-12-28
"404",201.5,0.93325566706216,0.906091658998524,0.871693108519692,0.902474387790926,2020-12-28
"405",202,0.933025098962666,0.905770369198068,0.871273182008917,0.902149140485791,2020-12-29
"406",202.5,0.93279464963361,0.905430012204079,0.870856867836275,0.901825758734943,2020-12-29
"407",203,0.93256432957347,0.905063766158516,0.870444174293195,0.901504251933332,2020-12-30
"408",203.5,0.932334149255418,0.904770310803135,0.870035108559654,0.901184628907536,2020-12-30
"409",204,0.932104119125434,0.904496832224616,0.869629676720809,0.900866897923122,2020-12-31
"410",204.5,0.931874249600427,0.904206876732984,0.869227883784035,0.900551066692231,2020-12-31
"411",205,0.931644551066371,0.903906533969642,0.868829733696342,0.900237142381356,2021-01-01
"412",205.5,0.931415033876448,0.903571767588859,0.868435229362157,0.899925131619302,2021-01-01
"413",206,0.93118570834921,0.903265070712468,0.868044372661436,0.899615040505323,2021-01-02
"414",206.5,0.930956584766749,0.902960263303245,0.867657164468078,0.899306874617414,2021-01-02
"415",207,0.930727673372891,0.902657358068327,0.867273604668616,0.899000639020753,2021-01-03
"416",207.5,0.930498984371389,0.902373256264272,0.86689369218117,0.898696338276279,2021-01-03
"417",208,0.930270527924153,0.902095460645332,0.866517424974618,0.898393976449385,2021-01-04
"418",208.5,0.930042314149475,0.901760252927591,0.866144800087981,0.898093557118728,2021-01-04
"419",209,0.929814353120287,0.901395918249157,0.865775813649983,0.897795083385135,2021-01-05
"420",209.5,0.929586654862431,0.901016650150662,0.865410460898767,0.897498557880599,2021-01-05
"421",210,0.929359229352943,0.900715455266394,0.865048736201751,0.897203982777347,2021-01-06
"422",210.5,0.929132086518364,0.900417053110837,0.86469063307559,0.896911359796977,2021-01-06
"423",211,0.928905236233065,0.900063288969432,0.864336144206229,0.896620690219647,2021-01-07
"424",211.5,0.928678688317594,0.899837379369641,0.863985261469028,0.896331974893311,2021-01-07
"425",212,0.928452452537041,0.899642645099318,0.863637975948932,0.896045214242987,2021-01-08
"426",212.5,0.928226538599433,0.899400000388244,0.86329427796067,0.895760408280052,2021-01-08
"427",213,0.928000956154136,0.899118881886434,0.862954157068964,0.89547755661155,2021-01-09
"428",213.5,0.927775714790291,0.898816521520888,0.862617602108725,0.895196658449508,2021-01-09
"429",214,0.927550824035273,0.898527012105593,0.862284601205224,0.894917712620248,2021-01-10
"430",214.5,0.92732629335316,0.89823900494974,0.861955141794218,0.894640717573689,2021-01-10
"431",215,0.927102132143246,0.89798366039807,0.861629210642008,0.894365671392627,2021-01-11
"432",215.5,0.926878349738559,0.897732866580249,0.861306793865426,0.894092571801992,2021-01-11
"433",216,0.926654955404413,0.897500685816838,0.860987876951723,0.893821416178068,2021-01-12
"434",216.5,0.92643195833699,0.89728660968461,0.860672444778347,0.893552201557669,2021-01-12
"435",217,0.926209367661932,0.897043660152472,0.860360481632602,0.893284924647267,2021-01-13
"436",217.5,0.925987192432975,0.896793127779551,0.860051971231164,0.893019581832069,2021-01-13
"437",218,0.9257654416306,0.896446243739778,0.859746896739453,0.892756169185027,2021-01-14
"438",218.5,0.925544124160714,0.896101176268979,0.859445240790837,0.892494682475776,2021-01-14
"439",219,0.925323248853355,0.8957680995853,0.859146985505667,0.892235117179511,2021-01-15
"440",219.5,0.925102824461426,0.895554745879681,0.858852112510119,0.891977468485773,2021-01-15
"441",220,0.924882859659462,0.895359124526381,0.858560602954849,0.891721731307156,2021-01-16
"442",220.5,0.924663363042412,0.89516506941517,0.858272437533434,0.891467900287923,2021-01-16
"443",221,0.924444343124462,0.894877504680489,0.8579875965006,0.891215969812531,2021-01-17
"444",221.5,0.924225808337881,0.894587327882887,0.857673579142275,0.890949693740078,2021-01-17
"445",222,0.924007767031894,0.894298679887073,0.857309364386033,0.890658565708963,2021-01-18
"446",222.5,0.923790227471589,0.894011571221274,0.856948559984017,0.890369393727803,2021-01-18
"447",223,0.923573197836848,0.893753138510978,0.856591158770089,0.890082178303469,2021-01-19
"448",223.5,0.923356686221309,0.893538095318865,0.856237152937109,0.889796919579209,2021-01-19
"449",224,0.923140700631362,0.893297756416013,0.855886534052186,0.889513617341774,2021-01-20
"450",224.5,0.922925248985166,0.893051003447371,0.85553929307195,0.889232271028558,2021-01-20
"451",225,0.922710339111705,0.892795515495719,0.855195420357794,0.888952879734749,2021-01-21
"452",225.5,0.922495978749868,0.892465912484268,0.854854905691117,0.888675442220492,2021-01-21
"453",226,0.922282175547561,0.892137995724263,0.854517738288519,0.88839995691804,2021-01-22
"454",226.5,0.92206893706085,0.891811777804746,0.854183906816966,0.888126421938908,2021-01-22
"455",227,0.921856270753134,0.891552527658565,0.853853399408888,0.887854835081011,2021-01-23
"456",227.5,0.921644183994346,0.891311764561483,0.853526203677233,0.887585193835789,2021-01-23
"457",228,0.921432684060189,0.891110734446704,0.853202306730425,0.887317495395307,2021-01-24
"458",228.5,0.921221778131399,0.890848583718354,0.852881695187261,0.88705173665933,2021-01-24
"459",229,0.92101147329304,0.890566789276496,0.852564355191701,0.886787914242371,2021-01-25
"460",229.5,0.920801776533831,0.890340456564826,0.852250272427566,0.886526024480698,2021-01-25
"461",230,0.920592694745496,0.890134675560296,0.851939432133123,0.886266063439309,2021-01-26
"462",230.5,0.920384234722158,0.88993085709315,0.851631819115555,0.886008026918857,2021-01-26
"463",231,0.920176403159751,0.889733844968698,0.851327417765312,0.885751910462531,2021-01-27
"464",231.5,0.919969206655467,0.889534536722673,0.851026212070318,0.885497709362893,2021-01-27
"465",232,0.919762651707238,0.889331096727162,0.850728185630056,0.885245418668647,2021-01-28
"466",232.5,0.91955674471324,0.889139048067279,0.850433321669494,0.884995033191367,2021-01-28
"467",233,0.919351491971432,0.888959810945972,0.850141603052871,0.884746547512151,2021-01-29
"468",233.5,0.919146899679125,0.888782277536309,0.849853012297321,0.884499955988223,2021-01-29
"469",234,0.918942973932581,0.888558386242144,0.849567531586337,0.884255252759459,2021-01-30
"470",234.5,0.91873972072664,0.888360902337123,0.84928514278307,0.884012431754855,2021-01-30
"471",235,0.918537145954378,0.888124057786622,0.849005827443449,0.883771486698914,2021-01-31
"472",235.5,0.918338647235635,0.887889035564353,0.848729566829137,0.883534107032386,2021-01-31
"473",236,0.918193417416035,0.88765583319414,0.848456341920299,0.883324879668167,2021-02-01
"474",236.5,0.918049320988009,0.887476259390097,0.848186133428182,0.883117727208095,2021-02-01
"475",237,0.917906355777733,0.887310759356359,0.847918921807524,0.882912638792628,2021-02-02
"476",237.5,0.91776451947088,0.887147004220693,0.847654687268751,0.882709603369816,2021-02-02
"477",238,0.917623809615409,0.886984982619248,0.847393409790001,0.882508609702705,2021-02-03
"478",238.5,0.917484223624355,0.886824683085892,0.847135069128936,0.882309646376645,2021-02-03
"479",239,0.917345758778619,0.886682787526005,0.846879644834365,0.882112701806492,2021-02-04
"480",239.5,0.917208412229757,0.886519215046233,0.846627116257665,0.881917764243711,2021-02-04
"481",240,0.917072181002757,0.886282581969878,0.846377462563997,0.881724821783377,2021-02-05
"482",240.5,0.916937061998822,0.886034673238954,0.846130662743322,0.881533862371072,2021-02-05
"483",241,0.916803051998138,0.885847864095658,0.845886695621206,0.881344873809672,2021-02-06
"484",241.5,0.91667014766264,0.885606966612208,0.845645539869427,0.881157843766034,2021-02-06
"485",242,0.916538345538762,0.885401265073497,0.84540717401637,0.880972759777566,2021-02-07
"486",242.5,0.916407642060183,0.885209895055501,0.845171576457212,0.880789609258697,2021-02-07
"487",243,0.916278033550556,0.885020513459184,0.844938725463905,0.88060837950723,2021-02-08
"488",243.5,0.916149516226231,0.884840205830822,0.844708599194946,0.880429057710588,2021-02-08
"489",244,0.916022086198956,0.884647768346397,0.844481175704939,0.880251630951948,2021-02-09
"490",244.5,0.915895739478572,0.884504813634445,0.844256432953953,0.880076086216262,2021-02-09
"491",245,0.91577047197568,0.88435138973964,0.844034348816664,0.879902410396172,2021-02-10
"492",245.5,0.915646279504305,0.884213598794437,0.843814901091299,0.879730590297802,2021-02-10
"493",246,0.915523157784531,0.884005815021058,0.843598067508364,0.879560612646447,2021-02-11
"494",246.5,0.915401102445123,0.88385999176105,0.843383825739175,0.879392464092149,2021-02-11
"495",247,0.915280109026129,0.883653030209748,0.843172153404174,0.879226131215151,2021-02-12
"496",247.5,0.915160172981457,0.883503382010806,0.84296302808105,0.879061600531253,2021-02-12
"497",248,0.915041289681434,0.883365387433068,0.842756427312654,0.878898858497044,2021-02-13
"498",248.5,0.914923454415346,0.883228914461111,0.842552328614711,0.878737891515028,2021-02-13
"499",249,0.914806662393946,0.883091371436598,0.842350709483331,0.878578685938639,2021-02-14
"500",249.5,0.91469090875195,0.882898494484253,0.84215154740233,0.87842122807714,2021-02-14
"501",250,0.914576188550497,0.88267794705518,0.841954819850342,0.87826550420042,2021-02-15
"502",250.5,0.914462496779594,0.882454470873426,0.84176050430775,0.878111500543672,2021-02-15
"503",251,0.914349828360528,0.882232820961609,0.841568578263411,0.87795920331197,2021-02-16
"504",251.5,0.914238178148257,0.882012992549713,0.841379019221198,0.877808598684728,2021-02-16
"505",252,0.914127540933772,0.881799926394028,0.841191804706353,0.877659672820063,2021-02-17
"506",252.5,0.914017911446432,0.881632937806747,0.841006912271653,0.877512411859042,2021-02-17
"507",253,0.913909284356272,0.881440174468644,0.840824319503385,0.877366801929828,2021-02-18
"508",253.5,0.913801654276282,0.881279746217963,0.84064400402715,0.877222829151716,2021-02-18
"509",254,0.913695015764659,0.881152119239278,0.840465943513482,0.877080479639071,2021-02-19
"510",254.5,0.91358936332703,0.880994303021139,0.840290115683285,0.876939739505158,2021-02-19
"511",255,0.913484691418644,0.880838119791612,0.840116498313105,0.876800594865874,2021-02-20
"512",255.5,0.913380994446533,0.880689818658433,0.839945069240221,0.876663031843377,2021-02-20
"513",256,0.913278266771652,0.880576005522376,0.839775806367573,0.876527036569613,2021-02-21
"514",256.5,0.91317650271098,0.880419472710903,0.839608687668517,0.876392595189748,2021-02-21
"515",257,0.913075696539589,0.880252947184422,0.839443691191421,0.876259693865505,2021-02-22
"516",257.5,0.912975842492693,0.880143481714383,0.839280795064096,0.876128318778395,2021-02-22
"517",258,0.912876934767658,0.880014344313285,0.839119977498068,0.875998456132863,2021-02-23
"518",258.5,0.912778967525983,0.879886469127902,0.838961216792695,0.875870092159339,2021-02-23
"519",259,0.912681934895249,0.879736358051941,0.838804491339129,0.875743213117189,2021-02-24
"520",259.5,0.91258583097104,0.879599790998462,0.838649779624131,0.875617805297585,2021-02-24
"521",260,0.912490649818829,0.879464657330272,0.838497060233729,0.875493855026279,2021-02-25
"522",260.5,0.912396385475837,0.879330946050265,0.838346311856744,0.87537134866629,2021-02-25
"523",261,0.912303031952853,0.87922241814459,0.838197513288159,0.875250272620506,2021-02-26
"524",261.5,0.912210583236034,0.879144142504675,0.838050643432361,0.875130613334198,2021-02-26
"525",262,0.912119033288662,0.879057899989546,0.837905681306238,0.87501235729745,2021-02-27
"526",262.5,0.912028376052877,0.878938122228648,0.837762606042142,0.87489549104751,2021-02-27
"527",263,0.911938605451376,0.878820998013792,0.837621396890729,0.874780001171052,2021-02-28
"528",263.5,0.911849715389078,0.87864817849978,0.837482033223657,0.874665874306368,2021-02-28
"529",264,0.911761699754768,0.878520130190844,0.837344494536172,0.87455309714547,2021-03-01
"530",264.5,0.911674552422692,0.878393306147496,0.837208760449561,0.874441656436126,2021-03-01
"531",265,0.91158826725414,0.878267697727765,0.837074810713487,0.874331538983813,2021-03-02
"532",265.5,0.911502838098984,0.878147359109641,0.836942625208211,0.874222731653598,2021-03-02
"533",266,0.911418258797194,0.878067111042252,0.836812183946693,0.874115221371943,2021-03-03
"534",266.5,0.911334523180313,0.877925665530191,0.836683467076582,0.874008995128448,2021-03-03
"535",267,0.911251625072916,0.877778579932232,0.836556454882104,0.87390403997751,2021-03-04
"536",267.5,0.911169558294024,0.877632930696049,0.836431127785826,0.873800343039925,2021-03-04
"537",268,0.911088316658498,0.87748870824612,0.836307466350338,0.873697891504418,2021-03-05
"538",268.5,0.911007893978396,0.877353815497315,0.836185451279813,0.873596672629104,2021-03-05
"539",269,0.910928284064305,0.877234770957361,0.836065063421479,0.873496673742892,2021-03-06
"540",269.5,0.91084948072664,0.877115852137345,0.835946283766995,0.873397882246817,2021-03-06
"541",270,0.910771477776915,0.876998315599219,0.835829093453725,0.87330028561532,2021-03-07
"542",270.5,0.910694269028987,0.876886289546496,0.835713473765928,0.873203871397458,2021-03-07
"543",271,0.910617848300267,0.876801554692106,0.835599406135853,0.87310862721806,2021-03-08
"544",271.5,0.910542209412901,0.876673086052162,0.835486872144753,0.873014540778827,2021-03-08
"545",272,0.910467346194932,0.876584843956899,0.835375853523809,0.872921599859371,2021-03-09
"546",272.5,0.910393252481421,0.876486654470289,0.835266332154978,0.872829792318199,2021-03-09
"547",273,0.91031992211555,0.876399761681646,0.835158290071751,0.87273910609365,2021-03-10
"548",273.5,0.910247348949693,0.876313880969432,0.835051709459847,0.87264952920477,2021-03-10
"549",274,0.910175526846459,0.876229002310877,0.834946572657822,0.87256104975214,2021-03-11
"550",274.5,0.910104449679711,0.876152935306589,0.834842862157607,0.872473655918659,2021-03-11
"551",275,0.910034111335557,0.876091241097595,0.834740560604976,0.872387335970267,2021-03-12
"552",275.5,0.909964505713311,0.87603033950669,0.834639650799948,0.87230207825663,2021-03-12
"553",276,0.909895626726434,0.875970221212097,0.834540115697118,0.872217871211776,2021-03-13
"554",276.5,0.909827468303444,0.875910876977985,0.834441938405922,0.872134703354683,2021-03-13
"555",277,0.909760024388804,0.87585229765434,0.834345102190849,0.872052563289826,2021-03-14
"556",277.5,0.909693288943785,0.875794474176819,0.834249590471578,0.871971439707681,2021-03-14
"557",278,0.909627255947297,0.875737397566579,0.834155386823072,0.871891321385184,2021-03-15
"558",278.5,0.909561919396707,0.875668573662319,0.834062474975604,0.871812197186155,2021-03-15
"559",279,0.909497273308625,0.875600441313549,0.833970838814729,0.871734056061677,2021-03-16
"560",279.5,0.909433311719667,0.87553318377961,0.833880462381214,0.87165688705044,2021-03-16
"561",280,0.909370028687195,0.875466790905801,0.8337913298709,0.871580679279047,2021-03-17
"562",280.5,0.909307418290037,0.875401252625328,0.833703425634529,0.871505421962283,2021-03-17
"563",281,0.90924547462918,0.875336558959401,0.833616734177517,0.871431104403349,2021-03-18
"564",281.5,0.909184191828442,0.875272700017308,0.833531240159679,0.871357715994061,2021-03-18
"565",282,0.909123564035123,0.875209665996458,0.833446928394917,0.87128524621502,2021-03-19
"566",282.5,0.909063585420629,0.875147447182391,0.833363783850858,0.871213684635744,2021-03-19
"567",283,0.909004250181088,0.875086033948764,0.833281791648453,0.871143020914771,2021-03-20
"568",283.5,0.908945552537924,0.875025416757307,0.833200937061542,0.871073244799733,2021-03-20
"569",284,0.908887486738432,0.874965586157753,0.83312120551637,0.871004346127401,2021-03-21
"570",284.5,0.908830047056315,0.874906532787745,0.83304258259108,0.870936314823697,2021-03-21
"571",285,0.908773227792213,0.874848247372711,0.832965054015158,0.870869140903685,2021-03-22
"572",285.5,0.908717023274207,0.874777778795813,0.832888605668852,0.87080281447153,2021-03-22
"573",286,0.908661427858302,0.874695754388213,0.832813223582561,0.870737325720432,2021-03-23
"574",286.5,0.908606435928898,0.874614608234069,0.832738893936183,0.87067266493254,2021-03-23
"575",287,0.908552041899232,0.874534332328522,0.832665603058441,0.870608822478837,2021-03-24
"576",287.5,0.908498240211813,0.874454918707513,0.832593337426185,0.870545788818999,2021-03-24
"577",288,0.908445025338828,0.874376359448369,0.832522083663653,0.870483554501241,2021-03-25
"578",288.5,0.908392391782541,0.874298646670375,0.832451828541721,0.870422110162131,2021-03-25
"579",289,0.908340334075664,0.874221772535309,0.832382558977117,0.870361446526391,2021-03-26
"580",289.5,0.908288846781723,0.87414572924796,0.83231426203162,0.870301554406672,2021-03-26
"581",290,0.908237924495395,0.874070509056623,0.832246924911231,0.870242424703313,2021-03-27
"582",290.5,0.908187561842836,0.87399610425357,0.832180534965326,0.870184048404081,2021-03-27
"583",291,0.908137753481995,0.873903851482236,0.832115079685786,0.870126416583891,2021-03-28
"584",291.5,0.908088494102902,0.873830707387005,0.832050546706112,0.870069520404507,2021-03-28
"585",292,0.908039778427957,0.873760346924342,0.831986923800516,0.870013351114236,2021-03-29
"586",292.5,0.907991601212183,0.873691089975006,0.831924198883002,0.869957900047593,2021-03-29
"587",293,0.907943957243487,0.873639082618986,0.831862360006425,0.869903158624956,2021-03-30
"588",293.5,0.907896841342887,0.873587722035395,0.831801395361535,0.869849118352211,2021-03-30
"589",294,0.907850248364738,0.873537000809096,0.831741293276014,0.869795770820376,2021-03-31
"590",294.5,0.907804173196939,0.873486911593784,0.831682042213488,0.869743107705214,2021-03-31
"591",295,0.907758610761123,0.873437447111767,0.831623630772539,0.869691120766831,2021-04-01
"592",295.5,0.907713556012846,0.873388600153757,0.83156604768569,0.869639801849268,2021-04-01
"593",296,0.907669003941745,0.873340363578626,0.831509281818396,0.869589142880071,2021-04-02
"594",296.5,0.907624949571704,0.873292730313168,0.831453322168013,0.869539135869858,2021-04-02
