"","time","top","med","bottom","pseudo_med","date"
"1",0,0.0261823129948419,0.020954419815602,0.0156741708475289,0.0209282419211854,2020-06-10
"2",0.5,0.0262107310613253,0.0210051987811066,0.0157122453077711,0.0209614881845482,2020-06-10
"3",1,0.0262397514084403,0.0210670533216022,0.0157499675666104,0.0209948594875253,2020-06-11
"4",1.5,0.0262693555747366,0.0211233246754013,0.01578736365759,0.0210283596161633,2020-06-11
"5",2,0.0262995260162979,0.021177179933235,0.0158244585617741,0.021061992289036,2020-06-12
"6",2.5,0.0263302460626614,0.0212469415651067,0.0158612762538807,0.0210957611582711,2020-06-12
"7",3,0.026361499874844,0.0213033961860338,0.0158978397464077,0.0211296698106258,2020-06-13
"8",3.5,0.0263932724053741,0.0213311450229858,0.0159341711318414,0.0211637217686077,2020-06-13
"9",4,0.0265467438498888,0.0213584356785015,0.0159702916230304,0.0212585177364596,2020-06-14
"10",4.5,0.0267051798180105,0.0214356875131206,0.0160062215918032,0.0213557007049068,2020-06-14
"11",5,0.0268559650925029,0.0215000761007505,0.0160419806059068,0.0214489728492049,2020-06-15
"12",5.5,0.0269996095221377,0.0215518277965674,0.0160775874643398,0.0215385984932387,2020-06-15
"13",6,0.027136589776634,0.02159867855171,0.0161130602311476,0.0216248250038908,2020-06-16
"14",6.5,0.0272673515066935,0.0216692150336718,0.0161484162677488,0.0217078838872211,2020-06-16
"15",7,0.0273923113633864,0.0217103975058781,0.016183672263855,0.0217879918136207,2020-06-17
"16",7.5,0.0275118588860449,0.0217661263705269,0.0162188442670452,0.0218653515765451,2020-06-17
"17",8,0.0276263582672257,0.0218241859414121,0.0162539477110539,0.0219401529891398,2020-06-18
"18",8.5,0.0277361500027472,0.0218815107024684,0.0162889974428278,0.0220125737227875,2020-06-18
"19",9,0.0278415524342839,0.0219250717841516,0.0163240077484057,0.0220827800913448,2020-06-19
"20",9.5,0.0279428631915133,0.0219824638957415,0.0163589923776709,0.0221509277845921,2020-06-19
"21",10,0.0280403605403566,0.0220450514056509,0.0163939645680265,0.0222171625541915,2020-06-20
"22",10.5,0.0281343046434274,0.0221183352384913,0.0164289370670401,0.0222816208552337,2020-06-20
"23",11,0.0282249387384045,0.0221767608017173,0.0164639221541017,0.0223444304462531,2020-06-21
"24",11.5,0.0283124902396733,0.0222213347979836,0.0164989316611384,0.0224057109504058,2020-06-21
"25",12,0.0283971717682321,0.0222650597086184,0.0165339769924267,0.0224655743803294,2020-06-22
"26",12.5,0.0284791821145338,0.0223079886392517,0.016569069143541,0.0225241256290374,2020-06-22
"27",13,0.0285587071386298,0.022352342630334,0.0166042187194766,0.0225814629290532,2020-06-23
"28",13.5,0.0286359206116992,0.0223971344133228,0.0166394359519816,0.0226376782818404,2020-06-23
"29",14,0.0287109850027789,0.0224305002848936,0.016674730716134,0.0226928578594564,2020-06-24
"30",14.5,0.0287840522142632,0.0224668976533,0.0167101125461944,0.0227470823802288,2020-06-24
"31",15,0.028855264269509,0.0225240189795789,0.0167455906507674,0.0228004274601382,2020-06-25
"32",15.5,0.0289247539556645,0.02256405401203,0.0167811739273009,0.0228529639414827,2020-06-25
"33",16,0.0289926454246372,0.0226030688315955,0.0168168709759521,0.0229047582002947,2020-06-26
"34",16.5,0.0290590547549273,0.022641124324748,0.0168526901128472,0.0229558724338872,2020-06-26
"35",17,0.0291240904768734,0.0226782783253234,0.0168886393827619,0.0230063649298177,2020-06-27
"36",17.5,0.0291878540636948,0.0227141248055035,0.0169247265712473,0.023056290317471,2020-06-27
"37",18,0.0292504403905556,0.0227479479223465,0.0169609592162243,0.02310569980339,2020-06-28
"38",18.5,0.0293119381637337,0.0227766189375194,0.0169973446190716,0.0231546413914027,2020-06-28
"39",19,0.0293724303218417,0.0228122342391189,0.0170338898552268,0.0232031600885342,2020-06-29
"40",19.5,0.0294319944109178,0.0228492653244921,0.0170706017843234,0.0232512980976206,2020-06-29
"41",20,0.0294907029350906,0.0228851629609619,0.0171074870598826,0.0232990949974866,2020-06-30
"42",20.5,0.029548623684406,0.0229214222456357,0.0171445521385802,0.0233465879114931,2020-06-30
"43",21,0.0296058200413043,0.0229648717315437,0.0171818032891058,0.023393811665205,2020-07-01
"44",21.5,0.0296623512671378,0.0230070270978243,0.0172192466006327,0.0234407989338852,2020-07-01
"45",22,0.029718272770028,0.0230397416515361,0.0172568879909149,0.0234875803804714,2020-07-02
"46",22.5,0.0297736363552778,0.023068928143346,0.0172947332140276,0.0235341847846527,2020-07-02
"47",23,0.0298284904594742,0.0231047910118269,0.0173327878677664,0.0235806391636203,2020-07-03
"48",23.5,0.0298828803693446,0.0231509599772115,0.0173710574007191,0.0236269688850319,2020-07-03
"49",24,0.0299368484263574,0.0231858934008204,0.0174095471190261,0.0236731977726918,2020-07-04
"50",24.5,0.0299904342179976,0.0232162193359172,0.0174482621928409,0.0237193482054193,2020-07-04
"51",25,0.0300436747565828,0.0232591396813077,0.0174872076625046,0.0237654412095437,2020-07-05
"52",25.5,0.0300966046464325,0.0232911565565764,0.017526388444446,0.0238114965454393,2020-07-05
"53",26,0.0301492562401488,0.0233226475856391,0.0175658093368204,0.0238575327884846,2020-07-06
"54",26.5,0.0302016597847158,0.0233517591015452,0.0176054750248967,0.0239035674048062,2020-07-06
"55",27,0.0302538435580839,0.0233796874694161,0.0176453900862041,0.023949616822144,2020-07-07
"56",27.5,0.0303058339968554,0.0234132539255665,0.0176855589954502,0.0239956964961528,2020-07-07
"57",28,0.0303576558156523,0.0234520734023732,0.0177259861292174,0.0240418209724349,2020-07-08
"58",28.5,0.0304093321187088,0.0234804911067259,0.0177666757704498,0.0240880039445793,2020-07-08
"59",29,0.0304608845041922,0.0235253266084346,0.0178076321127381,0.0241342583084651,2020-07-09
"60",29.5,0.0305123331617287,0.0235584983031054,0.0178488592644114,0.0241805962130701,2020-07-09
"61",30,0.0305636969635744,0.0236096847361632,0.0178903612524446,0.0242270291080095,2020-07-10
"62",30.5,0.0306149935498461,0.0236441233574013,0.0179321420261883,0.0242735677880172,2020-07-10
"63",31,0.030666239408199,0.0236801832518341,0.0179742054609297,0.0243202224345644,2020-07-11
"64",31.5,0.0307174499483123,0.0237265160629798,0.0180165553612915,0.0243670026548019,2020-07-11
"65",32,0.030768639571521,0.023770035926033,0.0180557390871698,0.0244121893293454,2020-07-12
"66",32.5,0.0308198217359106,0.0237996509781203,0.0180804141932533,0.024450117964582,2020-07-12
"67",33,0.0308710090171689,0.0238361632168582,0.0181053261663416,0.0244881675917553,2020-07-13
"68",33.5,0.0309222131654724,0.0238694319630085,0.0181304792739607,0.0245263462197165,2020-07-13
"69",34,0.0309734451586646,0.0238948611253415,0.0181558777372453,0.0245646614479549,2020-07-14
"70",34.5,0.031024715251969,0.0239255186281256,0.0181815257345126,0.0246031204932408,2020-07-14
"71",35,0.0310760330244604,0.0239473080794784,0.0182074274046678,0.0246417302145641,2020-07-15
"72",35.5,0.0311274074225077,0.0239705055209113,0.0182335868504481,0.0246804971364779,2020-07-15
"73",36,0.0311788468003841,0.0240000832669316,0.018260008141515,0.0247194274709496,2020-07-16
"74",36.5,0.03123035895823,0.0240310343571411,0.0182866953173998,0.0247585271378149,2020-07-16
"75",37,0.0312819511775401,0.024062190507505,0.0183136523903103,0.0247978017839252,2020-07-17
"76",37.5,0.0313336302543368,0.0240969516346107,0.0183408833478053,0.0248372568010711,2020-07-17
"77",38,0.0313854025301805,0.0241331228990238,0.0183683921553424,0.0248768973427614,2020-07-18
"78",38.5,0.0314372739211566,0.0241703964461987,0.0183961827587063,0.0249167283399314,2020-07-18
"79",39,0.0314892499449729,0.0242132633900258,0.0184242590863212,0.0249567545156471,2020-07-19
"80",39.5,0.0315413357462889,0.0242565016890498,0.0184526250514546,0.0249969803988718,2020-07-19
"81",40,0.0315935361203923,0.0243001160235128,0.0184812845543166,0.0250374103373545,2020-07-20
"82",40.5,0.0316458555353316,0.0243439734377575,0.0185102414840591,0.0250780485096953,2020-07-20
"83",41,0.0316982981526037,0.0243774143883146,0.0185394997206808,0.0251188989366423,2020-07-21
"84",41.5,0.0317508678464924,0.0244156531605226,0.018569063136841,0.0251599654916667,2020-07-21
"85",42,0.0318035682221434,0.0244734910536442,0.0185989355995871,0.0252012519108652,2020-07-22
"86",42.5,0.0318564026324609,0.0245171177781408,0.0186291209719994,0.0252427618022301,2020-07-22
"87",43,0.0319330867762543,0.0245574451190747,0.0186596231147569,0.0252963549455056,2020-07-23
"88",43.5,0.0320157841505845,0.024601747604882,0.0186904458876282,0.0253531150191063,2020-07-23
"89",44,0.0320989226213167,0.0246390783971168,0.0187215931508899,0.0254102578861033,2020-07-24
"90",44.5,0.0321825048325181,0.0246767278043084,0.0187530687666765,0.0254677867995973,2020-07-24
"91",45,0.0322665333123599,0.0247123606657985,0.0187848766002644,0.0255257049563121,2020-07-25
"92",45.5,0.0323510104780097,0.0247511380273369,0.0188170205212929,0.0255840154996513,2020-07-25
"93",46,0.0324359386402246,0.0247955287935576,0.0188495044049254,0.025642721522575,2020-07-26
"94",46.5,0.0325213200076627,0.0248478291695109,0.0188823321329523,0.0257018260703075,2020-07-26
"95",47,0.0326071566909301,0.0248994230136565,0.0189155075948398,0.0257613321428849,2020-07-27
"96",47.5,0.0326934507063766,0.0249428530732448,0.0189490346887245,0.0258212426975506,2020-07-27
"97",48,0.0327802039796558,0.0249896334122389,0.0189829173223589,0.0258815606510074,2020-07-28
"98",48.5,0.032867418349062,0.0250452600815166,0.0190171594140071,0.0259422888815345,2020-07-28
"99",49,0.0329550955686578,0.0250981511467979,0.0190517648932944,0.0260034302309761,2020-07-29
"100",49.5,0.0330432373112028,0.0251486438680906,0.0190867377020128,0.0260649875066078,2020-07-29
"101",50,0.0331318451708959,0.025211383318737,0.0191220817948826,0.0261269634828892,2020-07-30
"102",50.5,0.0332209206659415,0.0252616643854003,0.0191578011402734,0.0261893609031074,2020-07-30
"103",51,0.0333104652409497,0.0253129786244883,0.0191938997208852,0.0262521824809175,2020-07-31
"104",51.5,0.0334004802691797,0.0253882251477858,0.0192303815343919,0.0263154309017858,2020-07-31
"105",52,0.0334909670546356,0.025453329540419,0.0192672505940471,0.0263791088243413,2020-08-01
"106",52.5,0.0335819268340233,0.0255183434542598,0.0193045109292556,0.0264432188816394,2020-08-01
"107",53,0.0336733607785762,0.0255774951585107,0.0193421665861102,0.0265077636823432,2020-08-02
"108",53.5,0.0337652699957574,0.0256339587348095,0.0193802216278957,0.0265727458118266,2020-08-02
"109",54,0.0338576555308452,0.0256798861727039,0.0194186801355613,0.0266381678332033,2020-08-03
"110",54.5,0.0339505183684091,0.0257261729583039,0.019457546208162,0.0267040322882855,2020-08-03
"111",55,0.0340438594336823,0.0257728224878256,0.0194968239632708,0.0267703416984766,2020-08-04
"112",55.5,0.0341376795938376,0.0258204752602695,0.0195365175373616,0.0268370985655996,2020-08-04
"113",56,0.0342319796591702,0.0258764768336083,0.0195766310861647,0.0269043053726675,2020-08-05
"114",56.5,0.0343267603841957,0.0259328454110127,0.0196171687849952,0.0269719645845954,2020-08-05
"115",57,0.0344220224686658,0.0259895835038022,0.0196581348290548,0.0270400786488603,2020-08-06
"116",57.5,0.0345177665585085,0.0260517497293056,0.0196995334337087,0.0271086499961086,2020-08-06
"117",58,0.0346139932466955,0.0261043666961889,0.0197413688347372,0.0271776810407163,2020-08-07
"118",58.5,0.0347107030740425,0.0261439340737066,0.0197836452885636,0.027247174181303,2020-08-07
"119",59,0.0348078965299458,0.0261780467532121,0.0198263670724581,0.027317131801202,2020-08-08
"120",59.5,0.0349055740530592,0.0262192351141933,0.0198695384847193,0.0273875562688892,2020-08-08
"121",60,0.0350037360319145,0.026256652086111,0.0199131638448325,0.0274584499383735,2020-08-09
"122",60.5,0.0351023828054894,0.0262946392685097,0.0199572474936069,0.0275298151495481,2020-08-09
"123",61,0.0352015146637263,0.0263347323220629,0.0200017937932907,0.0276016542285085,2020-08-10
"124",61.5,0.0353011318480038,0.026378486803442,0.0200468071276654,0.0276739694878346,2020-08-10
"125",62,0.0354012345515652,0.0264357335850767,0.0200922919021193,0.0277467632268423,2020-08-11
"126",62.5,0.0355018229199065,0.0264962980509175,0.020138252543701,0.0278200377318037,2020-08-11
"127",63,0.0356028970511251,0.0265572868224867,0.0201846935011524,0.0278937952761387,2020-08-12
"128",63.5,0.0357044569962339,0.0266187020058196,0.0202316192449224,0.0279680381205781,2020-08-12
"129",64,0.035806502759441,0.0266782733025973,0.0202790342671615,0.0280427685133013,2020-08-13
"130",64.5,0.035909034298399,0.0267324301469167,0.0203269430816966,0.0281179886900478,2020-08-13
"131",65,0.0360120515244238,0.026787013236153,0.0203753502239874,0.0281937008742056,2020-08-14
"132",65.5,0.036115554302688,0.0268420255814273,0.0204242602510638,0.0282699072768759,2020-08-14
"133",66,0.0362195424523872,0.0268974701818233,0.0204736777414454,0.0283466100969163,2020-08-15
"134",66.5,0.0363240157468838,0.0269575712929305,0.0205236072950419,0.0284238115209628,2020-08-15
"135",67,0.0364289739138283,0.0270151295307047,0.020574053533036,0.0285015137234322,2020-08-16
"136",67.5,0.0365344166352609,0.0270829213213455,0.020625021097748,0.0285797188665044,2020-08-16
"137",68,0.0366403435476934,0.0271676628482833,0.0206765146524823,0.0286584291000878,2020-08-17
"138",68.5,0.0367467542421746,0.0272329440832498,0.0207285388813563,0.0287376465617654,2020-08-17
"139",69,0.0368536482643391,0.0272937050122114,0.0207810984891118,0.0288173733767254,2020-08-18
"140",69.5,0.0369610251144418,0.0273415029595398,0.0208341982009083,0.028897611657675,2020-08-18
"141",70,0.0370688842473781,0.0273897164774677,0.0208878427620989,0.0289783635047385,2020-08-19
"142",70.5,0.0371772250726929,0.0274583549907241,0.0209420369379887,0.0290596310053408,2020-08-19
"143",71,0.0372860469545771,0.0275174339565224,0.0209967855135754,0.0291414162340763,2020-08-20
"144",71.5,0.037395349211855,0.0275825028742949,0.0210520932932728,0.0292237212525639,2020-08-20
"145",72,0.0375051311179617,0.0276480817048513,0.0211079651006161,0.0293065481092889,2020-08-21
"146",72.5,0.0376153919009127,0.0276936386323163,0.0211644057779507,0.0293898988394317,2020-08-21
"147",73,0.0377261307432657,0.0277542488349292,0.0212214201861025,0.0294737754646841,2020-08-22
"148",73.5,0.0378373467820765,0.0278335423690627,0.021279013204031,0.0295581799930538,2020-08-22
"149",74,0.0379490391088486,0.0278961983466005,0.0213371897284649,0.0296431144186568,2020-08-23
"150",74.5,0.0380612067694783,0.0279695518197586,0.02139595467352,0.0297285807214991,2020-08-23
"151",75,0.0381738487641955,0.0280382445285424,0.0214553129702991,0.0298145808672473,2020-08-24
"152",75.5,0.0382869640475008,0.0280939566232192,0.0215152695664749,0.0299011168069878,2020-08-24
"153",76,0.0384005515281003,0.0281694862187154,0.0215758294258541,0.0299881904769772,2020-08-25
"154",76.5,0.038514610068838,0.028246468105826,0.0216369975279245,0.0300758037983812,2020-08-25
"155",77,0.0386291384866261,0.0283238369537381,0.0216987788673836,0.0301639586770049,2020-08-26
"156",77.5,0.0387441355523758,0.0284022330910644,0.0217611784536491,0.0302526570030125,2020-08-26
"157",78,0.0388595999909259,0.0284859046453664,0.0218242013103521,0.030341900650639,2020-08-27
"158",78.5,0.0389755304809728,0.0285608844108058,0.0218878524748109,0.0304316914778918,2020-08-27
"159",79,0.0390919256550006,0.0286364471234177,0.0219521369974871,0.0305220313262439,2020-08-28
"160",79.5,0.039208784099213,0.0287083286241361,0.0220170599414238,0.0306129220203184,2020-08-28
"161",80,0.0393261043534652,0.0287805009031988,0.0220826263816639,0.0307043653675646,2020-08-29
"162",80.5,0.0394438849112,0.0288567784003954,0.0221488414046517,0.0307963631579258,2020-08-29
"163",81,0.0395621242193845,0.0289377358841606,0.0222157101076135,0.030888917163499,2020-08-30
"164",81.5,0.0396808206784507,0.0290052922391683,0.0222832375979218,0.0309820291381863,2020-08-30
"165",82,0.0397999726422391,0.0290763104671287,0.0223514289924383,0.0310757008173387,2020-08-31
"166",82.5,0.0399195784179457,0.0291606377653121,0.0224202894168398,0.0311699339173928,2020-08-31
"167",83,0.040039636266073,0.0292457798188972,0.0224898240049236,0.0312647301354983,2020-09-01
"168",83.5,0.0401601444003861,0.0293239375446799,0.0225600378978942,0.0313600911491402,2020-09-01
"169",84,0.0402811009878722,0.0293988921119675,0.0226309362436305,0.0314560186157513,2020-09-02
"170",84.5,0.0404025041487056,0.0294745625672241,0.022702524195934,0.0315525141723198,2020-09-02
"171",85,0.0405243519562185,0.029534394582567,0.0227748069137565,0.0316495794349875,2020-09-03
"172",85.5,0.0406466424368766,0.0295996419707763,0.0228477895604087,0.0317472159986427,2020-09-03
"173",86,0.0407693735702606,0.0296783976005369,0.0229214773027495,0.031845425436505,2020-09-04
"174",86.5,0.0408925432890541,0.0297532891131402,0.0229958753103538,0.031944209299704,2020-09-04
"175",87,0.0410161494790377,0.0298237261966175,0.0230709887546626,0.0320435691168501,2020-09-05
"176",87.5,0.0411401899790893,0.0299105543377959,0.0231468228081107,0.0321435063936,2020-09-05
"177",88,0.041264662581192,0.029964733083364,0.0232083184342122,0.0322364905077021,2020-09-06
"178",88.5,0.041389565030448,0.0300134004177115,0.0232411202192861,0.0323153426248671,2020-09-06
"179",89,0.0415148950251007,0.0300869272051205,0.023274278113147,0.0323945865691238,2020-09-07
"180",89.5,0.0416406502165633,0.0301787030249021,0.0233077957344213,0.0324742229754923,2020-09-07
"181",90,0.041766828209456,0.0302760970283164,0.023341676732165,0.0325542524708105,2020-09-08
"182",90.5,0.0419087111745824,0.0303765099154889,0.0233759247860133,0.0326423179802978,2020-09-08
"183",91,0.0421144001386888,0.0304554305753348,0.0234105436063246,0.0327624718725067,2020-09-09
"184",91.5,0.0423210276952223,0.0305467925653008,0.0234455369343227,0.0328832823147725,2020-09-09
"185",92,0.0425285854995288,0.0306302489425226,0.0234809085422333,0.033004747020881,2020-09-10
"186",92.5,0.0427370650110309,0.0307146096214225,0.0235166622334171,0.033126863622224,2020-09-10
"187",93,0.0429464574937671,0.030791107480551,0.0235528018424994,0.0332496296681333,2020-09-11
"188",93.5,0.0431567540170175,0.0308670352848209,0.0235893312354946,0.033373042626256,2020-09-11
"189",94,0.0433679454560157,0.0309571919456452,0.0236262543099267,0.0334970998829712,2020-09-12
"190",94.5,0.0435800224927474,0.0310670076167801,0.0236635749949457,0.0336217987438466,2020-09-12
"191",95,0.0437929756168359,0.0311887688866618,0.0237012972514396,0.0337471364341377,2020-09-13
"192",95.5,0.0440067951265144,0.0312624619770227,0.0237394250721414,0.0338731100993279,2020-09-13
"193",96,0.0442214711296867,0.0313459414985013,0.0237779624817322,0.0339997168057095,2020-09-14
"194",96.5,0.0444369935450742,0.0314416870947012,0.0238169135369389,0.0341269535410066,2020-09-14
"195",97,0.0446533521034509,0.0315408608325698,0.0238562823266276,0.0342548172150392,2020-09-15
"196",97.5,0.0448705363489661,0.0316281459310064,0.0238960729718916,0.0343833046604289,2020-09-15
"197",98,0.0450885356405541,0.0317080895295078,0.023936289626135,0.0345124126333446,2020-09-16
"198",98.5,0.0453073391534314,0.0318002368353255,0.0239769364751507,0.034642137814291,2020-09-16
"199",99,0.0455269358806807,0.0319081546009079,0.0240180177371932,0.0347724768089369,2020-09-17
"200",99.5,0.0457473146349226,0.0320168648055492,0.0240595376630461,0.0349034261489843,2020-09-17
"201",100,0.0459684640500726,0.0321380956296524,0.0241015005360841,0.0350349822930783,2020-09-18
"202",100.5,0.046190372583185,0.0322405891846162,0.0241439106723295,0.0351671416277572,2020-09-18
"203",101,0.0464130285163825,0.0323430972742345,0.0241867724205025,0.0352999004684425,2020-09-19
"204",101.5,0.0466364199588706,0.0324510234858317,0.0242300901620662,0.0354332550604684,2020-09-19
"205",102,0.0468605348490368,0.0325528090535521,0.0242738683112652,0.035567201580151,2020-09-20
"206",102.5,0.0470853609566336,0.0326688789830721,0.024318111315158,0.0357017361358958,2020-09-20
"207",103,0.0473108858850453,0.0327786918401162,0.0243628236536433,0.0358368547693443,2020-09-21
"208",103.5,0.0475370970736362,0.0328752867546688,0.0244080098394798,0.035972553456558,2020-09-21
"209",104,0.0477639818001819,0.0329725853100275,0.0244536744182992,0.0361088281092405,2020-09-22
"210",104.5,0.0479915271833796,0.0330646456047909,0.0244998219686126,0.0362456745759961,2020-09-22
"211",105,0.04821972018544,0.033159903172218,0.0245464571018101,0.036383088643625,2020-09-23
"212",105.5,0.0484485476147566,0.0332582908922846,0.0245935844621529,0.0365210660384547,2020-09-23
"213",106,0.048677996128653,0.0333570621752522,0.0246412087267586,0.0366596024277058,2020-09-24
"214",106.5,0.0489080522362075,0.0334564814826486,0.0246893346055792,0.0367986934208933,2020-09-24
"215",107,0.0491387023011514,0.0335608983115406,0.0247379668413706,0.036938334571261,2020-09-25
"216",107.5,0.0493699325448433,0.033666028006342,0.0247871102096555,0.0370785213772494,2020-09-25
"217",108,0.049601729049314,0.0337718723245884,0.0248367695186778,0.0372192492839959,2020-09-26
"218",108.5,0.0498340777603847,0.0338631755203328,0.024886949609349,0.0373605136848668,2020-09-26
"219",109,0.0500669644908532,0.0339263779561095,0.0249376553551864,0.0375023099230198,2020-09-27
"220",109.5,0.05030037492375,0.0339899718082662,0.0249888916622423,0.0376446332929962,2020-09-27
"221",110,0.0505342946156597,0.0340539594005784,0.0250406634690259,0.0377874790423428,2020-09-28
"222",110.5,0.0507687090001088,0.0341589029506916,0.0250929757464147,0.0379308423732618,2020-09-28
"223",111,0.0510036033910162,0.0342705899093613,0.025145833497558,0.0380747184442871,2020-09-29
"224",111.5,0.0512389629862053,0.0343830147275379,0.0251992417577711,0.0382191023719882,2020-09-29
"225",112,0.0514747728709764,0.03449617824515,0.0252532055944194,0.0383639892326979,2020-09-30
"226",112.5,0.0517110180217374,0.0346100812296235,0.0253077301067938,0.0385093740642656,2020-09-30
"227",113,0.0519476833096896,0.0347138026262029,0.0253628204259756,0.0386552518678326,2020-10-01
"228",113.5,0.0521847535045694,0.0348041612614919,0.0254184817146919,0.0388016176096306,2020-10-01
"229",114,0.0524222132784404,0.0348791782997523,0.0254747191671603,0.0389484662228003,2020-10-02
"230",114.5,0.0526600472095377,0.0349492565062116,0.0255315380089236,0.0390957926092306,2020-10-02
"231",115,0.0528982397861585,0.0350195774151878,0.0255889434966737,0.0392435916414161,2020-10-03
"232",115.5,0.0531367754106005,0.0351076567976722,0.0256469409180648,0.0393918581643327,2020-10-03
"233",116,0.053375638403143,0.0352017210234258,0.0257055355915153,0.0395405869973291,2020-10-04
"234",116.5,0.0536148130060704,0.0352961084902224,0.0257647328659983,0.0396897729360344,2020-10-04
"235",117,0.053854283387735,0.035418341108351,0.0258245381208217,0.0398394107542783,2020-10-05
"236",117.5,0.0540940336466574,0.0355507989240443,0.0258849567653948,0.0399894952060261,2020-10-05
"237",118,0.0543340478156615,0.0356393530290038,0.0259459942389848,0.0401400210273231,2020-10-06
"238",118.5,0.0545743098660425,0.0357419460631971,0.0260076560104598,0.0402909829382512,2020-10-06
"239",119,0.0548148037117656,0.0358756245820358,0.0260699475780203,0.040442375644893,2020-10-07
"240",119.5,0.0550555132136918,0.0360194540769595,0.0261328744689176,0.0405941938413047,2020-10-07
"241",120,0.0552964221838306,0.0361734884156602,0.0261964422391596,0.0407464322114951,2020-10-08
"242",120.5,0.0555375143896151,0.0363287459464987,0.0262606564732033,0.0408990854314092,2020-10-08
"243",121,0.055778773558198,0.0364639700648339,0.0263255227836346,0.0410521481709163,2020-10-09
"244",121.5,0.0560201833807667,0.0365766023971739,0.0263910468108341,0.0412056150958004,2020-10-09
"245",122,0.0562617275168736,0.0366827932243138,0.0264572342226289,0.0413594808697513,2020-10-10
"246",122.5,0.0565033895987805,0.0367624357485946,0.0265240907139315,0.041513740156356,2020-10-10
"247",123,0.0567451532358139,0.03684377030843,0.0265916220063629,0.0416683876210884,2020-10-11
"248",123.5,0.0569870020187287,0.0369568780685693,0.0266598338478629,0.0418234179332958,2020-10-11
"249",124,0.0572289195240787,0.037090728178765,0.0267287320122847,0.0419788257681817,2020-10-12
"250",124.5,0.0574708893185898,0.0372338769324152,0.0267983222989747,0.0421346058087823,2020-10-12
"251",125,0.0577128949635356,0.0373727000804856,0.0268686105323373,0.0422907527479365,2020-10-13
"252",125.5,0.0579549200191108,0.0374777919174769,0.0269396025613846,0.0424472612902477,2020-10-13
"253",126,0.0581969480488014,0.0375823739435267,0.0270113042592696,0.0426041261540355,2020-10-14
"254",126.5,0.0584389626237486,0.0376873455321324,0.0270837215228048,0.0427613420732767,2020-10-14
"255",127,0.0586809473271043,0.0378527816578675,0.0271568602719634,0.0429189037995339,2020-10-15
"256",127.5,0.0589228857583752,0.03804260465415,0.027230726449365,0.0430768061038701,2020-10-15
"257",128,0.0591647615377541,0.0382015537006796,0.0273053260197445,0.0432350437787493,2020-10-16
"258",128.5,0.0594065583104349,0.0383291876292682,0.0273806649694039,0.0433936116399194,2020-10-16
"259",129,0.0596482597509097,0.0384535893660794,0.0274567493056476,0.0435525045282787,2020-10-17
"260",129.5,0.0598898495672451,0.0385387894051744,0.0275335850562001,0.0437117173117226,2020-10-17
"261",130,0.0601313115053362,0.0386534912827446,0.027611178268606,0.0438712448869711,2020-10-18
"262",130.5,0.0603726293531346,0.0387984434736528,0.0276818904579836,0.0440272599055591,2020-10-18
"263",131,0.06061378694485,0.0389442029537527,0.0277193538181656,0.0441665703815078,2020-10-19
"264",131.5,0.0608547681651215,0.0390609236892776,0.0277568894454919,0.0443058288053067,2020-10-19
"265",132,0.0610955569531569,0.0391739504480317,0.0277944971599417,0.0444450270565493,2020-10-20
"266",132.5,0.0613361373068387,0.039313937172683,0.0278321767792511,0.0445841570430449,2020-10-20
"267",133,0.0615764932867928,0.0394484032106323,0.0278699281189146,0.0447232107028537,2020-10-21
"268",133.5,0.0618166090204205,0.0395659429272788,0.0279077509921859,0.0448621800063032,2020-10-21
"269",134,0.0620564687058883,0.0397001676787184,0.0279456452100794,0.0450010569579839,2020-10-22
"270",134.5,0.0622960566160768,0.0398512507501994,0.0279836105813717,0.0451398335987242,2020-10-22
"271",135,0.0625353571024844,0.040004843327037,0.0280216469126026,0.0452785020075435,2020-10-23
"272",135.5,0.0627743545990855,0.0401379622930633,0.0280597540080766,0.0454170543035811,2020-10-23
"273",136,0.0630130336261394,0.0402714757046428,0.0280979316698643,0.0455554826480019,2020-10-24
"274",136.5,0.0632513787939503,0.0404053809624842,0.0281361796978039,0.0456937792458771,2020-10-24
"275",137,0.0634893748065746,0.0405427706279312,0.0281744978895024,0.0458319363480385,2020-10-25
"276",137.5,0.0637270064654755,0.0406933276123628,0.0282128860403375,0.0459699462529065,2020-10-25
"277",138,0.0639642586731215,0.0408233327330943,0.0282513439434592,0.0461078013082903,2020-10-26
"278",138.5,0.0642011164365286,0.040946642671067,0.0282898713897909,0.0462454939131597,2020-10-26
"279",139,0.0644375648707436,0.0411289810540509,0.0283284681680318,0.0463830165193877,2020-10-27
"280",139.5,0.0646735892022678,0.0413506782155076,0.0283671340646583,0.046520361633463,2020-10-27
"281",140,0.0649091747724187,0.041553572975033,0.0284058688639257,0.0466575218181722,2020-10-28
"282",140.5,0.0651443070406292,0.0417429334036098,0.0284446723478707,0.0467944896942499,2020-10-28
"283",141,0.0653789715876821,0.0419209243819655,0.0284835442963127,0.0469312579419974,2020-10-29
"284",141.5,0.0656131541188798,0.0420695966411223,0.0285224844868562,0.047067819302868,2020-10-29
"285",142,0.0658468404671455,0.0422156696691415,0.0285614926948932,0.0472041665810193,2020-10-30
"286",142.5,0.0660800165960585,0.0423832861901264,0.0286005686936047,0.0473402926448316,2020-10-30
"287",143,0.0663126686028184,0.042540351712405,0.0286397122539639,0.0474761904283911,2020-10-31
"288",143.5,0.0665447827211401,0.0427194213739264,0.0286789231447379,0.047611852932939,2020-10-31
"289",144,0.0667763453240772,0.0428936478328226,0.0287182011324905,0.0477472732282839,2020-11-01
"290",144.5,0.0670073429267734,0.0430604018701851,0.0287575459815849,0.0478824444541792,2020-11-01
"291",145,0.0672377621891402,0.0432131927540707,0.0287969574541861,0.0480173598216632,2020-11-02
"292",145.5,0.067467589918461,0.0433594761165434,0.0288364353102639,0.0481520126143625,2020-11-02
"293",146,0.0676968130719208,0.0435407093522411,0.0288759793075956,0.0482863961897582,2020-11-03
"294",146.5,0.0679254187590595,0.0437150258287939,0.0289155892017691,0.0484205039804143,2020-11-03
"295",147,0.0681533942441504,0.0439036868799045,0.028955264746186,0.0485543294951682,2020-11-04
"296",147.5,0.0683807269485004,0.0440573329834044,0.0289950056920648,0.0486878663202826,2020-11-04
"297",148,0.0686074044526745,0.0441991013756018,0.0290348117884441,0.0488211081205593,2020-11-05
"298",148.5,0.0688334144986415,0.0443413159612016,0.029074682782186,0.0489540486404138,2020-11-05
"299",149,0.0690587449918421,0.0444821668223578,0.0291146184179798,0.049086681704911,2020-11-06
"300",149.5,0.0692833840031785,0.0446362012167886,0.0291546184383455,0.049219001220762,2020-11-06
"301",150,0.0695073197709248,0.0448014347034722,0.0291946825836374,0.0493510011772811,2020-11-07
"302",150.5,0.0697305407025592,0.0449674274861227,0.0292348105920482,0.0494826756473037,2020-11-07
"303",151,0.0699530353765161,0.0451341781161429,0.029275002199613,0.0496140187880646,2020-11-08
"304",151.5,0.0701747925438595,0.0452696613963087,0.0293152571402131,0.0497450248420363,2020-11-08
"305",152,0.0703958011298767,0.0453995944993564,0.0293555751455806,0.0498756881377286,2020-11-09
"306",152.5,0.070616050235593,0.0455296955645975,0.0293959559453023,0.0500060030904477,2020-11-09
"307",153,0.0708355291392067,0.0456720376337296,0.0294363992668245,0.0501359642030156,2020-11-10
"308",153.5,0.0710542272974449,0.0458454981791558,0.0294769048354574,0.0502655660664511,2020-11-10
"309",154,0.0712721343468402,0.0460197318681628,0.0295174723743799,0.0503948033606101,2020-11-11
"310",154.5,0.071489240104929,0.0461904026578422,0.0295581016046444,0.0505236708547867,2020-11-11
"311",155,0.0717055345713702,0.0463375162546446,0.0295987922451817,0.050652163408276,2020-11-12
"312",155.5,0.0719210079289867,0.0465344603948886,0.0296395440128061,0.0507802759708964,2020-11-12
"313",156,0.0721356505447281,0.0466452970933448,0.0296803566222206,0.0509080035834744,2020-11-13
"314",156.5,0.072349452970556,0.046773955150277,0.0297212297860223,0.0510353413782892,2020-11-13
"315",157,0.0725624059442528,0.0469904432685135,0.0297621632147077,0.0511622845794803,2020-11-14
"316",157.5,0.0727745003901529,0.0471265024257774,0.0298031566166785,0.0512888285034157,2020-11-14
"317",158,0.0729857274197987,0.0472564257258963,0.0298442096982471,0.0514149685590229,2020-11-15
"318",158.5,0.0731960783325203,0.0473940328768377,0.0298853221636428,0.0515407002480815,2020-11-15
"319",159,0.0734055446159414,0.0475063941395553,0.0299264937150173,0.0516660191654793,2020-11-16
"320",159.5,0.0736141179464102,0.0476709411658698,0.0299677240524511,0.0517909209994307,2020-11-16
"321",160,0.0738217901893568,0.0478361899652218,0.0300090128739599,0.0519154015316583,2020-11-17
"322",160.5,0.0740285533995783,0.0479954525530424,0.0300503598755007,0.0520394566375395,2020-11-17
"323",161,0.0742343998214519,0.0481551103387999,0.0300917647509784,0.0521630822862151,2020-11-18
"324",161.5,0.0744393218890767,0.0483151584086029,0.0301332271922525,0.0522862745406646,2020-11-18
"325",162,0.0746433122263452,0.0484911560766041,0.0301747468891437,0.0524090295577445,2020-11-19
"326",162.5,0.0748463636469457,0.0486707151003267,0.0302163235294414,0.0525313435881935,2020-11-19
"327",163,0.075048469154296,0.0488288457270896,0.0302579567989098,0.0526532129766029,2020-11-20
"328",163.5,0.0752496219414098,0.0490380109323007,0.030299646381296,0.0527746341613529,2020-11-20
"329",164,0.0754498153906965,0.0492226661214004,0.0303413919583368,0.0528956036745167,2020-11-21
"330",164.5,0.0756490430736952,0.0493882616468987,0.0303831932097665,0.0530161181417309,2020-11-21
"331",165,0.0758472987507453,0.0495544291854517,0.0304250498133239,0.0531361742820346,2020-11-22
"332",165.5,0.076044576370592,0.0496976538209164,0.030466961444761,0.0532557689076765,2020-11-22
"333",166,0.0762408700699313,0.0498585567249006,0.0305089277778499,0.0533748989238906,2020-11-23
"334",166.5,0.0764361741728924,0.0500253482211633,0.0305509484843915,0.053493561328642,2020-11-23
"335",167,0.0766304831904608,0.0502366016657241,0.0305930232342233,0.053611753212342,2020-11-24
"336",167.5,0.0768237918198423,0.0503802955306727,0.0306351516952277,0.053729471757535,2020-11-24
"337",168,0.0770160949437693,0.0504867110320637,0.0306773335333406,0.0538467142385549,2020-11-25
"338",168.5,0.0772073876297503,0.0505920459776024,0.0307195684125599,0.0539634780211551,2020-11-25
"339",169,0.0773976651292643,0.050707868219304,0.030761855994954,0.0540797605621091,2020-11-26
"340",169.5,0.0775869228769012,0.050836603211309,0.0308041959406709,0.0541955594087861,2020-11-26
"341",170,0.0777751564894489,0.0509654256232795,0.0308465879079471,0.054310872198698,2020-11-27
"342",170.5,0.0779623617649289,0.0511118545884995,0.0308890315531166,0.0544256966590227,2020-11-27
"343",171,0.0781485346815818,0.0512707991014025,0.0309315265306202,0.054540030606101,2020-11-28
"344",171.5,0.0783336713968033,0.0514413682754446,0.030974072493015,0.0546538719449091,2020-11-28
"345",172,0.0785177682460324,0.0516411853868599,0.0310166690909836,0.054767218668508,2020-11-29
"346",172.5,0.0787008217415931,0.0518136576628487,0.0310593159733443,0.0548800688574687,2020-11-29
"347",173,0.0790228494320875,0.0520189941896948,0.0311020127870603,0.0550624311095739,2020-11-30
"348",173.5,0.0794071798687141,0.0522065336619546,0.0311447591772499,0.055275969522982,2020-11-30
"349",174,0.0797911724220227,0.0523749994196882,0.0311875547871967,0.0554893636046097,2020-12-01
"350",174.5,0.0801747891955062,0.0525484340101478,0.0312303992583596,0.0557025942269329,2020-12-01
"351",175,0.0805579924529799,0.0527710632025014,0.0312732922303832,0.0559156423416815,2020-12-02
"352",175.5,0.0809407446330448,0.0529716929603675,0.0313162333411082,0.0561284889870765,2020-12-02
"353",176,0.0813230083633977,0.0531614065804315,0.031359222226582,0.0563411152949899,2020-12-03
"354",176.5,0.0817047464749771,0.0533479323049759,0.0314022585210698,0.0565535024980234,2020-12-03
"355",177,0.0820859220159337,0.0535179097108634,0.0314453418570647,0.0567656319364992,2020-12-04
"356",177.5,0.0824664982654153,0.0536858359474055,0.0314884718652996,0.0569774850653575,2020-12-04
"357",178,0.0828464387471553,0.0538350431049646,0.0315316481747577,0.0571890434609565,2020-12-05
"358",178.5,0.0832257072428546,0.0539841512344363,0.0315748704126841,0.0574002888277694,2020-12-05
"359",179,0.0836042678053475,0.0541331543395169,0.0316181382045969,0.0576112030049722,2020-12-06
"360",179.5,0.083982084771541,0.0542994080871784,0.0316614511742991,0.05782176797292,2020-12-06
"361",180,0.0843591227751195,0.0544869534265218,0.03170480894389,0.0580319658595047,2020-12-07
"362",180.5,0.0847353467590055,0.0546475340839223,0.0317482111337771,0.0582417789463913,2020-12-07
"363",181,0.085110721987567,0.0548034157050986,0.0317916573626879,0.0584511896751274,2020-12-08
"364",181.5,0.0854852140585643,0.0549905181177711,0.0318351472476823,0.0586601806531233,2020-12-08
"365",182,0.0858587889148281,0.055223950384955,0.0318786804041643,0.0588687346594962,2020-12-09
"366",182.5,0.0862314128556613,0.0554561198283758,0.0319222564458947,0.059076834650778,2020-12-09
"367",183,0.0866030525479563,0.0556422491262992,0.0319658749850032,0.0592844637664798,2020-12-10
"368",183.5,0.0869736750370233,0.0557953285713801,0.0320095356320015,0.0594916053345124,2020-12-10
"369",184,0.0873432477571209,0.0559482602967736,0.0320532379957953,0.0596982428764581,2020-12-11
"370",184.5,0.0877117385416841,0.0561010385757438,0.0320969816836976,0.0599043601126909,2020-12-11
"371",185,0.088079115633244,0.0562570981582099,0.0321407663014416,0.0601099409673428,2020-12-12
"372",185.5,0.0884453476930335,0.056406112019005,0.0321845914531935,0.0603149695731135,2020-12-12
"373",186,0.0888104038102742,0.0565583958638017,0.0322284567415659,0.0605194302759201,2020-12-13
"374",186.5,0.0891742535111411,0.0567105036247924,0.0322723617676313,0.0607233076393862,2020-12-13
"375",187,0.0895368667673989,0.0568615892583908,0.0323163061309349,0.0609265864491669,2020-12-14
"376",187.5,0.0898982140047083,0.0570033149017321,0.0323602894295089,0.0611292517171086,2020-12-14
"377",188,0.0902582661105976,0.0571453159370679,0.0324043112598856,0.0613312886852416,2020-12-15
"378",188.5,0.0906169944420978,0.0573156715787997,0.0324483712171117,0.0615326828296047,2020-12-15
"379",189,0.0909743708330373,0.0574742496567091,0.0324924688947616,0.0617334198638995,2020-12-16
"380",189.5,0.091330367600996,0.0576710488390409,0.0325366038849521,0.0619334857429741,2020-12-16
"381",190,0.0916849575539148,0.0578691363828705,0.0325807757783559,0.0621328666661353,2020-12-17
"382",190.5,0.0920381139963612,0.0580867876896523,0.0326249841642164,0.0623315490802888,2020-12-17
"383",191,0.092389810735449,0.0582376356557874,0.0326692286303618,0.0625295196829054,2020-12-18
"384",191.5,0.0927400220864116,0.0583884352171689,0.0327135087632195,0.0627267654248156,2020-12-18
"385",192,0.0930887228778286,0.0585540162129938,0.032757824147831,0.0629232735128298,2020-12-19
"386",192.5,0.0935226949419088,0.0587821771280928,0.0328021743678664,0.0631624346548876,2020-12-19
"387",193,0.0940120295980583,0.0590041509193286,0.0328465590056393,0.0634292943018488,2020-12-20
"388",193.5,0.0944999175079984,0.0592333677520372,0.0328909776421217,0.0636954475750601,2020-12-20
"389",194,0.0949862985188513,0.0594605563366203,0.032935429856959,0.0639608641879052,2020-12-21
"390",194.5,0.0954711132948483,0.0596498128721604,0.0329799152284853,0.0642255142616668,2020-12-21
"391",195,0.0959543033423673,0.0597997244260539,0.0330244333337384,0.0644893683380529,2020-12-22
"392",195.5,0.096435811034068,0.0598940203577825,0.0330689837484756,0.0647523973912718,2020-12-22
"393",196,0.0969155796321073,0.0600296954141634,0.0331135660471887,0.065014572839648,2020-12-23
"394",196.5,0.0973935533104228,0.0601710701158402,0.0331581798031197,0.0652758665567713,2020-12-23
"395",197,0.0978696771760702,0.0603498611917816,0.0332028245882768,0.0655362508821735,2020-12-24
"396",197.5,0.0983438972896044,0.0605030524233945,0.0332474999734497,0.065795698631527,2020-12-24
"397",198,0.0988161606844948,0.0606525917993061,0.0332922055282258,0.0660541831063603,2020-12-25
"398",198.5,0.0992864153855664,0.0608477520607362,0.0333369408210059,0.0663116781032861,2020-12-25
"399",199,0.0997546104264601,0.0610430256325499,0.0333817054190206,0.0665681579227404,2020-12-26
"400",199.5,0.100220695866108,0.0612365386731488,0.0334264988883463,0.0668235973772273,2020-12-26
"401",200,0.100684622804221,0.0613925830865382,0.0334713207939213,0.0670779717990712,2020-12-27
"402",200.5,0.101146343395781,0.0615474348408099,0.0335161706995626,0.067331257047672,2020-12-27
"403",201,0.101605810864549,0.061717428728826,0.0335610481679817,0.0675834295162654,2020-12-28
"404",201.5,0.102062979515574,0.0619253758287677,0.0336059527608017,0.0678344661381878,2020-12-28
"405",202,0.10251780474672,0.0620811853214215,0.0336508840385739,0.0680843443926469,2020-12-29
"406",202.5,0.102970243059205,0.0622119345170475,0.033695841560794,0.0683330423099997,2020-12-29
"407",203,0.103420252067161,0.0623510500419556,0.0337408248859196,0.0685805384765405,2020-12-30
"408",203.5,0.103867790506218,0.0624722541821185,0.0337858335713864,0.0688268120388022,2020-12-30
"409",204,0.104312818241121,0.0626256197860389,0.0338308671736259,0.0690718427073735,2020-12-31
"410",204.5,0.104755296272394,0.0627787494012094,0.0338759252480818,0.069315610760238,2020-12-31
"411",205,0.105195186742049,0.0629316372179049,0.0339210073492277,0.0695580970456382,2021-01-01
"412",205.5,0.105632452938358,0.0631193990384299,0.0339661130305838,0.069799282984471,2021-01-01
"413",206,0.106067059299705,0.0633247898544935,0.0340112418447346,0.0700391505722199,2021-01-02
"414",206.5,0.106498971417517,0.063489707840006,0.0340563933433461,0.0702776823804314,2021-01-02
"415",207,0.106928156038298,0.0636165012691559,0.0341015670771835,0.0705148615577408,2021-01-03
"416",207.5,0.107354581064784,0.0637570889893463,0.0341467625961282,0.0707506718304559,2021-01-03
"417",208,0.107778215556218,0.0639435279866978,0.034191979449196,0.070985097502707,2021-01-04
"418",208.5,0.108199029727785,0.0640859397969304,0.0342372171845545,0.0712181234561696,2021-01-04
"419",209,0.108616994949198,0.0641890783762168,0.0342824753495407,0.0714497351493696,2021-01-05
"420",209.5,0.109032083742481,0.0642918212000573,0.0343277534906793,0.0716799186165803,2021-01-05
"421",210,0.109444269778939,0.0643926693236761,0.0343730511537001,0.0719086604663194,2021-01-06
"422",210.5,0.109853527875356,0.0645344240574329,0.0344183678835561,0.0721359478794558,2021-01-06
"423",211,0.110259833989434,0.0646758567265025,0.0344637032244417,0.0723617686069378,2021-01-07
"424",211.5,0.110663165214488,0.0648169628890912,0.0345090567198107,0.0725861109671495,2021-01-07
"425",212,0.111063499773425,0.0649577381456047,0.0345544279123942,0.0728089638429097,2021-01-08
"426",212.5,0.111460817012021,0.0650933659177312,0.0345998163442191,0.0730303166781203,2021-01-08
"427",213,0.11185509739153,0.0652117539223119,0.0346452215566265,0.0732501594740782,2021-01-09
"428",213.5,0.112246322480629,0.0653375395283686,0.0346906430902894,0.0734684827854589,2021-01-09
"429",214,0.112634474946738,0.0654850355942457,0.0347360804852318,0.0736852777159849,2021-01-10
"430",214.5,0.113019538546731,0.0656321003714132,0.0347815332808466,0.0739005359137888,2021-01-10
"431",215,0.113401498117053,0.0657787295518454,0.0348270010159146,0.074114249566484,2021-01-11
"432",215.5,0.113780339563282,0.0659587019930041,0.0348724832286225,0.0743264113959523,2021-01-11
"433",216,0.114156049849142,0.0661595218643795,0.0349179794565817,0.0745370146528618,2021-01-12
"434",216.5,0.114528616985004,0.0663231874465228,0.0349634892368473,0.0747460531109256,2021-01-12
"435",217,0.11489803001589,0.066462115782177,0.0350090121059362,0.0749535210609132,2021-01-13
"436",217.5,0.115264279009006,0.0666038843757822,0.035054547599846,0.0751594133044258,2021-01-13
"437",218,0.11562735504082,0.0667553274255079,0.0351000952540742,0.0753637251474472,2021-01-14
"438",218.5,0.115987250183729,0.0668977647634622,0.0351456546036364,0.0755664523936825,2021-01-14
"439",219,0.116343957492303,0.0670397787412567,0.0351912251830857,0.0757675913376943,2021-01-15
"440",219.5,0.116697470989168,0.0671879820738999,0.035236806526531,0.0759671387578495,2021-01-15
"441",220,0.117047785650518,0.0673498900205086,0.0352823981676566,0.0761650919090872,2021-01-16
"442",220.5,0.117394897391297,0.0674753255638704,0.0353279996397407,0.076361448515519,2021-01-16
"443",221,0.117738803050069,0.0676100120568815,0.0353736104756745,0.0765562067628719,2021-01-17
"444",221.5,0.118079500373593,0.0677319725235993,0.0354192302079813,0.076749365290787,2021-01-17
"445",222,0.118416988001129,0.067871448943792,0.0354648583688356,0.0769409231849821,2021-01-18
"446",222.5,0.118751265448499,0.0680434869927858,0.035510494490082,0.0771308799692907,2021-01-18
"447",223,0.119082333091919,0.0682155562050198,0.0355561381032547,0.0773192355975867,2021-01-19
"448",223.5,0.119410192151617,0.0683872570798516,0.0356017887395962,0.0775059904456067,2021-01-19
"449",224,0.119734844675278,0.0685585830807501,0.0356474459300766,0.0776911453026774,2021-01-20
"450",224.5,0.120056293521309,0.0687295277339897,0.0356931092054132,0.0778747013633611,2021-01-20
"451",225,0.120374542341964,0.0689000846294776,0.0357387780960891,0.0780566602190267,2021-01-21
"452",225.5,0.120689595566341,0.0690696926936206,0.0357844521323727,0.0782370238493568,2021-01-21
"453",226,0.121001458383262,0.069194900831036,0.0358301308443372,0.0784157946137996,2021-01-22
"454",226.5,0.121310136724071,0.0693101481405427,0.0358758137618793,0.0785929752429754,2021-01-22
"455",227,0.121615637245353,0.0694566111796344,0.0359215004147393,0.0787685688300461,2021-01-23
"456",227.5,0.121917967311593,0.0696032597175834,0.0359671903325193,0.0789425788220564,2021-01-23
"457",228,0.122217134977805,0.0697495335860001,0.0360128830447037,0.0791150090112546,2021-01-24
"458",228.5,0.122513148972127,0.0698954293406409,0.0360585780806775,0.0792858635264021,2021-01-24
"459",229,0.122806018678412,0.0700409435783028,0.0361042749697461,0.0794551468240792,2021-01-25
"460",229.5,0.123095754118833,0.0702064022673138,0.0361499732411549,0.0796228636799938,2021-01-25
"461",230,0.123382365936496,0.0703842094881018,0.0361956724241079,0.079789019180302,2021-01-26
"462",230.5,0.123665865378106,0.0705537270279431,0.0362413720477876,0.0799536187129466,2021-01-26
"463",231,0.123946264276668,0.070716238096124,0.0362870716413743,0.0801166679590212,2021-01-27
"464",231.5,0.124223575034266,0.0708511576625464,0.036332770734065,0.0802781728841654,2021-01-27
"465",232,0.124497810604905,0.0709812554064834,0.0363784688550932,0.080438139729999,2021-01-28
"466",232.5,0.124768984477452,0.0711108401180355,0.0364241655337481,0.0805965750056002,2021-01-28
"467",233,0.125037110658674,0.071239909633743,0.0364698602993938,0.0807534854790338,2021-01-29
"468",233.5,0.125302203656384,0.0713625793851455,0.0365155526814886,0.0809088781689362,2021-01-29
"469",234,0.125564278462716,0.0715302863750711,0.0365612422096045,0.0810627603361604,2021-01-30
"470",234.5,0.12582335053753,0.0716958030460883,0.0366069284134464,0.0812151394754883,2021-01-30
"471",235,0.126079435791958,0.0718389438096194,0.0366526108228712,0.0813660233074144,2021-01-31
"472",235.5,0.126332550572103,0.071971641070657,0.0366982889679074,0.0815154197700051,2021-01-31
"473",236,0.126582711642902,0.0720771607565657,0.036743962378774,0.081663337010838,2021-02-01
"474",236.5,0.126829936172154,0.0721800397962869,0.0367896305859,0.081809783379027,2021-02-01
"475",237,0.127074241714727,0.0722840041585191,0.0368352931199434,0.081954767417335,2021-02-02
"476",237.5,0.127315646196947,0.0723892535205303,0.0368809495118106,0.0820982978543787,2021-02-02
"477",238,0.127554167901185,0.0725018345999353,0.0369265992926753,0.08224038359693,2021-02-03
"478",238.5,0.127789825450633,0.0726251107500975,0.036972241993998,0.0823810337223157,2021-02-03
"479",239,0.128022637794295,0.0727661793237592,0.0370178771475448,0.0825202574709198,2021-02-04
"480",239.5,0.128252624192173,0.0729215202924551,0.0370635042854065,0.0826580642387899,2021-02-04
"481",240,0.128479804200686,0.0730760840621986,0.037109122940018,0.0827944635703522,2021-02-05
"482",240.5,0.128704197658295,0.0732298670092788,0.037154732644177,0.082929465151236,2021-02-05
"483",241,0.128925824671357,0.0733828656454813,0.0372003329310629,0.08306307880121,2021-02-06
"484",241.5,0.129144705600211,0.073535076617529,0.0372459233342561,0.0831953144672338,2021-02-06
"485",242,0.129360861045493,0.0736866376305376,0.0372915033877568,0.0833261822166247,2021-02-07
"486",242.5,0.129574311834682,0.0738451159681837,0.0373370726260039,0.0834556922303428,2021-02-07
"487",243,0.129785079008896,0.0740032203171473,0.0373826305838935,0.083583854796395,2021-02-08
"488",243.5,0.129993183809922,0.0741609453641925,0.0374281767967985,0.0837106803033602,2021-02-08
"489",244,0.130198647667484,0.0742850922560924,0.0374737108005863,0.0838361792340352,2021-02-09
"490",244.5,0.130401492186771,0.0744555841909801,0.0375192321316387,0.083960362159205,2021-02-09
"491",245,0.1306017391362,0.0746271614238119,0.0375647403268695,0.0840832397315345,2021-02-10
"492",245.5,0.13079941043543,0.0747980953026772,0.0376052098738938,0.0842023101546617,2021-02-10
"493",246,0.130994528143631,0.074968379652751,0.037627257602941,0.0843108928732862,2021-02-11
"494",246.5,0.131187114448,0.07513800841225,0.037649259211798,0.084418186829899,2021-02-11
"495",247,0.131377191652523,0.0752515659705138,0.0376712146945086,0.0845242031735156,2021-02-12
"496",247.5,0.131564782166996,0.0753489257336466,0.0376931240457732,0.0846289531063845,2021-02-12
"497",248,0.131749908496294,0.0754707314453725,0.0377149872609465,0.0847324478786205,2021-02-13
"498",248.5,0.131932593229892,0.0755944107059552,0.0377368043360346,0.0848346987829633,2021-02-13
"499",249,0.132112859031631,0.0757391677036764,0.037758575267692,0.0849357171496615,2021-02-14
"500",249.5,0.132290728629742,0.0758697732873686,0.0377803000532197,0.0850355143414811,2021-02-14
"501",250,0.132466224807115,0.076019329161455,0.037801978690562,0.0851341017488387,2021-02-15
"502",250.5,0.132639370391814,0.0762016480588724,0.0378236111783038,0.0852314907850589,2021-02-15
"503",251,0.13281018824784,0.0763152350317659,0.0378451975156681,0.0853276928817539,2021-02-16
"504",251.5,0.132978701266141,0.0764660434481405,0.0378667377025133,0.0854227194843271,2021-02-16
"505",252,0.133144932355863,0.0766039396611186,0.0378882317393304,0.0855165820475967,2021-02-17
"506",252.5,0.133308904435843,0.0766975338438539,0.0379096796272403,0.0856092920315415,2021-02-17
"507",253,0.13347064042634,0.0767746988303674,0.037931081367991,0.0857008608971657,2021-02-18
"508",253.5,0.133630163241009,0.0768635956938991,0.0379524369639551,0.0857913001024822,2021-02-18
"509",254,0.133787495779103,0.0770021942953207,0.0379737464181267,0.0858806210986147,2021-02-19
"510",254.5,0.13394266091791,0.077144216578362,0.037995009734119,0.0859688353260146,2021-02-19
"511",255,0.134095681505427,0.0772694897486393,0.0380162269161614,0.0860559542107941,2021-02-20
"512",255.5,0.13424658035325,0.0773533847534161,0.0380373979690966,0.0861419891611732,2021-02-20
"513",256,0.134395380229698,0.0774579388345834,0.038058522898378,0.0862269515640382,2021-02-21
"514",256.5,0.134542103853158,0.0775619365240846,0.0380796017100669,0.0863108527816125,2021-02-21
"515",257,0.134686773885643,0.0777154751344801,0.0381006344108296,0.0863937041482364,2021-02-22
"516",257.5,0.134829412926575,0.0779102488875614,0.0381216210079347,0.0864755169672547,2021-02-22
"517",258,0.134970043506773,0.0780933213945263,0.0381425615092503,0.0865563025080117,2021-02-23
"518",258.5,0.13510868808266,0.0782204677003936,0.0381634559232412,0.0866360720029505,2021-02-23
"519",259,0.135245369030667,0.0783469863163557,0.038184304258966,0.0867148366448163,2021-02-24
"520",259.5,0.135380108641847,0.0784728765349872,0.0382051065260744,0.0867926075839607,2021-02-24
"521",260,0.13551292911669,0.0785981377084527,0.0382258627348043,0.0868693959257474,2021-02-25
"522",260.5,0.135643852560131,0.0787227692480127,0.0382465728959788,0.0869452127280547,2021-02-25
"523",261,0.135772900976749,0.0788467706235223,0.0382672370210038,0.0870200689988766,2021-02-26
"524",261.5,0.135900096266169,0.0789701413629228,0.0382878551218647,0.087093975694017,2021-02-26
"525",262,0.136025460218634,0.0790928810517274,0.038308427211124,0.0871669437148791,2021-02-27
"526",262.5,0.136149014510772,0.0792149893324997,0.0383289533019178,0.0872389839063448,2021-02-27
"527",263,0.136270780701536,0.0793364659043272,0.0383494334079538,0.087310107054745,2021-02-28
"528",263.5,0.136390780228327,0.0794573105222882,0.0383698675435076,0.0873803238859173,2021-02-28
"529",264,0.13650903440328,0.0795775229969131,0.0383902557234204,0.0874496450633502,2021-03-01
"530",264.5,0.136625564409728,0.079697103193641,0.0384105979630959,0.0875180811864121,2021-03-01
"531",265,0.136740391298828,0.0798160510322708,0.0384308942784975,0.0875856427886625,2021-03-02
"532",265.5,0.136853535986344,0.079934366486407,0.0384511446861453,0.0876523403362447,2021-03-02
"533",266,0.136965019249601,0.080052049582902,0.0384713492031133,0.0877181842263573,2021-03-03
"534",266.5,0.13707486172458,0.0801691004012927,0.0384915078470267,0.0877831847858033,2021-03-03
"535",267,0.137183083903171,0.080285519073234,0.0385116206360585,0.0878473522696149,2021-03-04
"536",267.5,0.137289706130578,0.0804013057819276,0.0385316875889273,0.0879106968597524,2021-03-04
"537",268,0.137394748602856,0.0805164607615476,0.0385517087248938,0.0879732286638751,2021-03-05
"538",268.5,0.137498231364607,0.0806309842966622,0.0385716840637581,0.0880349577141823,2021-03-05
"539",269,0.137600174306791,0.0807448767216523,0.0385916136258569,0.0880958939663239,2021-03-06
"540",269.5,0.137700597164694,0.0808581384201272,0.0386114974320607,0.0881560472983772,2021-03-06
"541",270,0.137799519516008,0.0809707698243374,0.0386313355037704,0.0882154275098894,2021-03-07
"542",270.5,0.137896960779053,0.0810827714145842,0.0386511278629149,0.0882740443209841,2021-03-07
"543",271,0.137992940211109,0.0811941437186278,0.038670874531948,0.0883319073715287,2021-03-08
"544",271.5,0.138087476906881,0.0813048873110926,0.0386905755338453,0.0883890262203634,2021-03-08
"545",272,0.138180589797074,0.0814150028128705,0.0387102308921018,0.0884454103445881,2021-03-09
"546",272.5,0.138272297647085,0.0815244908905227,0.0387298406307282,0.0885010691389068,2021-03-09
"547",273,0.138362619055805,0.0816333522556794,0.0387494047742488,0.088556011915027,2021-03-10
"548",273.5,0.138451572454529,0.081741587664439,0.038768923347698,0.0886102479011136,2021-03-10
"549",274,0.138539176105972,0.0818491979167647,0.0387883963766176,0.0886637862412948,2021-03-11
"550",274.5,0.138625448103385,0.0819561838558815,0.0388078238870539,0.0887166359952193,2021-03-11
"551",275,0.138710406369769,0.0820560255349815,0.0388272059055548,0.0887688061376617,2021-03-12
"552",275.5,0.138794068657188,0.0821549161074814,0.0388465424591666,0.0888203055581775,2021-03-12
"553",276,0.138876452546174,0.082253199510285,0.0388658335754315,0.0888711430608027,2021-03-13
"554",276.5,0.138957575445215,0.0823508770005419,0.0388850792823842,0.0889213273637997,2021-03-13
"555",277,0.139037454590342,0.0824479498728738,0.0389042796085493,0.0889708670994457,2021-03-14
"556",277.5,0.13911610704479,0.0825417497906701,0.0389234345829385,0.0890197708138642,2021-03-14
"557",278,0.139193549698745,0.0826203160583499,0.0389425442350473,0.0890680469668961,2021-03-15
"558",278.5,0.139269799269171,0.0826983283845715,0.0389616085948521,0.0891157039320113,2021-03-15
"559",279,0.139344872299708,0.0827757891055074,0.0389806276928075,0.0891627499962575,2021-03-16
"560",279.5,0.13941878516065,0.0828527005737035,0.0389996015598434,0.0892091933602466,2021-03-16
"561",280,0.139491554048989,0.0829290651575488,0.0390185302273619,0.0892550421381757,2021-03-17
"562",280.5,0.139563194988532,0.083004885240751,0.0390374137272342,0.0893003043578831,2021-03-17
"563",281,0.139633723830076,0.0830801632218175,0.0390562520917982,0.089344987960937,2021-03-18
"564",281.5,0.139703156251657,0.0831549015135419,0.039075045353855,0.0893891008027558,2021-03-18
"565",282,0.139771507758853,0.083229102542497,0.0390937935466664,0.0894326506527598,2021-03-19
"566",282.5,0.139838793685151,0.0833027687485322,0.0391124967039518,0.0894756451945512,2021-03-19
"567",283,0.139905029192363,0.0833759025842776,0.0391311548598853,0.0895180920261239,2021-03-20
"568",283.5,0.139970229271106,0.0834485065146535,0.0391497680490926,0.0895599986600992,2021-03-20
"569",284,0.140034408741329,0.0835223754307846,0.0391683363066485,0.0896013725239887,2021-03-21
"570",284.5,0.14009758225289,0.0836059327126373,0.0391868596680736,0.0896422209604816,2021-03-21
"571",285,0.140159764286182,0.0836890060465321,0.0392053381693315,0.0896825512277569,2021-03-22
"572",285.5,0.14022096915281,0.0837715969120584,0.0392237718468258,0.0897223704998177,2021-03-22
"573",286,0.140281210996299,0.0838773773267194,0.0392421607373976,0.0897616858668485,2021-03-23
"574",286.5,0.140340503792865,0.0839858022840021,0.0392605048783219,0.0898005043355933,2021-03-23
"575",287,0.140398861352202,0.0840935968458297,0.0392788043073053,0.0898388328297535,2021-03-24
"576",287.5,0.14045629731833,0.0842007621552111,0.0392970590624829,0.0898766781904062,2021-03-24
"577",288,0.140512825170464,0.0843018282988254,0.039315269182415,0.0899140471764396,2021-03-25
"578",288.5,0.140568458223929,0.0843715470373308,0.039333434706085,0.089950946465007,2021-03-25
"579",289,0.140623209631097,0.0844616148916708,0.0393515556728957,0.0899873826519965,2021-03-26
"580",289.5,0.14067709238237,0.0845611785709185,0.0393696321226669,0.0900233622525182,2021-03-26
"581",290,0.140730119307177,0.0846601064500804,0.0393876640956323,0.0900588917014044,2021-03-27
"582",290.5,0.140782303075015,0.0847584003409539,0.0394056516324368,0.0900939773537257,2021-03-27
"583",291,0.140833656196506,0.0848356215510625,0.0394235947741333,0.0901286254853199,2021-03-28
"584",291.5,0.140884191024488,0.0849121387929239,0.0394414935621802,0.090162842293334,2021-03-28
"585",292,0.140933919755118,0.0849881581528978,0.0394593480384379,0.0901966338967781,2021-03-29
"586",292.5,0.140982854429015,0.085063681631947,0.0394771582451669,0.090230006337091,2021-03-29
"587",293,0.141031006932408,0.0851387112427979,0.0394949242250239,0.0902629655787159,2021-03-30
"588",293.5,0.141078388998314,0.0852132490095515,0.0395126460210596,0.090295517509687,2021-03-30
"589",294,0.141125012207733,0.0852872969672984,0.0395303236767156,0.0903276679422245,2021-03-31
"590",294.5,0.141170887990858,0.0853608571617394,0.0395479572358215,0.0903594226133397,2021-03-31
"591",295,0.141216027628302,0.0854339316488091,0.0395655467425921,0.0903907871854471,2021-04-01
"592",295.5,0.141260442252345,0.0855065224943047,0.0395830922416247,0.0904217672469847,2021-04-01
"593",296,0.141304142848187,0.0855786317735189,0.0396005937778958,0.0904523683130416,2021-04-02
"594",296.5,0.141347140255224,0.0856685509858202,0.0396180513967587,0.0904825958259911,2021-04-02
