"","time_point","num_antibody_positive","date","num_antibody_total","percent_positive"
"1",1,0,2020-06-15,4,0
"2",2,0,2020-06-16,3,0
"3",3,0,2020-06-17,3,0
"4",4,0,2020-06-18,3,0
"5",5,0,2020-06-19,3,0
"6",87,0,2020-09-09,16,0
"7",88,1,2020-09-10,15,0.0666666666666667
"8",89,0,2020-09-11,10,0
"9",90,1,2020-09-12,12,0.0833333333333333
"10",91,0,2020-09-13,13,0
"11",92,0,2020-09-14,12,0
"12",93,0,2020-09-15,5,0
"13",94,0,2020-09-16,1,0
"14",95,0,2020-09-17,1,0
"15",96,0,2020-09-18,2,0
"16",145,1,2020-11-06,26,0.0384615384615385
"17",146,0,2020-11-07,5,0
"18",147,1,2020-11-08,1,1
"19",148,0,2020-11-09,3,0
"20",149,0,2020-11-10,3,0
"21",152,0,2020-11-13,14,0
"22",153,0,2020-11-14,1,0
"23",236,5,2021-02-05,31,0.161290322580645
"24",237,4,2021-02-06,20,0.2
"25",238,1,2021-02-07,1,1
"26",239,3,2021-02-08,11,0.272727272727273
"27",240,2,2021-02-09,7,0.285714285714286
"28",241,0,2021-02-10,1,0
"29",242,0,2021-02-11,2,0
