"","time","top","med","bottom","pseudo_med","date"
"1",0,0.00065198801380535,0.000191752838432296,2.48883827637964e-05,0.000338438198284573,2020-06-10
"2",0.5,0.000654029789933145,0.00019397502639685,2.52486142884937e-05,0.000339639202110819,2020-06-10
"3",1,0.000656454607671803,0.00019596966680601,2.56140446064119e-05,0.000341034326139108,2020-06-11
"4",1.5,0.000660809004517627,0.000197832083552815,2.59847483031003e-05,0.000343396876410364,2020-06-11
"5",2,0.000665188338990732,0.000199830891450416,2.636080102124e-05,0.000345774570005986,2020-06-12
"6",2.5,0.000669592698111034,0.000202027707691209,2.67422794752482e-05,0.000348167488793141,2020-06-12
"7",3,0.000674022168362209,0.000204247818019741,2.71292614660741e-05,0.000350575714914142,2020-06-13
"8",3.5,0.000678476835675807,0.000206491449951048,2.75218258961862e-05,0.000352999330785997,2020-06-13
"9",4,0.000682956785415187,0.000208758832778656,2.7920052784756e-05,0.000355438419099972,2020-06-14
"10",4.5,0.00068746210235926,0.000211050197578016,2.83240232830375e-05,0.000357893062821149,2020-06-14
"11",5,0.000691992870686038,0.000213365777209653,2.87338196899466e-05,0.000360363345187992,2020-06-15
"12",5.5,0.000696549173955993,0.000215705806322027,2.91495254678421e-05,0.000362849349711918,2020-06-15
"13",6,0.000701131095095232,0.000218070521354079,2.95712252585104e-05,0.000365351160176871,2020-06-16
"14",6.5,0.000705738716378468,0.000220460160537477,2.99990048993556e-05,0.000367868860638912,2020-06-16
"15",7,0.000710372119411806,0.000222874963898538,3.04329514397986e-05,0.000370402535425802,2020-06-17
"16",7.5,0.000715031385115334,0.000225315173259811,3.08731531578861e-05,0.00037295226913661,2020-06-17
"17",8,0.00071971659370552,0.000227781032241335,3.13196995771123e-05,0.000375518146641316,2020-06-18
"18",8.5,0.000724427824677414,0.000230272786261533,3.17726814834561e-05,0.000378100253080435,2020-06-18
"19",9,0.000729165156786656,0.00023279068253776,3.2232190942635e-05,0.000380698673864645,2020-06-19
"20",9.5,0.00073392866803129,0.000235148208548808,3.26983213175788e-05,0.000383313494674434,2020-06-19
"21",10,0.00073871843563338,0.000237320400280012,3.31711672861251e-05,0.000385944801459753,2020-06-20
"22",10.5,0.000743534536020435,0.000239656713235797,3.36508248589394e-05,0.000388592680439687,2020-06-20
"23",11,0.000748377044806632,0.000242299193706407,3.41373913976607e-05,0.000391257218102146,2020-06-21
"24",11.5,0.000753246036773845,0.000244969521127147,3.46309656332771e-05,0.000393938501203561,2020-06-21
"25",12,0.000758141585852482,0.000247539852638567,3.51316476847319e-05,0.000396636616768607,2020-06-22
"26",12.5,0.00076306376510212,0.000250007774312408,3.56395390777629e-05,0.000399351652089941,2020-06-22
"27",13,0.000768012646691943,0.000252499577372738,3.61547427639787e-05,0.000402083694727961,2020-06-23
"28",13.5,0.000772988301880988,0.000255015476089095,3.66773631401717e-05,0.00040483283251058,2020-06-23
"29",14,0.000777990800998194,0.000257555686284001,3.7207506067873e-05,0.000407599153533033,2020-06-24
"30",14.5,0.000783020213422244,0.000260120425335949,3.77452788931491e-05,0.000410382746157697,2020-06-24
"31",15,0.000788076607561229,0.000262643850400075,3.82907904666446e-05,0.000413183699013937,2020-06-25
"32",15.5,0.000793160050832095,0.000264961579370746,3.88441511638724e-05,0.000416002100997984,2020-06-25
"33",16,0.000798270609639911,0.000267268326918957,3.94054729057534e-05,0.000418838041272832,2020-06-26
"34",16.5,0.000803408349356929,0.000269355318468398,3.99748691794093e-05,0.000421691609268169,2020-06-26
"35",17,0.000808573334301457,0.000271723716631041,4.05524550592092e-05,0.000424562894680333,2020-06-27
"36",17.5,0.000813765627716527,0.000274515231200236,4.11383472280743e-05,0.000427451987472301,2020-06-27
"37",18,0.000818985291748378,0.000277475091526659,4.17326639990408e-05,0.000430358977873709,2020-06-28
"38",18.5,0.000824232387424736,0.000280260532770177,4.23355253370858e-05,0.000433283956380911,2020-06-28
"39",19,0.000829506974632907,0.000282911449827349,4.29470528812164e-05,0.000436227013757062,2020-06-29
"40",19.5,0.000834809112097671,0.000285586235721443,4.35673699668255e-05,0.000439188241032248,2020-06-29
"41",20,0.000840138857358983,0.000288285074181607,4.41819088202547e-05,0.000442160383089619,2020-06-30
"42",20.5,0.000847954780129576,0.000291008149619328,4.47868915992345e-05,0.000446370835864405,2020-06-30
"43",21,0.000856283180322795,0.000293755647112361,4.54001309951561e-05,0.000450841655658976,2020-07-01
"44",21.5,0.000864685887174294,0.000296527752388086,4.60217389348871e-05,0.00045535381305459,2020-07-01
"45",22,0.000873163409804255,0.000299324651806284,4.66518288416644e-05,0.00045990761932296,2020-07-02
"46",22.5,0.000881716257553462,0.000302202345249762,4.729051565452e-05,0.000464503386603991,2020-07-02
"47",23,0.000890344939899493,0.000305240801533619,4.79379158479427e-05,0.000469141427873718,2020-07-03
"48",23.5,0.000899049966370886,0.000308308249633059,4.8594147451778e-05,0.000473822056911332,2020-07-03
"49",24,0.000907831846459243,0.000311476581177177,4.92593300713693e-05,0.000478545588265306,2020-07-04
"50",24.5,0.000916691089529267,0.000314919754841159,4.99335849079421e-05,0.000483312337218604,2020-07-04
"51",25,0.000925628204726675,0.000318651873524587,5.06170347792336e-05,0.000488122619752954,2020-07-05
"52",25.5,0.000934643700883989,0.000322426508106341,5.13098041403708e-05,0.00049297675251218,2020-07-05
"53",26,0.000943738086424152,0.000326244101729515,5.20120191049992e-05,0.000497875052764576,2020-07-06
"54",26.5,0.000952911869261962,0.000330105101167151,5.27238074666643e-05,0.000502817838364313,2020-07-06
"55",27,0.000962165556703285,0.000334009956827322,5.34452987204486e-05,0.000507805427711867,2020-07-07
"56",27.5,0.000971499655342031,0.000337949642112994,5.41766240848667e-05,0.000512838139713449,2020-07-07
"57",28,0.000980914670954849,0.000341555777812217,5.49179165240212e-05,0.000517916293739435,2020-07-08
"58",28.5,0.000990411108393537,0.00034519975662545,5.56693107700208e-05,0.000523040209581779,2020-07-08
"59",29,0.00099998947147512,0.000348881953554119,5.64309433456645e-05,0.000528210207410392,2020-07-09
"60",29.5,0.00100965026286958,0.000352180035952113,5.72029525873935e-05,0.000533426607728487,2020-07-09
"61",30,0.00101939398398523,0.00035531763388603,5.79854786685135e-05,0.000538689731326869,2020-07-10
"62",30.5,0.00102922113485163,0.000358786429946905,5.87786636226903e-05,0.000543999899237159,2020-07-10
"63",31,0.00103913221400017,0.000362633566055593,5.95826513677202e-05,0.000549357432683945,2020-07-11
"64",31.5,0.00104912771834212,0.000365126756577818,6.0397587729579e-05,0.000554762653035851,2020-07-11
"65",32,0.00105920814304424,0.00036731007882599,6.12236204667513e-05,0.000560215881755495,2020-07-12
"66",32.5,0.00106937398140187,0.000369504875934648,6.20608992948426e-05,0.000565717440348355,2020-07-12
"67",33,0.00107962572470952,0.000372791256440441,6.29095759114774e-05,0.000571267650310501,2020-07-13
"68",33.5,0.00108996386212893,0.000376132582636269,6.37698040214844e-05,0.000576866833075209,2020-07-13
"69",34,0.00110038888055447,0.000379502013458245,6.46417393623732e-05,0.000582515309958424,2020-07-14
"70",34.5,0.00111090126447605,0.000382899743650812,6.55255397301034e-05,0.000588213402103077,2020-07-14
"71",35,0.00112150149583934,0.000386325968408969,6.64213650051493e-05,0.000593961430422247,2020-07-15
"72",35.5,0.00113219005390342,0.000390550110087641,6.73293771788629e-05,0.000599759715541139,2020-07-15
"73",36,0.00114296741509566,0.000395055947841401,6.82497403801368e-05,0.000605608577737897,2020-07-16
"74",36.5,0.00115383405286406,0.000399611440766538,6.91826209023705e-05,0.000611508336883216,2020-07-16
"75",37,0.00116479043752678,0.000404091485058916,7.0128187230742e-05,0.000617459312378763,2020-07-17
"76",37.5,0.00117583703611899,0.000408353931662405,7.1086610069787e-05,0.00062346182309439,2020-07-17
"77",38,0.00118697431223698,0.000412375831037642,7.20580623712886e-05,0.000629516187304133,2020-07-18
"78",38.5,0.00119820272587948,0.000417194187326593,7.30427193624798e-05,0.000635622722620981,2020-07-18
"79",39,0.00120952273328629,0.000421556670431875,7.40407585745609e-05,0.000641781745930426,2020-07-19
"80",39.5,0.001220934786774,0.0004257296124475,7.50523598715344e-05,0.000647993573322767,2020-07-19
"81",40,0.00123243933456899,0.000429693478055966,7.60777054793598e-05,0.000654258520024173,2020-07-20
"82",40.5,0.00124403682063756,0.000433083834911627,7.71169800154309e-05,0.000660576900326493,2020-07-20
"83",41,0.00125572768451324,0.000436497993157319,7.81703705183772e-05,0.000666949027515809,2020-07-21
"84",41.5,0.00126751236112126,0.000439987476356923,7.92380664781924e-05,0.000673375213799728,2020-07-21
"85",42,0.00127939128060012,0.000444085165676347,8.03202598666922e-05,0.000679855770233405,2020-07-22
"86",42.5,0.00129136486812028,0.00044821864164506,8.14171451683034e-05,0.000686391006644291,2020-07-22
"87",43,0.00130343354370003,0.000452388170898845,8.25289194111862e-05,0.000692981231555607,2020-07-23
"88",43.5,0.00131559772201839,0.000456594021178577,8.36557821986933e-05,0.00069962675210854,2020-07-23
"89",44,0.00132785781222512,0.000460836461316338,8.47979357411659e-05,0.000706327873983145,2020-07-24
"90",44.5,0.00134021421774787,0.000463741602530218,8.59555848880708e-05,0.000713084901317971,2020-07-24
"91",45,0.00135266733609631,0.000466506268888086,8.71289371604789e-05,0.000719898136628393,2020-07-25
"92",45.5,0.00136521755866342,0.000470440796694215,8.8318202783889e-05,0.000726767880723656,2020-07-25
"93",46,0.00137786527052385,0.000474093031185247,8.95235947213965e-05,0.000733694432622623,2020-07-26
"94",46.5,0.00139061085022927,0.00047863010162234,9.07453287072119e-05,0.000740678089468242,2020-07-26
"95",47,0.00140345466960088,0.000483139121018145,9.19836232805286e-05,0.000747719146440706,2020-07-27
"96",47.5,0.00141639709351894,0.000488069216394227,9.32386998197426e-05,0.000754817896669342,2020-07-27
"97",48,0.00142943847970936,0.000492910803353345,9.45107825770273e-05,0.000761974631143195,2020-07-28
"98",48.5,0.0014425791785274,0.000497796468562418,9.58000987132623e-05,0.000769189638620333,2020-07-28
"99",49,0.00145581953273842,0.000502413261121352,9.71068783333215e-05,0.000776463205535873,2020-07-29
"100",49.5,0.00146915987729572,0.000506935098455709,9.84313545217185e-05,0.000783795615908721,2020-07-29
"101",50,0.00148260053911547,0.000511493568213826,9.9773763378614e-05,0.00079118715124704,2020-07-30
"102",50.5,0.00149614183684872,0.000516088895870484,0.000101134344056185,0.000798638090452453,2020-07-30
"103",51,0.0015097840806506,0.000520721307040085,0.000102513338795357,0.000806148709722979,2020-07-31
"104",51.5,0.00152352757194653,0.000525391027451472,0.000103910992962904,0.000813719282454715,2020-07-31
"105",52,0.00153737260319563,0.000530098282922303,0.000105327555088909,0.000821350079142272,2020-08-01
"106",52.5,0.00155131945765134,0.000534843299332953,0.000106763276904601,0.00082904136727797,2020-08-01
"107",53,0.00156536840911907,0.000539626302599968,0.000108218413380551,0.000836793411249809,2020-08-02
"108",53.5,0.00157951972171119,0.000544447518649039,0.000109693222765247,0.000844606472238218,2020-08-02
"109",54,0.00159377364959917,0.000548761455238311,0.000111187966624033,0.000852480808111599,2020-08-03
"110",54.5,0.00160813043676293,0.000554236549840168,0.000112702909878426,0.00086041667332068,2020-08-03
"111",55,0.00162259031673757,0.000560209247091515,0.000114238320845796,0.000868414318791685,2020-08-04
"112",55.5,0.00163715351235725,0.000565931848938553,0.000115794471279433,0.000876473991818342,2020-08-04
"113",56,0.00165182023549651,0.000569564349581819,0.000117371636408978,0.000884595935952742,2020-08-05
"114",56.5,0.0016665906868089,0.000574998761995553,0.000118970094981227,0.000892780390895065,2020-08-05
"115",57,0.00168146505546306,0.000580480758852149,0.000120590129301322,0.000901027592382193,2020-08-06
"116",57.5,0.00169644351887615,0.000585112956817313,0.000122232025274303,0.000909337772075226,2020-08-06
"117",58,0.00171152624244481,0.000590634897466947,0.000123896072447044,0.000917711157445926,2020-08-07
"118",58.5,0.00172671337927367,0.000597217965030744,0.000125582564050561,0.000926147971662113,2020-08-07
"119",59,0.00174200506990134,0.000603058069584933,0.000127291797042698,0.000934648433472018,2020-08-08
"120",59.5,0.0017574014420241,0.000610032499042699,0.000129024072151185,0.000943212757087642,2020-08-08
"121",60,0.00177290261021719,0.000617081563184975,0.000130779693917072,0.000951841152067131,2020-08-09
"122",60.5,0.00178850867565385,0.000623077261422329,0.000132558970738538,0.000960533823196193,2020-08-09
"123",61,0.00180421972582211,0.000628123313753645,0.00013436221491507,0.000969290970368592,2020-08-10
"124",61.5,0.00182003583423947,0.00063267856373876,0.000136189742692021,0.000978112788465744,2020-08-10
"125",62,0.00183595706016536,0.00063781478348447,0.000138041874305534,0.000986999467235447,2020-08-11
"126",62.5,0.00185198344831171,0.000644106661747089,0.000139918934027839,0.000995951191169773,2020-08-11
"127",63,0.0018681150285514,0.000650023705240831,0.000141821250212919,0.00100496813938216,2020-08-12
"128",63.5,0.00188435181562494,0.000655155953942804,0.000143749155342542,0.00101405048548374,2020-08-12
"129",64,0.0019006938088452,0.000662147340229093,0.000145702986072664,0.00102319839745893,2020-08-13
"130",64.5,0.0019171409918005,0.000670103042675328,0.000147683083280188,0.00103241203754034,2020-08-13
"131",65,0.00193369333205591,0.00067582565239236,0.000149689792110095,0.001041691562083,2020-08-14
"132",65.5,0.00195035078085313,0.000681223525272297,0.000151723462022926,0.00105103712143803,2020-08-14
"133",66,0.00196711327280865,0.000687721342276129,0.000153784446842628,0.00106044885982564,2020-08-15
"134",66.5,0.00198398072561071,0.000695713843648073,0.000155873104804749,0.00106992691520773,2020-08-15
"135",67,0.00200095303971482,0.00070285036051135,0.000157989798604989,0.0010794714191599,2020-08-16
"136",67.5,0.00201803009803806,0.000710348086202821,0.000160134895448098,0.00108908249674308,2020-08-16
"137",68,0.00203521176565234,0.000717599663386403,0.00016230876709712,0.00109876026637473,2020-08-17
"138",68.5,0.00205249788947654,0.000725410865551604,0.000164511789922975,0.00110850483969976,2020-08-17
"139",69,0.00206988829796782,0.000733184083068658,0.000166744344954384,0.0011183163214611,2020-08-18
"140",69.5,0.00208738280081209,0.000740964255600764,0.000169006817928124,0.00112819480937011,2020-08-18
"141",70,0.00210498118861379,0.000748259261201981,0.000171299599339612,0.0011381403939767,2020-08-19
"142",70.5,0.00212268323258513,0.000754583095763634,0.000173623084493813,0.00114815315853947,2020-08-19
"143",71,0.00214048868423486,0.000761417233187356,0.000175977673556472,0.00115823317889566,2020-08-20
"144",71.5,0.00215839727505671,0.000768066206651318,0.00017836377160565,0.00116838052333118,2020-08-20
"145",72,0.00217640871621768,0.000774761888415307,0.000180781788683581,0.00117859525245063,2020-08-21
"146",72.5,0.00219452269824619,0.000783075980988256,0.000183232139848817,0.0011888774190475,2020-08-21
"147",73,0.00221273889072039,0.000789298459658634,0.000185715245228685,0.00119922706797454,2020-08-22
"148",73.5,0.00223105694195661,0.000797002350080821,0.000188231530072016,0.00120964423601431,2020-08-22
"149",74,0.00224947647869823,0.000802627443723919,0.000190781424802173,0.0012201289517502,2020-08-23
"150",74.5,0.00226799710580502,0.000808944452123653,0.000193365365070343,0.00123068123543768,2020-08-23
"151",75,0.00228661840594309,0.000815922435302807,0.0001959837918091,0.0012413010988761,2020-08-24
"152",75.5,0.00230533993927578,0.0008229477653142,0.000198637151286229,0.00125198854528101,2020-08-24
"153",76,0.00232416124315536,0.000831660734156757,0.000201325895158795,0.00126274356915708,2020-08-25
"154",76.5,0.00234308183181598,0.000840262845788792,0.000204050480527466,0.00127356615617172,2020-08-25
"155",77,0.00236210119606785,0.000847568957817108,0.000206811369991053,0.00128445628302945,2020-08-26
"156",77.5,0.00238121880299291,0.000852127335804067,0.000209609031701287,0.0012954139173471,2020-08-26
"157",78,0.00240043409564215,0.00085666703176288,0.000212443939417798,0.00130643901752997,2020-08-27
"158",78.5,0.0024197464927347,0.000862892168468792,0.000215316572563307,0.001317531532649,2020-08-27
"159",79,0.00243915538835899,0.000869087710568604,0.000218227416279,0.001328691402319,2020-08-28
"160",79.5,0.00245866015167603,0.000873659310960043,0.000221176961480083,0.00133991855657805,2020-08-28
"161",80,0.00247826012662504,0.000880221886185227,0.000224165704911513,0.00135121291576828,2020-08-29
"162",80.5,0.00249795463163177,0.00088606686211753,0.000227194149203875,0.00136257439041782,2020-08-29
"163",81,0.00251774295931941,0.00089177995510152,0.000230262802929403,0.00137400288112441,2020-08-30
"164",81.5,0.00253762437622258,0.000898039615397014,0.000233372180658131,0.00138549827844036,2020-08-30
"165",82,0.00255759812250442,0.000905302733575807,0.000236522803014163,0.00139706046275929,2020-08-31
"166",82.5,0.00257766341167704,0.000912356483370448,0.000239715196732029,0.00140868930420453,2020-08-31
"167",83,0.00259781943032561,0.000919066395858986,0.000242949894713145,0.00142038466251938,2020-09-01
"168",83.5,0.00261806533783616,0.000926429565921519,0.000246227436082321,0.00143214638695924,2020-09-01
"169",84,0.00263840026612742,0.000935043395542716,0.000249548366244337,0.00144397431618588,2020-09-02
"170",84.5,0.00265882331938688,0.000945225892516784,0.000252913236940549,0.00145586827816371,2020-09-02
"171",85,0.00267933357381129,0.000952878764281583,0.000256322606305506,0.0014678280900584,2020-09-03
"172",85.5,0.00269993007735184,0.000958359539755098,0.000259777038923578,0.00147985355813771,2020-09-03
"173",86,0.00272061184946423,0.000965441073457847,0.000263277105885551,0.00149194447767489,2020-09-04
"174",86.5,0.00274137788086389,0.000972393972938197,0.000265055129031724,0.00150321650494781,2020-09-04
"175",87,0.00276222713328651,0.000977896804081783,0.000266279224790786,0.00151425317903865,2020-09-05
"176",87.5,0.00278315853925427,0.000984893029258293,0.00026750758034381,0.00152533305979904,2020-09-05
"177",88,0.0028041710018478,0.000993215889907817,0.000268740196096315,0.00153645559897206,2020-09-06
"178",88.5,0.00282526339448431,0.00100145898275656,0.000269977072278321,0.00154762023338132,2020-09-06
"179",89,0.00284643456070203,0.00100975624313701,0.000271218208942523,0.00155882638482228,2020-09-07
"180",89.5,0.00286768331395117,0.0010181077594894,0.000272463605962455,0.00157007345995681,2020-09-07
"181",90,0.00288900843739178,0.00102651361485661,0.00027371326303066,0.00158136085021122,2020-09-08
"182",90.5,0.00291040868369864,0.00103497388677344,0.000274967179656839,0.00159268793167774,2020-09-08
"183",91,0.00293188277487349,0.00104291067578575,0.000276225355166003,0.00160405406501975,2020-09-09
"184",91.5,0.00295342940206485,0.00105033724695037,0.000277487788696619,0.00161545859538074,2020-09-09
"185",92,0.00297504722539566,0.00105831642963354,0.00027875447919875,0.00162690085229721,2020-09-10
"186",92.5,0.00299673487379903,0.0010683508324575,0.000280025425432185,0.00163838014961561,2020-09-10
"187",93,0.00301849094486233,0.00107823975028629,0.00028130062596457,0.00164989578541345,2020-09-11
"188",93.5,0.00304031400467991,0.00108956717476343,0.000282580079169532,0.00166144704192472,2020-09-11
"189",94,0.00306220258771469,0.00109732453000909,0.000283863783224796,0.00167303318546974,2020-09-12
"190",94.5,0.00308415519666886,0.00110700327568764,0.000285151736110299,0.00168465346638958,2020-09-12
"191",95,0.00310617030236403,0.00111680158196862,0.0002864439356063,0.00169630711898517,2020-09-13
"192",95.5,0.00312824634363097,0.00112495637992003,0.000287740379291487,0.00170799336146123,2020-09-13
"193",96,0.00315038172720931,0.00113315195524932,0.000289041064541073,0.00171971139587519,2020-09-14
"194",96.5,0.00317257482765744,0.00114209540883652,0.000290345988524895,0.00173146040809117,2020-09-14
"195",97,0.0031948239872728,0.00114971655963978,0.000291655148205507,0.00174323956773915,2020-09-15
"196",97.5,0.00321712751602293,0.00115775133776492,0.000292968540336269,0.0017550480281796,2020-09-15
"197",98,0.00323948369148743,0.00116647089010552,0.000294286161459431,0.00176688492647343,2020-09-16
"198",98.5,0.00326189075881119,0.00117575419062266,0.000295608007904218,0.0017787493833577,2020-09-16
"199",99,0.00328434693066908,0.00118432621478354,0.000296934075784904,0.00179064050322699,2020-09-17
"200",99.5,0.00330685038724237,0.00119275028543703,0.000298264360998893,0.00180255737412063,2020-09-17
"201",100,0.00332939927620715,0.00120100155234534,0.000299598859224788,0.00181449906771597,2020-09-18
"202",100.5,0.00335199171273503,0.00120895028002039,0.000300937565920466,0.00182646463932775,2020-09-18
"203",101,0.00337462577950624,0.00121692705201813,0.000302280476321143,0.00183845312791369,2020-09-19
"204",101.5,0.00339729952673557,0.0012256454047594,0.000303627585437438,0.0018504635560865,2020-09-19
"205",102,0.00342001097221125,0.00123463821734113,0.000304978888053444,0.00186249493013235,2020-09-20
"206",102.5,0.0034427581013471,0.00124367643819799,0.000306334378724783,0.00187454624003594,2020-09-20
"207",103,0.00346553886724804,0.00125271617692967,0.00030769405177667,0.00188661645951236,2020-09-21
"208",103.5,0.00348835119078947,0.00126288371493865,0.000309057901301974,0.00189870454604572,2020-09-21
"209",104,0.00351119296071041,0.00127213010755004,0.000310425921159273,0.00191080944093484,2020-09-22
"210",104.5,0.00353406203372093,0.00128142275127624,0.000311798104970912,0.00192293006934592,2020-09-22
"211",105,0.00355695623462389,0.00129076152623061,0.000313174446121064,0.00193506534037248,2020-09-23
"212",105.5,0.00357987335645133,0.00130111973481607,0.000314554937753779,0.00194721414710255,2020-09-23
"213",106,0.0036028111606156,0.00131359058624346,0.000315939572771048,0.00195937536669332,2020-09-24
"214",106.5,0.00362576737707557,0.00132397760326688,0.000317328343830852,0.00197154786045321,2020-09-24
"215",107,0.00364873970451806,0.0013322783206873,0.000318721243345225,0.00198373047393164,2020-09-25
"216",107.5,0.00367172581055462,0.00134325761153336,0.000320118263478306,0.00199592203701646,2020-09-25
"217",108,0.00369472333193399,0.00135375257566242,0.000321519396144401,0.0020081213640392,2020-09-26
"218",108.5,0.00371772987477031,0.00136570765933197,0.000322924633006039,0.00202032725388818,2020-09-26
"219",109,0.00374074301478726,0.00137380310815996,0.000324333965472031,0.00203253849012965,2020-09-27
"220",109.5,0.00376376029757837,0.00138483397079401,0.000325747384695539,0.00204475384113695,2020-09-27
"221",110,0.00378677923888362,0.00139666288512746,0.000327164881572131,0.00205697206022787,2020-09-28
"222",110.5,0.00380979732488244,0.0014071970720595,0.000328586446737851,0.00206919188581014,2020-09-28
"223",111,0.00383281201250332,0.00141861602790347,0.000330012070567288,0.0020814120415353,2020-09-29
"224",111.5,0.00385582072975015,0.00142732780372887,0.000331441743171643,0.00209363123646089,2020-09-29
"225",112,0.00387882087604535,0.00143621728687175,0.000332875454396809,0.00210584816522108,2020-09-30
"226",112.5,0.00390180982259006,0.00144598820501953,0.000334313193821439,0.00211806150820575,2020-09-30
"227",113,0.00392478491274129,0.00145486204368986,0.000335754950755036,0.00213026993174816,2020-10-01
"228",113.5,0.0039477434624063,0.00146339544957912,0.00033720071423603,0.00214247208832116,2020-10-01
"229",114,0.00397068276045424,0.00147297454703347,0.000338650473029869,0.00215466661674206,2020-10-02
"230",114.5,0.00399360006914512,0.00148259144542152,0.000340104215627113,0.00216685214238612,2020-10-02
"231",115,0.00401649262457613,0.00149420780716667,0.000341561930241529,0.00217902727740883,2020-10-03
"232",115.5,0.00405853372663703,0.00150543826836396,0.000343023604808194,0.00220077866572261,2020-10-03
"233",116,0.00410155285709913,0.00151830479240162,0.000344489226981602,0.00222302104204037,2020-10-04
"234",116.5,0.0041448828832229,0.00152997090599993,0.00034595878413378,0.00224542083367834,2020-10-04
"235",117,0.00418852253840714,0.00154108024086564,0.000347432263352404,0.00226797740087977,2020-10-05
"236",117.5,0.00423247045298774,0.00155428573620092,0.000348909651438924,0.00229069005221333,2020-10-05
"237",118,0.00427672515235525,0.00157001726468499,0.000350390934906699,0.00231355804363097,2020-10-06
"238",118.5,0.00432128505507793,0.00158476524184742,0.000351876099979134,0.00233658057752853,2020-10-06
"239",119,0.00436614847103177,0.00159644531816371,0.000353365132587824,0.0023597568018098,2020-10-07
"240",119.5,0.00441131359953909,0.00160615116373314,0.000354858018370712,0.0023830858089549,2020-10-07
"241",120,0.00445677852751733,0.00161554374597175,0.000356354742670247,0.00240656663509379,2020-10-08
"242",120.5,0.00450254122763961,0.00162606177581498,0.000357855290531553,0.00243019825908558,2020-10-08
"243",121,0.00454859955650889,0.00163664059967932,0.000359359646700609,0.00245397960160475,2020-10-09
"244",121.5,0.00459495125284731,0.00165058232488274,0.000360867795622438,0.00247790952423487,2020-10-09
"245",122,0.00464159393570269,0.0016627573685398,0.000362379721439298,0.00250198682857099,2020-10-10
"246",122.5,0.00468852510267385,0.00167411732584525,0.000363895407988893,0.00252621025533137,2020-10-10
"247",123,0.00473574212815671,0.00168591657959708,0.000365414838802584,0.00255057848347965,2020-10-11
"248",123.5,0.00478324226161312,0.00169943769519253,0.000366937997103622,0.00257509012935837,2020-10-11
"249",124,0.00483102262586431,0.00171304229118801,0.000368464865805378,0.00259974374583485,2020-10-12
"250",124.5,0.00487908021541102,0.00172536608647591,0.000369995427509594,0.00262453782146031,2020-10-12
"251",125,0.00492741189478231,0.00173473102880541,0.000371529664504642,0.00264947077964348,2020-10-13
"252",125.5,0.00497601439691517,0.00174729905977996,0.000373067558763798,0.00267454097783948,2020-10-13
"253",126,0.00502488432156708,0.00175991946044672,0.00037460909194352,0.0026997467067553,2020-10-14
"254",126.5,0.00507401813376358,0.00177259177103626,0.000376154245381747,0.00272508618957266,2020-10-14
"255",127,0.00512341216228315,0.00178531551821478,0.00037770300009621,0.00275055758118968,2020-10-15
"256",127.5,0.0051730625981816,0.00179809021497895,0.000379255336782748,0.00277615896748217,2020-10-15
"257",128,0.00522296549335818,0.0018109153605533,0.000380811235813651,0.00280188836458592,2020-10-16
"258",128.5,0.00527311675916581,0.00182379044029011,0.000382370677236006,0.00282774371820091,2020-10-16
"259",129,0.00532351216506766,0.00183671492557209,0.000383933640770061,0.00285372290291886,2020-10-17
"260",129.5,0.0053741473373425,0.00184968827371778,0.000385500105807607,0.00287982372157505,2020-10-17
"261",130,0.00542501775784112,0.00186479538000523,0.000387070051410371,0.00290604390462575,2020-10-18
"262",130.5,0.00547611876279638,0.00188109491409131,0.000388643456308427,0.00293238110955241,2020-10-18
"263",131,0.00552744554168909,0.00189672095146723,0.000390220298898624,0.00295883292029386,2020-10-19
"264",131.5,0.00557899313617237,0.00190990538155873,0.000391800557243026,0.0029853968467077,2020-10-19
"265",132,0.00563075643905682,0.00192276989008108,0.000393384209067374,0.0030120703240621,2020-10-20
"266",132.5,0.0056827301933591,0.00193355839404583,0.000394971231759565,0.00303885071255933,2020-10-20
"267",133,0.00573490899141624,0.00194434191554143,0.000396561602368144,0.00306573529689219,2020-10-21
"268",133.5,0.00578728727406832,0.0019573481556196,0.000398155297600819,0.00309272128583457,2020-10-21
"269",134,0.00583985932991196,0.00196891356123117,0.000399752293822994,0.00311980581186748,2020-10-22
"270",134.5,0.00589261929462718,0.00198130989811514,0.000401352567056319,0.00314698593084175,2020-10-22
"271",135,0.00594556115038001,0.00199393697182681,0.00040295609297726,0.00317425862167864,2020-10-23
"272",135.5,0.00599867872530354,0.00200896264553109,0.000404562846915693,0.00320162078610962,2020-10-23
"273",136,0.0060519656930597,0.00202367524367812,0.00040617280385351,0.0032290692484566,2020-10-24
"274",136.5,0.00610541557248445,0.00203610764666247,0.000407785938423253,0.00325660075545385,2020-10-24
"275",137,0.00615902172731871,0.00205095169820693,0.000409402224906769,0.00328421197611274,2020-10-25
"276",137.5,0.00621277736602753,0.00206268478352131,0.000411021637233881,0.0033118995016307,2020-10-25
"277",138,0.00626667554170995,0.00207472687342875,0.000412644148981089,0.00333965984534552,2020-10-26
"278",138.5,0.00632070915210198,0.00209085908275886,0.000414269733370283,0.00336748944273613,2020-10-26
"279",139,0.00637487093967497,0.00210463842534047,0.000415898363267491,0.00339538465147123,2020-10-27
"280",139.5,0.00642915349183184,0.00211845270681556,0.000417530011181645,0.00342334175150674,2020-10-27
"281",140,0.0064835492412034,0.00213230107327656,0.000419164649263366,0.00345135694523338,2020-10-28
"282",140.5,0.00653805046604707,0.00214489749026474,0.000420802249303782,0.00347942635767543,2020-10-28
"283",141,0.00659264929075018,0.00215902360834441,0.000422442782733365,0.00350754603674177,2020-10-29
"284",141.5,0.00664733768644005,0.00217404191485529,0.000424086220620796,0.00353571195353042,2020-10-29
"285",142,0.00670210747170293,0.00218801777732548,0.000425732533671857,0.00356392000268739,2020-10-30
"286",142.5,0.0067569503134139,0.00220202322662385,0.000427381692228342,0.00359216600282112,2020-10-30
"287",143,0.0068118577276797,0.00221605731744368,0.000429033666267006,0.00362044569697335,2020-10-31
"288",143.5,0.00686682108089635,0.00223011908929433,0.000430688425398529,0.00364875475314744,2020-10-31
"289",144,0.00692183159092356,0.00224420756652982,0.00043234593886652,0.00367708876489504,2020-11-01
"290",144.5,0.00697688032837749,0.00225832175838311,0.000434006175546537,0.00370544325196201,2020-11-01
"291",145,0.00703195821804375,0.002267310565681,0.000435669103945144,0.00373381366099445,2020-11-02
"292",145.5,0.00708705604041209,0.00227422135257417,0.000437334692198992,0.00376219536630554,2020-11-02
"293",146,0.00714216443333439,0.00228309630270953,0.000439002908073938,0.00379058367070417,2020-11-03
"294",146.5,0.00719727389380727,0.00229721853425115,0.000440673718964177,0.00381897380638572,2020-11-03
"295",147,0.00725237477988069,0.00231157666204715,0.000442347091891425,0.00384736093588606,2020-11-04
"296",147.5,0.00730745731269371,0.00232483721935786,0.000444022993504119,0.00387574015309891,2020-11-04
"297",148,0.00736251157863854,0.00233125507555994,0.000445701390076649,0.00390410648435759,2020-11-05
"298",148.5,0.00741752753165377,0.00233594189409639,0.000447382247508631,0.0039324548895812,2020-11-05
"299",149,0.00747249499564775,0.00234475932567326,0.000449065531324204,0.00396078026348598,2020-11-06
"300",149.5,0.00752740366705272,0.0023526178026707,0.000450751206671359,0.00398907743686204,2020-11-06
"301",150,0.0075822431175104,0.00236246080173133,0.000452439238321311,0.00401734117791586,2020-11-07
"302",150.5,0.00763700279668945,0.00237228035215372,0.000454129590667892,0.00404556619367867,2020-11-07
"303",151,0.0076916720352351,0.00239023911033235,0.000455822227726987,0.00407374713148104,2020-11-08
"304",151.5,0.00774624004785124,0.00240825178313751,0.000457517113136003,0.00410187858049362,2020-11-08
"305",152,0.00780069593651489,0.00242631697210658,0.000459214210153372,0.00412995507333413,2020-11-09
"306",152.5,0.007855028693823,0.00244443324920066,0.000460913481658086,0.00415797108774054,2020-11-09
"307",153,0.00790922720647135,0.00245630962068372,0.000462614890149277,0.00418592104831031,2020-11-10
"308",153.5,0.00796328025886502,0.00246790526875109,0.000464318397745827,0.00421379932830542,2020-11-10
"309",154,0.00801717653686,0.0024743716328322,0.000466023966186013,0.00424160025152301,2020-11-11
"310",154.5,0.00807090463163506,0.00248176385040998,0.000467731556827201,0.00426931809423113,2020-11-11
"311",155,0.00812445304369307,0.00249150508458526,0.000469441130645559,0.00429694708716931,2020-11-12
"312",155.5,0.00817781018699064,0.00249308082624144,0.000471152648235829,0.00432448141761323,2020-11-12
"313",156,0.00823096439319484,0.00249887744385449,0.000472866069811124,0.00435191523150298,2020-11-13
"314",156.5,0.00828390391606558,0.00250465685577913,0.000474581355202771,0.00437924263563417,2020-11-13
"315",157,0.0083366169359621,0.0025121550340411,0.000476298463860186,0.00440645769991114,2020-11-14
"316",157.5,0.00838909156447167,0.00252389336258991,0.000478017354850804,0.00443355445966124,2020-11-14
"317",158,0.00844131584915875,0.00253559582524561,0.000479737986860033,0.00446052691800939,2020-11-15
"318",158.5,0.00849327777843221,0.00254357394524404,0.000481460318191259,0.00448736904831174,2020-11-15
"319",159,0.0085449652865286,0.00254852976879222,0.000483184306765893,0.00451407479664725,2020-11-16
"320",159.5,0.0085963662586087,0.00255458580147772,0.000484909910123455,0.00454063808436608,2020-11-16
"321",160,0.00864746853596485,0.00256610995293817,0.000486637085421705,0.00456705281069328,2020-11-17
"322",160.5,0.00869825992133617,0.0025796890498562,0.000488365789436814,0.00459331285538649,2020-11-17
"323",161,0.00874872818432857,0.00259981270330547,0.000490095978563581,0.00461941208144607,2020-11-18
"324",161.5,0.0087988610669364,0.00261464078021604,0.00049182760881569,0.00464534433787605,2020-11-18
"325",162,0.00884864628916234,0.00263452199387968,0.000493560635826021,0.00467110346249418,2020-11-19
"326",162.5,0.00889807155473187,0.00264722480963655,0.000495295014846991,0.00469668328478943,2020-11-19
"327",163,0.00894712455689874,0.00265855568938656,0.000497030700750953,0.00472207762882484,2020-11-20
"328",163.5,0.00899579298433731,0.00267701126401211,0.000498767648030634,0.00474728031618397,2020-11-20
"329",164,0.00904406452711786,0.00269866814598385,0.000500505810799624,0.00477228516895874,2020-11-21
"330",164.5,0.00909192688276048,0.00271947757558966,0.000502245142792903,0.00479708601277669,2020-11-21
"331",165,0.00913936776236314,0.00273258484411032,0.000503985597367428,0.00482167667986529,2020-11-22
"332",165.5,0.00918637489679941,0.00274772620545786,0.000505727127502753,0.00484605101215108,2020-11-22
"333",166,0.00923293604298099,0.0027638209322327,0.000507469685801709,0.00487020286439135,2020-11-23
"334",166.5,0.00927903899018023,0.00277594352742652,0.000509213224491124,0.00489412610733568,2020-11-23
"335",167,0.00932467156640761,0.00279149286534845,0.000510957695422595,0.0049178146309151,2020-11-24
"336",167.5,0.00936982164483883,0.00280918914837923,0.000512703050073312,0.00494126234745607,2020-11-24
"337",168,0.00941447715028642,0.00282688694342889,0.000514449239546922,0.00496446319491667,2020-11-25
"338",168.5,0.00945862606571024,0.00284458423639669,0.000516196214574454,0.00498741114014235,2020-11-25
"339",169,0.0095022564387613,0.00285975538091734,0.000517943925515288,0.0050101001821383,2020-11-26
"340",169.5,0.00954535638835331,0.00286854084746602,0.000519692322358175,0.00503252435535574,2020-11-26
"341",170,0.00958791411125596,0.00287931850460424,0.000521441354722308,0.00505467773298913,2020-11-27
"342",170.5,0.00962991788870425,0.00289385676280005,0.000523190971858447,0.00507655443028135,2020-11-27
"343",171,0.00967135609301756,0.00289828114306691,0.000524941122650092,0.00509814860783382,2020-11-28
"344",171.5,0.0097122171942226,0.00290255470387837,0.000526691755614711,0.00511945447491866,2020-11-28
"345",172,0.00975248976667393,0.00291187802529998,0.000528442818905018,0.00514046629278947,2020-11-29
"346",172.5,0.00979216249566574,0.00292106721669543,0.000530194260310307,0.00516117837798803,2020-11-29
"347",173,0.00983122418402874,0.00292942994885155,0.000531946027257835,0.00518158510564329,2020-11-30
"348",173.5,0.00986966375870549,0.00293047550183162,0.000533698066814261,0.00520168091275988,2020-11-30
"349",174,0.00990747027729804,0.00293675524648374,0.000535450325687141,0.00522146030149259,2020-12-01
"350",174.5,0.00994463293458114,0.0029450477413005,0.000535495065146056,0.0052400639998636,2020-12-01
"351",175,0.00998114106897476,0.00295576380622902,0.000534548414470744,0.00525784474172275,2020-12-02
"352",175.5,0.0100169841689691,0.00296216657414133,0.00053359466809317,0.00527528941853115,2020-12-02
"353",176,0.010052151879496,0.00296888769030585,0.000532633886167495,0.00529239288283173,2020-12-03
"354",176.5,0.0100866340082394,0.00297549177523822,0.000531666129110856,0.00530915006867514,2020-12-03
"355",177,0.0101204205318798,0.00299106972176251,0.00053069145759583,0.00532555599473784,2020-12-04
"356",177.5,0.0101535016022643,0.00300893013061846,0.000529709932542905,0.00534160576740362,2020-12-04
"357",178,0.0101858675524974,0.00302715042216419,0.000528721615112953,0.00535729458380517,2020-12-05
"358",178.5,0.010238416093751,0.00304152949185629,0.00052772656669971,0.00538307133022533,2020-12-05
"359",179,0.0103103452397565,0.00305342911335841,0.000526724848922258,0.00541853504433939,2020-12-06
"360",179.5,0.010382260673123,0.0030611614009762,0.000525716523617519,0.00545398859837026,2020-12-06
"361",180,0.0104541517826654,0.00306997050232064,0.000524701652832758,0.00548942671774908,2020-12-07
"362",180.5,0.010526007827131,0.0030843092049498,0.000523680298818093,0.00552484406297452,2020-12-07
"363",181,0.0105978179373496,0.00309385847849554,0.000522652524019026,0.00556023523068431,2020-12-08
"364",181.5,0.01066957111849,0.00310217374090097,0.000521618391068974,0.00559559475477949,2020-12-08
"365",182,0.010760508164403,0.00310833138119855,0.000520577962781831,0.0056405430635924,2020-12-09
"366",182.5,0.0108551469237901,0.00310763154341686,0.00051953130214453,0.00568733911296732,2020-12-09
"367",183,0.0109500787076363,0.00310680620457301,0.000518478472309637,0.00573427858997295,2020-12-10
"368",183.5,0.0110452922952391,0.00311566539947603,0.000517419536587955,0.00578135591591352,2020-12-10
"369",184,0.0111407762072476,0.00312381627741242,0.000516354558441149,0.00582856538284439,2020-12-11
"370",184.5,0.0112365187055845,0.0031266393029962,0.000515283601474398,0.00587590115352945,2020-12-11
"371",185,0.0113325077935193,0.003129374103335,0.000514206729429065,0.00592335726147417,2020-12-12
"372",185.5,0.011428731215897,0.00314048491550716,0.000513124006175391,0.00597092761103622,2020-12-12
"373",186,0.0115251764595253,0.0031554477518917,0.000512035495705217,0.00601860597761526,2020-12-13
"374",186.5,0.0116218307537232,0.00317532638580698,0.000510941262124733,0.00606638600792395,2020-12-13
"375",187,0.0117186810710362,0.00318827546654224,0.00050984136964725,0.00611426122034171,2020-12-14
"376",187.5,0.0118157141281198,0.00319679344029071,0.000508735882586006,0.0061622250053529,2020-12-14
"377",188,0.0119129163867955,0.00319871313967428,0.000507624865346999,0.00621027062607125,2020-12-15
"378",188.5,0.0120102740552821,0.0032064561734054,0.000506508382421856,0.006258391218852,2020-12-15
"379",189,0.0121077730896058,0.00321189209465108,0.000505386498380727,0.00630657979399327,2020-12-16
"380",189.5,0.0122053991951915,0.00322392850688024,0.000504259277865221,0.00635482923652836,2020-12-16
"381",190,0.0123031378286389,0.00323443105161119,0.000503126785581369,0.00640313230711015,2020-12-17
"382",190.5,0.0124009741996859,0.00323596134804921,0.000501989086292629,0.00645148164298924,2020-12-17
"383",191,0.012498893273361,0.00324581922354537,0.000500846244812924,0.00649986975908694,2020-12-18
"384",191.5,0.0125968797723293,0.00324981562191497,0.000499698325999721,0.00654828904916452,2020-12-18
"385",192,0.0126949181794324,0.00325175789237903,0.000498545394747146,0.00659673178708978,2020-12-19
"386",192.5,0.0127929927404252,0.00325259436858068,0.00049738751597914,0.00664519012820218,2020-12-19
"387",193,0.0128910874669121,0.00325334956280284,0.00049622475464266,0.00669365611077738,2020-12-20
"388",193.5,0.0129891861394837,0.00325683919963174,0.000495057175700914,0.00674212165759231,2020-12-20
"389",194,0.0130872723110564,0.00326036607056828,0.000493884844126647,0.00679057857759153,2020-12-21
"390",194.5,0.013185329310416,0.00326805682756473,0.000492707824895466,0.00683901856765573,2020-12-21
"391",195,0.0132833402459666,0.00327299915359069,0.000491526182979213,0.0068874332144729,2020-12-22
"392",195.5,0.0133812880096866,0.00327733713661986,0.000490339983339381,0.00693581399651301,2020-12-22
"393",196,0.0134791552812923,0.00328763009989473,0.000489149290920578,0.00698415228610644,2020-12-23
"394",196.5,0.0135769245326093,0.00329180841615374,0.000487954170644039,0.00703243935162669,2020-12-23
"395",197,0.0136745780321541,0.00328996434154874,0.000486754687401187,0.00708066635977762,2020-12-24
"396",197.5,0.0137720978499235,0.00328793410721802,0.00048555090604724,0.00712882437798539,2020-12-24
"397",198,0.0138694658623955,0.00328690054290694,0.000484342891394873,0.00717690437689519,2020-12-25
"398",198.5,0.0139666637577374,0.00328915046334845,0.000483130708207926,0.00722489723297265,2020-12-25
"399",199,0.0140636730412246,0.00328573901403596,0.000481914421195167,0.0072727937312099,2020-12-26
"400",199.5,0.0141604750408675,0.00328217169807075,0.000480694095004107,0.00732058456793578,2020-12-26
"401",200,0.0142570509132453,0.0032784500752231,0.000479469794214864,0.00736826035373008,2020-12-27
"402",200.5,0.0143533816495479,0.00327957681693621,0.000478241583334089,0.00741581161644102,2020-12-27
"403",201,0.014449448081822,0.00328107915823317,0.000477009526788939,0.00746322880430548,2020-12-28
"404",201.5,0.0145452308894212,0.00328223130368077,0.000475773688921107,0.00751050228917117,2020-12-28
"405",202,0.0146407106056587,0.00328298083564879,0.000474534133980913,0.00755762236981982,2020-12-29
"406",202.5,0.0147358676246591,0.00329018594412847,0.000473290926121443,0.00760457927539029,2020-12-29
"407",203,0.0148306822084085,0.00329729904194314,0.000472044129392752,0.00765136316890063,2020-12-30
"408",203.5,0.0149251344939988,0.00330431964066813,0.00047079380773612,0.00769796415086748,2020-12-30
"409",204,0.0150192045010651,0.00331124726289519,0.000469540024978373,0.00774437226302173,2020-12-31
"410",204.5,0.0151128721394108,0.00331808144219584,0.000468282844826254,0.00779057749211854,2020-12-31
"411",205,0.0152061172168196,0.00331498611791144,0.000467022330860859,0.00783656977384021,2021-01-01
"412",205.5,0.0152989194470479,0.00331375550905095,0.000465758546532135,0.00788233899679003,2021-01-01
"413",206,0.0153912584579967,0.00331831061848228,0.000464491555153429,0.00792787500657507,2021-01-02
"414",206.5,0.0154831138000555,0.00331785227509179,0.00046322141989611,0.00797316760997579,2021-01-02
"415",207,0.0155744649546165,0.00331621503114644,0.000461948203784245,0.00801820657920036,2021-01-03
"416",207.5,0.0156652913427527,0.00331767846740103,0.000460671969689336,0.00806298165622103,2021-01-03
"417",208,0.0157555723340556,0.00331903175174019,0.000459392780325124,0.00810748255719036,2021-01-04
"418",208.5,0.0158452872556262,0.00331062968808521,0.000458110698242451,0.00815169897693435,2021-01-04
"419",209,0.0159344154012155,0.00330736849671232,0.000456825785824192,0.00819562059351987,2021-01-05
"420",209.5,0.0160229360405065,0.00330897995794992,0.000455538105280239,0.00823923707289339,2021-01-05
"421",210,0.0161108284285334,0.00331273663334923,0.00045424771864256,0.00828253807358797,2021-01-06
"422",210.5,0.0161980718152304,0.00331579736184901,0.000452954687760317,0.00832551325149537,2021-01-06
"423",211,0.0162846454551047,0.00331454162941701,0.000451659074295047,0.0083681522646999,2021-01-07
"424",211.5,0.0163705286170254,0.00331344952710338,0.000450360939715911,0.00841044477837067,2021-01-07
"425",212,0.0164557005941223,0.00332136709963968,0.000449060345295007,0.00845238046970864,2021-01-08
"426",212.5,0.0165401407137869,0.00332442717679978,0.000447757352102746,0.00849394903294482,2021-01-08
"427",213,0.0166238283477684,0.00332989176412555,0.000446452021003295,0.00853514018438585,2021-01-09
"428",213.5,0.0167067429223562,0.00333513980278733,0.000445144412650088,0.00857594366750312,2021-01-09
"429",214,0.0167888639286413,0.0033401699642164,0.0004438345874814,0.00861634925806134,2021-01-10
"430",214.5,0.0168701709328492,0.00334498097685271,0.000442522605715987,0.00865634676928258,2021-01-10
"431",215,0.0169506435867342,0.00334467790804075,0.000441208527348791,0.00869592605704149,2021-01-11
"432",215.5,0.0170302616380284,0.00333995061954552,0.000439892412146718,0.00873507702508758,2021-01-11
"433",216,0.0171090049409354,0.00334016295311234,0.000438574319644475,0.00877378963028995,2021-01-12
"434",216.5,0.0171868534666602,0.00333548599517232,0.000437254309140476,0.00881205388790032,2021-01-12
"435",217,0.0172637873139662,0.00332906775120881,0.000435932439692816,0.0088498598768295,2021-01-13
"436",217.5,0.0173397867197508,0.00332248343406007,0.00043460877011531,0.00888719774493307,2021-01-13
"437",218,0.017414832069629,0.00331573441476248,0.000433283358973604,0.00892405771430129,2021-01-14
"438",218.5,0.017488903908516,0.00330882209460771,0.000431956264581341,0.00896043008654867,2021-01-14
"439",219,0.0175619829512006,0.00329779773968228,0.000430627544996411,0.00899630524809848,2021-01-15
"440",219.5,0.0176340500928972,0.00328597279729728,0.000429297258017249,0.0090316736754572,2021-01-15
"441",220,0.0177050864197692,0.00327684684321817,0.000427965461179218,0.00906652594047422,2021-01-16
"442",220.5,0.0177750732194126,0.00328161760323955,0.000426632211751046,0.00910085271558182,2021-01-16
"443",221,0.0178439919912896,0.00328122239237692,0.000425297566731336,0.00913464477901047,2021-01-17
"444",221.5,0.017911824457104,0.00327553250030424,0.00042396158284514,0.00916789301997459,2021-01-17
"445",222,0.0179785525711069,0.00326967916573517,0.000422624316540605,0.00920058844382374,2021-01-18
"446",222.5,0.018044158530323,0.00326366411484969,0.000421285823985676,0.00923272217715434,2021-01-18
"447",223,0.0181086247846889,0.00326068990591952,0.000419946161064877,0.0092642854728769,2021-01-19
"448",223.5,0.0181719340470915,0.00325536194761406,0.000418605383376152,0.00929526971523383,2021-01-19
"449",224,0.018234069303298,0.00324537956005642,0.000417263546227772,0.00932566642476291,2021-01-20
"450",224.5,0.0182950138217676,0.00323746687227409,0.00041592070463531,0.00935546726320146,2021-01-20
"451",225,0.0183547511633341,0.00323455430553749,0.000414576913318686,0.00938466403832642,2021-01-21
"452",225.5,0.0184132651907514,0.00323152883351661,0.00041323222669927,0.00941324870872534,2021-01-21
"453",226,0.0184705400780902,0.00322839166940772,0.000411886698897056,0.00944121338849365,2021-01-22
"454",226.5,0.0185265603199787,0.00322182769108687,0.000410540383727902,0.00946855035185332,2021-01-22
"455",227,0.0185813107406758,0.00321988423162027,0.000409193334700834,0.00949525203768832,2021-01-23
"456",227.5,0.0186347765029691,0.00321952179619061,0.000407845605015415,0.00952131105399223,2021-01-23
"457",228,0.0186869431168877,0.00321904475653787,0.00040649724755918,0.00954672018222343,2021-01-24
"458",228.5,0.0187377964482217,0.00321845371599327,0.000405148314905133,0.0095714723815634,2021-01-24
"459",229,0.0187873227268385,0.00320737904676732,0.000403798859309315,0.00959556079307389,2021-01-25
"460",229.5,0.0188355085547885,0.00319273542175241,0.000402448932708429,0.00961897874374845,2021-01-25
"461",230,0.0188823409141912,0.00318826112354047,0.000401098586717534,0.00964171975045436,2021-01-26
"462",230.5,0.0189278071748938,0.00318563763020573,0.000399747872627801,0.0096637775237608,2021-01-26
"463",231,0.0189718951018942,0.00318287466622367,0.00039839684140433,0.00968514597164925,2021-01-27
"464",231.5,0.0190145928625209,0.00317997299424787,0.000397045543684037,0.00970581920310248,2021-01-27
"465",232,0.0190558890333629,0.00317601960254768,0.000395694029773596,0.00972579153156824,2021-01-28
"466",232.5,0.0190957726069408,0.00316285134692629,0.000394342349647448,0.00974505747829415,2021-01-28
"467",233,0.0191342329981151,0.00314956804773193,0.000392990552945872,0.00976361177553048,2021-01-29
"468",233.5,0.0191712600502215,0.00314503944771044,0.000391638688973118,0.00978144936959733,2021-01-29
"469",234,0.019206844040931,0.00313119423368271,0.000390286806695598,0.00979856542381331,2021-01-30
"470",234.5,0.0192409756878249,0.00311066122128162,0.000388934954740143,0.00981495532128254,2021-01-30
"471",235,0.0192736461536823,0.00309758567501712,0.000387583181392317,0.00983061466753733,2021-01-31
"472",235.5,0.0193048470514728,0.00309005688139167,0.000386231534594797,0.00984553929303382,2021-01-31
"473",236,0.0193345704490503,0.00308239770049134,0.000384880061945803,0.00985972525549808,2021-02-01
"474",236.5,0.0193628088735433,0.00307460966474867,0.000383528810697598,0.00987316884212043,2021-02-01
"475",237,0.0193895553154366,0.00306669432381485,0.000382177827755044,0.00988586657159582,2021-02-02
"476",237.5,0.0194148032323425,0.0030563003996579,0.000380827159674211,0.00989781519600835,2021-02-02
"477",238,0.019438546552455,0.00304253861534655,0.000379476852661052,0.00990901170255805,2021-02-03
"478",238.5,0.019460779677687,0.00302280069171057,0.000378126952570136,0.00991945331512858,2021-02-03
"479",239,0.019481497486485,0.00300480237946851,0.000376777504903428,0.00992913749569422,2021-02-04
"480",239.5,0.019500695336321,0.00299580899020065,0.000375428554809143,0.00993806194556506,2021-02-04
"481",240,0.0195183690658581,0.00298413060461536,0.000374080147080639,0.00994622460646936,2021-02-05
"482",240.5,0.0195345149967892,0.00296765649808587,0.000372732326155382,0.00995362366147228,2021-02-05
"483",241,0.0195491299353467,0.00295350030606805,0.000371385136113954,0.00996025753573035,2021-02-06
"484",241.5,0.0195622111734832,0.00293929623022333,0.000370038620679122,0.00996612489708116,2021-02-06
"485",242,0.0195737564897214,0.0029250467940433,0.000368692823214966,0.00997122465646818,2021-02-07
"486",242.5,0.019583764149675,0.00291454353900143,0.00036734778672605,0.00997555596820052,2021-02-07
"487",243,0.0195922329062391,0.00290819803419001,0.000366003553856661,0.00997911823004788,2021-02-08
"488",243.5,0.0195991619994518,0.00290176958346385,0.000364660166890085,0.00998191108317096,2021-02-08
"489",244,0.0196045511560278,0.0028952590287632,0.000363317667747955,0.00998393441188787,2021-02-09
"490",244.5,0.019608400588565,0.00288866721960241,0.00036197609798963,0.0099851883432773,2021-02-09
"491",245,0.0196107109944269,0.00287416339900799,0.000360635498811647,0.00998567324661925,2021-02-10
"492",245.5,0.0196114835543019,0.00285741707179865,0.000359295911047207,0.00998538973267457,2021-02-10
"493",246,0.019610719930443,0.00285392162900811,0.000357957375165723,0.00998433865280435,2021-02-11
"494",246.5,0.0196084222645893,0.00285245793627127,0.000356619931272411,0.00998252109793087,2021-02-11
"495",247,0.019604593175575,0.00284561971432957,0.000355283619107939,0.00997993839734148,2021-02-12
"496",247.5,0.0195992357566267,0.00283731894344907,0.000353948478048114,0.00997659211733743,2021-02-12
"497",248,0.0195923535723552,0.00282893342222281,0.000352614547103629,0.00997248405972944,2021-02-13
"498",248.5,0.0195839506554446,0.00282206133502954,0.000351281864919852,0.00996761626018224,2021-02-13
"499",249,0.019574031503044,0.00281631570450072,0.000349950469776661,0.00996199098641035,2021-02-14
"500",249.5,0.0195626010728667,0.00280417822614552,0.000348620399588333,0.00995561073622749,2021-02-14
"501",250,0.0195496647790012,0.00279191122411858,0.000347291691903473,0.00994847823545234,2021-02-15
"502",250.5,0.0195352284874415,0.00277959915767502,0.000345964383904993,0.00994059643567323,2021-02-15
"503",251,0.0195192985113396,0.00276724365151183,0.000344638512410133,0.00993196851187484,2021-02-16
"504",251.5,0.019501881605989,0.00275703513059663,0.00034331411387053,0.00992259785992975,2021-02-16
"505",252,0.0194829849635438,0.00274683392386557,0.000341991224372331,0.00991248809395804,2021-02-17
"506",252.5,0.0194626162074804,0.00273655763177557,0.000340669879636349,0.00990164304355839,2021-02-17
"507",253,0.0194407833868092,0.00272620791503148,0.000339350115018259,0.00989006675091374,2021-02-18
"508",253.5,0.0194174949700418,0.00271430147427842,0.000338031965508847,0.00987776346777534,2021-02-18
"509",254,0.019392759838923,0.00270149260520377,0.000336715465734285,0.00986473765232864,2021-02-19
"510",254.5,0.019366587281933,0.00268862410199925,0.000335400649956467,0.00985099396594474,2021-02-19
"511",255,0.0193389869875691,0.00267569800568049,0.000334087552073366,0.00983653726982124,2021-02-20
"512",255.5,0.0193099690374134,0.00266271634840993,0.000332776205619448,0.00982137262151642,2021-02-20
"513",256,0.0192795438989951,0.00264968115297054,0.000331466643766118,0.00980550527138063,2021-02-21
"514",256.5,0.0192477224184558,0.0026365944322514,0.000330158899322204,0.00978894065888902,2021-02-21
"515",257,0.019214515813025,0.00262345818874494,0.000328853004734483,0.00977168440887974,2021-02-22
"516",257.5,0.0191799356633152,0.0026135827922522,0.000327548992088248,0.0097537423277017,2021-02-22
"517",258,0.0191439939054446,0.00260651073570344,0.000326246893107906,0.00973512039927624,2021-02-23
"518",258.5,0.0191067028229961,0.00259937984201977,0.000324946739157615,0.00971582478107687,2021-02-23
"519",259,0.0190680750388211,0.0025921910942065,0.000323648561241962,0.00969586180003151,2021-02-24
"520",259.5,0.0190281235066965,0.00258494547421034,0.000322352390006672,0.00967523794835157,2021-02-24
"521",260,0.018986861502845,0.00257764396270626,0.000321058255739356,0.00965395987929216,2021-02-25
"522",260.5,0.0189443026173257,0.00256841744723386,0.000319766188370289,0.00963203440284799,2021-02-25
"523",261,0.0189004607453053,0.00255479095094752,0.000318476217473228,0.00960946848138925,2021-02-26
"524",261.5,0.0188553500782177,0.00254114374466813,0.000317188372266258,0.00958626922524196,2021-02-26
"525",262,0.0188089850948219,0.00252747744834114,0.00031590268161268,0.00956244388821727,2021-02-27
"526",262.5,0.0187613805521662,0.00251379366740444,0.000314619174021918,0.00953799986309405,2021-02-27
"527",263,0.0187125514764679,0.00250009399254707,0.000313337877650472,0.0095129446770592,2021-02-28
"528",263.5,0.0186625131539176,0.00248637999947723,0.000312058820302893,0.00948728598711025,2021-02-28
"529",264,0.0186112811214158,0.00246999203890335,0.000310782029432795,0.00946103157542431,2021-03-01
"530",264.5,0.0185588711572523,0.00245327710340568,0.000309507532143891,0.0094341893446981,2021-03-01
"531",265,0.0185052992717352,0.00243948742026585,0.000308235355191067,0.00940676731346313,2021-03-02
"532",265.5,0.0184505816977792,0.00243141182268964,0.000306965524981476,0.00937877361138034,2021-03-02
"533",266,0.0183947348814616,0.00241764933477031,0.000305698067575668,0.00935021647451862,2021-03-03
"534",266.5,0.0183377754725536,0.00240388165645499,0.000304433008688749,0.00932110424062116,2021-03-03
"535",267,0.0182797203150364,0.00239214995016929,0.000303170373691557,0.00929144534436398,2021-03-04
"536",267.5,0.0182205864376093,0.00238127939993713,0.000301910187611879,0.00926124831261058,2021-03-04
"537",268,0.018160391044198,0.00237012105521359,0.000300652475135685,0.00923052175966684,2021-03-05
"538",268.5,0.0180991515044718,0.00235447693361509,0.000299397260608392,0.00919927438254008,2021-03-05
"539",269,0.018036885344376,0.0023389756498299,0.000298144568036151,0.00916751495620608,2021-03-06
"540",269.5,0.0179736102366891,0.00232901825366125,0.000296894421087165,0.00913525232888811,2021-03-06
"541",270,0.0179093439916098,0.00231904228598818,0.000295646843093021,0.00910249541735141,2021-03-07
"542",270.5,0.0178441045473839,0.00230920850319912,0.000294401857050058,0.00906925320221697,2021-03-07
"543",271,0.0177779099609756,0.00229844487748328,0.000293159485620748,0.00903553472329816,2021-03-08
"544",271.5,0.0177107783987922,0.0022858029943752,0.000291919751135106,0.00900134907496363,2021-03-08
"545",272,0.0176427281274675,0.00227316561101899,0.000290682675592122,0.00896670540152983,2021-03-09
"546",272.5,0.017573777504712,0.0022625906768027,0.00028944828066121,0.00893161289268662,2021-03-09
"547",273,0.0175039449702343,0.00224890273963972,0.000288216587683686,0.00889608077895899,2021-03-10
"548",273.5,0.017433249036742,0.0022352919151168,0.00028698761767426,0.00886011832720813,2021-03-10
"549",274,0.0173617082810268,0.00222268390872675,0.000285761391322552,0.00882373483617468,2021-03-11
"550",274.5,0.01728934133514,0.00221115782172337,0.000284537928994627,0.00878693963206731,2021-03-11
"551",275,0.0172161668776639,0.00220328818762022,0.000283317250734548,0.00874974206419921,2021-03-12
"552",275.5,0.0171422036250846,0.00219368283542141,0.000282099376265953,0.0087121515006753,2021-03-12
"553",276,0.0170674703232717,0.00218173377833556,0.000280884324993641,0.00867417732413267,2021-03-13
"554",276.5,0.0169919857390686,0.00216980117107865,0.000279672116005187,0.0086358289275369,2021-03-13
"555",277,0.0169157686520002,0.00215614358167062,0.000278462768072563,0.00859711571003637,2021-03-14
"556",277.5,0.0168388378461004,0.00214219911442202,0.000277256299653786,0.00855804707287707,2021-03-14
"557",278,0.0167612121018653,0.00212830204974028,0.000276052728894578,0.00851863241537996,2021-03-15
"558",278.5,0.0166829101883358,0.00211498494959145,0.000273788845212466,0.00847834951677414,2021-03-15
"559",279,0.0166039508553123,0.00210025814222933,0.000270719402360314,0.00843733512883629,2021-03-16
"560",279.5,0.0165243528257071,0.00208560468164746,0.000267682254410687,0.00839601754005891,2021-03-16
"561",280,0.0164441347880371,0.00207102484003304,0.000264677110363174,0.00835440594920015,2021-03-17
"562",280.5,0.016363315389059,0.00205651887181222,0.000261703680687877,0.00831250953487346,2021-03-17
"563",281,0.0162819132265519,0.0020392073869492,0.000258761677348118,0.00827033745195002,2021-03-18
"564",281.5,0.0161999468422487,0.00201875050641189,0.000255850813822142,0.00822789882803541,2021-03-18
"565",282,0.0161174347149195,0.00200203982428175,0.000252970805123845,0.00818520276002166,2021-03-19
"566",282.5,0.0160343952536093,0.00198541568515275,0.000250121367822543,0.00814225831071591,2021-03-19
"567",283,0.0159508467910321,0.00196887870845534,0.000247302220061813,0.00809907450554695,2021-03-20
"568",283.5,0.0158668075771233,0.00195242948648771,0.00024451308157741,0.00805566032935037,2021-03-20
"569",284,0.0157822957727526,0.00193965215796865,0.000241753673714308,0.00801202472323344,2021-03-21
"570",284.5,0.0156973294435979,0.00192488643184019,0.000239023719442852,0.00796817658152039,2021-03-21
"571",285,0.0156119265541837,0.00190925871035873,0.000236322943374078,0.00792412474877887,2021-03-22
"572",285.5,0.015526104962082,0.00189437611912948,0.000233651071774187,0.0078798780169281,2021-03-22
"573",286,0.0154398824122805,0.00188349440312897,0.000231007832578217,0.00783544512242935,2021-03-23
"574",286.5,0.015353276531715,0.00187615078048546,0.000228392955402923,0.00779083474355898,2021-03-23
"575",287,0.0152663048239703,0.00186508428454513,0.000225806171558883,0.00774605549776459,2021-03-24
"576",287.5,0.0151789846641468,0.0018540197883315,0.000223247214061852,0.00770111593910433,2021-03-24
"577",288,0.0150913332938958,0.00184092445334872,0.000220715817643385,0.0076560245557696,2021-03-25
"578",288.5,0.0150033678166217,0.00182658881924072,0.000218211718760737,0.00761078976769123,2021-03-25
"579",289,0.014915105192852,0.00181230975957454,0.000215734655606072,0.00756541992422906,2021-03-26
"580",289.5,0.0148265622357748,0.00179808816877412,0.000213284368114987,0.00751992330194487,2021-03-26
"581",290,0.0147377556069426,0.00178392491551606,0.000210860597974379,0.00747430810245851,2021-03-27
"582",290.5,0.0146487018121441,0.00177611784604279,0.000208463088629654,0.00742858245038686,2021-03-27
"583",291,0.0145594171974397,0.00176555881700324,0.000206091585291324,0.00738275439136551,2021-03-28
"584",291.5,0.0144699179453641,0.00175724286677163,0.000203745834940978,0.00733683189015253,2021-03-28
"585",292,0.0143802200712915,0.00174972456575129,0.000201425586336659,0.00729082282881409,2021-03-29
"586",292.5,0.0142903394199648,0.00174220897461406,0.000199130590017669,0.00724473500499123,2021-03-29
"587",293,0.0142002916621859,0.00172721354037469,0.000196860598308797,0.00719857613024733,2021-03-30
"588",293.5,0.0141100922916671,0.00171218207842761,0.000194615365324008,0.00715235382849556,2021-03-30
"589",294,0.0140197566220416,0.00169724410720872,0.000192394646969591,0.00710607563450559,2021-03-31
"590",294.5,0.013929299784031,0.0016823998166142,0.00019019820094679,0.0070597489924889,2021-03-31
"591",295,0.0138387367227696,0.00166764937687668,0.000188025786753928,0.00701338125476176,2021-04-01
"592",295.5,0.0137480821952821,0.00165299293893866,0.000185877165688047,0.00696697968048509,2021-04-01
"593",296,0.0136573507681146,0.0016384306348237,0.00018375210084606,0.00692055143448031,2021-04-02
"594",296.5,0.0135665568151147,0.00162396257800502,0.000181650357125449,0.0068741035861201,2021-04-02
