"","time","top","med","bottom","pseudo_med","date"
"1",0,0.0100954315202241,0.00162812472511537,0.000111150622190717,0.00510329107120741,2020-06-10
"2",0.5,0.0096784116617903,0.00157754265412715,0.000123976036261683,0.00490119384902599,2020-06-10
"3",1,0.00928000595266515,0.00152602070314805,0.000128018347423577,0.00470401215004436,2020-06-11
"4",1.5,0.00889938425816681,0.00148056572055583,0.000131893927654253,0.00451563909291053,2020-06-11
"5",2,0.00853575345915868,0.00144720525540528,0.000135613646604651,0.00433568355288167,2020-06-12
"6",2.5,0.00818835580152158,0.00140257690605427,0.000139187706636806,0.00416377175407919,2020-06-12
"7",3,0.0078564673192232,0.00135310741180957,0.000142625684046931,0.00399954650163506,2020-06-13
"8",3.5,0.00753939632770321,0.00131145936880785,0.000145936567743397,0.0038426664477233,2020-06-13
"9",4,0.00723648198443863,0.00128442204012705,0.000149128795536744,0.00369280538998769,2020-06-14
"10",4.5,0.00694709291369376,0.00125289298079069,0.000151342553739032,0.00354921773371639,2020-06-14
"11",5,0.00667062589259286,0.00121233952028732,0.00014589409391952,0.00340825999325619,2020-06-15
"12",5.5,0.00640650459578106,0.00117696554464609,0.000140190937268593,0.00327334776652483,2020-06-15
"13",6,0.00615417839606102,0.00113967772530102,0.000134335917849005,0.00314425715695501,2020-06-16
"14",6.5,0.00591312121850951,0.00111215678578708,0.000128412839255371,0.00302076702888244,2020-06-16
"15",7,0.00568283044568904,0.00110069953102444,0.000122489486038755,0.0029026599658639,2020-06-17
"16",7.5,0.00546282587167642,0.00106915327497917,0.000116620183869542,0.00278972302777298,2020-06-17
"17",8,0.00525264870273128,0.00104629496401836,0.000110847974595213,0.00268174833866324,2020-06-18
"18",8.5,0.00505186060252501,0.00100988547356914,0.000105206462740876,0.00257853353263294,2020-06-18
"19",9,0.00486004277994314,0.000980106942074905,9.97213817814383e-05,0.00247988208086229,2020-06-19
"20",9.5,0.00467679511756272,0.000955964668527193,9.44119214846314e-05,0.00238560351952368,2020-06-19
"21",10,0.00450173533899113,0.000925319207750585,8.92918516118631e-05,0.0022955135953015,2020-06-20
"22",10.5,0.00433449821333335,0.000913261490410688,8.43704721222912e-05,0.00220943434272782,2020-06-20
"23",11,0.00417473479513219,0.000892305894117883,7.96534156286629e-05,0.00212719410538043,2020-06-21
"24",11.5,0.00402211169819977,0.000867170466203103,7.51433240938732e-05,0.00204862751114682,2020-06-21
"25",12,0.00387631040182896,0.000851515539660177,7.08404185427005e-05,0.00197357541018583,2020-06-22
"26",12.5,0.00373702658794096,0.000827298394383753,6.67429778150195e-05,0.00190188478287799,2020-06-22
"27",13,0.00360396950778963,0.000797008139144886,6.2847740037533e-05,0.00183340862391358,2020-06-23
"28",13.5,0.00347686137690463,0.000772761577621053,5.91502384830276e-05,0.00176800580769383,2020-06-23
"29",14,0.00335543679701403,0.000750560217574619,5.56450817699697e-05,0.001705540939392,2020-06-24
"30",14.5,0.00323944220374367,0.000724708847157238,5.23261868887008e-05,0.00164588419531618,2020-06-24
"31",15,0.00312863533894357,0.000713387199084149,4.91869722874131e-05,0.00158891115561549,2020-06-25
"32",15.5,0.0030227847465435,0.000694264741997018,4.62205171805896e-05,0.00153450263186205,2020-06-25
"33",16,0.00292166929088839,0.00067642414733383,4.34196923282185e-05,0.0014825444916083,2020-06-26
"34",16.5,0.00282507769655129,0.00065979832763973,4.07772667532153e-05,0.00143292748165225,2020-06-26
"35",17,0.00273280810866615,0.000641749859297982,3.82859941977543e-05,0.00138554705143195,2020-06-27
"36",17.5,0.00264466767286544,0.000621725605279926,3.59386825500622e-05,0.00134030317770775,2020-06-27
"37",18,0.00256047213394844,0.000604469729792052,3.37282489874955e-05,0.00129710019146797,2020-06-28
"38",18.5,0.00248004545244499,0.000589844310702772,3.16477631672979e-05,0.00125584660780614,2020-06-28
"39",19,0.00240321943827675,0.000582655573311968,2.96904804429489e-05,0.00121645495935985,2020-06-29
"40",19.5,0.00241523501926775,0.000578682335417559,2.78498667826048e-05,0.00122154244302518,2020-06-29
"41",20,0.00243460098936106,0.000566211718661243,2.61196168092216e-05,0.00123036030308514,2020-06-30
"42",20.5,0.00245373324064464,0.000546694811934393,2.44936661630518e-05,0.00123911345340384,2020-06-30
"43",21,0.00247264247680359,0.00053344127552345,2.29661992007793e-05,0.00124780433800219,2020-07-01
"44",21.5,0.00249133888545494,0.000520137716747917,2.15316528868567e-05,0.0012564352691709,2020-07-01
"45",22,0.00250983216069719,0.000508896872728287,2.0184717597593e-05,0.00126500843914739,2020-07-02
"46",22.5,0.00252813152465883,0.000496704902630432,1.89203354437256e-05,0.00127352593005128,2020-07-02
"47",23,0.00254624574809018,0.000485123501256702,1.77336966196576e-05,0.00128198972235492,2020-07-03
"48",23.5,0.00256418317004147,0.000481238453130102,1.66202342046982e-05,0.00129040170212309,2020-07-03
"49",24,0.00258195171666789,0.000471435442550478,1.55756177713583e-05,0.00129876366721963,2020-07-04
"50",24.5,0.00259955891920051,0.000462400888710832,1.45957460961744e-05,0.00130707733264834,2020-07-04
"51",25,0.00261701193112047,0.000449744168471812,1.36767392180767e-05,0.00131534433516927,2020-07-05
"52",25.5,0.00263431754457192,0.000442700128668508,1.28149300466373e-05,0.00132356623730928,2020-07-05
"53",26,0.0026514822060478,0.000434380035477003,1.2006855686478e-05,0.00133174453086714,2020-07-06
"54",26.5,0.00266851203138089,0.000428629943054225,1.12492486136916e-05,0.00133988063999729,2020-07-06
"55",27,0.0026854128200712,0.000418342402294773,1.05390278145127e-05,0.00134797592394286,2020-07-07
"56",27.5,0.00270219006897945,0.000409149857898985,9.8732899749227e-06,0.00135603167947718,2020-07-07
"57",28,0.00271884898541484,0.000396930210387002,9.24930079179834e-06,0.00136404914310332,2020-07-08
"58",28.5,0.0027353944996444,0.000389595403751838,8.66448646107541e-06,0.00137202949305274,2020-07-08
"59",29,0.00275183127684958,0.000380131238317966,8.11642538576154e-06,0.00137997385111767,2020-07-09
"60",29.5,0.00276816372855503,0.000374566451382789,7.60284013611129e-06,0.00138788328434557,2020-07-09
"61",30,0.00278439602355307,0.000366944244489456,7.1215896855491e-06,0.00139575880661931,2020-07-10
"62",30.5,0.00280053209834644,0.000353302520207147,6.67066193871523e-06,0.00140360138014258,2020-07-10
"63",31,0.00281657566713106,0.000342919088609861,6.24816656208157e-06,0.00141141191684657,2020-07-11
"64",31.5,0.00283253023133915,0.000341121460289401,5.85232812273689e-06,0.00141919127973095,2020-07-11
"65",32,0.0028483990887627,0.000337173831271609,5.48147953700597e-06,0.00142694028414985,2020-07-12
"66",32.5,0.00286418534227588,0.000331196634096576,5.13405582739744e-06,0.00143465969905164,2020-07-12
"67",33,0.00287989190817458,0.000326643054991204,4.80858818384916e-06,0.00144235024817922,2020-07-13
"68",33.5,0.00289552152415011,0.000321195003504328,4.50369832325249e-06,0.00145001261123668,2020-07-13
"69",34,0.00291107675691355,0.000314844567914891,4.21809313969916e-06,0.00145764742502662,2020-07-14
"70",34.5,0.00292656000948645,0.000309381860058401,3.9505596367313e-06,0.00146525528456159,2020-07-14
"71",35,0.00294197352817291,0.000305169386633208,3.69996013202316e-06,0.00147283674415247,2020-07-15
"72",35.5,0.00295731940922722,0.000305376174748001,3.46522772432758e-06,0.00148039231847578,2020-07-15
"73",36,0.00297259960523096,0.000305291302749088,3.24536201213666e-06,0.00148792248362155,2020-07-16
"74",36.5,0.00298781593119245,0.000302994935598909,3.03942505329477e-06,0.00149542767812287,2020-07-16
"75",37,0.00300297007038119,0.000297393076930418,2.84653755473183e-06,0.00150290830396796,2020-07-17
"76",37.5,0.00301806357990917,0.00029285874202155,2.66587528152749e-06,0.00151036472759535,2020-07-17
"77",38,0.00303309789607041,0.000291248754384027,2.49666567464973e-06,0.00151779728087253,2020-07-18
"78",38.5,0.00304807433944975,0.000293233087586996,2.33818466691619e-06,0.00152520626205833,2020-07-18
"79",39,0.00306299411981121,0.000293997213923008,2.18975368698547e-06,0.0015325919367491,2020-07-19
"80",39.5,0.00307785834077592,0.000292216940222259,2.05073684148766e-06,0.00153995453880871,2020-07-19
"81",40,0.00309266800429912,0.000287520675873767,1.92053826573475e-06,0.00154729427128243,2020-07-20
"82",40.5,0.00310742401495526,0.000279679474946052,1.79859963380605e-06,0.00155461130729453,2020-07-20
"83",41,0.0031244624879411,0.000276523692218538,1.68439781917113e-06,0.00156307344288014,2020-07-21
"84",41.5,0.00314614643158928,0.000276281308071518,1.57744269738865e-06,0.00157386193714333,2020-07-21
"85",42,0.00316772738315742,0.000271109948101779,1.47727508279824e-06,0.00158460232912011,2020-07-22
"86",42.5,0.00318920862108912,0.000264392684749759,1.38346479150001e-06,0.00159529604294031,2020-07-22
"87",43,0.00321059327834841,0.000257543621868418,1.29560882328943e-06,0.00160594444358585,2020-07-23
"88",43.5,0.0032318843466682,0.000254242890315664,1.21332965558161e-06,0.00161654883816189,2020-07-23
"89",44,0.00325308468066651,0.000248913953311528,1.13627364271616e-06,0.00162711047715461,2020-07-24
"90",44.5,0.00327419700183494,0.000243504509130576,1.06410951438104e-06,0.00163763055567466,2020-07-24
"91",45,0.00329522390240359,0.000238064747544731,9.96526967228828e-07,0.00164811021468541,2020-07-25
"92",45.5,0.00331616784908636,0.00023436041842235,9.33235344082124e-07,0.00165855054221522,2020-07-25
"93",46,0.00333703118671079,0.000231414491693432,8.7396239543513e-07,0.00166895257455311,2020-07-26
"94",46.5,0.00335781614173614,0.000228233138284726,8.18453118255379e-07,0.0016793172974272,2020-07-26
"95",47,0.00337852482566338,0.000225300493915326,7.66468667373652e-07,0.00168964564716538,2020-07-27
"96",47.5,0.00339915923834082,0.000221769798583622,7.17785335020771e-07,0.00169993851183792,2020-07-27
"97",48,0.00341972127116863,0.000218348863698245,6.72193594327565e-07,0.00171019673238148,2020-07-28
"98",48.5,0.0034402127102059,0.000214837486323257,6.2949720284915e-07,0.00172042110370438,2020-07-28
"99",49,0.00346063523918319,0.000209299064096088,5.89512362406884e-07,0.0017306123757728,2020-07-29
"100",49.5,0.00348099044242393,0.000203917474240942,5.52066931761519e-07,0.00174077125467785,2020-07-29
"101",50,0.00350127980767771,0.000198687949512737,5.16999688839365e-07,0.00175089840368328,2020-07-30
"102",50.5,0.00352150472886825,0.000193605874161222,4.84159639430316e-07,0.00176099444425384,2020-07-30
"103",51,0.00354166650875911,0.0001886667790354,4.53405369462667e-07,0.00177105995706429,2020-07-31
"104",51.5,0.00356176636153978,0.000184688549251186,4.24604438135356e-07,0.00178109548298896,2020-07-31
"105",52,0.00358180541533491,0.000181183392575586,3.97632809353925e-07,0.00179110152407213,2020-08-01
"106",52.5,0.00360178471463923,0.000177759619858869,3.72374319072741e-07,0.00180107854447915,2020-08-01
"107",53,0.00362170522268066,0.000174611924860306,3.48720176293103e-07,0.00181102697142848,2020-08-02
"108",53.5,0.00364156782371409,0.000172233102379947,3.26568495605432e-07,0.00182094719610485,2020-08-02
"109",54,0.00366137332524821,0.000169904268838352,3.05823859294113e-07,0.00183083957455375,2020-08-03
"110",54.5,0.00368112246020751,0.000167623861540958,2.86396907146183e-07,0.00184070442855733,2020-08-03
"111",55,0.00370081588903195,0.000165390382083396,2.68203952220371e-07,0.00185054204649208,2020-08-04
"112",55.5,0.00372045420171606,0.00016320239331733,2.51166620941409e-07,0.0018603526841685,2020-08-04
"113",56,0.00374003791978995,0.000161319178364027,2.35211515986338e-07,0.00187013656565297,2020-08-05
"114",56.5,0.00375956749824384,0.000160320291744066,2.20269900525233e-07,0.00187989388407218,2020-08-05
"115",57,0.00377904332739836,0.000158836501621414,2.0627740246859e-07,0.00188962480240041,2020-08-06
"116",57.5,0.0037984657347223,0.000156422763728497,1.93173737457974e-07,0.00189932945422988,2020-08-06
"117",58,0.00381783498659976,0.000154065692878689,1.80902449415691e-07,0.00190900794452459,2020-08-07
"118",58.5,0.00383715129004831,0.000151763779638353,1.6941066754356e-07,0.00191866035035792,2020-08-07
"119",59,0.00385641479438999,0.00014946811718716,1.58648878730552e-07,0.00192828672163436,2020-08-08
"120",59.5,0.00387562559287679,0.000146972118633496,1.48570714394487e-07,0.00193788708179559,2020-08-08
"121",60,0.00389478372427206,0.000143872992432982,1.39132750844298e-07,0.00194746142851145,2020-08-09
"122",60.5,0.00391388917438955,0.00014083890342894,1.30294322306933e-07,0.00195700973435593,2020-08-09
"123",61,0.00393294187759154,0.000137868530606532,1.22017345816877e-07,0.00196653194746868,2020-08-10
"124",61.5,0.0039519417182474,0.000136032234816066,1.1426615721689e-07,0.00197602799220231,2020-08-10
"125",62,0.00397088853215407,0.000134458216159767,1.07007357565954e-07,0.00198549776975582,2020-08-11
"126",62.5,0.00398978210791984,0.000132924616841349,1.00209669294906e-07,0.00199494115879457,2020-08-11
"127",63,0.00400862218831257,0.000131430570234988,9.38438014918613e-08,0.00200435801605703,2020-08-12
"128",63.5,0.00402740847157382,0.000129975226031306,8.78823237386324e-08,0.00201374817694878,2020-08-12
"129",64,0.00404614061269995,0.000128557750013536,8.22995479559106e-08,0.00202311145612395,2020-08-13
"130",64.5,0.00406481822469145,0.000126118640135494,7.70714177493089e-08,0.0020324476480546,2020-08-13
"131",65,0.00408344087977158,0.00012300983367509,7.21754047804893e-08,0.00204175652758818,2020-08-14
"132",65.5,0.0041020081105755,0.000119975329677778,6.75904117177233e-08,0.00205103785049361,2020-08-14
"133",66,0.00412051941131091,0.000117013440836531,6.32966813484548e-08,0.00206029135399613,2020-08-15
"134",66.5,0.00413897423889118,0.000114122514702109,5.9275711462874e-08,0.00206951675730132,2020-08-15
"135",67,0.00415737201404204,0.000111928999708455,5.55101751422835e-08,0.00207871376210859,2020-08-16
"136",67.5,0.00417571212238279,0.000110347487979207,5.19838461092466e-08,0.00208788205311445,2020-08-16
"137",68,0.00419399391548289,0.000109418757944637,4.86815288182477e-08,0.00209702129850585,2020-08-17
"138",68.5,0.00421221671189484,0.000108529686446673,4.55889929859662e-08,0.00210613115044392,2020-08-17
"139",69,0.00423037979816435,0.000107875600082921,4.26929122793391e-08,0.00211521124553831,2020-08-18
"140",69.5,0.00424848242981833,0.000108071110127048,3.99808068974667e-08,0.00212426120531261,2020-08-18
"141",70,0.00426652383233191,0.000108277323729386,3.74409898001529e-08,0.00213328063666085,2020-08-19
"142",70.5,0.00428450320207487,0.000108494074839269,3.50625163515553e-08,0.00214226913229561,2020-08-19
"143",71,0.00430241970723852,0.000108721205131647,3.28351371621095e-08,0.00215122627118784,2020-08-20
"144",71.5,0.00432027248874362,0.000108958563736193,3.07492539256496e-08,0.00216015161899877,2020-08-20
"145",72,0.00433806066113001,0.000109206006976971,2.87958780615345e-08,0.00216904472850404,2020-08-21
"146",72.5,0.00435578331342874,0.000109463398122239,2.69665919836593e-08,0.00217790514001036,2020-08-21
"147",73,0.00437343951001721,0.000109730607143974,2.52535128295365e-08,0.00218673238176502,2020-08-22
"148",73.5,0.0043910282914581,0.000110007510486722,2.36492584932205e-08,0.00219552597035829,2020-08-22
"149",74,0.00440854867532246,0.000109089187017655,2.21469158157637e-08,0.00220428541111914,2020-08-23
"150",74.5,0.00442599965699782,0.000107686138771431,2.07400107961857e-08,0.00221301019850431,2020-08-23
"151",75,0.00444338021048166,0.000106309175174016,1.9422480694629e-08,0.00222169981648118,2020-08-24
"152",75.5,0.00446068928916083,0.000104957775644775,1.81886479075283e-08,0.00223035373890437,2020-08-24
"153",76,0.00447792582657752,0.000103631429797015,1.70331955022478e-08,0.00223897142988651,2020-08-25
"154",76.5,0.00449508873718211,0.000102329637259539,1.5951144305785e-08,0.00224755234416321,2020-08-25
"155",77,0.00451217691707357,0.000101051907500065,1.49378314488381e-08,0.00225609592745251,2020-08-26
"156",77.5,0.0045291892447277,9.97977596505492e-05,1.39888902727954e-08,0.00226460161680898,2020-08-26
"157",78,0.00455206647009013,9.85667223344807e-05,1.31002315130796e-08,0.00227603978516082,2020-08-27
"158",78.5,0.00459330454270006,9.73583334961882e-05,1.22680256777763e-08,0.00229665840536287,2020-08-27
"159",79,0.00463477072459345,9.61721402322025e-05,1.14886865456235e-08,0.00231739110664,2020-08-28
"160",79.5,0.00467646306020595,9.50076986247133e-05,1.07588557122617e-08,0.00233823690953083,2020-08-28
"161",80,0.00471837951818715,9.38645735771511e-05,1.00753881181601e-08,0.00235919479678763,2020-08-29
"162",80.5,0.00476051799029415,9.27423386519221e-05,9.43533849586215e-09,0.00238026371281632,2020-08-29
"163",81,0.00480287629030652,9.16405759103194e-05,8.83594867815427e-09,0.0024014425631276,2020-08-30
"164",81.5,0.00484545215296332,9.05588757546305e-05,8.27463571247222e-09,0.00242273021379952,2020-08-30
"165",82,0.00488824323292276,8.93871220846084e-05,7.74898073033043e-09,0.00244412549095175,2020-08-31
"166",82.5,0.00493124710374497,8.74879143973727e-05,7.25671852381444e-09,0.00246562718023175,2020-08-31
"167",83,0.00497446125689873,8.56282713030073e-05,6.7957277842219e-09,0.00248723402631326,2020-09-01
"168",83.5,0.00501788310079265,8.38074093445045e-05,6.36402196079094e-09,0.0025089447324073,2020-09-01
"169",84,0.00506150995983157,8.20245586197724e-05,5.95974070012585e-09,0.00253075795978614,2020-09-02
"170",84.5,0.00510533907349899,8.02789626426991e-05,5.5811418294327e-09,0.00255267232732041,2020-09-02
"171",85,0.00514936759546604,7.85698782003726e-05,5.22659384901988e-09,0.00257468641102995,2020-09-03
"172",85.5,0.00519359259272809,7.68965752068398e-05,4.8945689017134e-09,0.00259679874364849,2020-09-03
"173",86,0.00523801104476947,7.52583365537639e-05,4.5836361888914e-09,0.00261900781420283,2020-09-04
"174",86.5,0.00528261984275743,7.36544579583235e-05,4.29245580476683e-09,0.00264131206760662,2020-09-04
"175",87,0.0053274157887659,7.25500044122009e-05,4.01977296234937e-09,0.00266370990426943,2020-09-05
"176",87.5,0.00537239559503009,7.14886503733517e-05,3.76441258620544e-09,0.00268619967972134,2020-09-05
"177",88,0.00541755588323281,7.04477822960183e-05,3.52527424871557e-09,0.00270877970425353,2020-09-06
"178",88.5,0.00546289318382324,6.94269728889879e-05,3.3013274280087e-09,0.00273144824257533,2020-09-06
"179",89,0.00550840393536923,6.8558298228789e-05,3.09160706713874e-09,0.00275420351348815,2020-09-07
"180",89.5,0.00555408448394405,6.80922474902958e-05,2.89520941536718e-09,0.00277704368957673,2020-09-07
"181",90,0.00559993108254836,6.76297495546182e-05,2.71128813363094e-09,0.00279996689691825,2020-09-08
"182",90.5,0.00564593989056853,6.71707608492215e-05,2.53905064741299e-09,0.00282297121480959,2020-09-08
"183",91,0.00569210697327218,6.67152390025877e-05,2.37775473129942e-09,0.00284605467551345,2020-09-09
"184",91.5,0.00573842830134194,6.62631427941973e-05,2.22670531050522e-09,0.00286921526402363,2020-09-09
"185",92,0.00578489975044836,6.58144321067875e-05,2.08525146558547e-09,0.00289245091784991,2020-09-10
"186",92.5,0.005831517100863,6.53690678807806e-05,1.95278362742475e-09,0.00291575952682332,2020-09-10
"187",93,0.00587827603711264,6.49270120707843e-05,1.8287309504171e-09,0.00293913893292179,2020-09-11
"188",93.5,0.00592517214767562,6.41997920274413e-05,1.71255885251697e-09,0.00296258693011724,2020-09-11
"189",94,0.00597220092472135,6.34536234040989e-05,1.6037667115606e-09,0.00298610126424403,2020-09-12
"190",94.5,0.00601935776389381,6.27172064329233e-05,1.50188570793056e-09,0.00300967963288976,2020-09-12
"191",95,0.00606663796414028,6.19904016261952e-05,1.40647680426703e-09,0.00303331968530854,2020-09-13
"192",95.5,0.00611403672758599,6.127307166138e-05,1.3171288535197e-09,0.00305701902235742,2020-09-13
"193",96,0.00616154915945595,6.05650813431547e-05,1.23345682718752e-09,0.00308077519645639,2020-09-14
"194",96.5,0.0062091702680447,5.98662975662635e-05,1.15510015611112e-09,0.00310458571157243,2020-09-14
"195",97,0.00625689496473511,5.91765892791796e-05,1.08172117666802e-09,0.00312844802322814,2020-09-15
"196",97.5,0.00630471806406708,5.83728943540981e-05,1.01300367567475e-09,0.00315235953853538,2020-09-15
"197",98,0.00635263428385713,5.73037064174934e-05,9.48651527725516e-10,0.00317631761625433,2020-09-16
"198",98.5,0.00640063824536979,5.62541131877712e-05,8.88387419095231e-10,0.0032003195668786,2020-09-16
"199",99,0.00644872447354169,5.52237639994247e-05,8.31951652707924e-10,0.00322436265274667,2020-09-17
"200",99.5,0.00649688739725932,5.42123140115231e-05,7.79101029020666e-10,0.00324844408818017,2020-09-17
"201",100,0.00654512134969123,5.32194241301576e-05,7.29607798000504e-10,0.00327256103964951,2020-09-18
"202",100.5,0.00659342056867563,5.22447609310967e-05,6.83258677678116e-10,0.00329671062596715,2020-09-18
"203",101,0.00664177919716414,5.12879965826956e-05,6.3985393504883e-10,0.00332088991850904,2020-09-19
"204",101.5,0.00669019128372262,5.0348808769098e-05,5.99206525360365e-10,0.00334509594146457,2020-09-19
"205",102,0.00673865078308972,4.94268806137698e-05,5.61141286078184e-10,0.0033693256721155,2020-09-20
"206",102.5,0.00678715155679404,4.85219006033997e-05,5.25494182055041e-10,0.00339357604114411,2020-09-20
"207",103,0.0068356873738306,4.76335625121998e-05,4.92111598651908e-10,0.0034178439329711,2020-09-21
"208",103.5,0.00688425191139729,4.6761565326638e-05,4.60849679764133e-10,0.00344212618612349,2020-09-21
"209",104,0.00693283875569199,4.59056131706312e-05,4.31573707900173e-10,0.00346641959363285,2020-09-22
"210",104.5,0.00698144140277103,4.50654152312263e-05,4.04157523641473e-10,0.00349072090346428,2020-09-22
"211",105,0.00703005325946957,4.4266823859765e-05,3.78482981981768e-10,0.00351502681897628,2020-09-23
"212",105.5,0.00707866764438446,4.3700878513522e-05,3.54439443203001e-10,0.00353933399941195,2020-09-23
"213",106,0.0071272777889201,4.31426939897929e-05,3.31923296093878e-10,0.0035636390604217,2020-09-24
"214",106.5,0.00717587683839785,4.25921547741971e-05,3.10837511456476e-10,0.00358793857461768,2020-09-24
"215",107,0.00722445785322936,4.20491472785078e-05,2.91091223976808e-10,0.00361222907216029,2020-09-25
"216",107.5,0.00727301381015424,4.15135598027203e-05,2.72599340657508e-10,0.00363650704137679,2020-09-25
"217",108,0.00732153760354248,4.09852824980365e-05,2.55282174125245e-10,0.00366076892941233,2020-09-26
"218",108.5,0.00737002204676187,4.04642073307387e-05,2.39065099232663e-10,0.00368501114291349,2020-09-26
"219",109,0.00741845987361069,3.99502280469281e-05,2.23878231475061e-10,0.00370923004874446,2020-09-27
"220",109.5,0.00746684373981591,3.94432401381026e-05,2.0965612583599e-10,0.00373342197473602,2020-09-27
"221",110,0.00751516622459704,3.89431408075503e-05,1.96337494763996e-10,0.00375758321046727,2020-09-28
"222",110.5,0.00756341983229576,3.84498289375354e-05,1.83864944065208e-10,0.00378171000808035,2020-09-28
"223",111,0.0076115969940713,3.7963205057253e-05,1.72184725573614e-10,0.00380579858312801,2020-09-29
"224",111.5,0.00765969006966173,3.7483171311533e-05,1.61246505533234e-10,0.00382984511545412,2020-09-29
"225",112,0.00770769134921089,3.6913600113846e-05,1.51003147694057e-10,0.00385384575010702,2020-09-30
"226",112.5,0.00775559305516105,3.63100312485804e-05,1.41410510187038e-10,0.00387779659828578,2020-09-30
"227",113,0.00780338734421093,3.57163495547094e-05,1.32427255302837e-10,0.0039016937383191,2020-10-01
"228",113.5,0.00785106630933905,3.5132392658261e-05,1.24014671354562e-10,0.00392553321667686,2020-10-01
"229",114,0.00789862198189185,3.45580008678128e-05,1.16136505856865e-10,0.00394931104901418,2020-10-02
"230",114.5,0.00794604633373647,3.39930171293299e-05,1.08758809302532e-10,0.00397302322124764,2020-10-02
"231",115,0.00799333127947761,3.3437286981809e-05,1.01849788863311e-10,0.0039966656906637,2020-10-03
"232",115.5,0.00804046867873802,3.28906585137133e-05,9.53796713845744e-11,0.00402023438705885,2020-10-03
"233",116,0.00808745033850207,3.23529823201815e-05,8.9320575083371e-11,0.00404372521391132,2020-10-04
"234",116.5,0.00813426801552171,3.18241114609943e-05,8.3646389397013e-11,0.00406713404958405,2020-10-04
"235",117,0.00818091341878431,3.13039014192836e-05,7.83326624644022e-11,0.00409045674855848,2020-10-05
"236",117.5,0.00822737821204131,3.0792210060969e-05,7.33564957552281e-11,0.0041136891426989,2020-10-05
"237",118,0.00827365401639723,3.02888975949067e-05,6.86964453929593e-11,0.00413682704254684,2020-10-06
"238",118.5,0.0083197324129578,2.97938265337359e-05,6.43324297463973e-11,0.00415986623864511,2020-10-06
"239",119,0.00836560494553644,2.93068616554111e-05,6.02456428915769e-11,0.00418280250289104,2020-10-07
"240",119.5,0.00841126312341807,2.88278699654028e-05,5.64184735710918e-11,0.00420563158991827,2020-10-07
"241",120,0.00845669842417897,2.83567206595577e-05,5.28344293016161e-11,0.0042283492385067,2020-10-08
"242",120.5,0.00850190229656175,2.78932850876021e-05,4.94780653025774e-11,0.00425095117301991,2020-10-08
"243",121,0.00854686616340394,2.74374367172772e-05,4.63349179397122e-11,0.00427343310486943,2020-10-09
"244",121.5,0.00859158142461915,2.69890510990952e-05,4.33914423966907e-11,0.0042957907340053,2020-10-09
"245",122,0.00863603946022918,2.65480058317016e-05,4.06349543062193e-11,0.00431801975043207,2020-10-10
"246",122.5,0.00868023163344577,2.61141805278348e-05,3.80535750890893e-11,0.00434011583574967,2020-10-10
"247",123,0.00872414929380046,2.56874567808699e-05,3.5636180765622e-11,0.00436207466471832,2020-10-11
"248",123.5,0.0087677837803209,2.52677181319359e-05,3.33723540189214e-11,0.00438389190684663,2020-10-11
"249",124,0.00881112642475206,2.49142394402919e-05,3.12523393033605e-11,0.0044055632280022,2020-10-12
"250",124.5,0.00885416855482051,2.45867516119514e-05,2.92670008048489e-11,0.00442708429204375,2020-10-12
"251",125,0.00889690149754008,2.42637167430402e-05,2.74077830717205e-11,0.00444845076247393,2020-10-13
"252",125.5,0.00893931658255704,2.39450724438956e-05,2.56666741465856e-11,0.00446965830411186,2020-10-13
"253",126,0.00898140514553277,2.3630757221691e-05,2.40361710402721e-11,0.00449070258478447,2020-10-14
"254",126.5,0.00902315853156213,2.33207104672052e-05,2.25092473990714e-11,0.00451157927703569,2020-10-14
"255",127,0.00906456809862538,2.30148724417954e-05,2.1079323225958e-11,0.00453228405985235,2020-10-15
"256",127.5,0.00910562522107149,2.27131842645723e-05,1.97402365253005e-11,0.00455281262040586,2020-10-15
"257",128,0.00914632129313096,2.24155878997719e-05,1.84862167488734e-11,0.00457316065580859,2020-10-16
"258",128.5,0.00918664773245554,2.21220261443223e-05,1.73118599287387e-11,0.0045933238748837,2020-10-16
"259",129,0.00922659598368298,2.18324426156004e-05,1.62121053898393e-11,0.00461329799994754,2020-10-17
"260",129.5,0.00926615752202421,2.15467817393769e-05,1.51822139419486e-11,0.00463307876860321,2020-10-17
"261",130,0.00930532385687078,2.12649887379447e-05,1.4217747457001e-11,0.00465266193554427,2020-10-18
"262",130.5,0.00934408653541996,2.09870096184288e-05,1.33145497437939e-11,0.00467204327436726,2020-10-18
"263",131,0.00938243714631523,2.07127911612746e-05,1.2468728637645e-11,0.00469121857939198,2020-10-19
"264",131.5,0.00942036732329954,2.044228090891e-05,1.16766392278232e-11,0.00471018366748809,2020-10-19
"265",132,0.00945786874887877,2.0175427154581e-05,1.09348681504757e-11,0.00472893437990682,2020-10-20
"266",132.5,0.00949493315799294,1.99121789313554e-05,1.02402188793626e-11,0.00474746658411658,2020-10-20
"267",133,0.0095315523416924,1.96524860012935e-05,9.58969795101476e-12,0.00476577617564105,2020-10-21
"268",133.5,0.00956771815081641,1.93962988447818e-05,8.9805020649524e-12,0.00478385907989846,2020-10-21
"269",134,0.00960342249967149,1.91435686500287e-05,8.41000600337644e-12,0.00480171125404075,2020-10-22
"270",134.5,0.00963865736970664,1.88942473027171e-05,7.87575131827466e-12,0.00481932868879119,2020-10-22
"271",135,0.00967341481318291,1.86482873758139e-05,7.37543573719136e-12,0.00483670741027917,2020-10-23
"272",135.5,0.00971653160522185,1.84056421195321e-05,6.90690324200706e-12,0.00485826580606438,2020-10-23
"273",136,0.00980779353430323,1.81662654514438e-05,6.46813477797433e-12,0.00490389677038568,2020-10-24
"274",136.5,0.00989939934043734,1.79301119467412e-05,6.05723955297213e-12,0.00494969967324729,2020-10-24
"275",137,0.00999133827535972,1.76971368286442e-05,5.67244688948441e-12,0.00499566914051609,2020-10-25
"276",137.5,0.0100835993092102,1.74672959589508e-05,5.31209859419054e-12,0.00504179965726116,2020-10-25
"277",138,0.010176171129836,1.7240545828729e-05,4.97464181228566e-12,0.00508808556740534,2020-10-26
"278",138.5,0.0102690421422561,1.70305336646456e-05,4.65862233573808e-12,0.00513452107345735,2020-10-26
"279",139,0.0103622004682908,1.68387748052549e-05,4.36267833664685e-12,0.00518110023632673,2020-10-27
"280",139.5,0.0104556339463626,1.66491805374577e-05,4.08553449869447e-12,0.00522781697522405,2020-10-27
"281",140,0.0105493301314706,1.64617263750852e-05,3.82599652140545e-12,0.00527466506764829,2020-10-28
"282",140.5,0.010643276295345,1.62763881098293e-05,3.58294597352769e-12,0.00532163814946395,2020-10-28
"283",141,0.0107374594267843,1.60931418080455e-05,3.35533547335845e-12,0.00536872971506982,2020-10-29
"284",141.5,0.010831866232181,1.59119638075942e-05,3.14218417524516e-12,0.0054159331176616,2020-10-29
"285",142,0.0109264831362383,1.57328307147218e-05,2.94257354281127e-12,0.00546324156959044,2020-10-30
"286",142.5,0.0110212962828835,1.55557194009806e-05,2.7556433906924e-12,0.00551064814281956,2020-10-30
"287",143,0.0111162915363807,1.53806070001855e-05,2.58058817772545e-12,0.00555814576948063,2020-10-31
"288",143.5,0.0112114544826476,1.52074709054084e-05,2.41665353561691e-12,0.00560572724253214,2020-10-31
"289",144,0.0113067704307798,1.50362887660092e-05,2.26313301813122e-12,0.00565338521652147,2020-11-01
"290",144.5,0.0114022244147854,1.48670384847029e-05,2.11936505679047e-12,0.0057011122084524,2020-11-01
"291",145,0.0114978011955351,1.46996982146616e-05,1.98473010996648e-12,0.0057489005987599,2020-11-02
"292",145.5,0.0115934852629289,1.45342463566516e-05,1.85864799308e-12,0.00579674263239378,2020-11-02
"293",146,0.0116892608382849,1.43706615562057e-05,1.74057537840174e-12,0.00584463042001272,2020-11-03
"294",146.5,0.0117851118769505,1.42089227008277e-05,1.63000345368136e-12,0.00589255593929025,2020-11-03
"295",147,0.0118810220711415,1.40490089172317e-05,1.52645572951444e-12,0.00594051103633399,2020-11-04
"296",147.5,0.0119769748530095,1.38908995686136e-05,1.42948598599898e-12,0.0059884874272195,2020-11-04
"297",148,0.0120729533979411,1.37345742519549e-05,1.33867634983259e-12,0.0060364766996399,2020-11-05
"298",148.5,0.012168940628091,1.35800127953586e-05,1.25363549356431e-12,0.00608447031467233,2020-11-05
"299",149,0.0122649192161507,1.34271952554167e-05,1.17399694924075e-12,0.00613245960866237,2020-11-06
"300",149.5,0.0123608715893547,1.32761019146084e-05,1.09941752917981e-12,0.00618043579522707,2020-11-06
"301",150,0.0124567799337256,1.3126713278729e-05,1.02957584706632e-12,0.00622838996737759,2020-11-07
"302",150.5,0.0125526261985598,1.29790100743489e-05,9.64170932996793e-13,0.00627631309976197,2020-11-07
"303",151,0.0126483921011541,1.28329732463025e-05,9.02920936504851e-13,0.00632419605102849,2020-11-08
"304",151.5,0.0127440591317748,1.26885839552064e-05,8.45561911978426e-13,0.00637202956631018,2020-11-08
"305",152,0.0128396085588694,1.25458235750061e-05,7.91846681234604e-13,0.00641980427983062,2020-11-09
"306",152.5,0.0129350214345208,1.24046736905524e-05,7.41543768350639e-13,0.00646751071763119,2020-11-09
"307",153,0.013030278600145,1.22651160952043e-05,6.9443640216097e-13,0.00651513930041971,2020-11-10
"308",153.5,0.0131253606924307,1.21271327884613e-05,6.50321582121693e-13,0.00656268034654051,2020-11-10
"309",154,0.0132202481495216,1.19907059736224e-05,6.09009203516996e-13,0.00661012407506531,2020-11-11
"310",154.5,0.0133149212174393,1.18558180554719e-05,5.70321238237792e-13,0.00665746060900483,2020-11-11
"311",155,0.0134093599567463,1.17224516379925e-05,5.34090967602281e-13,0.00670467997864021,2020-11-12
"312",155.5,0.0135035442494474,1.1590589522105e-05,5.00162263912405e-13,0.00675177212497377,2020-11-12
"313",156,0.0135974538061276,1.14602147034328e-05,4.68388917650202e-13,0.00679872690329797,2020-11-13
"314",156.5,0.0136910681733249,1.13313103700939e-05,4.3863400741474e-13,0.00684553408688175,2020-11-13
"315",157,0.0137843667411348,1.12038599005168e-05,4.10769309884484e-13,0.00689218337077279,2020-11-14
"316",157.5,0.0138773287510444,1.10778468612825e-05,3.84674747262436e-13,0.00693866437571453,2020-11-14
"317",158,0.0139699333039922,1.09532550049906e-05,3.60237869822923e-13,0.00698496665217624,2020-11-15
"318",158.5,0.0140621593686517,1.08300682681503e-05,3.37353371330152e-13,0.00703107968449453,2020-11-15
"319",159,0.014153985789933,1.07082707690952e-05,3.15922635240326e-13,0.00707699289512446,2020-11-16
"320",159.5,0.0142453912977003,1.05878468059227e-05,2.95853309731757e-13,0.00712269564899807,2020-11-16
"321",160,0.0143363545156996,1.04687808544559e-05,2.77058909731651e-13,0.00716817725798831,2020-11-17
"322",160.5,0.0144268539706922,1.03510575662297e-05,2.59458444224569e-13,0.00721342698547585,2020-11-17
"323",161,0.0145168681017898,1.02346617664995e-05,2.42976067236516e-13,0.00725843405101636,2020-11-18
"324",161.5,0.0146063752699835,1.01195784522729e-05,2.27540750990649e-13,0.00730318763510553,2020-11-18
"325",162,0.0146953537678646,1.00057927903634e-05,2.13085979826114e-13,0.00734767688403885,2020-11-19
"326",162.5,0.0147837818295271,9.89329011546673e-06,1.99549463561016e-13,0.00739189091486334,2020-11-19
"327",163,0.0148716376406489,9.78205592825891e-06,1.86872869064328e-13,0.0074358188204179,2020-11-20
"328",163.5,0.0149588993487429,9.6720758935161e-06,1.75001568879965e-13,0.00747944967445896,2020-11-20
"329",164,0.015045545073572,9.56333583825572e-06,1.63884405819803e-13,0.00752277253686793,2020-11-21
"330",164.5,0.0151315529177202,9.45582174989878e-06,1.53473472511164e-13,0.00756577645893685,2020-11-21
"331",165,0.015216900977313,9.34951977445313e-06,1.43723904948794e-13,0.00760845048872834,2020-11-22
"332",165.5,0.0153015673528774,9.24441621471739e-06,1.34593689161672e-13,0.007650783676506,2020-11-22
"333",166,0.0153855301603359,9.1404975285052e-06,1.26043480161515e-13,0.00769276508023099,2020-11-23
"334",166.5,0.0154687675421235,9.03775032688977e-06,1.18036432392777e-13,0.00773438377112078,2020-11-23
"335",167,0.0155512576784203,8.93616137246828e-06,1.10538040953496e-13,0.00777562883926544,2020-11-24
"336",167.5,0.0156329787984908,8.83571757764603e-06,1.0351599290275e-13,0.00781648939929718,2020-11-24
"337",168,0.0157139091921197,8.73640600294005e-06,9.6940028013979e-14,0.0078569545961083,2020-11-25
"338",168.5,0.0157940272211351,8.63821385530199e-06,9.0781808374089e-14,0.00789701361061296,2020-11-25
"339",169,0.0158733113310104,8.54112848645999e-06,8.50147962664236e-14,0.00793665566554769,2020-11-26
"340",169.5,0.015951740062532,8.44513739127937e-06,7.96141398113457e-14,0.00797587003130582,2020-11-26
"341",170,0.0160292920635269,8.350228206142e-06,7.45565658716262e-14,0.00801464603180071,2020-11-27
"342",170.5,0.0161059461006349,8.25638870734387e-06,6.98202797611333e-14,0.00805297305035237,2020-11-27
"343",171,0.0161816810711196,8.163606809511e-06,6.53848713246345e-14,0.00809084053559247,2020-11-28
"344",171.5,0.0162564760147031,8.07187056403318e-06,6.12312269839811e-14,0.00812823800738216,2020-11-28
"345",172,0.0163303101254172,7.96351075019363e-06,5.73414473716527e-14,0.00816515506273729,2020-11-29
"346",172.5,0.0164031627634573,7.84408893390181e-06,5.36987701967202e-14,0.00820158138175548,2020-11-29
"347",173,0.0164750134670287,7.72651725327764e-06,5.02874980108312e-14,0.0082375067335395,2020-11-30
"348",173.5,0.0165458419641754,7.610766234296e-06,4.70929305629388e-14,0.00827292098211127,2020-11-30
"349",174,0.0166156281845773,7.49680688284222e-06,4.41013014512694e-14,0.0083078140923107,2020-12-01
"350",174.5,0.0166843522713063,7.3846106767837e-06,4.12997187995421e-14,0.00834217613567379,2020-12-01
"351",175,0.0167519945925294,7.27414955817308e-06,3.86761097017955e-14,0.00837599729628405,2020-12-02
"352",175.5,0.0168185357531469,7.16539592558096e-06,3.62191681964166e-14,0.00840926787659156,2020-12-02
"353",176,0.0168839566063536,7.05832262655589e-06,3.39183065451749e-14,0.00844197830319375,2020-12-03
"354",176.5,0.0169482382651126,6.95290295020952e-06,3.17636096073095e-14,0.00847411913257217,2020-12-03
"355",177,0.0170113621135291,6.84911061992503e-06,2.97457921120501e-14,0.00850568105677945,2020-12-04
"356",177.5,0.017073309818113,6.74691978618668e-06,2.78561586454485e-14,0.00853665490907045,2020-12-04
"357",178,0.0171340633389181,6.6463050195284e-06,2.60865661790881e-14,0.0085670316694721,2020-12-05
"358",178.5,0.0171936049405474,6.54724130359972e-06,2.44293889791993e-14,0.00859680247028594,2020-12-05
"359",179,0.0172519172030126,6.44970402834683e-06,2.28774857449591e-14,0.00862595860151772,2020-12-06
"360",179.5,0.0173089830324356,6.35366898330707e-06,2.14241688343678e-14,0.00865449151622851,2020-12-06
"361",180,0.0173647856715828,6.25911235101485e-06,2.00631754450828e-14,0.00868239283580142,2020-12-07
"362",180.5,0.0174193087102186,6.16601070051723e-06,1.87886406260228e-14,0.00870965435511871,2020-12-07
"363",181,0.0174725360952696,6.07434098099731e-06,1.75950720034376e-14,0.0087362680476436,2020-12-08
"364",181.5,0.0175244521407864,5.98408051550369e-06,1.64773261125325e-14,0.00876222607040143,2020-12-08
"365",182,0.0175750415376945,5.89520699478419e-06,1.54305862326509e-14,0.00878752076885498,2020-12-09
"366",182.5,0.0176242893633227,5.80769847122217e-06,1.44503416305013e-14,0.00881214468166856,2020-12-09
"367",183,0.0176721810906985,5.72153335287362e-06,1.35323681219807e-14,0.008836090545356,2020-12-10
"368",183.5,0.0177187025976021,5.63669039760361e-06,1.26727098688287e-14,0.00885935129880739,2020-12-10
"369",184,0.0177638401753679,5.55314870732008e-06,1.18676623316689e-14,0.00888192008768986,2020-12-11
"370",184.5,0.0178075805374241,5.47088772230374e-06,1.11137563059771e-14,0.00890379026871761,2020-12-11
"371",185,0.0178499108275628,5.38988721563221e-06,1.04077429721812e-14,0.0089249554137866,2020-12-12
"372",185.5,0.0178908186279296,5.31012728769693e-06,9.74657989546975e-15,0.00894540931396965,2020-12-12
"373",186,0.0179302919667257,5.23158836081135e-06,9.12741791497821e-15,0.00896514598336744,2020-12-13
"374",186.5,0.0179683193256145,5.15425117390881e-06,8.54758886585312e-15,0.0089841596628115,2020-12-13
"375",187,0.0180048896468225,5.07809677732863e-06,8.00459408128576e-15,0.00900244482341524,2020-12-14
"376",187.5,0.0180399923399308,5.00310652768896e-06,7.49609362496637e-15,0.00901999616996913,2020-12-14
"377",188,0.0180736172883463,4.929262082845e-06,7.01989620755829e-15,0.00903680864417665,2020-12-15
"378",188.5,0.0181057548554484,4.85654539693101e-06,6.573949743739e-15,0.00905287742772749,2020-12-15
"379",189,0.0181363958904037,4.78493871548491e-06,6.15633250911527e-15,0.00906819794520492,2020-12-16
"380",189.5,0.0181655317336426,4.71442457065396e-06,5.76524485890476e-15,0.00908276586682419,2020-12-16
"381",190,0.0181931542219933,4.64498577648023e-06,5.39900147269732e-15,0.00909657711099936,2020-12-17
"382",190.5,0.0182192556934667,4.57660542426451e-06,5.0560240918762e-15,0.00910962784673586,2020-12-17
"383",191,0.0182438289916881,4.50926687800734e-06,4.73483471840232e-15,0.00912191449584641,2020-12-18
"384",191.5,0.0182668674699721,4.44295376992594e-06,4.43404924565318e-15,0.00913343373498826,2020-12-18
"385",192,0.0182883649950352,4.37764999604567e-06,4.15237149386953e-15,0.00914418249751965,2020-12-19
"386",192.5,0.0183083159503441,4.31333971186485e-06,3.88858762450671e-15,0.00915415797517397,2020-12-19
"387",193,0.0183267152390962,4.25000732809174e-06,3.64156090942037e-15,0.00916335761954993,2020-12-20
"388",193.5,0.0183435582868299,4.18763750645239e-06,3.41022683234526e-15,0.00917177914341667,2020-12-20
"389",194,0.0183588410436619,4.12621515556824e-06,3.19358850155789e-15,0.00917942052183257,2020-12-21
"390",194.5,0.0183725599861514,4.06572542690226e-06,2.9907123539547e-15,0.0091862799930772,2020-12-21
"391",195,0.0183847121187883,4.00615371077259e-06,2.8007241320333e-15,0.00919235605939554,2020-12-22
"392",195.5,0.0183952949751061,3.94748563243239e-06,2.62280511644033e-15,0.00919764748755437,2020-12-22
"393",196,0.0184043066184186,3.88970704821496e-06,2.45618859785073e-15,0.00920215330921051,2020-12-23
"394",196.5,0.0184117456421801,3.83280404174287e-06,2.30015657297472e-15,0.00920587282109118,2020-12-23
"395",197,0.0184176111699711,3.77676292020022e-06,2.15403665045445e-15,0.00920880558498664,2020-12-24
"396",197.5,0.0184219028551096,3.72157021066682e-06,2.01719915331695e-15,0.00921095142755583,2020-12-24
"397",198,0.0184246208798893,3.66721265651333e-06,1.88905440549683e-15,0.00921231043994557,2020-12-25
"398",198.5,0.0184257659544474,3.61367721385628e-06,1.76905019073557e-15,0.0092128829772246,2020-12-25
"399",199,0.0184253393152651,3.56095104807213e-06,1.65666937290696e-15,0.00921266965763338,2020-12-26
"400",199.5,0.018423342723301,3.5090215303691e-06,1.55142766751392e-15,0.0092116713616513,2020-12-26
"401",200,0.0184197784617641,3.45787623441611e-06,1.45287155475341e-15,0.00920988923088276,2020-12-27
"402",200.5,0.018414649333527,3.40750293302768e-06,1.36057632515609e-15,0.00920732466676416,2020-12-27
"403",201,0.018407958658186,3.35788959490389e-06,1.27414424937891e-15,0.00920397932909365,2020-12-28
"404",201.5,0.0183997102687709,3.30902438142452e-06,1.1932028642635e-15,0.00919985513438605,2020-12-28
"405",202,0.0183899085081094,3.26089564349644e-06,1.11740336777459e-15,0.00919495425405525,2020-12-29
"406",202.5,0.0183785582248525,3.21349191845339e-06,1.0464191159017e-15,0.00918927911242679,2020-12-29
"407",203,0.0183656647691661,3.16680192700717e-06,9.79944215046781e-16,0.00918283238458354,2020-12-30
"408",203.5,0.0183512339880934,3.12081457024952e-06,9.17692203831891e-16,0.00917561699404713,2020-12-30
"409",204,0.0183352722205967,3.07551892670375e-06,8.59394818646519e-16,0.0091676361102988,2020-12-31
"410",204.5,0.0183177862922841,3.03741526839122e-06,8.04800837614806e-16,0.00915889314614246,2020-12-31
"411",205,0.018298783509827,3.0009182268305e-06,7.5367499800101e-16,0.00914939175491389,2021-01-01
"412",205.5,0.0182782716550782,2.9648596780911e-06,7.05796982387947e-16,0.00913913582753947,2021-01-01
"413",206,0.0182562589788959,2.92923435520047e-06,6.60960469259542e-16,0.0091281294894483,2021-01-02
"414",206.5,0.0182327541946827,2.89403705441842e-06,6.18972243896143e-16,0.00911637709734166,2021-01-02
"415",207,0.018207766471647,2.85926263447875e-06,5.79651365751167e-16,0.00910388323582381,2021-01-03
"416",207.5,0.0181813054277962,2.82490601583999e-06,5.42828388721046e-16,0.00909065271389838,2021-01-03
"417",208,0.0181533811226686,2.79096217994509e-06,5.08344630948355e-16,0.00907669056133455,2021-01-04
"418",208.5,0.0181240040498147,2.75742616848994e-06,4.76051491011492e-16,0.00906200202490761,2021-01-04
"419",209,0.0180931851290359,2.72429308270071e-06,4.45809807554135e-16,0.00904659256451816,2021-01-05
"420",209.5,0.0180609356983891,2.69155808261981e-06,4.17489259594941e-16,0.00903046784919477,2021-01-05
"421",210,0.0180272675059689,2.65921638640036e-06,3.90967804933198e-16,0.00901363375298466,2021-01-06
"422",210.5,0.0179921927014741,2.62726326960917e-06,3.66131154230382e-16,0.00899609635073725,2021-01-06
"423",211,0.0179557238275704,2.59569406453806e-06,3.42872278501235e-16,0.00897786191378536,2021-01-07
"424",211.5,0.0179178738110576,2.56450415952334e-06,3.21090947892008e-16,0.00895893690552896,2021-01-07
"425",212,0.0178786559538527,2.53368899827357e-06,3.00693299758314e-16,0.0089393279769265,2021-01-08
"426",212.5,0.0178380839237971,2.50324407920526e-06,2.81591434181299e-16,0.00891904196189871,2021-01-08
"427",213,0.0177961717452998,2.47316495478657e-06,2.63703035179083e-16,0.00889808587265004,2021-01-09
"428",213.5,0.0177529337898251,2.44344723088889e-06,2.46951015981148e-16,0.00887646689491266,2021-01-09
"429",214,0.0177083847662363,2.41408656614615e-06,2.31263186837065e-16,0.00885419238311828,2021-01-10
"430",214.5,0.0176625397110053,2.3850786713218e-06,2.16571943928013e-16,0.00883126985550275,2021-01-10
"431",215,0.0176154139782972,2.35641930868339e-06,2.02813978040543e-16,0.00880770698914871,2021-01-11
"432",215.5,0.0175670232299423,2.32810429138467e-06,1.89930001747144e-16,0.00878351161497125,2021-01-11
"433",216,0.0175173834253036,2.30012948285501e-06,1.77864493917964e-16,0.00875869171265187,2021-01-12
"434",216.5,0.0174665108110511,2.27249079619621e-06,1.66565460462694e-16,0.00873325540552565,2021-01-12
"435",217,0.0174144219108537,2.2451841935865e-06,1.55984210271588e-16,0.00870721095542694,2021-01-13
"436",217.5,0.0173611335149966,2.21820568569169e-06,1.46075145390064e-16,0.00868056675749839,2021-01-13
"437",218,0.0173066626699369,2.19155133108338e-06,1.36795564522693e-16,0.00865333133496854,2021-01-14
"438",218.5,0.0172510266678055,2.16521723566409e-06,1.28105479019809e-16,0.0086255133339028,2021-01-14
"439",219,0.0171942430358657,2.13919955209937e-06,1.19967440553763e-16,0.0085971215179329,2021-01-15
"440",219.5,0.017136329525939,2.11349447925665e-06,1.12346379742237e-16,0.00856816476296955,2021-01-15
"441",220,0.0170773041038064,2.08809826165077e-06,1.05209455023178e-16,0.00853865205190327,2021-01-16
"442",220.5,0.0170171849385959,2.0630071888963e-06,9.85259111301182e-17,0.00850859246929801,2021-01-16
"443",221,0.0169559903921648,2.03821759516626e-06,9.22669465580007e-17,0.00847799519608245,2021-01-17
"444",221.5,0.0168937390084867,2.01372585865743e-06,8.6405589448384e-17,0.0084468695042434,2021-01-17
"445",222,0.0168304495030517,1.98952840106202e-06,8.09165813591703e-17,0.00841522475152591,2021-01-18
"446",222.5,0.0167661407522892,1.9656216870457e-06,7.57762684179881e-17,0.00838307037614465,2021-01-18
"447",223,0.0167008317830215,1.94200222373185e-06,7.09624993901727e-17,0.0083504158915108,2021-01-19
"448",223.5,0.0166345417619574,1.91866656019204e-06,6.64545302220883e-17,0.00831727088097874,2021-01-19
"449",224,0.0165672899852335,1.89561128694256e-06,6.2232934648438e-17,0.00828364499261677,2021-01-20
"450",224.5,0.0164990958680119,1.87283303544704e-06,5.82795204783415e-17,0.00824954793400599,2021-01-20
"451",225,0.0164299789341422,1.85032847762499e-06,5.45772511994287e-17,0.00821498946707113,2021-01-21
"452",225.5,0.0163599588058947,1.82809432536622e-06,5.11101725621182e-17,0.00817997940294739,2021-01-21
"453",226,0.016289055193774,1.80612733005116e-06,4.7863343827709e-17,0.008144527596887,2021-01-22
"454",226.5,0.0162172878864181,1.78442428207682e-06,4.48227733840105e-17,0.00810864394320905,2021-01-22
"455",227,0.0161446767405925,1.76298201038853e-06,4.19753584510587e-17,0.00807233837029628,2021-01-23
"456",227.5,0.0160712416712841,1.74179738201723e-06,3.93088286170931e-17,0.00803562083564209,2021-01-23
"457",228,0.0159970026419024,1.72086730162231e-06,3.68116929614694e-17,0.0079985013209512,2021-01-24
"458",228.5,0.0159219796545942,1.70018871104e-06,3.44731905366482e-17,0.0079609898272971,2021-01-24
"459",229,0.0158461927406783,1.67975858883704e-06,3.22832439958668e-17,0.00792309637033916,2021-01-25
"460",229.5,0.0157696619512054,1.65957394986988e-06,3.02324161666645e-17,0.00788483097560273,2021-01-25
"461",230,0.0156924073476492,1.639631844849e-06,2.83118693831208e-17,0.00784620367382459,2021-01-26
"462",230.5,0.0156144489927335,1.61992935990853e-06,2.65133274015567e-17,0.00780722449636675,2021-01-26
"463",231,0.0155358069414019,1.60046361618104e-06,2.48290397355828e-17,0.00776790347070095,2021-01-27
"464",231.5,0.0154565012319329,1.5812317693774e-06,2.32517482568014e-17,0.00772825061596648,2021-01-27
"465",232,0.0153765518772067,1.56223100937171e-06,2.17746559172348e-17,0.00768827593860338,2021-01-28
"466",232.5,0.0152959788561268,1.54345855979113e-06,2.03913974586956e-17,0.00764798942806341,2021-01-28
"467",233,0.0152148021052014,1.52491167761074e-06,1.9096011982875e-17,0.00760740105260073,2021-01-29
"468",233.5,0.0151330415102884,1.50658765275317e-06,1.78829172639467e-17,0.00756652075514421,2021-01-29
"469",234,0.0151573438330096,1.48848380769308e-06,1.67468856929893e-17,0.00757867191650482,2021-01-30
"470",234.5,0.0152004012611911,1.47059749706635e-06,1.56830217505662e-17,0.00760020063059555,2021-01-30
"471",235,0.0152424434532567,1.45292610728399e-06,1.46867409103829e-17,0.00762122172662835,2021-01-31
"472",235.5,0.015283459309045,1.43546705615063e-06,1.37537498831133e-17,0.00764172965452253,2021-01-31
"473",236,0.0153234379934979,1.41821779248768e-06,1.28800281152579e-17,0.00766171899674896,2021-02-01
"474",236.5,0.015362368942708,1.40117579576088e-06,1.20618104633063e-17,0.00768118447135401,2021-02-01
"475",237,0.0154002418698208,1.38433857571241e-06,1.12955709685431e-17,0.00770012093491038,2021-02-02
"476",237.5,0.0154370467707844,1.36770367199743e-06,1.0578007662576e-17,0.00771852338539218,2021-02-02
"477",238,0.0154727739299424,1.35126865382486e-06,9.90602833810958e-18,0.00773638696497121,2021-02-03
"478",238.5,0.015507413925464,1.33503111960261e-06,9.27673722364592e-18,0.00775370696273198,2021-02-03
"479",239,0.0155409576346056,1.31898869658697e-06,8.68742250468876e-18,0.00777047881730278,2021-02-04
"480",239.5,0.0155733962388006,1.30313904053623e-06,8.13554463767717e-18,0.00778669811940031,2021-02-04
"481",240,0.0156047212285708,1.2874798353685e-06,7.61872540628884e-18,0.00780236061428539,2021-02-05
"482",240.5,0.0156349244082548,1.27200879282356e-06,7.13473767295362e-18,0.00781746220412743,2021-02-05
"483",241,0.0156639979005508,1.25672365212882e-06,6.68149578141309e-18,0.00783199895027541,2021-02-06
"484",241.5,0.0156919341508664,1.24162217966925e-06,6.25704656896796e-18,0.00784596707543321,2021-02-06
"485",242,0.0157187259314745,1.22670216866133e-06,5.85956094968209e-18,0.00785936296573724,2021-02-07
"486",242.5,0.0157443663454686,1.21196143883083e-06,5.48732603227251e-18,0.00787218317273432,2021-02-07
"487",243,0.0157688488305163,1.19739783609451e-06,5.13873773871901e-18,0.00788442441525815,2021-02-08
"488",243.5,0.0157921671624049,1.18300923224566e-06,4.81229389178448e-18,0.00789608358120243,2021-02-08
"489",244,0.0158143154583782,1.1687935246433e-06,4.50658774165795e-18,0.00790715772918911,2021-02-09
"490",244.5,0.0158352881802604,1.15474863590529e-06,4.22030190382464e-18,0.00791764409013019,2021-02-09
"491",245,0.0158550801373635,1.14087251360492e-06,3.95220268203928e-18,0.00792754006868175,2021-02-10
"492",245.5,0.0158736864891775,1.12716312997132e-06,3.70113475193871e-18,0.00793684324458877,2021-02-10
"493",246,0.0158911027478394,1.11295434726596e-06,3.4660161823837e-18,0.00794555137391972,2021-02-11
"494",246.5,0.0159073247803795,1.09835928200308e-06,3.24583377307539e-18,0.00795366239018977,2021-02-11
"495",247,0.0159223488107435,1.08395661657983e-06,3.03963868835466e-18,0.00796117440537173,2021-02-12
"496",247.5,0.0159361714215878,1.06974380183364e-06,2.84654236836911e-18,0.00796808571079391,2021-02-12
"497",248,0.0159487895558483,1.05571832253921e-06,2.66571269998752e-18,0.00797439477792416,2021-02-13
"498",248.5,0.0159602005180792,1.04187769695472e-06,2.49637043096114e-18,0.00798010025903961,2021-02-13
"499",249,0.0159704019755632,1.02821947637407e-06,2.33778581187923e-18,0.00798520098778161,2021-02-14
"500",249.5,0.0159793919591912,1.01474124468512e-06,2.18927545144798e-18,0.00798969597959559,2021-02-14
"501",250,0.0159871688641112,1.00144061793393e-06,2.05019937154121e-18,0.00799358443205558,2021-02-15
"502",250.5,0.0159937314501469,9.88315243894784e-07,1.91995824933218e-18,0.00799686572507346,2021-02-15
"503",251,0.0159990788419857,9.75362801646014e-07,1.7979908346219e-18,0.00799953942099285,2021-02-16
"504",251.5,0.0160032105291358,9.62581001151526e-07,1.68377153123451e-18,0.00800160526456792,2021-02-16
"505",252,0.0160061263656547,9.49967582847926e-07,1.57680813205702e-18,0.00800306318282736,2021-02-17
"506",252.5,0.0160078265696481,9.37520317237194e-07,1.47663969796319e-18,0.00800391328482405,2021-02-17
"507",253,0.0160083117225415,9.25237004484828e-07,1.382834571481e-18,0.00800415586127077,2021-02-18
"508",253.5,0.0160075827681258,9.13115474023376e-07,1.29498851664403e-18,0.0080037913840629,2021-02-18
"509",254,0.0160056410113772,9.01153584161293e-07,1.21272297701081e-18,0.00800282050568859,2021-02-19
"510",254.5,0.0160024881170552,8.89349221697049e-07,1.13568344434534e-18,0.00800124405852758,2021-02-19
"511",255,0.015998126108079,8.77700301538407e-07,1.06353793092897e-18,0.0079990630540395,2021-02-20
"512",255.5,0.0159925573636857,8.66204766326817e-07,9.95975538920269e-19,0.00799627868184283,2021-02-20
"513",256,0.0159857846173717,8.54860586066847e-07,9.32705120597875e-19,0.00799289230868584,2021-02-21
"514",256.5,0.0159778109546214,8.43665757760588e-07,8.73454023712864e-19,0.00798890547731071,2021-02-21
"515",257,0.0159686398104248,8.32618305046963e-07,8.17966916543944e-19,0.00798431990521242,2021-02-22
"516",257.5,0.0159582749665878,8.21716277845871e-07,7.66004687592298e-19,0.00797913748329389,2021-02-22
"517",258,0.0159467205488381,8.10957752007112e-07,7.17343415174483e-19,0.00797336027441907,2021-02-23
"518",258.5,0.0159339810237313,8.00340828964018e-07,6.71773402473058e-19,0.00796699051186567,2021-02-23
"519",259,0.015920061195359,7.89863635391726e-07,6.29098273886661e-19,0.00796003059767948,2021-02-24
"520",259.5,0.0159049662018642,7.79524322870045e-07,5.89134128785412e-19,0.00795248310093211,2021-02-24
"521",260,0.0158887015117686,7.69321067550833e-07,5.51708749024919e-19,0.00794435075588429,2021-02-25
"522",260.5,0.0158712729201133,7.59252069829844e-07,5.16660856803817e-19,0.00793563646005666,2021-02-25
"523",261,0.0158526865444211,7.49315554022971e-07,4.83839419666694e-19,0.00792634327221056,2021-02-26
"524",261.5,0.0158329488204813,7.39509768046834e-07,4.5310299965746e-19,0.00791647441024065,2021-02-26
"525",262,0.0158120664979643,7.29832983103647e-07,4.24319143818453e-19,0.00790603324898217,2021-02-27
"526",262.5,0.0157900466358698,7.20283493370315e-07,3.97363813408734e-19,0.00789502331793488,2021-02-27
"527",263,0.0157668965978127,7.10859615691699e-07,3.72120849381918e-19,0.00788344829890634,2021-02-28
"528",263.5,0.0157426240471541,7.0155968927799e-07,3.48481471820093e-19,0.00787131202357707,2021-02-28
"529",264,0.0157172369419802,6.92382075406144e-07,3.26343811166736e-19,0.00785861847099012,2021-03-01
"530",264.5,0.0156907435299355,6.8332515712532e-07,3.05612469238572e-19,0.00784537176496774,2021-03-01
"531",265,0.0156631523429157,6.74387338966263e-07,2.86198108124617e-19,0.00783157617145784,2021-03-02
"532",265.5,0.015634472191626,6.65567046654588e-07,2.68017065200859e-19,0.00781723609581301,2021-03-02
"533",266,0.0156047121600097,6.56862726827903e-07,2.50990992601544e-19,0.00780235608000486,2021-03-03
"534",266.5,0.0155738815995531,6.48272846756723e-07,2.35046519593433e-19,0.00778694079977657,2021-03-03
"535",267,0.0155419901234728,6.3979589406913e-07,2.20114936398105e-19,0.00777099506173638,2021-03-04
"536",267.5,0.0155090476007901,6.31430376479119e-07,2.06131898099782e-19,0.00775452380039503,2021-03-04
"537",268,0.0154750641503002,6.23174821518585e-07,1.9303714736273e-19,0.0077375320751501,2021-03-05
"538",268.5,0.01544005013444,6.150277762729e-07,1.80774254763337e-19,0.00772002506722001,2021-03-05
"539",269,0.0154040161530616,6.06987807120039e-07,1.69290375617876e-19,0.0077020080765308,2021-03-06
"540",269.5,0.0153669730371172,5.99053499473195e-07,1.58536022258044e-19,0.00768348651855862,2021-03-06
"541",270,0.0153289318422618,5.91223457526849e-07,1.4846485077294e-19,0.00766446592113088,2021-03-07
"542",270.5,0.015289903842378,5.83545266676581e-07,1.39033461298496e-19,0.00764495192118899,2021-03-07
"543",271,0.0152499005230317,5.76225966266686e-07,1.30201210993732e-19,0.00762495026151587,2021-03-08
"544",271.5,0.015208933574862,5.68999781956942e-07,1.21930038897893e-19,0.00760446678743098,2021-03-08
"545",272,0.015167014886912,5.61865513069986e-07,1.14184301913731e-19,0.00758350744345599,2021-03-09
"546",272.5,0.0151241565399082,5.54821974603988e-07,1.06930621210122e-19,0.00756207826995408,2021-03-09
"547",273,0.0150803707994912,5.47867997025707e-07,1.00137738382124e-19,0.00754018539974562,2021-03-10
"548",273.5,0.015035670109407,5.41002426066298e-07,9.3776380748618e-20,0.00751783505470351,2021-03-10
"549",274,0.0149900670846615,5.34224122519852e-07,8.78191352070684e-20,0.00749503354233075,2021-03-11
"550",274.5,0.0149435745046468,5.27531962044608e-07,8.22403301017887e-20,0.00747178725232341,2021-03-11
"551",275,0.0148962053062433,5.20924834966822e-07,7.70159245966566e-20,0.00744810265312166,2021-03-12
"552",275.5,0.0148479725769037,5.1440164608725e-07,7.21234050755456e-20,0.00742398628845185,2021-03-12
"553",276,0.0147988895477248,5.07961314490205e-07,6.75416881240307e-20,0.00739944477386241,2021-03-13
"554",276.5,0.0147489695865125,5.01602773355159e-07,6.32510296742851e-20,0.00737448479325625,2021-03-13
"555",277,0.0146982261908451,4.95324969770859e-07,5.92329399216466e-20,0.00734911309542256,2021-03-14
"556",277.5,0.0146466729811411,4.89126864551911e-07,5.54701036461988e-20,0.00732333649057054,2021-03-14
"557",278,0.0145943236937356,4.83007432057814e-07,5.19463055960114e-20,0.00729716184686782,2021-03-15
"558",278.5,0.0145411921739722,4.76965660014399e-07,4.86463606104894e-20,0.00727059608698612,2021-03-15
"559",279,0.0144872923693134,4.71000549337647e-07,4.55560481827119e-20,0.00724364618465672,2021-03-16
"560",279.5,0.0144326383224765,4.65111113959853e-07,4.26620511787693e-20,0.00721631916123825,2021-03-16
"561",280,0.0143772441645985,4.59296380658104e-07,3.99518984500202e-20,0.00718862208229926,2021-03-17
"562",280.5,0.0143211241084358,4.53555388885036e-07,3.74139110909663e-20,0.00716056205421788,2021-03-17
"563",281,0.0142642924416022,4.47887190601851e-07,3.50371521111538e-20,0.00713214622080108,2021-03-18
"564",281.5,0.0142067635198513,4.42290850113552e-07,3.28113793042219e-20,0.00710338175992566,2021-03-18
"565",282,0.0141485517604065,4.36765443906365e-07,3.0727001110995e-20,0.00707427588020323,2021-03-19
"566",282.5,0.0140896716353427,4.31310060487333e-07,2.87750352864197e-20,0.00704483581767137,2021-03-19
"567",283,0.0140301376650262,4.25923800226039e-07,2.69470701922296e-20,0.00701506883251308,2021-03-20
"568",283.5,0.013969964411613,4.20605775198433e-07,2.52352285485346e-20,0.0069849822058065,2021-03-20
"569",284,0.0139091664726137,4.1535510903274e-07,2.36321334881299e-20,0.00695458323630683,2021-03-21
"570",284.5,0.0138477584745251,4.10170936757414e-07,2.20903255971184e-20,0.00692387923726257,2021-03-21
"571",285,0.0137857550665352,4.05052404651114e-07,2.05665632907118e-20,0.00689287753326758,2021-03-22
"572",285.5,0.013723170914302,3.99998670094674e-07,1.91479081524271e-20,0.006861585457151,2021-03-22
"573",286,0.0136600206938133,3.95008901425043e-07,1.78271100247139e-20,0.00683001034690664,2021-03-23
"574",286.5,0.0135963190853268,3.90082277791166e-07,1.65974188565844e-20,0.0067981595426634,2021-03-23
"575",287,0.0135320807673968,3.85217989011775e-07,1.54525502069038e-20,0.0067660403836984,2021-03-24
"576",287.5,0.0134673204109884,3.80415235435078e-07,1.43866531272206e-20,0.00673366020549418,2021-03-24
"577",288,0.013402052673683,3.75673227800306e-07,1.33942802599979e-20,0.0067010263368415,2021-03-25
"578",288.5,0.0133362921939781,3.70991187101104e-07,1.24703599994296e-20,0.00666814609698905,2021-03-25
"579",289,0.0132700535856826,3.66400023773087e-07,1.16101705725688e-20,0.00663502679284128,2021-03-26
"580",289.5,0.0132033514324114,3.62178113469374e-07,1.0809315908306e-20,0.00660167571620569,2021-03-26
"581",290,0.0131362002821812,3.58004959212268e-07,1.00637031708743e-20,0.00656810014109062,2021-03-27
"582",290.5,0.0130686146421091,3.53879996709865e-07,9.36952184306491e-21,0.00653430732105456,2021-03-27
"583",291,0.0130006089732164,3.49802668215341e-07,8.72322425225507e-21,0.00650030448660818,2021-03-28
"584",291.5,0.0129321976853396,3.45772422450884e-07,8.12150743972615e-21,0.00646609884266978,2021-03-28
"585",292,0.0128633951321503,3.41788714532507e-07,7.56129628061248e-21,0.00643169756607516,2021-03-29
"586",292.5,0.0127942156062853,3.37851005895738e-07,7.03972776821468e-21,0.00639710780314264,2021-03-29
"587",293,0.012724673334588,3.3395876422217e-07,6.55413638236075e-21,0.00636233666729401,2021-03-30
"588",293.5,0.012654782473464,3.30111463366875e-07,6.10204046703891e-21,0.00632739123673201,2021-03-30
"589",294,0.0125845571043499,3.26308583286657e-07,5.68112954768385e-21,0.00629227855217494,2021-03-31
"590",294.5,0.0125140112292981,3.2254960996914e-07,5.28925252330021e-21,0.00625700561464904,2021-03-31
"591",295,0.0124431587666778,3.1883403536269e-07,4.92440667307834e-21,0.0062215793833389,2021-04-01
"592",295.5,0.012372013546993,3.15161357307139e-07,4.5847274213195e-21,0.00618600677349649,2021-04-01
"593",296,0.0123005893088181,3.11531079465331e-07,4.26847880836345e-21,0.00615029465440906,2021-04-02
"594",296.5,0.0122288996948524,3.07942711255452e-07,3.97404461881916e-21,0.00611444984742622,2021-04-02
