"","time","top","med","bottom","pseudo_med","date"
"1",0,0.00874382587396354,0.00149417134926622,2.76564669049662e-05,0.00438574117043425,2020-06-10
"2",0.5,0.00845146751943518,0.00143425806911631,6.01294784918124e-05,0.00425579849896349,2020-06-10
"3",1,0.00817033847308245,0.00138479983171558,9.07720812199941e-05,0.00413055527715122,2020-06-11
"4",1.5,0.0079000204504973,0.00134125295381958,0.000116844249470985,0.00400843234998414,2020-06-11
"5",2,0.00764011083892416,0.00129619665836655,0.00013006399231093,0.00388508741561754,2020-06-12
"6",2.5,0.00739022211056921,0.00125380228403575,0.00014291308217178,0.00376656759637049,2020-06-12
"7",3,0.00714998125787245,0.00120681504560629,0.00015541228247101,0.00365269677017173,2020-06-13
"8",3.5,0.00691902924992038,0.00117086208963498,0.000167581423101668,0.00354330533651103,2020-06-13
"9",4,0.00669702050920769,0.0011350191716407,0.000179439444867936,0.00343822997703781,2020-06-14
"10",4.5,0.00648362240798631,0.0011045406544021,0.000190739164009824,0.00333718078599807,2020-06-14
"11",5,0.00627851478346835,0.00107262635459994,0.000191434906049781,0.00323497484475907,2020-06-15
"12",5.5,0.00608138947117714,0.00105169818906486,0.000192225310857328,0.00313680739101724,2020-06-15
"13",6,0.00589194985576688,0.0010236456238534,0.000193107736197724,0.0030425287959823,2020-06-16
"14",6.5,0.00570991043865692,0.00100405905566162,0.000194079682701359,0.00295199506067914,2020-06-16
"15",7,0.00553499642185122,0.000983627069602653,0.000195138787612202,0.00286506760473171,2020-06-17
"16",7.5,0.00536694330733685,0.000954107069346104,0.000196282818825277,0.00278161306308107,2020-06-17
"17",8,0.00520549651147851,0.000938452627163606,0.000197509669199993,0.00270150309033925,2020-06-18
"18",8.5,0.00505041099384737,0.000925545436201474,0.00019881735113674,0.00262461417249206,2020-06-18
"19",9,0.00490145089994408,0.000899076456599915,0.000200203991404749,0.00255082744567441,2020-06-19
"20",9.5,0.00475838921729555,0.000881699046443369,0.000201667826209765,0.00248002852175266,2020-06-19
"21",10,0.00462100744442491,0.000858232663995862,0.000203207196490595,0.00241210732045775,2020-06-20
"22",10.5,0.00448909527221268,0.000840076090333088,0.000204820543434099,0.00234695790782339,2020-06-20
"23",11,0.00436245027718511,0.000812121790344855,0.000206506404198676,0.0022844783406919,2020-06-21
"24",11.5,0.00424087762628338,0.000795162882944476,0.00020826340783673,0.00222457051706005,2020-06-21
"25",12,0.0041241897926835,0.00078394690021457,0.00021009027140707,0.00216714003204528,2020-06-22
"26",12.5,0.00401220628225346,0.000777679998798363,0.000211985796268571,0.00211209603926102,2020-06-22
"27",13,0.00390475337024923,0.000768367113834944,0.000208880916152543,0.00205681714320089,2020-06-23
"28",13.5,0.00380166384786622,0.000758064662549345,0.000199000036531835,0.00200033194219903,2020-06-23
"29",14,0.00370277677827732,0.000756220667088398,0.000189897449895221,0.00194633711408627,2020-06-24
"30",14.5,0.00360793726180233,0.000749147056351429,0.000181518630940188,0.00189472794637126,2020-06-24
"31",15,0.00351699620986672,0.000738901472714627,0.000173812962596569,0.00184540458623164,2020-06-25
"32",15.5,0.00342981012742091,0.000726622072531973,0.00016673345717536,0.00179827179229813,2020-06-25
"33",16,0.00334624090350307,0.000711157093376043,0.000160236497431254,0.00175323870046716,2020-06-26
"34",16.5,0.00326615560964065,0.000703967584266199,0.000154281596117024,0.00171021860287884,2020-06-26
"35",17,0.00318942630579713,0.000708682836739229,0.000148831172709405,0.00166912873925327,2020-06-27
"36",17.5,0.00311592985358142,0.000705543262503216,0.000143850346080424,0.00162989009983092,2020-06-27
"37",18,0.00304554773644813,0.000701903058717471,0.000139306741975637,0.00159242723921188,2020-06-28
"38",18.5,0.00297816588662675,0.000691375117910697,0.000135170314242064,0.00155666810043441,2020-06-28
"39",19,0.002913674518528,0.000692401012512401,0.000131413178824072,0.00152254384867603,2020-06-29
"40",19.5,0.00285196796838465,0.000686980760897943,0.000128009459615578,0.00148998871400011,2020-06-29
"41",20,0.00279294453989354,0.000688147691556049,0.000124935145322027,0.00145893984260778,2020-06-30
"42",20.5,0.00273650635563391,0.000687943502293787,0.000122167956546041,0.00142933715608998,2020-06-30
"43",21,0.00268255921404597,0.000685645623379851,0.000119687222366784,0.00140112321820638,2020-07-01
"44",21.5,0.00263101245176128,0.00068696641512541,0.000117473765735187,0.00137424310874823,2020-07-01
"45",22,0.00258177881108476,0.000686889623126117,0.000115509797055606,0.00134864430407018,2020-07-02
"46",22.5,0.00253477431243529,0.000684580102511512,0.000113778815369391,0.00132427656390234,2020-07-02
"47",23,0.0024899181315593,0.000675745721114445,0.000112265516597626,0.00130109182407846,2020-07-03
"48",23.5,0.00244713248133854,0.000669631427886294,0.000110955708339015,0.00127904409483878,2020-07-03
"49",24,0.00240634249802013,0.000675488620452065,0.000109836230754903,0.00125808936438752,2020-07-04
"50",24.5,0.00236747613170319,0.00067805217993052,0.000108894883106827,0.00123818550740501,2020-07-04
"51",25,0.00233046404092266,0.000679820043420684,0.000108120355543033,0.00121929219823285,2020-07-05
"52",25.5,0.00229523949117696,0.000682723889667668,0.000107502165759197,0.00120137082846808,2020-07-05
"53",26,0.00226173825725175,0.000681554220941905,0.000107030600185363,0.00118438442871856,2020-07-06
"54",26.5,0.00222989852919761,0.000681226024967644,0.000106696659375956,0.00116829759428678,2020-07-06
"55",27,0.00221748310202263,0.00067957526157942,0.000106492007302786,0.00116198755466271,2020-07-07
"56",27.5,0.00221807784995268,0.000676374163895677,0.00010640892427241,0.00116224338711254,2020-07-07
"57",28,0.00221919512283955,0.000674854246322467,0.000106440263209099,0.00116281769302433,2020-07-08
"58",28.5,0.00222081741111315,0.000673257684884979,0.000106579409063135,0.00116369841008814,2020-07-08
"59",29,0.00222292787694565,0.000674559845912795,0.000106820241121319,0.00116487405903349,2020-07-09
"60",29.5,0.00222551032822651,0.000675941226588349,0.00010715709801252,0.00116633371311951,2020-07-09
"61",30,0.00222854919353411,0.000680200459814795,0.000107584745215851,0.00116806696937498,2020-07-10
"62",30.5,0.00223202949806596,0.00068424807174674,0.000108098344892841,0.0011700639214794,2020-07-10
"63",31,0.00223593684049052,0.000686810281229762,0.000108693427877686,0.00117231513418411,2020-07-11
"64",31.5,0.00224025737068519,0.000688709104579363,0.000109365867671554,0.00117481161917837,2020-07-11
"65",32,0.00224497776832649,0.0006883753979052,0.000110111856297856,0.00117754481231217,2020-07-12
"66",32.5,0.00225008522229973,0.000693525258864518,0.000110927881885689,0.00118050655209271,2020-07-12
"67",33,0.00226905399747745,0.000700422873816569,0.000111810707858068,0.00119043235266776,2020-07-13
"68",33.5,0.00229043129344391,0.000706042464393749,0.000112757353610413,0.00120159432352716,2020-07-13
"69",34,0.00231194233671613,0.000711092231016393,0.000113765076572937,0.00121285370664453,2020-07-14
"70",34.5,0.0023335884401088,0.000716271731529563,0.000114831355558147,0.00122420989783348,2020-07-14
"71",35,0.00235537087020716,0.000721187952007689,0.000115953875301764,0.00123566237275446,2020-07-15
"72",35.5,0.00237729084829078,0.000726105147276015,0.000117130512111865,0.00124721068020132,2020-07-15
"73",36,0.00239934955120313,0.000732572875757613,0.000118359320547192,0.00125885443587516,2020-07-16
"74",36.5,0.00242154811216883,0.000738801412458071,0.000119638521051171,0.00127059331661,2020-07-16
"75",37,0.00244388762156065,0.000745013354398894,0.000120966488473438,0.00128242705501704,2020-07-17
"76",37.5,0.00246636912761788,0.000751829205735216,0.000122341741415576,0.00129435543451673,2020-07-17
"77",38,0.00248899363711807,0.000758835148387965,0.000123762932342224,0.00130637828473015,2020-07-18
"78",38.5,0.00251176211600371,0.000765999573587696,0.00012522883840298,0.00131849547720335,2020-07-18
"79",39,0.00253467548996554,0.000772780550598787,0.000126738352914377,0.00133070692143996,2020-07-19
"80",39.5,0.00255773464498409,0.000779610645538416,0.000128290477454851,0.00134301256121947,2020-07-19
"81",40,0.00258094042783096,0.00078588501986613,0.00012988431452898,0.00135541237117997,2020-07-20
"82",40.5,0.00260429364653141,0.000792609134683407,0.000131519060760391,0.0013679063536459,2020-07-20
"83",41,0.00262779507078947,0.000799531481461212,0.000133194000575631,0.00138049453568255,2020-07-21
"84",41.5,0.00265144543237724,0.000806528939717445,0.000134908500343995,0.00139317696636062,2020-07-21
"85",42,0.00267524542548949,0.000813304090499636,0.000136662002940799,0.00140595371421514,2020-07-22
"86",42.5,0.00269919570706489,0.000820404678381878,0.00013845402270391,0.0014188248648844,2020-07-22
"87",43,0.00272329689707519,0.000827561349873008,0.000140284140755499,0.00143179051891534,2020-07-23
"88",43.5,0.00274754957878349,0.00083477450744804,0.000142152000662985,0.00144485078972324,2020-07-23
"89",44,0.00277195429897275,0.000842044550091741,0.000144057304414999,0.00145800580169388,2020-07-24
"90",44.5,0.00279651156814567,0.000849371873576339,0.000145999808689919,0.00147125568841779,2020-07-24
"91",45,0.00282122186069705,0.000856756870713725,0.000147979321396127,0.00148460059104659,2020-07-25
"92",45.5,0.00284608561505969,0.000864199931584021,0.000149995698464645,0.00149804065676217,2020-07-25
"93",46,0.00287110323382477,0.000870462606905724,0.000152048840876157,0.00151157603735047,2020-07-26
"94",46.5,0.0028962750838378,0.00087636048311423,0.000154138691905748,0.00152520688787177,2020-07-26
"95",47,0.00292160149627102,0.000883995535979266,0.000156265234569832,0.00153893336542043,2020-07-27
"96",47.5,0.00294708276667321,0.000892301897899484,0.000158428489260912,0.00155275562796706,2020-07-27
"97",48,0.00297271915499785,0.00090069169389552,0.000160628511556766,0.00156667383327731,2020-07-28
"98",48.5,0.00299851088561035,0.000907927141624622,0.000162865390191685,0.00158068813790102,2020-07-28
"99",49,0.00302445814727548,0.000916199502415467,0.000165139245178208,0.00159479869622684,2020-07-29
"100",49.5,0.00305056109312548,0.000924606657472851,0.00016745022606867,0.00160900565959708,2020-07-29
"101",50,0.00307681984061,0.000934363989352163,0.000169798510346613,0.00162330917547831,2020-07-30
"102",50.5,0.00310323447142834,0.000942164033758699,0.000172184301938836,0.00163770938668359,2020-07-30
"103",51,0.00312980503144502,0.000949510606364862,0.000174607829839503,0.00165220643064226,2020-07-31
"104",51.5,0.00315653153058923,0.00095815116427212,0.000177069346838368,0.0016668004387138,2020-07-31
"105",52,0.003183413942739,0.000967106712801882,0.000179569128345701,0.00168149153554235,2020-08-01
"106",52.5,0.00321045220559073,0.00097514425350326,0.000182107471307072,0.0016962798384489,2020-08-01
"107",53,0.00323764622051484,0.00098255761903194,0.000184684693201593,0.00171116545685822,2020-08-02
"108",53.5,0.00326499585239815,0.000989325867247162,0.000187301131117732,0.00172614849175794,2020-08-02
"109",54,0.00329250092947369,0.0009957261310341,0.000189957140901159,0.00174122903518743,2020-08-03
"110",54.5,0.0033201612431386,0.0010040339224927,0.000192653096369553,0.00175640716975408,2020-08-03
"111",55,0.00334797654776071,0.00101321401175622,0.000195389388589607,0.00177168296817516,2020-08-04
"112",55.5,0.00337594656047446,0.00102233194565511,0.000198166425211826,0.00178705649284314,2020-08-04
"113",56,0.00340407096096681,0.00103302414473078,0.000200984629859038,0.00180252779541293,2020-08-05
"114",56.5,0.00343234939125362,0.00104388827382258,0.00020384444156481,0.00181809691640921,2020-08-05
"115",57,0.0034607814554472,0.00105509071021605,0.000206746314258234,0.00183376388485272,2020-08-06
"116",57.5,0.00348936671951563,0.00106241676103878,0.000209690716291816,0.00184952871790372,2020-08-06
"117",58,0.00351810471103428,0.00107144270320546,0.000212678130009415,0.00186539142052185,2020-08-07
"118",58.5,0.00354699491893028,0.00108058440944331,0.000215709051351399,0.00188135198514084,2020-08-07
"119",59,0.00357603679322032,0.00109154359056974,0.0002187839894944,0.00189741039135736,2020-08-08
"120",59.5,0.00360522974474246,0.00110179939927725,0.000221903466523212,0.00191356660563284,2020-08-08
"121",60,0.00363457314488246,0.00111137848918792,0.000225068017132577,0.00192982058100752,2020-08-09
"122",60.5,0.0036640663252951,0.00112131760346618,0.000228278188356739,0.00194617225682592,2020-08-09
"123",61,0.00369370857762113,0.00113180514223859,0.00023153453932481,0.00196262155847297,2020-08-10
"124",61.5,0.00372349915320024,0.00114239116002608,0.000234837641040132,0.00197916839712019,2020-08-10
"125",62,0.00375343726278074,0.00115344924880093,0.000238188076181934,0.00199581266948134,2020-08-11
"126",62.5,0.00378352207622628,0.00116539060661699,0.000241586438927716,0.002012554257577,2020-08-11
"127",63,0.00381375272222027,0.00117745380155954,0.000245033334794893,0.00202939302850758,2020-08-12
"128",63.5,0.00384412828796841,0.00118754974925952,0.00024852938050035,0.00204632883423438,2020-08-12
"129",64,0.00387464781889991,0.00119708019884358,0.00025207520383662,0.00206336151136827,2020-08-13
"130",64.5,0.00390531031836778,0.00120667848228229,0.000255671443563537,0.00208049088096566,2020-08-13
"131",65,0.00393611474734884,0.00121634493425044,0.000259318749314245,0.00209771674833154,2020-08-14
"132",65.5,0.00396706002414383,0.00122607988842241,0.000263017781514562,0.0021150389028292,2020-08-14
"133",66,0.00399814502407813,0.00123588367741299,0.000266769211314734,0.00213245711769643,2020-08-15
"134",66.5,0.00402936857920362,0.00124575663271708,0.00027057372053272,0.00214997114986817,2020-08-15
"135",67,0.00406072947800209,0.00125569908464841,0.000274432001608156,0.00216758073980512,2020-08-16
"136",67.5,0.00409222646509079,0.00126716675542081,0.000278344757566255,0.00218528561132852,2020-08-16
"137",68,0.00412385824093049,0.00128012824896459,0.000282312701990927,0.00220308547146071,2020-08-17
"138",68.5,0.00415562346153656,0.00129096210732988,0.000286336559006439,0.0022209800102715,2020-08-17
"139",69,0.00418752073819362,0.00130290325015509,0.00029041706326701,0.00223896890073031,2020-08-18
"140",69.5,0.00421954863717412,0.00131357571776331,0.000294554959953753,0.00225705179856394,2020-08-18
"141",70,0.00425170567946144,0.00132514729617696,0.000298751004778428,0.00227522834211994,2020-08-19
"142",70.5,0.00428399034047785,0.00133681624924829,0.000303005963993494,0.00229349815223567,2020-08-19
"143",71,0.00431640104981788,0.00134858270509202,0.000307320614407999,0.00231186083211294,2020-08-20
"144",71.5,0.00434893619098768,0.00136044680354181,0.000311695743408849,0.00233031596719826,2020-08-20
"145",72,0.00438159410115051,0.00137240869529518,0.000316132148987062,0.00234886312506878,2020-08-21
"146",72.5,0.00441437307087922,0.00138446854109218,0.000320630639768603,0.00236750185532391,2020-08-21
"147",73,0.00444727134391589,0.00139741075286492,0.000325192035049437,0.00238623168948267,2020-08-22
"148",73.5,0.00448028711693925,0.00140820738205581,0.00032981716483448,0.00240505214088687,2020-08-22
"149",74,0.00451341853934025,0.0014233775071806,0.000334506869880088,0.00242396270461017,2020-08-23
"150",74.5,0.0045466637130063,0.00143797914279323,0.000339262001739822,0.00244296285737306,2020-08-23
"151",75,0.00458002069211465,0.0014515902515998,0.000344083422813174,0.00246205205746391,2020-08-24
"152",75.5,0.00461348748293529,0.00146285588610163,0.000348972006397001,0.00248122974466614,2020-08-24
"153",76,0.00464706204364386,0.00147891194722112,0.000353928636739409,0.00250049534019164,2020-08-25
"154",76.5,0.00468074228414511,0.00149512763528394,0.000358954209095841,0.00251984824662048,2020-08-25
"155",77,0.00471452606590718,0.00150975039073531,0.00036404962978715,0.00253928784784717,2020-08-26
"156",77.5,0.00474841120180732,0.00152136916539434,0.000369215816259432,0.00255881350903338,2020-08-26
"157",78,0.00478239545598941,0.00152740677899545,0.000374453697145418,0.00257842457656741,2020-08-27
"158",78.5,0.00481647654373371,0.00153684743868621,0.000379764212327221,0.00259812037803046,2020-08-27
"159",79,0.00485065213133937,0.00154979005918725,0.000385148313000259,0.00261790022216982,2020-08-28
"160",79.5,0.00488491983602005,0.00156551834348596,0.000390606961738165,0.00263776339887911,2020-08-28
"161",80,0.00491927722581303,0.0015791498901552,0.000396141132558515,0.00265770917918577,2020-08-29
"162",80.5,0.00495372181950251,0.00159263961464074,0.000400136205581127,0.00267692901254182,2020-08-29
"163",81,0.00498825108655713,0.00160874819061487,0.00040407026908029,0.00269616067781871,2020-08-30
"164",81.5,0.00502286244708253,0.00162500380983603,0.000408042897550244,0.00271545267231639,2020-08-30
"165",82,0.00505755327178905,0.0016379186276695,0.000412054385042858,0.00273480382841595,2020-08-31
"166",82.5,0.00509232088197519,0.00165530381418047,0.000416105030625098,0.00275421295630014,2020-08-31
"167",83,0.00512716254952716,0.00166998168151277,0.000420195138248184,0.00277367884388767,2020-09-01
"168",83.5,0.00516207549693494,0.00168241522180137,0.000424325016624432,0.00279320025677969,2020-09-01
"169",84,0.00519705689732523,0.00169186853887519,0.000428494979111326,0.00281277593821828,2020-09-02
"170",84.5,0.00523210387451175,0.00169916559946179,0.000432705343602401,0.00283240460905708,2020-09-02
"171",85,0.00526721350306316,0.00170968797271325,0.000436956432424511,0.00285208496774384,2020-09-03
"172",85.5,0.00530238280838915,0.00172804479561771,0.000441248572241133,0.00287181569031514,2020-09-03
"173",86,0.00533760876684493,0.00174743224526363,0.000445582093961309,0.00289159543040312,2020-09-04
"174",86.5,0.00537288830585456,0.00176700514212553,0.000449957332653919,0.00291142281925424,2020-09-04
"175",87,0.00540821830405345,0.00178600554268047,0.000454374627466938,0.00293129646576019,2020-09-05
"176",87.5,0.00544359559145048,0.00180300614706057,0.000458834321551379,0.00295121495650093,2020-09-05
"177",88,0.00547901694960994,0.00182013764339963,0.000463336761989647,0.00297117685579979,2020-09-06
"178",88.5,0.00551447911185373,0.00183740032119781,0.00046788229972801,0.00299118070579087,2020-09-06
"179",89,0.00554997876348416,0.00185213034527589,0.000472471289512938,0.00301122502649855,2020-09-07
"180",89.5,0.00558551254202759,0.00186320397194234,0.000477104089831081,0.00303130831592934,2020-09-07
"181",90,0.00562107703749936,0.00187432851434687,0.000481781062852624,0.00305142905017599,2020-09-08
"182",90.5,0.0056566687926901,0.00188677336073466,0.000486502574377831,0.00307158568353396,2020-09-08
"183",91,0.00569228430347399,0.00190288317678171,0.000491268993786554,0.00309177664863027,2020-09-09
"184",91.5,0.00572792001913905,0.0019191015435884,0.000496080693990515,0.00311200035656478,2020-09-09
"185",92,0.00577222116086369,0.00193721070535094,0.000500938051388175,0.00313657960612593,2020-09-10
"186",92.5,0.00583941781543829,0.00195690006281422,0.000505841445822022,0.00317262963063015,2020-09-10
"187",93,0.00590720709922418,0.00197667166882881,0.000510791260538096,0.00320899917988114,2020-09-11
"188",93.5,0.005975588947754,0.00199089232661746,0.00051578788214761,0.0032456884149508,2020-09-11
"189",94,0.00604456315061651,0.00200823349686786,0.000520831700590508,0.00328269742560351,2020-09-12
"190",94.5,0.00611412934750341,0.00202616494109413,0.000525923109100813,0.00332002622830211,2020-09-12
"191",95,0.00618428702424216,0.00204155090804772,0.000531062504173651,0.00335767476420791,2020-09-13
"192",95.5,0.00625503550881668,0.00205702286031076,0.000536250285533794,0.00339564289717523,2020-09-13
"193",96,0.00632637396737786,0.00207258075306889,0.000541486856105628,0.00343393041174174,2020-09-14
"194",96.5,0.00639830140024595,0.00208822453138625,0.000546772621984412,0.00347253701111518,2020-09-14
"195",97,0.00647081663790687,0.00210471084870757,0.000552107992408724,0.0035114623151578,2020-09-15
"196",97.5,0.00654391833700476,0.00212184560212099,0.000557493379734001,0.00355070585836938,2020-09-15
"197",98,0.00661760497633317,0.00213986674268456,0.000562929199407048,0.00359026708787011,2020-09-16
"198",98.5,0.00669187485282727,0.00215763534239264,0.00056841586994145,0.00363014536138436,2020-09-16
"199",99,0.00676672607755967,0.00217360187638448,0.000573953812893776,0.00367033994522672,2020-09-17
"200",99.5,0.00684215657174262,0.00219028672500539,0.000579543452840503,0.00371085001229156,2020-09-17
"201",100,0.00691816406273922,0.00221154922188669,0.000585185217355567,0.00375167464004739,2020-09-18
"202",100.5,0.00699474608008678,0.00223405039613069,0.000590879536988471,0.00379281280853762,2020-09-18
"203",101,0.00707189995153504,0.00225687735860989,0.000596626845242875,0.00383426339838896,2020-09-19
"204",101.5,0.0071496227991027,0.00227853884812704,0.000602427578555591,0.00387602518882914,2020-09-19
"205",102,0.00722791153515517,0.00229789538591955,0.000608282176275917,0.00391809685571554,2020-09-20
"206",102.5,0.00730676285850714,0.00231384854938576,0.000614191080645251,0.0039604769695762,2020-09-20
"207",103,0.00738617325055328,0.0023298826218936,0.000620154736776912,0.0040031639936651,2020-09-21
"208",103.5,0.00746613897143057,0.00234727748990043,0.000626173592636117,0.00404615628203334,2020-09-21
"209",104,0.00754665605621606,0.00236219316167942,0.00063224809902005,0.00408945207761806,2020-09-22
"210",104.5,0.00762772031116377,0.00237921204701462,0.000638378709537972,0.00413304951035087,2020-09-22
"211",105,0.00770932730998442,0.0023983868831765,0.000644565880591318,0.00417694659528787,2020-09-23
"212",105.5,0.00779147239017227,0.00241740817617412,0.000650810071353722,0.004221141230763,2020-09-23
"213",106,0.00787415064938281,0.00243706170501327,0.00065711174375094,0.00426563119656688,2020-09-24
"214",106.5,0.00795735694186568,0.00245914321951569,0.000663471362440597,0.00431041415215314,2020-09-24
"215",107,0.0080410858749569,0.00248090118129713,0.000669889394791733,0.00435548763487432,2020-09-25
"216",107.5,0.00812533180563491,0.00249636908837944,0.000676366310864099,0.0044008490582495,2020-09-25
"217",108,0.00821008883714473,0.0025157046915196,0.000682902583387147,0.00444649571026594,2020-09-26
"218",108.5,0.00829535081569477,0.00253563314852302,0.000689498687738692,0.00449242475171673,2020-09-26
"219",109,0.00838111132723093,0.00255275246772822,0.000696155101923193,0.00453863321457706,2020-09-27
"220",109.5,0.00846736369429265,0.00256790368743965,0.000702872306549611,0.00458511800042113,2020-09-27
"221",110,0.00855410097295561,0.00258463221301703,0.00070965078480882,0.00463187587888221,2020-09-28
"222",110.5,0.00864131594986591,0.00260752651204414,0.000716491022450519,0.00467890348615822,2020-09-28
"223",111,0.00872900113937077,0.00262826913243317,0.000723393507759617,0.00472619732356519,2020-09-29
"224",111.5,0.00881714878075038,0.0026491264968921,0.000730358731532051,0.00477375375614122,2020-09-29
"225",112,0.00890575083555624,0.00267009831884886,0.000737387187050007,0.00482156901130313,2020-09-30
"226",112.5,0.00899479898506082,0.00268677481650958,0.000744479370056509,0.00486963917755867,2020-09-30
"227",113,0.00908428462782374,0.00270923847355783,0.000751635778729336,0.00491796020327654,2020-10-01
"228",113.5,0.00917419887737956,0.00273369736080545,0.000758856913654245,0.0049665278955169,2020-10-01
"229",114,0.00926453256005245,0.00275512374072075,0.000766143277797463,0.00501533791892496,2020-10-02
"230",114.5,0.00935527621290284,0.00277906845058191,0.000773495376477415,0.00506438579469013,2020-10-02
"231",115,0.00944642008181132,0.00280397907283175,0.000780913717335659,0.00511366689957349,2020-10-03
"232",115.5,0.00953795411970504,0.00282560608542816,0.000788398810307001,0.00516317646500602,2020-10-03
"233",116,0.00962986798493192,0.00284844771845921,0.00079595116758875,0.00521290957626034,2020-10-04
"234",116.5,0.00972215103978778,0.00287541578109091,0.000803571303609099,0.00526286117169844,2020-10-04
"235",117,0.00981479234920177,0.00290628131968632,0.000811259734994587,0.00531302604209818,2020-10-05
"236",117.5,0.00990778067958529,0.00293089071407231,0.000819016980536626,0.00536339883006096,2020-10-05
"237",118,0.0100011044978496,0.00295541386297794,0.000826843561157051,0.00541397402950333,2020-10-06
"238",118.5,0.0100947519705974,0.00298072006229956,0.000834739999872685,0.00546474598523504,2020-10-06
"239",119,0.0101887109634932,0.0030099873130638,0.000842706821758862,0.00551570889262601,2020-10-07
"240",119.5,0.010282969040818,0.00303076156388286,0.000850744553911916,0.00556685679736497,2020-10-07
"241",120,0.0103775134652135,0.00305161596797633,0.000858853725410574,0.00561818359531204,2020-10-08
"242",120.5,0.0104723311976194,0.00307254978575917,0.000867034867276247,0.00566968303244784,2020-10-08
"243",121,0.010567408897411,0.00309356225762527,0.000875288512432187,0.00572134870492161,2020-10-09
"244",121.5,0.0106627329227398,0.00311465260378695,0.000883615195661485,0.00577317405920063,2020-10-09
"245",122,0.0107582893310828,0.00313582002411733,0.000892015453563867,0.00582515239232335,2020-10-10
"246",122.5,0.0108540638800057,0.00316184446337881,0.000900489824511294,0.0058772768522585,2020-10-10
"247",123,0.0109500420281427,0.00318819741463347,0.0009090388486023,0.00592954043837249,2020-10-11
"248",123.5,0.0110462089363991,0.00321477268258173,0.000917663067615078,0.00598193600200711,2020-10-11
"249",124,0.0111425494693806,0.00324854020418785,0.000926363024959259,0.00603445624716992,2020-10-12
"250",124.5,0.0112390481970516,0.00328260830384043,0.000935139265626376,0.00608709373133901,2020-10-12
"251",125,0.0113356893966299,0.00331192142940525,0.000943992336138978,0.00613984086638446,2020-10-13
"252",125.5,0.0114324570547178,0.00333508594154108,0.000952922784498369,0.00619268991960809,2020-10-13
"253",126,0.0115293348696759,0.0033583739599583,0.000961931160130948,0.00624563301490342,2020-10-14
"254",126.5,0.0116263062542421,0.00338512385532535,0.000971018013833124,0.00629866213403763,2020-10-14
"255",127,0.011723354338399,0.00341783622301251,0.000980183897714777,0.00635176911805688,2020-10-15
"256",127.5,0.0118204619724922,0.00344673426473306,0.000989429365141237,0.0064049456688167,2020-10-15
"257",128,0.0119176117306038,0.00347582830255446,0.000998754970673766,0.00645818335063881,2020-10-16
"258",128.5,0.0120147859141825,0.00350511862996696,0.0010081612700085,0.00651147359209549,2020-10-16
"259",129,0.012111966555932,0.00352932091234371,0.00101764881991386,0.00656480768792292,2020-10-17
"260",129.5,0.0122091354239622,0.00355743150164964,0.00102721817816631,0.00661817680106426,2020-10-17
"261",130,0.0123062740262025,0.00358920651420627,0.00103686990348462,0.00667157196484357,2020-10-18
"262",130.5,0.0124033636150801,0.00362229835110891,0.00104660455546239,0.00672498408527124,2020-10-18
"263",131,0.0125003851924644,0.00365274018893721,0.00105642269449898,0.00677840394348166,2020-10-19
"264",131.5,0.0125973195148783,0.00368754002372086,0.00106632488172868,0.00683182219830347,2020-10-19
"265",132,0.0126941470989775,0.00372259670893094,0.0010763116789483,0.00688522938896289,2020-10-20
"266",132.5,0.0127908482272978,0.00375791057142842,0.00108638364854285,0.00693861593792031,2020-10-20
"267",133,0.0128874029542705,0.00378421360162476,0.00109654135340962,0.00699197215384006,2020-10-21
"268",133.5,0.0129837911125063,0.00381155060417399,0.00110678535688034,0.00704528823469334,2020-10-21
"269",134,0.0130799923193465,0.00383453737097672,0.00111711622264163,0.00709855427099409,2020-10-22
"270",134.5,0.0131759859836808,0.00385282618956158,0.00112753451465353,0.00715176024916715,2020-10-22
"271",135,0.0132717513130305,0.00386616334557398,0.00113804079706619,0.00720489605504834,2020-10-23
"272",135.5,0.0133672673208962,0.00388037798835515,0.00114863563413471,0.00725795147751546,2020-10-23
"273",136,0.0134625128343667,0.00389581856192544,0.001159319590132,0.00731091621224935,2020-10-24
"274",136.5,0.0135574665019881,0.00391119182126377,0.00117009322925974,0.00736377986562392,2020-10-24
"275",137,0.0136521068018899,0.00392649595081803,0.00118095711555733,0.00741653195872361,2020-10-25
"276",137.5,0.0137464120501652,0.00394172913192242,0.00119191181280891,0.00746916193148708,2020-10-25
"277",138,0.0138403604095019,0.00396121275326603,0.0012017251381719,0.00752104277383691,2020-10-26
"278",138.5,0.0139339298980604,0.0039909203957976,0.0012105301918229,0.00757223004494163,2020-10-26
"279",139,0.0140270983985946,0.00401296754276757,0.00121938579455882,0.0076232420965767,2020-10-27
"280",139.5,0.0141198436678116,0.00402990493095275,0.00122829201113157,0.00767406783947158,2020-10-27
"281",140,0.0142121433459644,0.00405638638852097,0.00123724890223953,0.00772469612410195,2020-10-28
"282",140.5,0.0143039749666732,0.00409626431172202,0.0012462565244533,0.00777511574556323,2020-10-28
"283",141,0.0143953159669695,0.0041363887934792,0.00125531493014095,0.00782531544855523,2020-10-29
"284",141.5,0.0144861436975571,0.00417675790841074,0.00126442416739268,0.00787528393247487,2020-10-29
"285",142,0.0145764354332828,0.00422281095222618,0.00127358427994506,0.00792500985661391,2020-10-30
"286",142.5,0.0146661683838116,0.00425441258652335,0.00128279530710467,0.00797448184545814,2020-10-30
"287",143,0.0147553197044981,0.00428377320836076,0.0012920572836713,0.0080236884940847,2020-10-31
"288",143.5,0.0148438665074466,0.00429646493529823,0.0013013702398606,0.00807261837365359,2020-10-31
"289",144,0.014931785872753,0.00431864642747023,0.00131073420122638,0.00812126003698967,2020-11-01
"290",144.5,0.0150190548599196,0.00435566464603934,0.00132014918858229,0.00816960202425095,2020-11-01
"291",145,0.0151056505194345,0.00439144414912645,0.00132961521792314,0.00821763286867883,2020-11-02
"292",145.5,0.0151915499045065,0.00442795851877779,0.00133913230034581,0.00826534110242614,2020-11-02
"293",146,0.0152767300829465,0.00446382855204642,0.00134870044196963,0.00831271526245807,2020-11-03
"294",146.5,0.0153611681491866,0.00448435800263104,0.00135831964385643,0.0083597438965215,2020-11-03
"295",147,0.0154448412364251,0.00450487721225371,0.00136798990193019,0.00840641556917763,2020-11-04
"296",147.5,0.0155277265288898,0.00452538471651411,0.00137771120689622,0.00845271886789301,2020-11-04
"297",148,0.0156098012742072,0.0045518003877142,0.00138748354416011,0.00849864240918366,2020-11-05
"298",148.5,0.0156910427958678,0.00457140640076441,0.00139730689374617,0.00854417484480698,2020-11-05
"299",149,0.0157714285057763,0.00459097644833094,0.00140718123021568,0.00858930486799599,2020-11-06
"300",149.5,0.0158509359168759,0.00461050885772888,0.00141710652258467,0.0086340212197303,2020-11-06
"301",150,0.0159295426558345,0.00463000194721047,0.00142708273424155,0.00867831269503801,2020-11-07
"302",150.5,0.0160072264757815,0.00464945402619638,0.00143710982286431,0.00872216814932291,2020-11-07
"303",151,0.016083965269084,0.0046688633955118,0.00144718774033752,0.00876557650471075,2020-11-08
"304",151.5,0.0161597370801487,0.00469335727609423,0.00145731643266911,0.0088085267564089,2020-11-08
"305",152,0.0162345201182391,0.00473075911687717,0.0014674958399068,0.00885100797907297,2020-11-09
"306",152.5,0.0163082927702942,0.00475127090404175,0.00147772589605448,0.00889300933317436,2020-11-09
"307",153,0.0163810336137368,0.00476017243212151,0.00148800652898822,0.00893452007136249,2020-11-10
"308",153.5,0.0164527214292583,0.00479463702821063,0.00149833766037223,0.00897552954481528,2020-11-10
"309",154,0.0165233352135685,0.00483141720714639,0.0015045241782934,0.00901392969593096,2020-11-11
"310",154.5,0.0165928541920952,0.00485785678096402,0.00151022089871069,0.00905153754540293,2020-11-11
"311",155,0.0166612578316228,0.0048899820089222,0.00151592285456862,0.00908859034309569,2020-11-12
"312",155.5,0.0167285258528562,0.00492173681541463,0.0015216298824226,0.00912507786763939,2020-11-12
"313",156,0.0167946382428967,0.00494513519971874,0.00152734181733411,0.00916099003011541,2020-11-13
"314",156.5,0.0168595752676172,0.00497412075676294,0.0015330584928723,0.00919631688024473,2020-11-13
"315",157,0.0169233174839234,0.00499813111121911,0.00153877974111597,0.0092310486125197,2020-11-14
"316",157.5,0.0169858457518892,0.00501904375947686,0.00154450539265567,0.00926517557227243,2020-11-14
"317",158,0.0170471412467512,0.00505413517602265,0.00155023527659595,0.00929868826167359,2020-11-15
"318",158.5,0.0171071854707521,0.00507585237475246,0.00155596922055796,0.00933157734565502,2020-11-15
"319",159,0.0171659602648177,0.00509499201853654,0.00156170705068216,0.00936383365774995,2020-11-16
"320",159.5,0.0172234478200576,0.00511465024090522,0.00156744859163122,0.00939544820584443,2020-11-16
"321",160,0.0172796306890744,0.00514466217691654,0.00157319366659325,0.00942641217783382,2020-11-17
"322",160.5,0.0173344917970711,0.00518652330620183,0.00157894209728512,0.0094567169471781,2020-11-17
"323",161,0.0173880144527439,0.00521718035756533,0.00158469370395609,0.00948635407834998,2020-11-18
"324",161.5,0.0174401823589483,0.00525549434394216,0.0015904483053916,0.00951531533216996,2020-11-18
"325",162,0.0174909796231272,0.00529631258425589,0.00159620571891732,0.00954359267102228,2020-11-19
"326",162.5,0.0175403907674891,0.00532616037241063,0.00160196576040338,0.00957117826394625,2020-11-19
"327",163,0.0175884007389255,0.00534535475890632,0.00160772824426889,0.00959806449159721,2020-11-20
"328",163.5,0.017634994918657,0.00536066064341918,0.00161349298348663,0.0096242439510718,2020-11-20
"329",164,0.0176801591315961,0.00538976244530855,0.00161925978958799,0.00964970946059206,2020-11-21
"330",164.5,0.0177238796554187,0.00541822916261814,0.00162502847266814,0.00967445406404343,2020-11-21
"331",165,0.0177661432293315,0.00544997321694534,0.00163079884139142,0.00969847103536147,2020-11-22
"332",165.5,0.0178069370625283,0.00548174802324777,0.0016312266190738,0.00971908184080106,2020-11-22
"333",166,0.0178462488423243,0.00549926072519722,0.0016293159935507,0.00973778241793751,2020-11-23
"334",166.5,0.0178840667419602,0.00551771037653393,0.00162737956721173,0.00975572315458597,2020-11-23
"335",167,0.0179203794280675,0.00553605109501778,0.00162541747228458,0.00977289845017603,2020-11-24
"336",167.5,0.0179551760677868,0.00555428059577785,0.00162342984246525,0.00978930295512603,2020-11-24
"337",168,0.0179884463355322,0.00558670781389764,0.00162141681289932,0.00980493157421574,2020-11-25
"338",168.5,0.0180201804193929,0.00562638328000468,0.00161937852016309,0.00981977946977801,2020-11-25
"339",169,0.0180503690271679,0.00566615026539864,0.00161731510224456,0.00983384206470625,2020-11-26
"340",169.5,0.0180790033920245,0.00571621634366232,0.00161522669852432,0.00984711504527444,2020-11-26
"341",170,0.0181060752777773,0.0057500600296561,0.00161311344975625,0.00985959436376679,2020-11-27
"342",170.5,0.0181315769837809,0.00577142997129672,0.00161097549804811,0.0098712762409145,2020-11-27
"343",171,0.018155501349432,0.00578162540240789,0.001608812986842,0.009882157168137,2020-11-28
"344",171.5,0.0181778417582766,0.00580178487869203,0.00160662606089473,0.00989223390958565,2020-11-28
"345",172,0.0181985921417178,0.00583415973028799,0.00160441486625804,0.00990150350398791,2020-11-29
"346",172.5,0.018217746982322,0.00585916517278979,0.00160217955025869,0.00990996326629033,2020-11-29
"347",173,0.0182353013167192,0.00588888898675149,0.0015999202614785,0.00991761078909887,2020-11-30
"348",173.5,0.0182512507380968,0.00592075843830507,0.00159763714973424,0.00992444394391551,2020-11-30
"349",174,0.0182655913982827,0.00595253653007627,0.00159533036605742,0.00993046088217007,2020-12-01
"350",174.5,0.0182783200094197,0.00598421858620257,0.00159300006267402,0.00993566003604685,2020-12-01
"351",175,0.0182894338452265,0.00601579990238409,0.00159064639298412,0.0099400401191053,2020-12-02
"352",175.5,0.0182989307418488,0.00605186766530627,0.00158826951154141,0.00994360012669509,2020-12-02
"353",176,0.0183068090982977,0.00608660367423123,0.00158586957403262,0.00994633933616518,2020-12-03
"354",176.5,0.0183130678764784,0.00611964508017711,0.00158344673725696,0.00994825730686768,2020-12-03
"355",177,0.0183177066008085,0.00614472312160085,0.00158100115910538,0.00994935387995693,2020-12-04
"356",177.5,0.0183207253574295,0.00617494075924242,0.0015785329985398,0.00994962917798465,2020-12-04
"357",178,0.0183221247930126,0.00619975729420477,0.0015760424155723,0.00994908360429245,2020-12-05
"358",178.5,0.0183219061131616,0.00621488338712624,0.00157352957124422,0.0099477178422029,2020-12-05
"359",179,0.0183200710804167,0.00622983114769517,0.00157099462760522,0.00994553285401094,2020-12-06
"360",179.5,0.0183436415985156,0.00625294566935493,0.00156843774769228,0.00995603967310392,2020-12-06
"361",180,0.0184012903321466,0.00629132966184906,0.00156585909550868,0.00998357471382766,2020-12-07
"362",180.5,0.0184570721089361,0.0063165931628078,0.00156325883600289,0.0100101654724695,2020-12-07
"363",181,0.0185109655468671,0.00635722305974737,0.00156063713504745,0.0100358013409573,2020-12-08
"364",181.5,0.0185629500187264,0.00637302743902525,0.00155799415941786,0.0100604720890721,2020-12-08
"365",182,0.0186130056687033,0.00640618491290792,0.00155533007677134,0.0100841678727373,2020-12-09
"366",182.5,0.0186611134283282,0.0064342710119233,0.00155264505562567,0.0101068792419769,2020-12-09
"367",183,0.0187072550317271,0.0064581276760472,0.00154993926533792,0.0101285971485325,2020-12-10
"368",183.5,0.0187514130301726,0.00647725412649053,0.00154721287608326,0.0101493129531279,2020-12-10
"369",184,0.01879357080591,0.00649942277628819,0.00154446605883364,0.0101690184323718,2020-12-11
"370",184.5,0.0188337125852408,0.00652844645727601,0.0015416989853366,0.0101877057852887,2020-12-11
"371",185,0.0188718234508466,0.00655637176903954,0.00153891182809394,0.0102053676394703,2020-12-12
"372",185.5,0.0189078893533348,0.00657092123531088,0.00153610476034048,0.0102219970568376,2020-12-12
"373",186,0.0189418971219943,0.00658526320737967,0.0015332779560228,0.0102375875390085,2020-12-13
"374",186.5,0.0189738344747439,0.00661029467878839,0.001530431589778,0.010252133032261,2020-12-13
"375",187,0.0190036900272635,0.00664513297716286,0.00152756583691242,0.010265627932088,2020-12-14
"376",187.5,0.0190314533012951,0.00666656444583111,0.00152468087338047,0.0102780670873378,2020-12-14
"377",188,0.0190571147321045,0.0066823528196271,0.00152177687576338,0.010289445803934,2020-12-15
"378",188.5,0.0190806656750952,0.00671550404102442,0.00151885402124805,0.0102997598481716,2020-12-15
"379",189,0.019102098411566,0.00675319912309005,0.00151591248760589,0.010309005449586,2020-12-16
"380",189.5,0.0191214061536087,0.00679082481422416,0.00151295245317172,0.0103171793033902,2020-12-16
"381",190,0.0191385830481383,0.00682837654591776,0.00150997409682267,0.0103242785724805,2020-12-17
"382",190.5,0.0191536241800563,0.0068449668255391,0.00150697759795714,0.0103303008890067,2020-12-17
"383",191,0.0191665255745413,0.00685999728573095,0.00150396313647381,0.0103352443555076,2020-12-18
"384",191.5,0.0191772841984704,0.0068817067910427,0.00150093089275073,0.0103391075456105,2020-12-18
"385",192,0.0191858979609688,0.0068946906064746,0.00149788104762434,0.0103418895042966,2020-12-19
"386",192.5,0.0191923657130938,0.00692545487311981,0.0014948137823687,0.0103435897477313,2020-12-19
"387",193,0.0191966872466526,0.00695713603158181,0.0014917292786747,0.0103442082626637,2020-12-20
"388",193.5,0.0191988632921631,0.00698927258851757,0.00148862771862928,0.0103437455053962,2020-12-20
"389",194,0.0191988955159608,0.00700869666701767,0.00148550928469485,0.0103422024003278,2020-12-21
"390",194.5,0.0191967865164616,0.007018377101724,0.00148237415968867,0.0103395803380751,2020-12-21
"391",195,0.0191925398195881,0.00703359821830816,0.00147922252676234,0.0103358811731752,2020-12-22
"392",195.5,0.0191861598733705,0.00704486178928411,0.00147605456938134,0.0103311072213759,2020-12-22
"393",196,0.0191776520417327,0.00706600930019297,0.00147287047130473,0.0103252612565187,2020-12-23
"394",196.5,0.0191670225974767,0.00708921763106353,0.00146967041656483,0.0103183465070208,2020-12-23
"395",197,0.0191542787144783,0.00711158213472805,0.00146645458944703,0.0103103666519627,2020-12-24
"396",197.5,0.0191394284591101,0.0071308812994459,0.00146322317446972,0.0103013258167899,2020-12-24
"397",198,0.0191224807809064,0.00716169859359717,0.00145997635636427,0.0102912285686353,2020-12-25
"398",198.5,0.0191034455024873,0.00719731306659968,0.00145671432005511,0.0102800799112712,2020-12-25
"399",199,0.0190823333087607,0.00723273540126887,0.00145343725063992,0.0102678852797003,2020-12-26
"400",199.5,0.0190591557354192,0.00725916773133148,0.00145014533336995,0.0102546505343946,2020-12-26
"401",200,0.0190339251567535,0.00727864671335697,0.00144683875363037,0.010240381955192,2020-12-27
"402",200.5,0.0190066547728016,0.00729783775044048,0.00144351769692079,0.0102250862348612,2020-12-27
"403",201,0.0189773585958556,0.0073097172615952,0.00144018234883588,0.0102087704723457,2020-12-28
"404",201.5,0.0189460514363478,0.00732052419870692,0.00143683289504608,0.010191442165697,2020-12-28
"405",202,0.0189127488881399,0.00733095356212229,0.00143346952127848,0.0101731092047092,2020-12-29
"406",202.5,0.0188774673132365,0.00732801016036635,0.00143009241329771,0.0101537798632671,2020-12-29
"407",203,0.0188402238259497,0.00731333491411576,0.00142670175688709,0.0101334627914184,2020-12-30
"408",203.5,0.0188010362765369,0.00731889909296537,0.00142329773782981,0.0101121670071833,2020-12-30
"409",204,0.018759923234338,0.00732674230339754,0.00141988054189025,0.0100899018881141,2020-12-31
"410",204.5,0.0187169039704374,0.00733137517202161,0.00141645035479545,0.0100666771626164,2020-12-31
"411",205,0.0186719984398756,0.00735511889295923,0.00141300736221674,0.0100425029010462,2021-01-01
"412",205.5,0.0186252272634377,0.00737833845581006,0.00140955174975138,0.0100173895065945,2021-01-01
"413",206,0.0185766117090446,0.007373927831268,0.00140608370290454,0.00999134770597458,2021-01-02
"414",206.5,0.0185261736727731,0.00738189661975016,0.00140260340707119,0.00996438853992217,2021-01-02
"415",207,0.0184739356595322,0.00740876381960086,0.00139911104751833,0.00993652335352528,2021-01-03
"416",207.5,0.0184199207634219,0.00743656358531754,0.00139560680936721,0.00990776378639456,2021-01-03
"417",208,0.0183641526478019,0.00744456640637523,0.00139209087757584,0.00987812176268887,2021-01-04
"418",208.5,0.0183066555250965,0.00744699777325944,0.00138856343692147,0.00984760948100897,2021-01-04
"419",209,0.0182474541363628,0.00744471968298785,0.0013850246719834,0.00981623940417312,2021-01-05
"420",209.5,0.0181865737306493,0.00745011494050861,0.00138147476712584,0.00978402424888758,2021-01-05
"421",210,0.0181240400441701,0.00747329832775234,0.00137791390648092,0.00975097697532552,2021-01-06
"422",210.5,0.0180760235027491,0.00747457311483193,0.00137434227393189,0.00972518288834049,2021-01-06
"423",211,0.0180659644739228,0.00748273809542563,0.00137076005309648,0.00971836226350965,2021-01-07
"424",211.5,0.0180544903763639,0.00747814005518363,0.00136716742731039,0.00971082890183713,2021-01-07
"425",212,0.0181083558656117,0.00747686272906278,0.00136356457961097,0.00973596022261132,2021-01-08
"426",212.5,0.0181686775515034,0.00749439377494597,0.00135995169272101,0.00976431462211221,2021-01-08
"427",213,0.0182277131060009,0.00748583171500471,0.00135632894903279,0.00979202102751682,2021-01-09
"428",213.5,0.0182854457035284,0.00746507835010307,0.00135269653059216,0.0098190711170603,2021-01-09
"429",214,0.018341858872363,0.00744533956746469,0.00134905461908295,0.009845456745723,2021-01-10
"430",214.5,0.0183969365045782,0.00743366667977784,0.00134540339581139,0.0098711699501948,2021-01-10
"431",215,0.0184506628657835,0.00743964305265591,0.00134174304169078,0.00989620295373714,2021-01-11
"432",215.5,0.0185030226046492,0.00743146310672062,0.00133807373722638,0.00992054817093781,2021-01-11
"433",216,0.0185540007622064,0.00741942384430314,0.00133439566250034,0.00994419821235336,2021-01-12
"434",216.5,0.0186035827809123,0.00741714070950019,0.00133070899715692,0.00996714588903462,2021-01-12
"435",217,0.0186517545134725,0.00741998083627151,0.00132701392038782,0.00998938421693015,2021-01-13
"436",217.5,0.0186985022314091,0.00741783526121441,0.00132331061091772,0.0100109064211634,2021-01-13
"437",218,0.0187438126333681,0.00742403855326635,0.00131959924698998,0.0100317059401791,2021-01-14
"438",218.5,0.0187876728531552,0.00741919873974634,0.00131588000635253,0.0100517764297539,2021-01-14
"439",219,0.018830070467493,0.00742586372389187,0.00131215306624391,0.0100711117668684,2021-01-15
"440",219.5,0.0188709935034911,0.00743694103238523,0.00130841860337954,0.0100897060534353,2021-01-15
"441",220,0.0189104304458221,0.00743106651816614,0.0013046767939381,0.0101075536198801,2021-01-16
"442",220.5,0.0189483702435939,0.00740653266248257,0.00130092781354817,0.0101246490285711,2021-01-16
"443",221,0.018984802316915,0.00739927416942079,0.001297171837275,0.010140987077095,2021-01-17
"444",221.5,0.0190197165631418,0.00739077058421827,0.00129340903960748,0.0101565628013747,2021-01-17
"445",222,0.0190531033628053,0.00738200629581931,0.00128963959444528,0.0101713714786253,2021-01-18
"446",222.5,0.0190849535852088,0.00736353074683998,0.00128586367508618,0.0101854086301475,2021-01-18
"447",223,0.0191152585936926,0.00734159417647032,0.00128208145421363,0.0101986700239531,2021-01-19
"448",223.5,0.019144010250559,0.0073504893208688,0.00127829310388441,0.0102111516772217,2021-01-19
"449",224,0.0191712009216548,0.00737462945840748,0.00127449879551653,0.0102228498585857,2021-01-20
"450",224.5,0.0191968234806049,0.0073820905704291,0.00127069869987731,0.0102337610902411,2021-01-20
"451",225,0.0192208713126947,0.00738203888993015,0.00126689298707167,0.0102438821498832,2021-01-21
"452",225.5,0.0192433383183968,0.00737651886211054,0.00126308182653051,0.0102532100724636,2021-01-21
"453",226,0.0192642189165391,0.00737299967585727,0.00125926538699944,0.0102617421517693,2021-01-22
"454",226.5,0.0192835080471127,0.00736915502944734,0.00125544383652752,0.0102694759418201,2021-01-22
"455",227,0.0193012011737148,0.00735479006734726,0.00125161734245631,0.0102764092580855,2021-01-23
"456",227.5,0.0193172942856284,0.00733698714700995,0.00124778607140906,0.0102825401785187,2021-01-23
"457",228,0.0193317838995338,0.00731888137628014,0.00124395018928012,0.010287867044407,2021-01-24
"458",228.5,0.0193446670608542,0.00730047684823851,0.00124010986122447,0.0102923884610393,2021-01-24
"459",229,0.0193559413447319,0.00728177768570732,0.00123626525164752,0.0102961032981897,2021-01-25
"460",229.5,0.019365604856638,0.00726278803951207,0.00123241652419504,0.0102990106904165,2021-01-25
"461",230,0.0193736562326134,0.00726528630603142,0.00122856384174331,0.0103011100371784,2021-01-26
"462",230.5,0.0193800946391443,0.00726097095446985,0.00122470736638943,0.0103024010027668,2021-01-26
"463",231,0.0193849197726705,0.00724393496616064,0.00122084725944185,0.0103028835160562,2021-01-27
"464",231.5,0.0193881318587318,0.00722361402152779,0.00121698368141105,0.0103025577700714,2021-01-27
"465",232,0.0193897316507514,0.0072103047441914,0.00121311679200044,0.0103014242213759,2021-01-28
"466",232.5,0.0193897204284606,0.00719673361946713,0.00120924675009744,0.010299483589279,2021-01-28
"467",233,0.0193880999959669,0.00718290337138596,0.00120537371376472,0.0102967368548658,2021-01-29
"468",233.5,0.0193848726794695,0.007168816748489,0.00120149784023165,0.0102931852598506,2021-01-29
"469",234,0.0193800413246252,0.00715447652282942,0.00119761928588595,0.0102888303052556,2021-01-30
"470",234.5,0.0193736092935693,0.00713339564617088,0.00119373820626549,0.0102836737499174,2021-01-30
"471",235,0.0193655804615957,0.00710939817503388,0.0011898547560503,0.010277717608823,2021-01-31
"472",235.5,0.0193559592135012,0.00708519737939649,0.00118596908905474,0.010270964151278,2021-01-31
"473",236,0.0193447504395989,0.0070578052014649,0.00118208135821988,0.0102634158989094,2021-02-01
"474",236.5,0.0193319595314067,0.00702373602799559,0.00117819171560608,0.0102550756235064,2021-02-01
"475",237,0.0193175923770166,0.00700813123584192,0.00117430031238565,0.0102459463447012,2021-02-02
"476",237.5,0.0193016553561505,0.00700121015207109,0.00117040729883586,0.0102360313274932,2021-02-02
"477",238,0.0192841553349099,0.00700718657380518,0.00116651282433198,0.010225334079621,2021-02-03
"478",238.5,0.0192650996602256,0.00700584168683102,0.00116261703734055,0.0102138583487831,2021-02-03
"479",239,0.0192444961540151,0.00699463259559746,0.0011587200854129,0.010201608119714,2021-02-04
"480",239.5,0.0192223531070542,0.00698315163983241,0.00115482211517871,0.0101885876111164,2021-02-04
"481",240,0.0191986792725715,0.00696768128061246,0.0011509232723399,0.0101748012724557,2021-02-05
"482",240.5,0.0191734838595731,0.0069391769883559,0.00114702370166456,0.0101602537806188,2021-02-05
"483",241,0.0191467765259054,0.00693527707675929,0.00114312354698116,0.0101449500364433,2021-02-06
"484",241.5,0.0191210004165005,0.00692190975559392,0.00113922295117289,0.0101301116838367,2021-02-06
"485",242,0.01912868095641,0.00690934726228067,0.00113532205617217,0.0101320015062911,2021-02-07
"486",242.5,0.0191351032335024,0.00689789329117991,0.00113142100295533,0.0101332621182289,2021-02-07
"487",243,0.0191402669671711,0.00688610602130969,0.00112751993153752,0.0101338934493543,2021-02-08
"488",243.5,0.0191441722040871,0.00687381585030152,0.00112361898096772,0.0101338955925274,2021-02-08
"489",244,0.0191468193175469,0.00685876411040197,0.00111971828932394,0.0101332688034354,2021-02-09
"490",244.5,0.0191482090066447,0.00684590819748867,0.00111581799370864,0.0101320135001767,2021-02-09
"491",245,0.0191483422952684,0.0068328737435979,0.00111191823024422,0.0101301302627563,2021-02-10
"492",245.5,0.0191472205309219,0.0068196623271693,0.0011080191340688,0.0101276198324954,2021-02-10
"493",246,0.0191448453833755,0.0068062755367726,0.00110412083933206,0.0101244831113538,2021-02-11
"494",246.5,0.0191412188431452,0.00679271497081249,0.00110022347919128,0.0101207211611682,2021-02-11
"495",247,0.0191363432198032,0.00677898223723486,0.0010963271858076,0.0101163352028054,2021-02-12
"496",247.5,0.0191302211401225,0.00676303363753295,0.00109243209034236,0.0101113266152324,2021-02-12
"497",248,0.0191228555460557,0.00673046982913806,0.00108853832295363,0.0101056969345047,2021-02-13
"498",248.5,0.0191142496925528,0.00670727766826792,0.00108464601279295,0.0100994478526729,2021-02-13
"499",249,0.0191044071452178,0.0066842459686779,0.00108075528800213,0.01009258121661,2021-02-14
"500",249.5,0.0191040323022599,0.00666109067258562,0.00107686627571031,0.0100904492889851,2021-02-14
"501",250,0.0191391927668153,0.00663434272788227,0.00107297910203113,0.0101060859344232,2021-02-15
"502",250.5,0.0191730354426175,0.0066185543114958,0.00106909389206003,0.0101210646673388,2021-02-15
"503",251,0.0192055522870337,0.00660644056170625,0.00106521076987175,0.0101353815284527,2021-02-16
"504",251.5,0.019236735623156,0.00658597362059285,0.00106132985851797,0.010149032740837,2021-02-16
"505",252,0.019266578143632,0.00655030169993048,0.00105745128002509,0.0101620147118286,2021-02-17
"506",252.5,0.0192950729142754,0.00651071447004922,0.00105357515539216,0.0101743240348338,2021-02-17
"507",253,0.0193222133774561,0.00646817059412481,0.00104970160458899,0.0101859574910225,2021-02-18
"508",253.5,0.0193479933552647,0.00643298219161527,0.00104583074655435,0.0101969120509095,2021-02-18
"509",254,0.0193724070524511,0.00640287736116247,0.00104196269919438,0.0102071848758227,2021-02-19
"510",254.5,0.0193954490591323,0.0063767463809257,0.0010380975793811,0.0102167733192567,2021-02-19
"511",255,0.0194171143532699,0.0063695866367353,0.00103423550295108,0.0102256749281105,2021-02-20
"512",255.5,0.0194373983029134,0.0063426641226729,0.00103037658470424,0.0102338874438088,2021-02-20
"513",256,0.019456296668209,0.00630184312912511,0.00102652093840283,0.0102414088033059,2021-02-21
"514",256.5,0.0194738056031714,0.00627900382974077,0.00102266867677048,0.010248237139971,2021-02-21
"515",257,0.0194899216572189,0.0062688588926644,0.00101881991149145,0.0102543707843552,2021-02-22
"516",257.5,0.0195046417764695,0.00625569137942903,0.00101497475320999,0.0102598082648397,2021-02-22
"517",258,0.0195179633047979,0.00622951792285124,0.00101113331152984,0.0102645483081639,2021-02-23
"518",258.5,0.0195298839846538,0.00619959518431852,0.00100729569501382,0.0102685898398338,2021-02-23
"519",259,0.0195404019576397,0.00616954364808267,0.00100346201118368,0.0102719319844117,2021-02-24
"520",259.5,0.0195495157648502,0.00615159963655037,0.000999632366519881,0.010274574065685,2021-02-24
"521",260,0.0195572243469707,0.00613057869553433,0.00099580686646171,0.0102765156067162,2021-02-25
"522",260.5,0.0195635270441396,0.00609635028433269,0.000991985615407369,0.0102777563297735,2021-02-25
"523",261,0.0195684235955706,0.00607567606945458,0.000988168716714267,0.0102782961561424,2021-02-26
"524",261.5,0.01957191413894,0.00606262252933458,0.000984356272699414,0.0102781352058197,2021-02-26
"525",262,0.019573999209538,0.00603963886770468,0.000980548384639941,0.010277273797089,2021-02-27
"526",262.5,0.0195746797391857,0.00600577433154002,0.000976745152773734,0.0102757124459797,2021-02-27
"527",263,0.0195739570549207,0.00597186899637579,0.000972946676300198,0.0102734518656105,2021-02-28
"528",263.5,0.0195718328774525,0.00594799456317328,0.000969153053381131,0.0102704929654168,2021-02-28
"529",264,0.0195683093193897,0.00593580988298118,0.000965364381141713,0.0102668368502657,2021-03-01
"530",264.5,0.0195633888832418,0.00591398678994439,0.000961580755671617,0.0102624848194567,2021-03-01
"531",265,0.0195570744591985,0.00589202753348093,0.000957802272026226,0.0102574383656124,2021-03-02
"532",265.5,0.0195493693226885,0.00586643404379263,0.000954029024227967,0.0102516991734582,2021-03-02
"533",266,0.0195402771317219,0.00583178047037572,0.000950261105267747,0.0102452691184948,2021-03-03
"534",266.5,0.0195298019240185,0.00581237940608906,0.000946498607106508,0.0102381502655625,2021-03-03
"535",267,0.0195179481139259,0.00578894461580875,0.000942741620676879,0.0102303448673014,2021-03-04
"536",267.5,0.0195047204891313,0.00576579494219651,0.000938990235884938,0.0102218553625081,2021-03-04
"537",268,0.0194901242071701,0.0057429051915681,0.000935244541612078,0.0102126843743911,2021-03-05
"538",268.5,0.0194741647917358,0.00571984084671896,0.000931504625716972,0.0102028347087264,2021-03-05
"539",269,0.0194568481287954,0.00568913304350899,0.00092777057503764,0.0101923093519165,2021-03-06
"540",269.5,0.0194381804625141,0.00566137873367855,0.000924042475393619,0.0101811114689538,2021-03-06
"541",270,0.0194181683909941,0.00564171523224485,0.000920320411588221,0.0101692444012912,2021-03-07
"542",270.5,0.0193968188618328,0.00561452598402242,0.000916604467410895,0.0101567116646218,2021-03-07
"543",271,0.0193741391675032,0.00558197591429712,0.00091289472563968,0.0101435169465714,2021-03-08
"544",271.5,0.0193501369405638,0.00554680628260374,0.000909191268043752,0.0101296641043038,2021-03-08
"545",272,0.0193248201487011,0.00551161211167162,0.000905494175386058,0.0101151571620436,2021-03-09
"546",272.5,0.0192981970896113,0.00547639814665654,0.000901803527426047,0.0101000003085187,2021-03-09
"547",273,0.0192702763857246,0.00544116907823246,0.00089811940292248,0.0100841978943235,2021-03-10
"548",273.5,0.0192410669787797,0.00541215339071486,0.000894441879636336,0.010067754429208,2021-03-10
"549",274,0.0192105781242521,0.00539505796787313,0.000890771034333792,0.010050674579293,2021-03-11
"550",274.5,0.0191788193856428,0.00536989180256669,0.000887106942789298,0.0100329631642161,2021-03-11
"551",275,0.0191458006286323,0.00534041248089839,0.000883449679788727,0.0100146251542105,2021-03-12
"552",275.5,0.0191115320151059,0.0053106256812274,0.000879799319132601,0.00999566566711925,2021-03-12
"553",276,0.0190760239970564,0.00529103378679515,0.000876155933639411,0.00997608996534793,2021-03-13
"554",276.5,0.0190392873103694,0.00526488860026404,0.000872519595148996,0.00995590345275921,2021-03-13
"555",277,0.019001332968497,0.0052315554715413,0.000868890374526011,0.00993511167151149,2021-03-14
"556",277.5,0.0189621722560264,0.00519918589342889,0.000865268341663464,0.00991372029884491,2021-03-14
"557",278,0.0189218167221491,0.00518287974124127,0.000861653565486326,0.0098917351438177,2021-03-15
"558",278.5,0.0188802781740361,0.00516215828416432,0.000858046113955212,0.00986916214399565,2021-03-15
"559",279,0.0188375686701257,0.00513711786970871,0.000854446054070136,0.00984600736209791,2021-03-16
"560",279.5,0.0187937005133297,0.00511200234777268,0.000850853451874326,0.00982227698260201,2021-03-16
"561",280,0.0187486862441638,0.00508681519725281,0.000847268372458115,0.00979797730831097,2021-03-17
"562",280.5,0.0187025386338086,0.00505852558196025,0.000843690879962895,0.00977311475688573,2021-03-17
"563",281,0.0186552706771061,0.00502519366339162,0.000840121037585126,0.00974769585734561,2021-03-18
"564",281.5,0.0186068955854997,0.00498829919673991,0.000836558907580423,0.00972172724654005,2021-03-18
"565",282,0.018557426779921,0.00494125910211087,0.000833004551267692,0.00969521566559432,2021-03-19
"566",282.5,0.0185068778836314,0.00489452769404309,0.00082945802903333,0.00966816795633236,2021-03-19
"567",283,0.0184552627150235,0.00484810577524121,0.000825919400335486,0.00964059105767951,2021-03-20
"568",283.5,0.018402595280388,0.00482058962629552,0.000822388723708373,0.00961249200204821,2021-03-20
"569",284,0.0183488897666521,0.00479577688738102,0.000818866056766639,0.00958387791170936,2021-03-21
"570",284.5,0.0182941605340949,0.00477091803308917,0.000815351456209794,0.00955475599515232,2021-03-21
"571",285,0.018238422109046,0.00474601621599858,0.000811844977826685,0.00952513354343634,2021-03-22
"572",285.5,0.0181816891765723,0.00472107455901124,0.000808346676500027,0.00949501792653614,2021-03-22
"573",286,0.0181239765731582,0.00469262865955871,0.000804856606210981,0.00946441658968457,2021-03-23
"574",286.5,0.0180652992793858,0.00466171536073457,0.000801374820043779,0.00943333704971479,2021-03-23
"575",287,0.0180056724126194,0.0046353890290089,0.000797901370190407,0.00940178689140491,2021-03-24
"576",287.5,0.0179451112196998,0.0046090955373795,0.000794436307955315,0.00936977376382753,2021-03-24
"577",288,0.0178836310696536,0.0045848078708383,0.000790979683760193,0.00933730537670688,2021-03-25
"578",288.5,0.0178212474464232,0.00456327648170479,0.000787531547148774,0.00930438949678596,2021-03-25
"579",289,0.0177579759416211,0.00454413137016339,0.000784091946791689,0.0092710339442064,2021-03-26
"580",289.5,0.0176938322473149,0.00452496640699496,0.000780660930491355,0.0092372465889031,2021-03-26
"581",290,0.0176288321488461,0.00450120373348265,0.000777238545186912,0.0092030353470165,2021-03-27
"582",290.5,0.0175629915176894,0.00446781508279805,0.000773824836959191,0.00916840817732428,2021-03-27
"583",291,0.0174963263043548,0.00443459570214188,0.00077041985103572,0.00913337307769526,2021-03-28
"584",291.5,0.0174288525313388,0.00440697050559839,0.000767023631795769,0.0090979380815673,2021-03-28
"585",292,0.0173605862861278,0.00438938749622727,0.000763636222775429,0.00906211125445163,2021-03-29
"586",292.5,0.0172915437142583,0.00437177340652646,0.000760257666672719,0.00902590069046551,2021-03-29
"587",293,0.0172217410124379,0.00435223752528897,0.000756888005352734,0.00898931450889533,2021-03-30
"588",293.5,0.0171511944217314,0.00432619050812824,0.00075352727985282,0.00895236085079212,2021-03-30
"589",294,0.0170799202208149,0.00429651263917832,0.000750175530387773,0.00891504787560134,2021-03-31
"590",294.5,0.0170079347193024,0.00426690966177795,0.00074683279635508,0.00887738375782874,2021-03-31
"591",295,0.0169352542511481,0.00423738372411217,0.000743499116340173,0.00883937668374414,2021-04-01
"592",295.5,0.0168618951681279,0.0042079369317633,0.00074017452812172,0.00880103484812478,2021-04-01
"593",296,0.0167878738334028,0.0041785713478634,0.000736859068676937,0.00876236645103988,2021-04-02
"594",296.5,0.0167132066151689,0.0041440186225679,0.000733552774186927,0.00872337969467793,2021-04-02
