"","time","top","med","bottom","pseudo_med","date"
"1",0,0.0106619630181979,0.00136011972593166,1.35219614796015e-05,0.00533774248983875,2020-06-10
"2",0.5,0.0100943920944117,0.00133286108793824,7.50846512861854e-05,0.00508473837284895,2020-06-10
"3",1,0.00955773746795688,0.00129917540429379,0.000123457775950904,0.00484059762195389,2020-06-11
"4",1.5,0.00905030772284629,0.00126252330521728,0.000153077782089422,0.00460169275246786,2020-06-11
"5",2,0.0085705040543013,0.00122698096331394,0.000171989058132768,0.00437124655621704,2020-06-12
"6",2.5,0.0081168151972136,0.00119424310362677,0.000174435450718,0.0041456253239658,2020-06-12
"7",3,0.0076878126323395,0.00115712150405791,0.000176638705541519,0.00393222566894051,2020-06-13
"8",3.5,0.00728214605501729,0.00112383723804169,0.000172884578807735,0.00372751531691251,2020-06-13
"9",4,0.0068985390920308,0.00108617711685553,0.000166067143147754,0.00353230311758928,2020-06-14
"10",4.5,0.00653578525303015,0.00104653443806762,0.000159534693749474,0.00334765997338981,2020-06-14
"11",5,0.00619274410366439,0.00102138016040612,0.000153274412716485,0.00317300925819044,2020-06-15
"12",5.5,0.00586833764828457,0.000997197340505001,0.000147274106481924,0.00300780587738325,2020-06-15
"13",6,0.00556154691074034,0.000969917889709772,0.000141522173049622,0.00285153454189498,2020-06-16
"14",6.5,0.00527140870242193,0.00094078280204572,0.000136007571060735,0.00270370813674133,2020-06-16
"15",7,0.00499701256729339,0.000921068024507265,0.000130719790579649,0.00256386617893652,2020-06-17
"16",7.5,0.00473749789422445,0.000886569779540535,0.000125648825499287,0.00243157335986187,2020-06-17
"17",8,0.0044920511874591,0.000857324539925594,0.000120785147471939,0.00230641816746552,2020-06-18
"18",8.5,0.00425990348656111,0.000832445380973355,0.000116119681277332,0.00218801158391922,2020-06-18
"19",9,0.0040403279276503,0.000808359358193184,0.000111643781544919,0.00207598585459761,2020-06-19
"20",9.5,0.00383263743819233,0.00078601488647703,0.000107349210752327,0.00196999332447233,2020-06-19
"21",10,0.00363618255802804,0.000766289105281981,0.000103228118426548,0.00186970533822729,2020-06-20
"22",10.5,0.00345034937972908,0.000743011841871849,9.92730214787918e-05,0.00177481120060394,2020-06-20
"23",11,0.00327455760174525,0.000715708620234871,9.54767856080758e-05,0.00168501719367667,2020-06-21
"24",11.5,0.00310825868816657,0.000692228020086341,9.18326077124105e-05,0.00160004564793949,2020-06-21
"25",12,0.00295093412926164,0.000672023212010627,8.83339992501126e-05,0.00151963406425587,2020-06-22
"26",12.5,0.00280209379727341,0.00064853856174305,8.49747704971434e-05,0.00144353428388528,2020-06-22
"27",13,0.00266127439225581,0.000626851004981487,8.17490156495752e-05,0.00137151170395269,2020-06-23
"28",13.5,0.00252803797302028,0.000607936472612221,7.86510987232864e-05,0.00130334453587178,2020-06-23
"29",14,0.00240197056853127,0.000585701936793874,7.56756402058059e-05,0.00123882310436854,2020-06-24
"30",14.5,0.00228268086534525,0.000567520984490554,7.28175044178734e-05,0.00117774918488156,2020-06-24
"31",15,0.00216979896692864,0.000551683414770346,7.00717875447761e-05,0.00111993537723671,2020-06-25
"32",15.5,0.00206297522091847,0.000532818461310372,6.74338062998588e-05,0.00106520451360916,2020-06-25
"33",16,0.00196187911060499,0.000515596610857491,6.48990871848039e-05,0.0010133890988949,2020-06-26
"34",16.5,0.00186619820711927,0.00049889085114276,6.24633563133453e-05,0.000964330781716305,2020-06-26
"35",17,0.00180828109892306,0.000484326820531681,6.01225297670235e-05,0.000934201814345039,2020-06-27
"36",17.5,0.00177106320124989,0.000466345328276902,5.78727044534141e-05,0.000914467952851653,2020-06-27
"37",18,0.00173556949588941,0.000450607339063563,5.57101494389807e-05,0.000895639822664195,2020-06-28
"38",18.5,0.00170171884699362,0.000434270770122859,5.3631297730317e-05,0.000877675072361971,2020-06-28
"39",19,0.00166943392350534,0.000419806745920192,5.16327384790603e-05,0.000860533330992201,2020-06-29
"40",19.5,0.00163864102076851,0.000406829058271366,4.97112095871875e-05,0.000844176115177848,2020-06-29
"41",20,0.00160926989050276,0.000389933942184287,4.78635906907456e-05,0.000828566740596754,2020-06-30
"42",20.5,0.00158125357874998,0.000377747408064075,4.60868965013331e-05,0.000813670237625655,2020-06-30
"43",21,0.00155452827141906,0.000367766717472217,4.43782704858336e-05,0.000799453270952447,2020-07-01
"44",21.5,0.00152903314707271,0.000357690251678762,4.27349788660231e-05,0.000785884062969366,2020-07-01
"45",22,0.00150471023661656,0.000344799795205103,3.96932745275441e-05,0.000772201755572053,2020-07-02
"46",22.5,0.00148150428956716,0.000336663020352359,3.68534690262738e-05,0.000759178879296717,2020-07-02
"47",23,0.00145936264659018,0.000324525444470289,3.42143871158766e-05,0.000746788516853031,2020-07-03
"48",23.5,0.00144254338503653,0.000312338780859675,3.17621653184428e-05,0.000737152775177487,2020-07-03
"49",24,0.0014313706946118,0.000302241965983522,2.94838542176659e-05,0.000730427274414731,2020-07-04
"50",24.5,0.0014204625985855,0.000290940203921211,2.73673641543743e-05,0.000723914981369935,2020-07-04
"51",25,0.0014098097273028,0.000279713633002522,2.54014132912928e-05,0.000717605570297044,2020-07-05
"52",25.5,0.00139940305658031,0.000270467544321358,2.35754780803709e-05,0.00071148926733034,2020-07-05
"53",26,0.00138923389495948,0.000259899900882021,2.18797461367947e-05,0.000705556820548139,2020-07-06
"54",26.5,0.00137929387143002,0.00025166649063489,2.03050715001885e-05,0.000699799471465104,2020-07-06
"55",27,0.00136957492360596,0.000243607376038659,1.88429322446705e-05,0.000694208927925315,2020-07-07
"56",27.5,0.00136006928633779,0.000236052539300005,1.74853903845861e-05,0.000688777338361187,2020-07-07
"57",28,0.00135076948074445,0.000228698498341727,1.622505401129e-05,0.000683497267377867,2020-07-08
"58",28.5,0.00134166830364978,0.00022025690873662,1.50550415877165e-05,0.000678361672618748,2020-07-08
"59",29,0.00133275881740855,0.000212091186408542,1.39689483212227e-05,0.000673363882864884,2020-07-09
"60",29.5,0.00132403434010755,0.000206882298897632,1.29608145308862e-05,0.000668497577319217,2020-07-09
"61",30,0.00131548843612814,0.000200558939781215,1.20250959227775e-05,0.000663756766025459,2020-07-10
"62",30.5,0.00130711490705673,0.000194395862588386,1.11566356853887e-05,0.00065913577137106,2020-07-10
"63",31,0.00129890778293048,0.000187723824255483,1.03506383171624e-05,0.000654629210623819,2020-07-11
"64",31.5,0.00129086131380579,0.000181849588308255,9.6026450987e-06,0.000650231979452244,2020-07-11
"65",32,0.00128296996163779,0.000176190834022711,8.90851112357556e-06,0.000645939236380683,2020-07-12
"66",32.5,0.00127522839245921,0.000170513900798313,8.26438380357895e-06,0.000641746388131395,2020-07-12
"67",33,0.00126763146884771,0.000165489390846115,7.66668276654158e-06,0.000637649075807126,2020-07-13
"68",33.5,0.00126017424267099,0.000158786462674272,7.11208106755189e-06,0.000633643161869271,2020-07-13
"69",34,0.00125285194809945,0.00015398763750938,6.59748763725814e-06,0.000629724717868355,2020-07-14
"70",34.5,0.00124565999487652,0.000148825002478393,6.12003089400928e-06,0.000625890012885267,2020-07-14
"71",35,0.00123859396183719,0.000144090584432162,5.67704344974173e-06,0.000622135502643466,2020-07-15
"72",35.5,0.00123164959066553,0.000138659663680428,5.26604784272863e-06,0.000618457819254131,2020-07-15
"73",36,0.0012248227798825,0.000134246661637584,4.88474323353037e-06,0.000614853761558014,2020-07-16
"74",36.5,0.00121810957905539,0.000130315476815474,4.53099300368579e-06,0.000611320286029539,2020-07-16
"75",37,0.00121150618322094,0.000127186927760012,4.20281319983788e-06,0.000607854498210387,2020-07-17
"76",37.5,0.001205008927514,0.000122945168826864,3.89836176907392e-06,0.000604453644641535,2020-07-17
"77",38,0.00119861428199441,0.000118796818939007,3.6159285342625e-06,0.000601115105264336,2020-07-18
"78",38.5,0.00119231884666463,0.000114324664980815,3.3539258610762e-06,0.000597836386262851,2020-07-18
"79",39,0.00118611934667107,0.000109802517543834,3.11087997119015e-06,0.000594615113321132,2020-07-19
"80",39.5,0.00118001262768255,0.000105490988043162,2.8854228588364e-06,0.000591449025270694,2020-07-19
"81",40,0.00117399565143904,0.000101498465558188,2.67628477046948e-06,0.000588335968104757,2020-07-20
"82",40.5,0.00116806549146473,9.80744183370674e-05,2.48228720975562e-06,0.000585273889337245,2020-07-20
"83",41,0.00116221932893914,9.49369790058306e-05,2.30233643243824e-06,0.000582260832685787,2020-07-21
"84",41.5,0.00115645444872051,9.11111299933204e-05,2.13541739785466e-06,0.000579294933059181,2020-07-21
"85",42,0.00115076823551596,8.70539739577974e-05,1.98058814598604e-06,0.000576374411830971,2020-07-22
"86",42.5,0.0011451581701928,8.36268142444315e-05,1.83697457091642e-06,0.000573497572381859,2020-07-22
"87",43,0.00113962182622601,8.06975195966136e-05,1.70376556346037e-06,0.000570662795894733,2020-07-23
"88",43.5,0.00113415686627665,7.81216497955279e-05,1.58020849749588e-06,0.000567868537387073,2020-07-23
"89",44,0.00112876103889661,7.50949608602483e-05,1.46560503621318e-06,0.000565113321966411,2020-07-24
"90",44.5,0.00112343217535481,7.21812764768533e-05,1.35930723606572e-06,0.000562395741295438,2020-07-24
"91",45,0.00111816818658055,6.94814369557294e-05,1.26071392769039e-06,0.000559714450254118,2020-07-25
"92",45.5,0.00111296706021956,6.70496086660746e-05,1.16926735445431e-06,0.000557068163787006,2020-07-25
"93",46,0.00110782685779872,6.53724982881053e-05,1.08445005059039e-06,0.000554455653924657,2020-07-26
"94",46.5,0.00110274571199534,6.28489809860598e-05,1.00578194210653e-06,0.000551875746968726,2020-07-26
"95",47,0.00109772182400717,6.04797193033737e-05,9.32817654798502e-07,0.000549327320830986,2020-07-27
"96",47.5,0.00109275346101946,5.85490809092159e-05,8.65144014768966e-07,0.000546809302517115,2020-07-27
"97",48,0.00108783895376547,5.68824632285692e-05,8.02377727857558e-07,0.000544320665746664,2020-07-28
"98",48.5,0.00108297669417699,5.52699353472198e-05,7.44163225324425e-07,0.000541860428701157,2020-07-28
"99",49,0.00107816513312152,5.37414579630288e-05,6.90170664005491e-07,0.000539427651892762,2020-07-29
"100",49.5,0.00107340277822296,5.20986776704396e-05,6.40094069975462e-07,0.000537021436146468,2020-07-29
"101",50,0.00106868819176272,5.07047221086382e-05,5.93649615518028e-07,0.000534640920689121,2020-07-30
"102",50.5,0.00106401998865827,4.92713443813924e-05,5.50574019914844e-07,0.000532285281339091,2020-07-30
"103",51,0.0010602301564191,4.74941179213532e-05,5.10623065229101e-07,0.000530370389742166,2020-07-31
"104",51.5,0.00105887229788366,4.54799857839488e-05,4.7357021887864e-07,0.000529672934051271,2020-07-31
"105",52,0.00105756999096439,4.37492243381869e-05,4.39205355370616e-07,0.000529004598159883,2020-08-01
"106",52.5,0.00105632036574572,4.21528847280437e-05,4.07333570107245e-07,0.000528363849657912,2020-08-01
"107",53,0.00105512068575173,4.08093977273161e-05,3.77774078672835e-07,0.000527749229915202,2020-08-02
"108",53.5,0.00105396834175815,3.95081228026552e-05,3.50359195478437e-07,0.000527159350476814,2020-08-02
"109",54,0.00105286084589151,3.81302791543526e-05,3.2493338607435e-07,0.000526592889638794,2020-08-03
"110",54.5,0.00105179582600234,3.66784309806849e-05,3.01352387844482e-07,0.000526048589195091,2020-08-03
"111",55,0.00105077102029949,3.54064418824873e-05,2.79482394172274e-07,0.000525525251346829,2020-08-04
"112",55.5,0.00104978427223363,3.42757566289989e-05,2.59199297517334e-07,0.000525021735765576,2020-08-04
"113",56,0.00104883352561826,3.32027191668627e-05,2.40387987166925e-07,0.000524536956802713,2020-08-05
"114",56.5,0.00104791681997714,3.20825873092703e-05,2.22941697728681e-07,0.000524069880837435,2020-08-05
"115",57,0.00104703228610784,3.09989830893422e-05,2.06761404711827e-07,0.000523619523756274,2020-08-06
"116",57.5,0.00104617814185111,2.99528805176719e-05,1.91755263805402e-07,0.000523184948557459,2020-08-06
"117",58,0.00104535268805678,2.89600197520434e-05,1.77838090704636e-07,0.000522765263073743,2020-08-07
"118",58.5,0.0010445543047368,2.81763757158891e-05,1.64930878562247e-07,0.000522359617807683,2020-08-07
"119",59,0.00104378144739698,2.74158819257375e-05,1.52960350350957e-07,0.000521967203873668,2020-08-08
"120",59.5,0.00104303264353894,2.66777680839236e-05,1.41858543618252e-07,0.000521587251041279,2020-08-08
"121",60,0.00104230648932448,2.58381201836993e-05,1.31562425295277e-07,0.000521219025874886,2020-08-09
"122",60.5,0.00104160164639478,2.50982027287358e-05,1.22013534389747e-07,0.000520861829964587,2020-08-09
"123",61,0.00104091683883732,2.42105068290796e-05,1.13157650548784e-07,0.000520514998243933,2020-08-10
"124",61.5,0.00104025085029344,2.3215386904156e-05,1.04944486622508e-07,0.000520177897390032,2020-08-10
"125",62,0.00103960252120038,2.22553633624709e-05,9.73274034937273e-08,0.000519849924301938,2020-08-11
"126",62.5,0.00103897074616116,2.13872163679983e-05,9.0263145564026e-08,0.000519530504653364,2020-08-11
"127",63,0.00103835447143667,2.05676341531865e-05,8.3711595402536e-08,0.000519219091516035,2020-08-12
"128",63.5,0.00103775269255408,1.993754114153e-05,7.7635546171354e-08,0.000518915164050128,2020-08-12
"129",64,0.00103716445202639,1.93708328533811e-05,7.20004905415348e-08,0.000518618226258464,2020-08-13
"130",64.5,0.00103658883717766,1.86857171287562e-05,6.67744249063818e-08,0.000518327805801283,2020-08-13
"131",65,0.00103602497806938,1.79018003392723e-05,6.19276677848841e-08,0.000518043452868583,2020-08-14
"132",65.5,0.00103547204552294,1.73161664151014e-05,5.74326913880926e-08,0.000517764739107164,2020-08-14
"133",66,0.00103492924923396,1.67903344171785e-05,5.32639653954182e-08,0.000517491256599677,2020-08-15
"134",66.5,0.00103439583597413,1.62166366170553e-05,4.9397812056697e-08,0.000517222616893092,2020-08-15
"135",67,0.00103387108787652,1.56627088438037e-05,4.5812271799761e-08,0.00051695845007416,2020-08-16
"136",67.5,0.00103335432080047,1.51578636333018e-05,4.24869785825571e-08,0.000516698403889527,2020-08-16
"137",68,0.00103284488277236,1.46916156594668e-05,3.94030442838795e-08,0.000516442142908323,2020-08-17
"138",68.5,0.00103234215249877,1.42397727010044e-05,3.65429514778393e-08,0.000516189347725124,2020-08-17
"139",69,0.00103184553794862,1.38018863326171e-05,3.38904539845753e-08,0.000515939714201302,2020-08-18
"140",69.5,0.00103135447500115,1.33775222796276e-05,3.14304846336639e-08,0.00051569295274289,2020-08-18
"141",70,0.0010308684261566,1.2920594378951e-05,2.91490697174745e-08,0.000515448787613159,2020-08-19
"142",70.5,0.00103038687930679,1.24726422093918e-05,2.70332496495584e-08,0.00051520695627822,2020-08-19
"143",71,0.00102990934656268,1.20404609140647e-05,2.50710053782642e-08,0.000514967208784031,2020-08-20
"144",71.5,0.00102943536313641,1.1623482793046e-05,2.32511901383465e-08,0.000514729307163274,2020-08-20
"145",72,0.00102896448627514,1.12211612338379e-05,2.15634661535509e-08,0.000514493024870648,2020-08-21
"146",72.5,0.00102849629424447,1.08493904667993e-05,1.99982459311925e-08,0.000514258146245201,2020-08-21
"147",73,0.00102803038535892,1.051305017814e-05,1.8546637815748e-08,0.000514024465998367,2020-08-22
"148",73.5,0.00102756637705747,1.01876019182095e-05,1.72003954926109e-08,0.000513791788726483,2020-08-22
"149",74,0.001027103905022,9.87267428809979e-06,1.59518711555348e-08,0.000513559928446575,2020-08-23
"150",74.5,0.00102664262233654,9.56790937649832e-06,1.47939720720534e-08,0.000513328708154304,2020-08-23
"151",75,0.00102618219868567,9.27296223041001e-06,1.37201203004209e-08,0.000513097959402983,2020-08-24
"152",75.5,0.00102572231958998,8.98750034863284e-06,1.27242153294828e-08,0.000512867521902655,2020-08-24
"153",76,0.00102526268567709,8.7112031969093e-06,1.18005994294563e-08,0.00051263724313826,2020-08-25
"154",76.5,0.00102480301198643,8.42200862368704e-06,1.09440255169697e-08,0.000512406978005972,2020-08-25
"155",77,0.00102434302730629,8.12940970255174e-06,1.01496273519689e-08,0.000512176588466819,2020-08-26
"156",77.5,0.00102388247354164,7.85830750529099e-06,9.41289189732417e-09,0.000511945943216767,2020-08-26
"157",78,0.00102342110511125,7.59628275155909e-06,8.72963368423348e-09,0.000511714917372465,2020-08-27
"158",78.5,0.00102295868837277,7.34302982507606e-06,8.09597103790291e-09,0.000511483392171904,2020-08-27
"159",79,0.00102249500107451,7.09825347236206e-06,7.508304028532e-09,0.000511251254689268,2020-08-28
"160",79.5,0.00102202983183258,6.86166844843251e-06,6.96329402242465e-09,0.0005110183975633,2020-08-28
"161",80,0.00102156297963234,6.63299917469631e-06,6.45784471712372e-09,0.00051078471873853,2020-08-29
"162",80.5,0.00102109425335295,6.41197940863678e-06,5.98908455288942e-09,0.000510550121218753,2020-08-29
"163",81,0.00102062347131393,6.1983519248689e-06,5.55435040065172e-09,0.000510314512832168,2020-08-30
"164",81.5,0.00102015046084279,5.9910492462892e-06,5.15117243381226e-09,0.000510077806007614,2020-08-30
"165",82,0.00101967505786268,5.78482019478947e-06,4.77726009798979e-09,0.00050983991756139,2020-08-31
"166",82.5,0.00101919710649915,5.58567692630408e-06,4.4304890990359e-09,0.000509600768494126,2020-08-31
"167",83,0.00101871645870517,5.39337733036558e-06,4.10888933542747e-09,0.000509360283797255,2020-09-01
"168",83.5,0.00101823297390349,5.20768747592161e-06,3.81063370650371e-09,0.000509118392268597,2020-09-01
"169",84,0.00101774651864557,5.02838134068254e-06,3.53402773298758e-09,0.000508875026336654,2020-09-02
"170",84.5,0.0010172569662864,4.85524054909515e-06,3.27749993084327e-09,0.000508630121893165,2020-09-02
"171",85,0.00101676419667424,4.69103134741303e-06,3.03959288379832e-09,0.00050838361813356,2020-09-03
"172",85.5,0.00101626809585486,4.5360344855569e-06,2.8189549638262e-09,0.000508135457404914,2020-09-03
"173",86,0.00101576855578946,4.3862275894477e-06,2.61433265256394e-09,0.000507885585061056,2020-09-04
"174",86.5,0.00101526547408556,4.24143515454798e-06,2.42456342005208e-09,0.000507633949324491,2020-09-04
"175",87,0.00101475875374049,4.10148763941501e-06,2.24856912034861e-09,0.000507380501154804,2020-09-05
"176",87.5,0.00101424830289664,3.97034835132737e-06,2.0853498665041e-09,0.000507125194123252,2020-09-05
"177",88,0.00101373403460813,3.84707701839219e-06,1.93397835010703e-09,0.000506867984293239,2020-09-06
"178",88.5,0.00101321586661822,3.71963137794736e-06,1.79359457313345e-09,0.000506608830106395,2020-09-06
"179",89,0.00101269372114704,3.58298683400963e-06,1.66340096217629e-09,0.000506347692274004,2020-09-07
"180",89.5,0.00101216752468918,3.45139297878794e-06,1.54265783730156e-09,0.000506084533673509,2020-09-07
"181",90,0.00101163720782056,3.35013758054125e-06,1.43067920979273e-09,0.000505819319249883,2020-09-08
"182",90.5,0.00101110270501431,3.25843789435728e-06,1.32682888491225e-09,0.000505552015921596,2020-09-08
"183",91,0.00101056395446515,3.15012085166512e-06,1.230516847542e-09,0.000505282592490999,2020-09-09
"184",91.5,0.00101002089792187,3.04541466242587e-06,1.14119591017078e-09,0.00050501101955889,2020-09-09
"185",92,0.00100947348052756,2.94419848312751e-06,1.05835860418741e-09,0.00050473726944308,2020-09-10
"186",92.5,0.00100892165066721,2.84635553654978e-06,9.81534296819517e-10,0.000504461316100752,2020-09-10
"187",93,0.00100836535982241,2.75177297392484e-06,9.10286517340314e-10,0.000504183135054463,2020-09-11
"188",93.5,0.00100780456243269,2.66034174181435e-06,8.44210477353959e-10,0.000503902703321582,2020-09-11
"189",94,0.00100723921576329,2.57195645354005e-06,7.82930771072653e-10,0.00050361999934703,2020-09-12
"190",94.5,0.00100666927977906,2.48651526501034e-06,7.2609924252105e-10,0.000503335002939152,2020-09-12
"191",95,0.00101055032659243,2.40391975479094e-06,6.7339300755174e-10,0.000505275499992718,2020-09-13
"192",95.5,0.00101849764533572,2.32407480827316e-06,6.2451261943497e-10,0.000509249134924171,2020-09-13
"193",96,0.001026503543993,2.24688850579804e-06,5.79180367601364e-10,0.000513252061586684,2020-09-14
"194",96.5,0.00103456836133381,2.17227201460006e-06,5.37138699872758e-10,0.000517284449236253,2020-09-14
"195",97,0.00104269243766322,2.10013948443842e-06,4.98148759217806e-10,0.00052134646790599,2020-09-15
"196",97.5,0.0010508761147778,2.03040794678873e-06,4.61989026719539e-10,0.000525438288383413,2020-09-15
"197",98,0.00105911973592196,1.9629972174724e-06,4.28454063045476e-10,0.000529560082188013,2020-09-16
"198",98.5,0.00106742364574482,1.89782980260514e-06,3.97353341270411e-10,0.000533712021549079,2020-09-16
"199",99,0.00107578819025732,1.83042136689216e-06,3.68510164420997e-10,0.00053789427938374,2020-09-17
"200",99.5,0.00108421371678978,1.7650652902725e-06,3.41760661592525e-10,0.000542107029275222,2020-09-17
"201",100,0.00109270057394969,1.70204762273056e-06,3.16952856934643e-10,0.000546350445451276,2020-09-18
"202",100.5,0.00110124911157971,1.64128453672872e-06,2.93945806216765e-10,0.00055062470276276,2020-09-18
"203",101,0.00110985968071594,1.58269521463054e-06,2.72608796067795e-10,0.000554929976662369,2020-09-19
"204",101.5,0.00111853263354633,1.52620174051733e-06,2.52820601340877e-10,0.000559266443183463,2020-09-19
"205",102,0.00112726832336921,1.47172899589253e-06,2.34468796384062e-10,0.000563634278919003,2020-09-20
"206",102.5,0.00113606710455199,1.41920455913462e-06,2.17449116304071e-10,0.000568033661000552,2020-09-20
"207",103,0.0011449293324898,1.36855860856416e-06,2.01664864594292e-10,0.000572464767077331,2020-09-21
"208",103.5,0.00115385536356429,1.31972382899519e-06,1.87026363761591e-10,0.000576927775295327,2020-09-21
"209",104,0.00116284555510235,1.27263532164608e-06,1.73450445830793e-10,0.0005814228642764,2020-09-22
"210",104.5,0.00117190026533484,1.22723051728929e-06,1.6085997983222e-10,0.000585950213097408,2020-09-22
"211",105,0.0011810198533552,1.18344909252364e-06,1.49183433587801e-10,0.000590510001269316,2020-09-23
"212",105.5,0.00119020467907808,1.1412328890572e-06,1.38354467306117e-10,0.000595102408716273,2020-09-23
"213",106,0.00119945510319774,1.1005258358925e-06,1.28311556677461e-10,0.000599727615754647,2020-09-24
"214",106.5,0.00120877148714636,1.0594802392519e-06,1.18997643327582e-10,0.000604385803072,2020-09-24
"215",107,0.00121815419305217,1.01846667668678e-06,1.10359810644225e-10,0.000609077151705991,2020-09-25
"216",107.5,0.0012276035836974,9.79039918751937e-07,1.02348983134716e-10,0.000613801843023194,2020-09-25
"217",108,0.00123712002247596,9.41138641752479e-07,9.4919647606535e-11,0.000618560058697806,2020-09-26
"218",108.5,0.00124670387335092,9.04703887458503e-07,8.80295945868053e-11,0.000623351980690257,2020-09-26
"219",109,0.00125635550081168,8.69678972121183e-07,8.16396785115949e-11,0.000628177791225679,2020-09-27
"220",109.5,0.0012660752698309,8.36762381777288e-07,7.57135953225856e-11,0.000633037672772247,2020-09-27
"221",110,0.00127586354582104,8.09010713368302e-07,7.02176762075426e-11,0.00063793180801936,2020-09-28
"222",110.5,0.00128572069459065,7.82226188151894e-07,6.51206963127457e-11,0.000642860379855675,2020-09-28
"223",111,0.0012956470823002,7.56373694355462e-07,6.03936973406025e-11,0.00064782357134695,2020-09-29
"224",111.5,0.00130564307541761,7.31419434676765e-07,5.60098230245472e-11,0.000652821565713716,2020-09-29
"225",112,0.00131570904067334,7.07330876024317e-07,5.19441665464931e-11,0.000657854546308752,2020-09-30
"226",112.5,0.00132584534501507,6.84076701204926e-07,4.81736290299529e-11,0.000662922696594352,2020-09-30
"227",113,0.00133605235556197,6.61626762482452e-07,4.46767883048706e-11,0.000668026200119378,2020-10-01
"228",113.5,0.00134633043955841,6.3995203693476e-07,4.14337771985599e-11,0.000673165240496095,2020-10-01
"229",114,0.00135667996432735,6.16357129037171e-07,3.84261706612716e-11,0.000678340001376759,2020-10-02
"230",114.5,0.00136710129722307,5.93795347885104e-07,3.56368810851015e-11,0.000683550666429976,2020-10-02
"231",115,0.00137759480558354,5.72645415933396e-07,3.30500612215009e-11,0.0006887974193168,2020-10-03
"232",115.5,0.00138816085668213,5.52250447250937e-07,3.06510141458228e-11,0.00069408044366657,2020-10-03
"233",116,0.00139879981767886,5.32583435451877e-07,2.84261097573738e-11,0.000699399923052485,2020-10-04
"234",116.5,0.00140951205557108,5.13618342176219e-07,2.63627073405716e-11,0.000704756040966894,2020-10-04
"235",117,0.00142029793714351,4.95330062328048e-07,2.44490837472456e-11,0.000710148980796298,2020-10-05
"236",117.5,0.00143115782891777,4.77694390563874e-07,2.26743667920518e-11,0.00071557892579607,2020-10-05
"237",118,0.00144209209710125,4.60687988986093e-07,2.10284734825921e-11,0.000721046059064859,2020-10-06
"238",118.5,0.00145310110753534,4.44288355998193e-07,1.95020527332972e-11,0.000726550563518698,2020-10-06
"239",119,0.00146418522564313,4.284737962799e-07,1.80864322376042e-11,0.000732092621864782,2020-10-07
"240",119.5,0.0014753448163763,4.13223391841953e-07,1.67735691965866e-11,0.000737672416574935,2020-10-07
"241",120,0.00148658024416148,3.98516974121647e-07,1.55560046241039e-11,0.000743290129858743,2020-10-08
"242",120.5,0.00149789187284586,3.8433509708169e-07,1.44268209688589e-11,0.000748945943636339,2020-10-08
"243",121,0.00150928006564212,3.70659011276269e-07,1.33796028125929e-11,0.000754640039510863,2020-10-09
"244",121.5,0.00152074518507271,3.57470638849492e-07,1.24084004211289e-11,0.000760372598740554,2020-10-09
"245",122,0.00153228759291329,3.44752549432676e-07,1.15076959411799e-11,0.000766143802210495,2020-10-10
"246",122.5,0.00154390765013561,3.32487936908102e-07,1.067237205087e-11,0.000771953830403991,2020-10-10
"247",123,0.00155560571684948,3.20660597008077e-07,9.89768288585915e-12,0.000777802863373579,2020-10-11
"248",123.5,0.0015673821522441,3.09254905719218e-07,9.17922707588858e-12,0.000783691080711665,2020-10-11
"249",124,0.00157923731452863,2.98255798462988e-07,8.51292273855581e-12,0.000789618661520775,2020-10-12
"250",124.5,0.00159117156087186,2.87648750024547e-07,7.8949842882474e-12,0.000795585784383423,2020-10-12
"251",125,0.00160318524734128,2.77419755202977e-07,7.3219009284704e-12,0.000801592627331591,2020-10-13
"252",125.5,0.00161527872884118,2.67555310156929e-07,6.79041670538759e-12,0.000807639367815799,2020-10-13
"253",126,0.00162745235905007,2.58042394420659e-07,6.29751200923159e-12,0.000813726182673792,2020-10-14
"254",126.5,0.00163970649035721,2.48868453566331e-07,5.8403864184989e-12,0.0008198532480988,2020-10-14
"255",127,0.00165204147379835,2.40021382489322e-07,5.4164427894538e-12,0.000826020739607397,2020-10-15
"256",127.5,0.00166445765899061,2.31489509294118e-07,5.02327250054736e-12,0.000832228832006943,2020-10-15
"257",128,0.00167695539406655,2.23261579759187e-07,4.65864176791828e-12,0.000838477699362598,2020-10-16
"258",128.5,0.00168953502560735,2.15972798574947e-07,4.3204789542277e-12,0.000844767514963915,2020-10-16
"259",129,0.00170219689857514,2.08320858142395e-07,4.00686279872348e-12,0.000851098451290999,2020-10-17
"260",129.5,0.00171494135624446,2.00928696536261e-07,3.71601150166373e-12,0.000857470679980234,2020-10-17
"261",130,0.00172776874013286,1.93801963292429e-07,3.44627260108293e-12,0.000863884371789568,2020-10-18
"262",130.5,0.0017406793899306,1.86931037215008e-07,3.19611358438613e-12,0.000870339696563357,2020-10-18
"263",131,0.00175367364342941,1.80306648190466e-07,2.9641131814311e-12,0.00087683682319676,2020-10-19
"264",131.5,0.00176675183645042,1.73919864329739e-07,2.74895328963063e-12,0.000883375919599687,2020-10-19
"265",132,0.00177991430277116,1.67762079581482e-07,2.54941148519763e-12,0.000889957152660288,2020-10-20
"266",132.5,0.00179316137405162,1.61825001799249e-07,2.36435407798596e-12,0.000896580688207986,2020-10-20
"267",133,0.00180649337975938,1.56100641245982e-07,2.19272967046832e-12,0.000903246690976052,2020-10-21
"268",133.5,0.00181991064709386,1.50581299519858e-07,2.03356318425686e-12,0.000909955324563712,2020-10-21
"269",134,0.00183341350090962,1.45259558886045e-07,1.88595032022826e-12,0.000916706751397786,2020-10-22
"270",134.5,0.00184700226363867,1.40128271999553e-07,1.74905242077878e-12,0.000923501132693859,2020-10-22
"271",135,0.00186067725521187,1.35180552004845e-07,1.62209170501933e-12,0.000930338628416981,2020-10-23
"272",135.5,0.00187443879297942,1.30409762998449e-07,1.50434684983954e-12,0.000937219397241884,2020-10-23
"273",136,0.00188828719163031,1.25809510841256e-07,1.39514889173471e-12,0.00094414359651273,2020-10-24
"274",136.5,0.00190222276311086,1.21373634307735e-07,1.29387742611211e-12,0.000951111382202369,2020-10-24
"275",137,0.00191624581654229,1.170961965597e-07,1.19995708248306e-12,0.000958122908871124,2020-10-25
"276",137.5,0.00193035665813731,1.12971476932774e-07,1.11285425551474e-12,0.00096517832962508,2020-10-25
"277",138,0.00194455559111572,1.08993963024077e-07,1.03207407336934e-12,0.000972277796073898,2020-10-26
"278",138.5,0.0019588429156191,1.05158343070107e-07,9.57157586106216e-13,0.00097942145828813,2020-10-26
"279",139,0.00197321892862442,1.01459498604201e-07,8.87679158173111e-13,0.000986609464756051,2020-10-27
"280",139.5,0.00198768392385675,9.78924973833042e-08,8.2324405017195e-13,0.000993841962339996,2020-10-27
"281",140,0.00200223819170092,9.4452586574202e-08,7.63486176160078e-13,0.0010011190962322,2020-10-28
"282",140.5,0.00201688201911227,9.11351861896901e-08,7.08066023745158e-13,0.00100844100991017,2020-10-28
"283",141,0.00203161568952631,8.79358827655285e-08,6.56668725156791e-13,0.00101580784509149,2020-10-29
"284",141.5,0.00204643948276749,8.48504232693486e-08,6.09002268335737e-13,0.00102321974168824,2020-10-29
"285",142,0.00206135367495688,8.18747092330074e-08,5.64795837877084e-13,0.00103067683776084,2020-10-30
"286",142.5,0.00207635853841895,7.90047911001972e-08,5.23798276401512e-13,0.00103817926947138,2020-10-30
"287",143,0.00209145434158728,7.62368627814131e-08,4.85776657612961e-13,0.00104572717103653,2020-10-31
"288",143.5,0.00210664134890928,7.35672564086729e-08,4.50514962935591e-13,0.0010533206746799,2020-10-31
"289",144,0.00212191982075002,7.09924372826614e-08,4.17812854211403e-13,0.00106095991058392,2020-11-01
"290",144.5,0.00213729001329487,6.85089990052384e-08,3.87484535485614e-13,0.00106864500684118,2020-11-01
"291",145,0.00215275217845137,6.60911693130741e-08,3.59357697413088e-13,0.00107637608940537,2020-11-02
"292",145.5,0.00216830656374992,6.35238643142913e-08,3.33272538288484e-13,0.0010841532820416,2020-11-02
"293",146,0.0021839534122436,6.11518563865434e-08,3.09080856138153e-13,0.00109197670627634,2020-11-03
"294",146.5,0.00219969296240692,5.90614034744656e-08,2.86645206715513e-13,0.00109984648134678,2020-11-03
"295",147,0.00221552544803368,5.70431861001493e-08,2.65838122616101e-13,0.00110776272414976,2020-11-04
"296",147.5,0.00223145109813372,5.50946875662467e-08,2.46541389075727e-13,0.00111572554919013,2020-11-04
"297",148,0.00224747013682882,5.32134793084152e-08,2.28645372337182e-13,0.00112373506852873,2020-11-05
"298",148.5,0.0022635827832475,5.13972178041414e-08,2.12048396769672e-13,0.00113179139172978,2020-11-05
"299",149,0.00227978925141898,4.96436415897136e-08,1.96656167202066e-13,0.00113989462580782,2020-11-06
"300",149.5,0.00229608975016602,4.79505683815859e-08,1.82381233187998e-13,0.0011480448751742,2020-11-06
"301",150,0.00231248448299696,4.63158922985052e-08,1.69142492159031e-13,0.00115624224158305,2020-11-07
"302",150.5,0.00232897364799665,4.47375811809005e-08,1.56864728643087e-13,0.00116448682407676,2020-11-07
"303",151,0.00234555743771654,4.32136740041488e-08,1.45478186930227e-13,0.00117277871893101,2020-11-08
"304",151.5,0.00236223603906377,4.17422783824527e-08,1.34918174757874e-13,0.00118111801959934,2020-11-08
"305",152,0.00237900963318934,4.03215681601754e-08,1.25124695763859e-13,0.00118950481665723,2020-11-09
"306",152.5,0.00239587839537533,3.89497810875868e-08,1.16042108619062e-13,0.00119793919774569,2020-11-09
"307",153,0.00241284249492122,3.76252165780793e-08,1.07618810903033e-13,0.00120642124751442,2020-11-10
"308",153.5,0.00242990209502928,3.62971275509416e-08,9.98069459265365e-14,0.00121495104756454,2020-11-10
"309",154,0.00244705735268905,3.49216531382421e-08,9.25621308353509e-14,0.00122352867639081,2020-11-11
"310",154.5,0.00246430841856097,3.35981582576749e-08,8.58432044505381e-14,0.0012321542093234,2020-11-11
"311",155,0.002481655436859,3.23246851543016e-08,7.96119934125614e-14,0.00124082771846931,2020-11-12
"312",155.5,0.00249909854523255,3.10993495108905e-08,7.38330953005988e-14,0.00124954927265319,2020-11-12
"313",156,0.00251663787464736,2.99203377068141e-08,6.84736774948534e-14,0.00125831893735792,2020-11-13
"314",156.5,0.00253427354926563,2.87859041786369e-08,6.35032906391036e-14,0.00126713677466457,2020-11-13
"315",157,0.0025520056863253,2.76943688786495e-08,5.88936956436873e-14,0.0012760028431921,2020-11-14
"316",157.5,0.00256983439601846,2.66441148277409e-08,5.4618703246042e-14,0.00128491719803654,2020-11-14
"317",158,0.00258775978136898,2.56335857591346e-08,5.06540252172711e-14,0.00129387989070982,2020-11-15
"318",158.5,0.00260578193810929,2.46612838496382e-08,4.69771363693696e-14,0.00130289096907814,2020-11-15
"319",159,0.00262390095455647,2.372576753518e-08,4.35671465791087e-14,0.00131195047730002,2020-11-16
"320",159.5,0.00264211691148744,2.28256494075254e-08,4.0404682101488e-14,0.00132105845576392,2020-11-16
"321",160,0.00266042988201344,2.19595941891759e-08,3.7471775498439e-14,0.00133021494102546,2020-11-17
"322",160.5,0.00267883993145386,2.11263167835656e-08,3.4751763557417e-14,0.00133941996574431,2020-11-17
"323",161,0.00269734711720917,2.03264529669962e-08,3.22291926199067e-14,0.0013486735586207,2020-11-18
"324",161.5,0.00271595148863328,1.9652462891564e-08,2.98897307819682e-14,0.00135797574433158,2020-11-18
"325",162,0.00273465308690517,1.90012302997848e-08,2.7720086467997e-14,0.00136732654346644,2020-11-19
"326",162.5,0.00275345194489981,1.83719734834728e-08,2.57079329150729e-14,0.00137672597246276,2020-11-19
"327",163,0.0027723480870585,1.77639380104433e-08,2.38418381388619e-14,0.00138617404354117,2020-11-20
"328",163.5,0.0027913415292585,1.71763957594211e-08,2.21111999831728e-14,0.00139567076464031,2020-11-20
"329",164,0.00281043227868209,1.66086439895095e-08,2.05061858841551e-14,0.0014052161393513,2020-11-21
"330",164.5,0.00282962033368506,1.60600044429708e-08,1.90176770069103e-14,0.00141481016685204,2020-11-21
"331",165,0.00284890568366458,1.55298224801126e-08,1.76372164371314e-14,0.00142445284184111,2020-11-22
"332",165.5,0.00286828830892655,1.50414358401752e-08,1.63569611334216e-14,0.00143414415447145,2020-11-22
"333",166,0.00288776818055244,1.45966242747486e-08,1.51696373673125e-14,0.0014438840902838,2020-11-23
"334",166.5,0.0029073452602656,1.41649843165856e-08,1.40684993978147e-14,0.00145367263013983,2020-11-23
"335",167,0.00292701950029714,1.37461253545727e-08,1.30472911457119e-14,0.00146350975015509,2020-11-24
"336",167.5,0.0029467908432513,1.33396683815376e-08,1.21002106498523e-14,0.0014733954216317,2020-11-24
"337",168,0.00296665922197045,1.29452456487808e-08,1.12218771034971e-14,0.00148332961099084,2020-11-25
"338",168.5,0.00298662455939969,1.25625003309215e-08,1.04073002834433e-14,0.00149331227970505,2020-11-25
"339",169,0.00300668676845103,1.21910862007496e-08,9.65185219823485e-15,0.00150334338423034,2020-11-26
"340",169.5,0.00302684575186732,1.18306673137835e-08,8.95124079438111e-15,0.00151342287593813,2020-11-26
"341",170,0.00304710140208575,1.144040301497e-08,8.30148557119576e-15,0.00152355070104703,2020-11-27
"342",170.5,0.00306745360110123,1.10492861837165e-08,7.69889496571302e-15,0.00153372680055446,2020-11-27
"343",171,0.00308790222032932,1.06716642028455e-08,7.14004537919384e-15,0.00154395111016823,2020-11-28
"344",171.5,0.00310844712046914,1.03070676017025e-08,6.6217617260621e-15,0.00155422356023788,2020-11-28
"345",172,0.00312908815136596,9.95504335675631e-09,6.14109939476017e-15,0.00156454407568605,2020-11-29
"346",172.5,0.00314982515187367,9.61515431221431e-09,5.69532751803507e-15,0.00157491257593968,2020-11-29
"347",173,0.00317065794971715,9.286978621125e-09,5.28191345760584e-15,0.00158532897486122,2020-11-30
"348",173.5,0.00319158636135457,8.97010920624292e-09,4.89850841506229e-15,0.00159579318067973,2020-11-30
"349",174,0.00321261019183954,8.6641532399553e-09,4.54293408724399e-15,0.00160630509592204,2020-12-01
"350",174.5,0.0032337292346834,8.36873164259536e-09,4.21317029028242e-15,0.00161686461734381,2020-12-01
"351",175,0.0032549432717174,8.08347859849068e-09,3.90734348199258e-15,0.00162747163586065,2020-12-02
"352",175.5,0.00327625207295499,7.8080410891185e-09,3.62371611740468e-15,0.00163812603647931,2020-12-02
"353",176,0.00329765539645422,7.54207844276172e-09,3.36067677695937e-15,0.00164882769822879,2020-12-03
"354",176.5,0.00331915298818027,7.28526190008109e-09,3.11673101128048e-15,0.00165957649409169,2020-12-03
"355",177,0.00334074458186813,7.03727419503976e-09,2.89049285050996e-15,0.00167037229093551,2020-12-04
"356",177.5,0.00336242989888553,6.79780915063621e-09,2.68067692996559e-15,0.0016812149494441,2020-12-04
"357",178,0.00338420864809613,6.56657128892095e-09,2.48609118738382e-15,0.00169210432404931,2020-12-05
"358",178.5,0.00340608052572297,6.34327545479104e-09,2.30563009025709e-15,0.00170304026286264,2020-12-05
"359",179,0.00342804521521232,6.12764645307428e-09,2.13826835478724e-15,0.00171402260760723,2020-12-06
"360",179.5,0.0034501023870979,5.91941869843233e-09,1.98305512076925e-15,0.00172505119354994,2020-12-06
"361",180,0.00347225169886547,5.71833587762863e-09,1.83910854931023e-15,0.00173612584943366,2020-12-07
"362",180.5,0.00349449279481803,5.52415062372311e-09,1.70561081269066e-15,0.00174724639740987,2020-12-07
"363",181,0.0035168253059414,5.3138627403842e-09,1.58180344790312e-15,0.00175841265297149,2020-12-08
"364",181.5,0.0035392488497705,5.10929647922324e-09,1.46698304746955e-15,0.00176962442488598,2020-12-08
"365",182,0.00356176303025613,4.91258835949141e-09,1.36049726305482e-15,0.00178088151512875,2020-12-09
"366",182.5,0.00358436743763252,4.72343730073611e-09,1.26174109917104e-15,0.00179218371881689,2020-12-09
"367",183,0.00360706164828555,4.54155372260538e-09,1.17015347591558e-15,0.00180353082414336,2020-12-10
"368",183.5,0.0036298452246217,4.36665910721351e-09,1.08521404121401e-15,0.00181492261231139,2020-12-10
"369",184,0.00365271771493793,4.19848557808683e-09,1.0064402144569e-15,0.00182635885746947,2020-12-11
"370",184.5,0.00367567865329228,4.03677549506474e-09,9.33384444733926e-16,0.00183783932664661,2020-12-11
"371",185,0.00369872755937555,3.88128106455479e-09,8.65631668088034e-16,0.00184936377968821,2020-12-12
"372",185.5,0.00372186393838381,3.73176396456273e-09,8.02796949343243e-16,0.0018609319691923,2020-12-12
"373",186,0.00374508728089203,3.5879949839405e-09,7.44523295108054e-16,0.00187254364044639,2020-12-13
"374",186.5,0.0037683970627288,3.44975367531577e-09,6.90479625529228e-16,0.00188419853136474,2020-12-13
"375",187,0.00379179274485208,3.31682802118684e-09,6.40358893272463e-16,0.00189589637242636,2020-12-14
"376",187.5,0.00381527377322633,3.18901411268615e-09,5.93876339043055e-16,0.00190763688661346,2020-12-14
"377",188,0.00383883957870066,3.06611584053397e-09,5.50767873735305e-16,0.0019194197893506,2020-12-15
"378",188.5,0.00386248957688851,2.94794459772221e-09,5.10788578018943e-16,0.00193124478844451,2020-12-15
"379",189,0.00388622316804856,2.83431899348525e-09,4.73711310837993e-16,0.00194311158402451,2020-12-16
"380",189.5,0.00391003973696709,2.72506457813142e-09,4.39325418916317e-16,0.00195501986848376,2020-12-16
"381",190,0.00393393865284186,2.62001357832475e-09,4.07435539937949e-16,0.00196696932642113,2020-12-17
"382",190.5,0.00395791926916752,2.51900464242213e-09,3.77860492602511e-16,0.00197895963458395,2020-12-17
"383",191,0.00398198092362259,2.42188259548566e-09,3.50432247249596e-16,0.00199099046181147,2020-12-18
"384",191.5,0.00400612293795816,2.32849820360441e-09,3.2499497120378e-16,0.00200306146897924,2020-12-18
"385",192,0.00403034461788826,2.23870794717356e-09,3.01404143416385e-16,0.00201517230894428,2020-12-19
"386",192.5,0.0040546452529821,2.15237380279198e-09,2.7952573337389e-16,0.00202732262649119,2020-12-19
"387",193,0.00407902411655808,2.06936303345229e-09,2.59235439607967e-16,0.00203951205827917,2020-12-20
"388",193.5,0.00410348046557977,1.98954798670942e-09,2.40417983480772e-16,0.00205174023279001,2020-12-20
"389",194,0.00412801354055387,1.91280590052585e-09,2.22966454233148e-16,0.00206400677027705,2020-12-21
"390",194.5,0.00415262256543016,1.83901871650271e-09,2.06781701574657e-16,0.00207631128271518,2020-12-21
"391",195,0.00417730674750363,1.7680729002171e-09,1.91771772364458e-16,0.00208865337375191,2020-12-22
"392",195.5,0.00420206527731876,1.69985926839651e-09,1.77851388182563e-16,0.00210103263865947,2020-12-22
"393",196,0.00422689732857604,1.63427282267131e-09,1.64941460823284e-16,0.0021134486642881,2020-12-23
"394",196.5,0.00425180205804078,1.57121258965588e-09,1.529686429582e-16,0.00212590102902047,2020-12-23
"395",197,0.00427677860545433,1.51058146711883e-09,1.4186491141571e-16,0.00213838930272724,2020-12-24
"396",197.5,0.00430182609344774,1.45228607601108e-09,1.31567180709621e-16,0.00215091304672394,2020-12-24
"397",198,0.00432694362745788,1.39623661813011e-09,1.22016944621029e-16,0.002163471813729,2020-12-25
"398",198.5,0.0043521302956462,1.3423467392062e-09,1.13159943797158e-16,0.00217606514782316,2020-12-25
"399",199,0.0043773851688201,1.2905333972054e-09,1.04945857478624e-16,0.0021886925844101,2020-12-26
"400",199.5,0.00440270730035703,1.24071673565092e-09,9.73280176037014e-17,0.00220135365017856,2020-12-26
"401",200,0.00442809572613137,1.19281996177286e-09,9.0263143665254e-17,0.00221404786306573,2020-12-27
"402",200.5,0.00445354946444415,1.1467692293027e-09,8.37110968139597e-17,0.00222677473222212,2020-12-27
"403",201,0.00447906751595571,1.10249352573645e-09,7.76346518107542e-17,0.0022395337579779,2020-12-28
"404",201.5,0.00450464886362133,1.05992456389665e-09,7.1999285532858e-17,0.0022523244318107,2020-12-28
"405",202,0.00453029247262992,1.01899667763007e-09,6.67729808317874e-17,0.00226514623631499,2020-12-29
"406",202.5,0.00455599729034589,9.79646721483866e-10,6.1926044628977e-17,0.00227799864517298,2020-12-29
"407",203,0.00458176224625413,9.41813974209173e-10,5.74309392155285e-17,0.00229088112312709,2020-12-30
"408",203.5,0.00460758625190834,9.05440045946662e-10,5.32621257976217e-17,0.0023037931259542,2020-12-30
"409",204,0.00463346820088265,8.70468788954067e-10,4.93959193986962e-17,0.00231673410044135,2020-12-31
"410",204.5,0.00465940696872664,8.36846211741101e-10,4.58103542940344e-17,0.00232970348436334,2020-12-31
"411",205,0.00468540141292391,8.04520396482177e-10,4.24850592132179e-17,0.00234270070646198,2021-01-01
"412",205.5,0.00471145037285409,7.73441419582302e-10,3.94011416014234e-17,0.00235572518642707,2021-01-01
"413",206,0.00473755266975857,7.43561275276197e-10,3.65410802819928e-17,0.0023687763348793,2021-01-02
"414",206.5,0.00476370710670981,7.14833802145273e-10,3.38886259104432e-17,0.00238185355335492,2021-01-02
"415",207,0.0047899124685845,6.87214612441428e-10,3.14287086543497e-17,0.00239495623429227,2021-01-03
"416",207.5,0.0048161675220405,6.60661024110859e-10,2.91473525745877e-17,0.00240808376102027,2021-01-03
"417",208,0.00484247101549765,6.35131995415123e-10,2.70315962214929e-17,0.00242123550774884,2021-01-04
"418",208.5,0.00486882167912257,6.10588062050561e-10,2.50694189948112e-17,0.0024344108395613,2021-01-04
"419",209,0.00489521822481748,5.86991276670976e-10,2.32496728490527e-17,0.00244760911240875,2021-01-05
"420",209.5,0.00492165934621311,5.64305150722036e-10,2.15620189562374e-17,0.00246082967310657,2021-01-05
"421",210,0.00494814371866576,5.42494598499351e-10,1.99968689661834e-17,0.00247407185933289,2021-01-06
"422",210.5,0.00497466999925863,5.21525883345518e-10,1.85453305306104e-17,0.00248733499962932,2021-01-06
"423",211,0.00500123682680736,5.01366565904634e-10,1.71991567815544e-17,0.00250061841340369,2021-01-07
"424",211.5,0.00502784282187002,4.8198545435588e-10,1.59506994770587e-17,0.00251392141093502,2021-01-07
"425",212,0.00505448658676148,4.63352556550726e-10,1.47928655479381e-17,0.00252724329338075,2021-01-08
"426",212.5,0.00508116670557223,4.45439033981223e-10,1.37190767987389e-17,0.00254058335278612,2021-01-08
"427",213,0.00510788174419183,4.28217157509531e-10,1.27232325339379e-17,0.00255394087209592,2021-01-09
"428",213.5,0.00513463025033689,4.11660264791562e-10,1.17996748970409e-17,0.00256731512516845,2021-01-09
"429",214,0.0051614107535838,3.95742719330093e-10,1.09431567256568e-17,0.00258070537679191,2021-01-10
"430",214.5,0.00518822176540615,3.80439871095215e-10,1.01488117399165e-17,0.00259411088270308,2021-01-10
"431",215,0.0052150617792169,3.65865052108151e-10,9.41212689486408e-18,0.00260753088960845,2021-01-11
"432",215.5,0.00524192927041552,3.5257488669332e-10,8.72891673973967e-18,0.00262096463520777,2021-01-11
"433",216,0.00526882269643997,3.39768017668408e-10,8.09529963847854e-18,0.00263441134821999,2021-01-12
"434",216.5,0.0052957404968236,3.27426854128974e-10,7.50767571632322e-18,0.0026478702484118,2021-01-12
"435",217,0.00532268109325718,3.15534445869356e-10,6.96270640725323e-18,0.00266134054662859,2021-01-13
"436",217.5,0.00534964288965593,3.04074460037931e-10,6.45729548603189e-18,0.00267482144482797,2021-01-13
"437",218,0.00537662427223173,2.93031158643014e-10,5.98857147710426e-18,0.00268831213611587,2021-01-14
"438",218.5,0.00540362360957047,2.82389376878414e-10,5.55387134040307e-18,0.00270181180478524,2021-01-14
"439",219,0.00543063925271468,2.72134502238788e-10,5.15072534137403e-18,0.00271531962635734,2021-01-15
"440",219.5,0.00545766953525142,2.62252454396032e-10,4.77684301926e-18,0.00272883476762571,2021-01-15
"441",220,0.00548471277340547,2.52729665808966e-10,4.43010017392345e-18,0.00274235638670274,2021-01-16
"442",220.5,0.005511767266138,2.4355306303962e-10,4.10852679727308e-18,0.002755883633069,2021-01-16
"443",221,0.00553883129525056,2.34710048750365e-10,3.81029588072756e-18,0.00276941564762528,2021-01-17
"444",221.5,0.00556590312549461,2.26188484357095e-10,3.53371303512625e-18,0.00278295156274731,2021-01-17
"445",222,0.00559298100468648,2.17976673314548e-10,3.27720686411283e-18,0.00279649050234324,2021-01-18
"446",222.5,0.00562006316382802,2.10063345010738e-10,3.03932003629845e-18,0.00281003158191401,2021-01-18
"447",223,0.00564714781723269,2.02437639248317e-10,2.81870100548135e-18,0.00282357390861634,2021-01-19
"448",223.5,0.00567423316265735,1.95089091291459e-10,2.61409633188145e-18,0.00283711658132868,2021-01-19
"449",224,0.00570131738143975,1.8800761745768e-10,2.42434356076341e-18,0.00285065869071988,2021-01-20
"450",224.5,0.00572839863864166,1.81183501234734e-10,2.2483646179882e-18,0.00286419931932083,2021-01-20
"451",225,0.00575547508319771,1.7460737990344e-10,2.08515968497031e-18,0.00287773754159885,2021-01-21
"452",225.5,0.00578254484807006,1.68270231648025e-10,1.93380151824124e-18,0.00289127242403503,2021-01-21
"453",226,0.00580960605040882,1.62163363136196e-10,1.79343018134623e-18,0.00290480302520441,2021-01-22
"454",226.5,0.00583665679171827,1.56278397551845e-10,1.66324815914345e-18,0.00291832839585914,2021-01-22
"455",227,0.00586369515802893,1.50607263063871e-10,1.54251582674799e-18,0.00293184757901447,2021-01-23
"456",227.5,0.00589071922007548,1.45142181715251e-10,1.43054724737731e-18,0.00294535961003774,2021-01-23
"457",228,0.00591772703348058,1.39875658717017e-10,1.32670627522393e-18,0.00295886351674029,2021-01-24
"458",228.5,0.00594471663894455,1.34800472132409e-10,1.23040294121395e-18,0.00297235831947228,2021-01-24
"459",229,0.00597168606244098,1.29909662936968e-10,1.14109010111708e-18,0.00298584303122049,2021-01-25
"460",229.5,0.00599863331541825,1.25196525440873e-10,1.05826032696468e-18,0.00299931665770913,2021-01-25
"461",230,0.00602555639500702,1.20788416538052e-10,9.81443024114442e-19,0.00301277819750351,2021-01-26
"462",230.5,0.00605245328423357,1.16537018514827e-10,9.10201757582325e-19,0.00302622664211678,2021-01-26
"463",231,0.00607932195223919,1.12435277262380e-10,8.4413177245157e-19,0.0030396609761196,2021-01-27
"464",231.5,0.00610616035450548,1.08477923877643e-10,7.82857694270911e-19,0.00305308017725274,2021-01-27
"465",232,0.00613296643308553,1.04659874983675e-10,7.26031396376954e-19,0.00306648321654276,2021-01-28
"466",232.5,0.00615973811684116,1.00976226196037e-10,6.73330022023974e-19,0.00307986905842058,2021-01-28
"467",233,0.00618647332168604,9.74222458193023e-11,6.2445415008391e-19,0.00309323666084302,2021-01-29
"468",233.5,0.00621316995083474,9.39933687655893e-11,5.79126093895059e-19,0.00310658497541737,2021-01-29
"469",234,0.0062398258950577,9.06851906872915e-11,5.37088323594425e-19,0.00311991294752885,2021-01-30
"470",234.5,0.0062664390329422,8.74934623164641e-11,4.98102002970257e-19,0.0031332195164711,2021-01-30
"471",235,0.00629300723115905,8.44140840035847e-11,4.61945632521953e-19,0.00314650361557953,2021-01-31
"472",235.5,0.00631952834473538,8.14431004486651e-11,4.2841379101792e-19,0.00315976417236769,2021-01-31
"473",236,0.00634600021733305,7.85766956179386e-11,3.97315968401592e-19,0.00317300010866653,2021-02-01
"474",236.5,0.00637242068153315,7.58111878395853e-11,3.684754834148e-19,0.00318621034076657,2021-02-01
"475",237,0.00639878755912604,7.31430250721877e-11,3.41728479789e-19,0.00319939377956302,2021-02-02
"476",237.5,0.0064250986614074,7.05687803398337e-11,3.16922995301268e-19,0.0032125493307037,2021-02-02
"477",238,0.00645135178947989,6.80851473279948e-11,2.93918098405916e-19,0.00322567589473994,2021-02-03
"478",238.5,0.00647754473456052,6.56889361345176e-11,2.72583087536546e-19,0.00323877236728026,2021-02-03
"479",239,0.00650367527829381,6.33770691702627e-11,2.52796748529387e-19,0.0032518376391469,2021-02-04
"480",239.5,0.00652974119307041,6.11465772041224e-11,2.3444666594901e-19,0.0032648705965352,2021-02-04
"481",240,0.00655574024235145,5.89945955473284e-11,2.17428584403716e-19,0.00327787012117572,2021-02-05
"482",240.5,0.00658167018099835,5.69183603721453e-11,2.01645816221953e-19,0.00329083509049917,2021-02-05
"483",241,0.00660752875560816,5.49152051602146e-11,1.87008692124488e-19,0.00330376437780408,2021-02-06
"484",241.5,0.00663331370485428,5.2982557275984e-11,1.73434051771336e-19,0.00331665685242714,2021-02-06
"485",242,0.00665902275983264,5.11179346608141e-11,1.60844771289022e-19,0.00332951137991632,2021-02-07
"486",242.5,0.00668465364441311,4.93189426435132e-11,1.49169325093825e-19,0.00334232682220656,2021-02-07
"487",243,0.00671020407559625,4.75832708631983e-11,1.38341379521525e-19,0.00335510203779813,2021-02-08
"488",243.5,0.00673567176387519,4.59086903005267e-11,1.2829941595486e-19,0.0033678358819376,2021-02-08
"489",244,0.00676105441360266,4.42930504134794e-11,1.18986381307533e-19,0.00338052720680133,2021-02-09
"490",244.5,0.00678634972336305,4.27342763740158e-11,1.10349363878966e-19,0.00339317486168153,2021-02-09
"491",245,0.00681155538634951,4.12303664020447e-11,1.02339292738214e-19,0.00340577769317476,2021-02-10
"492",245.5,0.00683666909074584,3.97793891932853e-11,9.49106589290837e-20,0.00341833454537292,2021-02-10
"493",246,0.00686168852011329,3.83794814377107e-11,8.80212569124899e-20,0.00343084426005664,2021-02-11
"494",246.5,0.00688661135378205,3.70288454253827e-11,8.16319447770728e-20,0.00344330567689102,2021-02-11
"495",247,0.00691143526724741,3.57257467366009e-11,7.57064218557132e-20,0.0034557176336237,2021-02-12
"496",247.5,0.00693615793257043,3.44685120133959e-11,7.02110224844838e-20,0.00346807896628522,2021-02-12
"497",248,0.00696077701878315,3.32555268095016e-11,6.51145247322858e-20,0.00348038850939158,2021-02-13
"498",248.5,0.00698529019229806,3.20852335160419e-11,6.03879730144714e-20,0.00349264509614903,2021-02-13
"499",249,0.00700969511732195,3.09561293602662e-11,5.60045135826413e-20,0.00350484755866098,2021-02-14
"500",249.5,0.00703398945627384,2.98667644747596e-11,5.19392419559539e-20,0.00351699472813692,2021-02-14
"501",250,0.007058170870207,2.88157400346472e-11,4.81690614271361e-20,0.0035290854351035,2021-02-15
"502",250.5,0.00708223701923495,2.78017064603954e-11,4.46725518392984e-20,0.00354111850961747,2021-02-15
"503",251,0.00710618556296122,2.68233616839024e-11,4.14298478880171e-20,0.00355309278148061,2021-02-16
"504",251.5,0.00713001416091296,2.58794494756469e-11,3.84225262572596e-20,0.00356500708045648,2021-02-16
"505",252,0.00715372047297801,2.49687578307461e-11,3.56335009479192e-20,0.003576860236489,2021-02-17
"506",252.5,0.00717730215984558,2.40901174118461e-11,3.30469262042719e-20,0.00358865107992279,2021-02-17
"507",253,0.00720075688345026,2.32424000468461e-11,3.06481064868358e-20,0.00360037844172513,2021-02-18
"508",253.5,0.00722408230741923,2.24245172795221e-11,2.8423412980146e-20,0.00361204115370961,2021-02-18
"509",254,0.00724727609752264,2.16354189711893e-11,2.63602061610867e-20,0.00362363804876132,2021-02-19
"510",254.5,0.00727033592212698,2.08740919516043e-11,2.4446763987856e-20,0.00363516796106349,2021-02-19
"511",255,0.00729325945265122,2.0139558717374e-11,2.26722153015702e-20,0.00364662972632561,2021-02-20
"512",255.5,0.00731604436402576,1.9430876176197e-11,2.10264780621312e-20,0.00365802218201288,2021-02-20
"513",256,0.00733868833515389,1.87471344353244e-11,1.95002020674471e-20,0.00366934416757694,2021-02-21
"514",256.5,0.00736118904937573,1.80874556326816e-11,1.80847158305658e-20,0.00368059452468786,2021-02-21
"515",257,0.00738354419493442,1.74509928091501e-11,1.67719773129066e-20,0.00369177209746721,2021-02-22
"516",257.5,0.00740575146544452,1.68369288205583e-11,1.55545282336821e-20,0.00370287573272226,2021-02-22
"517",258,0.00742780856036232,1.62444752879833e-11,1.44254516959208e-20,0.00371390428018116,2021-02-23
"518",258.5,0.00744971318545807,1.56728715850154e-11,1.33783328883439e-20,0.00372485659272903,2021-02-23
"519",259,0.00747146305328989,1.51213838606818e-11,1.24072226398261e-20,0.00373573152664495,2021-02-24
"520",259.5,0.00749305588367922,1.45893040967761e-11,1.15066036193743e-20,0.00374652794183961,2021-02-24
"521",260,0.00751448940418765,1.40759491983791e-11,1.06713589895936e-20,0.00375724470209382,2021-02-25
"522",260.5,0.00753576135059495,1.35806601164045e-11,9.89674333554323e-21,0.00376788067529748,2021-02-25
"523",261,0.00755686946737826,1.31028010010403e-11,9.1783557038174e-21,0.00377843473368913,2021-02-26
"524",261.5,0.00757781150819206,1.26417583849984e-11,8.51211459867302e-21,0.00378890575409603,2021-02-26
"525",262,0.007598585236349,1.21969403955222e-11,7.89423479314566e-21,0.0037992926181745,2021-02-27
"526",262.5,0.00761918842530122,1.17677759941406e-11,7.32120582340687e-21,0.00380959421265061,2021-02-27
"527",263,0.00763961885912211,1.13537142431897e-11,6.78977204417914e-21,0.00381980942956106,2021-02-28
"528",263.5,0.00765987433298835,1.09542235981606e-11,6.29691413189416e-21,0.00382993716649417,2021-02-28
"529",264,0.00767995265366191,1.05687912249639e-11,5.83983193050513e-21,0.00383997632683095,2021-03-01
"530",264.5,0.00769985163997208,1.01969223412329e-11,5.41592854249206e-21,0.00384992581998604,2021-03-01
"531",265,0.00771956912329718,9.83813958081939e-12,5.02279557467385e-21,0.00385978456164859,2021-03-02
"532",265.5,0.00773910294804573,9.49198238066497e-12,4.65819945500144e-21,0.00386955147402286,2021-03-02
"533",266,0.00775845097213715,9.15800638926045e-12,4.32006874259155e-21,0.00387922548606857,2021-03-03
"534",266.5,0.00777761106748156,8.83578289593261e-12,4.00648235890337e-21,0.00388880553374078,2021-03-03
"535",267,0.00779658112045866,8.52489828022529e-12,3.71565867319383e-21,0.00389829056022933,2021-03-04
"536",267.5,0.00781535903239537,8.22495348066697e-12,3.44594538024111e-21,0.00390767951619768,2021-03-04
"537",268,0.00783394272004227,7.93556348224228e-12,3.19581011282669e-21,0.00391697136002113,2021-03-05
"538",268.5,0.00785233011604842,7.65635682190884e-12,2.96383173564137e-21,0.00392616505802421,2021-03-05
"539",269,0.00787051916943455,7.38697511152385e-12,2.74869227115162e-21,0.00393525958471728,2021-03-06
"540",269.5,0.00788850784606436,7.1270725775676e-12,2.54916941155355e-21,0.00394425392303218,2021-03-06
"541",270,0.00790629412911377,6.87631561707222e-12,2.36412957427122e-21,0.00395314706455688,2021-03-07
"542",270.5,0.00792387601953792,6.63438236918514e-12,2.19252146154446e-21,0.00396193800976896,2021-03-07
"543",271,0.00794125153653587,6.40096230181677e-12,2.03337008751517e-21,0.00397062576826793,2021-03-08
"544",271.5,0.00795841871801252,6.17575581284111e-12,1.88577123887715e-21,0.00397920935900626,2021-03-08
"545",272,0.00797537562103793,5.95847384533701e-12,1.74888633761793e-21,0.00398768781051897,2021-03-09
"546",272.5,0.00799212032230364,5.74883751637554e-12,1.62193767666531e-21,0.00399606016115182,2021-03-09
"547",273,0.00800865091857578,5.5465777588766e-12,1.50420400137014e-21,0.00400432545928789,2021-03-10
"548",273.5,0.00802496552714499,5.35143497607453e-12,1.39501641172174e-21,0.0040124827635725,2021-03-10
"549",274,0.00804106228627281,5.16315870814869e-12,1.29375456201445e-21,0.0040205311431364,2021-03-11
"550",274.5,0.00805693935563434,4.98150731059079e-12,1.19984313637384e-21,0.00402846967781717,2021-03-11
"551",275,0.00807259491675715,4.80624764389558e-12,1.1127485801185e-21,0.00403629745837858,2021-03-12
"552",275.5,0.00808802717345613,4.63715477417631e-12,1.03197606838662e-21,0.00404401358672807,2021-03-12
"553",276,0.00810323435226413,4.47401168432016e-12,9.57066694804757e-22,0.00405161717613206,2021-03-13
"554",276.5,0.00811821470285824,4.31660899531265e-12,8.87594864226389e-22,0.00405910735142912,2021-03-13
"555",277,0.00813296649848155,4.16474469737291e-12,8.23165874727026e-22,0.00406648324924077,2021-03-14
"556",277.5,0.00814748803636017,4.01822389055437e-12,7.63413675118202e-22,0.00407374401818009,2021-03-14
"557",278,0.00816177763811537,3.87685853447762e-12,7.07998785239665e-22,0.00408088881905769,2021-03-15
"558",278.5,0.00817583365017065,3.74046720687385e-12,6.56606367213986e-22,0.00408791682508532,2021-03-15
"559",279,0.00818965444415361,3.60887487062873e-12,6.08944436705503e-22,0.00409482722207681,2021-03-16
"560",279.5,0.00820323841729244,3.48191264902737e-12,5.64742204020899e-22,0.00410161920864622,2021-03-16
"561",280,0.0082165839928068,3.35941760891159e-12,5.23748535626453e-22,0.0041082919964034,2021-03-17
"562",280.5,0.00822968962029308,3.241232551471e-12,4.85730527341114e-22,0.00411484481014654,2021-03-17
"563",281,0.00824255377610365,3.12720581039906e-12,4.5047218109904e-22,0.00412127688805182,2021-03-18
"564",281.5,0.00825517496372023,3.01719105715479e-12,4.17773177763682e-22,0.00412758748186012,2021-03-18
"565",282,0.00826755171412096,2.91104711307995e-12,3.87447739021185e-22,0.00413377585706048,2021-03-19
"566",282.5,0.00827968258614116,2.8086377681304e-12,3.59323571887e-22,0.00413984129307058,2021-03-19
"567",283,0.00829156616682759,2.70983160598869e-12,3.33240889828943e-22,0.0041457830834138,2021-03-20
"568",283.5,0.00830320107178611,2.61450183533317e-12,3.09051504945265e-22,0.00415160053589306,2021-03-20
"569",284,0.00831458594552248,2.52252612704702e-12,2.86617986039953e-22,0.00415729297276124,2021-03-21
"570",284.5,0.00832571946177628,2.43378645715788e-12,2.65812877811897e-22,0.00416285973088814,2021-03-21
"571",285,0.00833660032384771,2.34816895530647e-12,2.46517976721787e-22,0.00416830016192385,2021-03-22
"572",285.5,0.00834722726491726,2.26556375854945e-12,2.28623659422581e-22,0.00417361363245863,2021-03-22
"573",286,0.00835759904835795,2.18586487030876e-12,2.12028259938063e-22,0.00417879952417898,2021-03-23
"574",286.5,0.00836771446804012,2.10897002428623e-12,1.96637492050932e-22,0.00418385723402006,2021-03-23
"575",287,0.00837757234862863,2.03478055316862e-12,1.82363913618758e-22,0.00418878617431431,2021-03-24
"576",287.5,0.00838717154587232,1.96320126195456e-12,1.69126429774317e-22,0.00419358577293616,2021-03-24
"577",288,0.00839651094688561,1.89414030574045e-12,1.56849832187769e-22,0.0041982554734428,2021-03-25
"578",288.5,0.00840558947042213,1.82750907180859e-12,1.45464371772999e-22,0.00420279473521106,2021-03-25
"579",289,0.00841440606714027,1.76322206586588e-12,1.34905362410476e-22,0.00420720303357013,2021-03-26
"580",289.5,0.00842295971986051,1.701196802287e-12,1.25112813435186e-22,0.00421147985993026,2021-03-26
"581",290,0.0084312494438145,1.64135369822126e-12,1.16031088801643e-22,0.00421562472190725,2021-03-27
"582",290.5,0.0084392742868856,1.58361597142678e-12,1.07608590989517e-22,0.0042196371434428,2021-03-27
"583",291,0.00844703332984109,1.52790954170113e-12,9.97974678540226e-23,0.00422351666492054,2021-03-28
"584",291.5,0.00845452568655561,1.47416293578155e-12,9.25533407555249e-23,0.0042272628432778,2021-03-28
"585",292,0.00846175050422598,1.42230719559271e-12,8.58350524237576e-23,0.00423087525211299,2021-03-29
"586",292.5,0.00846870696357719,1.37227578972415e-12,7.96044331241432e-23,0.0042343534817886,2021-03-29
"587",293,0.00847539427905959,1.32400452802376e-12,7.38260837976987e-23,0.00423769713952979,2021-03-30
"588",293.5,0.00848181169903695,1.27743147919745e-12,6.84671749424444e-23,0.00424090584951848,2021-03-30
"589",294,0.00848795850596572,1.23249689130931e-12,6.34972600936664e-23,0.00424397925298286,2021-03-31
"590",294.5,0.00849383401656498,1.18914311508015e-12,5.88881028433269e-23,0.00424691700828249,2021-03-31
