"","time","top","med","bottom","pseudo_med","date"
"1",0,0.00713476916843064,0.00157137851605076,5.68470704708225e-05,0.00359580811945073,2020-06-15
"2",0.5,0.00676751656436543,0.00151943676352342,7.57209149328183e-05,0.00342161873964912,2020-06-15
"3",1,0.00642155927110809,0.00147164487236021,9.41117761178418e-05,0.00325783552361297,2020-06-16
"4",1.5,0.00609569040747283,0.00140760835677626,0.000112040333769711,0.00310386537062127,2020-06-16
"5",2,0.00584998623471519,0.00137173931167642,0.000129526512437943,0.00298975637357657,2020-06-17
"6",2.5,0.00562135973868133,0.00131386964113054,0.000133636423708545,0.00287749808119494,2020-06-17
"7",3,0.00540296310924062,0.00126608834176337,0.000133956670891718,0.00276845989006617,2020-06-18
"8",3.5,0.00519435347444843,0.00122940656876915,0.000134387793869328,0.00266437063415888,2020-06-18
"9",4,0.00499510727957287,0.00119704268422931,0.000132957918405422,0.00256403259898915,2020-06-19
"10",4.5,0.0048048194458679,0.00115932682539922,0.000129315086633011,0.00246706726625045,2020-06-19
"11",5,0.00462310256599078,0.00112791250826869,0.000125870181850179,0.00237448637392048,2020-06-20
"12",5.5,0.00444958613446766,0.00111002429804611,0.000122615790427433,0.00228610096244755,2020-06-20
"13",6,0.00428391581168046,0.00108146237654666,0.000119544833717761,0.00220173032269911,2020-06-21
"14",6.5,0.0041257527199151,0.00103236282320518,0.000116650554343801,0.00212120163712945,2020-06-21
"15",7,0.00397477277007433,0.000997759788259614,0.000113926503075574,0.00204434963657495,2020-06-22
"16",7.5,0.00383066601771945,0.000968892563590946,0.000111366526273986,0.00197101627199672,2020-06-22
"17",8,0.00369313604716347,0.000931150246403654,0.000108964753876395,0.00190105040051993,2020-06-23
"18",8.5,0.0035618993823936,0.000918065652840472,0.000106715587901513,0.00183430748514756,2020-06-23
"19",9,0.00343668492365456,0.000894017330987534,0.000104613691451911,0.00177064930755324,2020-06-24
"20",9.5,0.00331723340857492,0.000881533858654546,0.000102653978193285,0.0017099436933841,2020-06-24
"21",10,0.00320329689676722,0.000870862986083983,0.000100831602290578,0.0016520642495289,2020-06-25
"22",10.5,0.00309463827687951,0.000842189116637409,9.91419487818324e-05,0.00159689011283067,2020-06-25
"23",11,0.00299103079512031,0.000831414565897323,9.75806243715362e-05,0.00154430570974592,2020-06-26
"24",11.5,0.00289225760432154,0.000821558881794195,9.61434486259389e-05,0.00149420052647374,2020-06-26
"25",12,0.00279811133264477,0.000810008845058037,9.4826445553608e-05,0.00144646888909919,2020-06-27
"26",12.5,0.00270839367107526,0.000794916518219665,9.36258355551796e-05,0.00140100975331522,2020-06-27
"27",13,0.00262291497888523,0.000787590420771127,9.24849743259091e-05,0.00135769997660557,2020-06-28
"28",13.5,0.00254149390628365,0.000773755415994433,8.80616223405213e-05,0.00131477776431209,2020-06-28
"29",14,0.00246395703350403,0.000751190228941653,8.39480842405156e-05,0.00127395255887227,2020-06-29
"30",14.5,0.00239013852561396,0.000736519914354423,8.01250580189316e-05,0.00123513179181644,2020-06-29
"31",15,0.00231987980236164,0.000730380481744966,7.65744841402186e-05,0.00119822714325093,2020-06-30
"32",15.5,0.00225302922240445,0.000720010284483736,7.32794663083846e-05,0.00116315434435642,2020-06-30
"33",16,0.00218944178129296,0.000708944881501385,7.02241973011829e-05,0.00112983298929707,2020-07-01
"34",16.5,0.00212897882261116,0.00069778917575506,6.73938895466592e-05,0.00109818635607891,2020-07-01
"35",17,0.00207150776169993,0.000689305078322549,6.47747101390683e-05,0.0010681412359195,2020-07-02
"36",17.5,0.00201690182141551,0.000677129973421195,6.23537200105321e-05,0.00103962777071302,2020-07-02
"37",18,0.00201443634841294,0.000671051757932721,6.01188169929345e-05,0.00103727758270294,2020-07-03
"38",18.5,0.00203089987163768,0.000662785369770206,5.80586825215177e-05,0.0010444792770796,2020-07-03
"39",19,0.00204744370434716,0.000652885496528635,5.61627317475264e-05,0.00105180321804734,2020-07-04
"40",19.5,0.00206406871765147,0.000644921636327213,5.44210668421144e-05,0.00105924489224679,2020-07-04
"41",20,0.00208077570792581,0.000638455575412904,5.28244332876464e-05,0.00106680007060673,2020-07-05
"42",20.5,0.00209756540047997,0.000632764757920559,5.13641789655559e-05,0.00107446478972276,2020-07-05
"43",21,0.00211443845297795,0.00062924410465443,5.00322158621168e-05,0.00108223533442003,2020-07-06
"44",21.5,0.00213139545862356,0.00062631225331816,4.88209842249019e-05,0.00109010822142423,2020-07-06
"45",22,0.00214843694912709,0.00062229974632247,4.77234190133896e-05,0.00109808018407024,2020-07-07
"46",22.5,0.0021655633974671,0.000616358859176831,4.67329184971847e-05,0.00110614815798214,2020-07-07
"47",23,0.00218277522046038,0.00061093215918851,4.58433148646825e-05,0.00111430926766253,2020-07-08
"48",23.5,0.00220007278115253,0.000608278783657141,4.50488467137734e-05,0.00112256081393315,2020-07-08
"49",24,0.00221745639104058,0.000607876725835419,4.43441333043916e-05,0.00113090026217249,2020-07-09
"50",24.5,0.00223492631213857,0.000607915958470474,4.37241504603926e-05,0.00113932523129948,2020-07-09
"51",25,0.00225248275889606,0.000609840777727874,4.31842080154356e-05,0.00114783348345575,2020-07-10
"52",25.5,0.00227012589997926,0.000612730616429392,4.27199287042796e-05,0.00115642291434177,2020-07-10
"53",26,0.0022878558599234,0.000617943664309007,4.23272284072019e-05,0.0011650915441653,2020-07-11
"54",26.5,0.00230567272066496,0.000618949371764457,4.11400083123869e-05,0.00117340636448867,2020-07-11
"55",27,0.00232357652296123,0.000620550638168059,4.00137047512001e-05,0.00118179511385622,2020-07-12
"56",27.5,0.00234156726770488,0.00062571158711576,3.89825113147786e-05,0.00119027488950983,2020-07-12
"57",28,0.00235964491714,0.000621150553686157,3.80409135347513e-05,0.00119884291533738,2020-07-13
"58",28.5,0.00237780939598633,0.000623945852151512,3.71837486030639e-05,0.0012074965722947,2020-07-13
"59",29,0.00239606059247757,0.000628227320850225,3.64061835356003e-05,0.00121623338800659,2020-07-14
"60",29.5,0.00241439835931938,0.000632642170839874,3.57036947015891e-05,0.00122505102701048,2020-07-14
"61",30,0.00243282251457243,0.000635184319892579,3.50720486335405e-05,0.00123394728160299,2020-07-15
"62",30.5,0.00245133284246546,0.000640958491291812,3.45072840377793e-05,0.00124292006325162,2020-07-15
"63",31,0.00246992909414288,0.000644779423415113,3.40056949306366e-05,0.00125196739453676,2020-07-16
"64",31.5,0.00248861098835152,0.000644921924133036,3.356381483004e-05,0.00126108740159078,2020-07-16
"65",32,0.00250737821207027,0.000645785772785396,3.31784019366313e-05,0.00127027830700345,2020-07-17
"66",32.5,0.00252623042108681,0.000649591790818355,3.28464252426564e-05,0.00127953842316474,2020-07-17
"67",33,0.00254516724052483,0.00065505570733833,3.25650515107256e-05,0.00128886614601778,2020-07-18
"68",33.5,0.00256418826532509,0.00066006169073586,3.23316330681648e-05,0.00129825994919663,2020-07-18
"69",34,0.00258329306068368,0.000664797510822504,3.21436963660625e-05,0.00130771837852487,2020-07-19
"70",34.5,0.00260248116245033,0.000669741774311312,3.19989312552996e-05,0.00131724004685281,2020-07-19
"71",35,0.00262175207748952,0.000675936937684559,3.18951809348311e-05,0.00132682362921218,2020-07-20
"72",35.5,0.00264110528400725,0.000684130269282167,3.18304325302772e-05,0.00133646785826877,2020-07-20
"73",36,0.00266054023184568,0.000691826895662893,3.18028082635079e-05,0.00134617152005459,2020-07-21
"74",36.5,0.00268005634274812,0.000698212621307334,3.18105571763569e-05,0.00135593344996224,2020-07-21
"75",37,0.00269965301059661,0.000705866229900305,3.18520473739037e-05,0.00136575252898526,2020-07-22
"76",37.5,0.00271932960162395,0.000714731273574668,3.19257587549245e-05,0.00137562768018944,2020-07-22
"77",38,0.00273908545460233,0.000722892722826052,3.20302761991336e-05,0.00138555786540073,2020-07-23
"78",38.5,0.00275891988101026,0.000731369411155038,3.21642831827367e-05,0.0013955420820965,2020-07-23
"79",39,0.00277883216517956,0.000739416986362849,3.23265557955956e-05,0.00140557936048758,2020-07-24
"80",39.5,0.00279882156442403,0.000746743972641338,3.25159571349736e-05,0.0014156687607795,2020-07-24
"81",40,0.00281888730915134,0.000753949133281625,3.2731432052392e-05,0.00142580937060187,2020-07-25
"82",40.5,0.0028515872252616,0.000759856528837225,3.29720022315979e-05,0.0014422796137466,2020-07-25
"83",41,0.00288978432132172,0.000768211969034256,3.32367615770164e-05,0.00146151054144937,2020-07-26
"84",41.5,0.00292846175216943,0.000777125408473942,3.35248718933483e-05,0.00148099331203139,2020-07-26
"85",42,0.00296762461333904,0.000784985880925463,3.38355588381859e-05,0.00150073008608861,2020-07-27
"86",42.5,0.00300727803028995,0.000793127563163941,3.41681081306486e-05,0.0015207230692103,2020-07-27
"87",43,0.00304742715777455,0.000803395464210921,3.45218620001063e-05,0.00154097450988733,2020-07-28
"88",43.5,0.00308807717917668,0.000813951775124957,3.48962158600513e-05,0.00156148669751837,2020-07-28
"89",44,0.00312923330582026,0.000823374187693253,3.52906151931146e-05,0.00158226196050669,2020-07-29
"90",44.5,0.00317090077624704,0.000831414481622241,3.57045526340986e-05,0.00160330266444057,2020-07-29
"91",45,0.00321308485546286,0.000839560563227812,3.61375652387166e-05,0.00162461121035079,2020-07-30
"92",45.5,0.00325579083415162,0.000847811853992202,3.65892319265025e-05,0.00164619003303906,2020-07-30
"93",46,0.00329902402785624,0.000857203396693361,3.70591710870722e-05,0.00166804159947166,2020-07-31
"94",46.5,0.00334278977612569,0.000868491857715226,3.75470383395973e-05,0.00169016840723264,2020-07-31
"95",47,0.00338709344162746,0.000880114066786972,3.8052524435984e-05,0.00171257298303172,2020-08-01
"96",47.5,0.00343194040922458,0.000891974847253948,3.85753532988462e-05,0.00173525788126171,2020-08-01
"97",48,0.00347733608501646,0.000904075427126724,3.91152801859183e-05,0.00175822568260119,2020-08-02
"98",48.5,0.00352328589534265,0.000916417148138408,3.96720899730765e-05,0.00178147899265786,2020-08-02
"99",49,0.00356979528574878,0.000929001463182993,4.02455955486278e-05,0.00180502044064871,2020-08-03
"100",49.5,0.00361686971991392,0.000941829933884366,4.08356363119837e-05,0.00182885267811295,2020-08-03
"101",50,0.00366451467853833,0.000954904228289831,4.14420767702685e-05,0.0018529783776543,2020-08-04
"102",50.5,0.00371273565819107,0.000968226118682269,4.20648052268157e-05,0.00187740023170894,2020-08-04
"103",51,0.00376153817011638,0.000981797479505286,4.27037325558824e-05,0.00190212095133613,2020-08-05
"104",51.5,0.00381092773899815,0.000995520561742246,4.33587910582707e-05,0.00192714326502821,2020-08-05
"105",52,0.00386090990168164,0.00100786081169984,4.40299333928733e-05,0.00195246991753726,2020-08-06
"106",52.5,0.00391149020585149,0.00101888420348542,4.47171315794777e-05,0.00197810366871548,2020-08-06
"107",53,0.00396267420866537,0.00103003443185132,4.54203760684517e-05,0.00200404729236691,2020-08-07
"108",53.5,0.00401446747534232,0.00104131207223388,4.61396748732095e-05,0.00203030357510776,2020-08-07
"109",54,0.00406687557770492,0.00105271773192999,4.68750527616149e-05,0.00205687531523327,2020-08-08
"110",54.5,0.00411990409267456,0.00106425204860849,4.76265505027193e-05,0.00208376532158864,2020-08-08
"111",55,0.00417355860071889,0.00107591568889361,4.83942241654571e-05,0.00211097641244217,2020-08-09
"112",55.5,0.00422784468425065,0.00108770934701644,4.91781444661349e-05,0.00213851141435839,2020-08-09
"113",56,0.00428276792597708,0.00109982718645518,4.997839616175e-05,0.00216637316106941,2020-08-10
"114",56.5,0.00433833390719899,0.0011134065453608,5.07950774863563e-05,0.00219456449234268,2020-08-10
"115",57,0.00439454820605885,0.00112715486897506,5.16282996278773e-05,0.00222308825284337,2020-08-11
"116",57.5,0.00445141639573689,0.00114107359012155,5.24781862429224e-05,0.0022519472909899,2020-08-11
"117",58,0.0045089440425945,0.00115516417030652,5.33448730073227e-05,0.00228114445780091,2020-08-12
"118",58.5,0.00456713670426425,0.00116942809842563,5.42285072002419e-05,0.00231068260573225,2020-08-12
"119",59,0.00462599992768544,0.00118386688952768,5.51292473198558e-05,0.00234056458750265,2020-08-13
"120",59.5,0.00468553924708476,0.00119848208363089,5.60472627287209e-05,0.00237079325490674,2020-08-13
"121",60,0.00474576018190098,0.00121129330749302,5.69827333270679e-05,0.00240137145761403,2020-08-14
"122",60.5,0.00480666823465321,0.00122463904539957,5.79358492523718e-05,0.00243230204195279,2020-08-14
"123",61,0.00486826888875171,0.00123771992395836,5.89068106036523e-05,0.00246358784967768,2020-08-15
"124",61.5,0.00493056760625073,0.00125352132257631,5.98958271890562e-05,0.00249523171671989,2020-08-15
"125",62,0.0049935698255426,0.00126952027234528,6.09031182953658e-05,0.00252723647191898,2020-08-16
"126",62.5,0.00505728095899238,0.00128370869606156,6.19289124781637e-05,0.00255960493573527,2020-08-16
"127",63,0.0051217063905124,0.00129523485570189,6.29734473714655e-05,0.00259233991894193,2020-08-17
"128",63.5,0.00518685147307608,0.00130685287576592,6.40369695157053e-05,0.00262544422129589,2020-08-17
"129",64,0.00525272152617033,0.00131856308826195,6.5119734203034e-05,0.00265892063018668,2020-08-18
"130",64.5,0.005319321833186,0.00133036582902175,6.62220053389529e-05,0.00269277191926247,2020-08-18
"131",65,0.00538665763874579,0.00134702020930775,6.73440553193703e-05,0.00272700084703258,2020-08-19
"132",65.5,0.00545473414596904,0.0013680138678387,6.84861649222269e-05,0.00276161015544563,2020-08-19
"133",66,0.00552355651367292,0.0013850230875809,6.96486232128894e-05,0.00279660256844291,2020-08-20
"134",66.5,0.00559312985350946,0.00140122762339354,7.0831727462565e-05,0.00283198079048601,2020-08-20
"135",67,0.00566345922703809,0.00142328025134378,7.2035783079037e-05,0.00286774750505856,2020-08-21
"136",67.5,0.00573454964273312,0.00144316304470502,7.32611035490672e-05,0.0029039053731411,2020-08-21
"137",68,0.00580640605292592,0.00146232199962297,7.45080103918527e-05,0.00294045703165889,2020-08-22
"138",68.5,0.00587903335068129,0.00148174257451843,7.57768331229659e-05,0.00297740509190213,2020-08-22
"139",69,0.00595243636660789,0.00150142740362035,7.70679092282432e-05,0.00301475213791807,2020-08-23
"140",69.5,0.00602661986560232,0.00152137916801153,7.83815841471219e-05,0.00305250072487472,2020-08-23
"141",70,0.00610158854352668,0.00154160059423804,7.97182112649607e-05,0.00309065337739582,2020-08-24
"142",70.5,0.00617734702381952,0.00156443325022454,8.10781519139062e-05,0.00312921258786671,2020-08-24
"143",71,0.00625389985403982,0.00158558177125858,8.24617753819005e-05,0.00316818081471086,2020-08-25
"144",71.5,0.00633125150234425,0.00160703301768894,8.38694589294491e-05,0.00320756048063685,2020-08-25
"145",72,0.0064094063538974,0.00162879021672445,8.53015878137961e-05,0.0032473539708556,2020-08-26
"146",72.5,0.00648836870721513,0.00165085665188903,8.67585553201764e-05,0.00328756363126766,2020-08-26
"147",73,0.00656814277044122,0.00167323566205436,8.82407627998376e-05,0.00332819176662053,2020-08-27
"148",73.5,0.00664873265755724,0.00169438992456054,8.97486197145443e-05,0.00336924063863589,2020-08-27
"149",74,0.00673014238452608,0.00171252125643998,9.12825436872994e-05,0.00341071246410669,2020-08-28
"150",74.5,0.00681237586536929,0.00173084059871321,9.2842960559033e-05,0.00345260941296416,2020-08-28
"151",75,0.00689543690817861,0.00175387728315295,9.44303044510293e-05,0.00349493360631482,2020-08-29
"152",75.5,0.00697932921106206,0.00178038624347389,9.6045017832876e-05,0.00353768711444747,2020-08-29
"153",76,0.00706405635802517,0.0018073115791289,9.76875515957378e-05,0.00358087195481045,2020-08-30
"154",76.5,0.00714962181478777,0.00183103729768208,9.93583651307699e-05,0.00362449008995927,2020-08-30
"155",77,0.00723602892453714,0.00184730862777882,0.000101057926412498,0.00366854342547482,2020-08-31
"156",77.5,0.00732328090361801,0.00186546419127473,0.000102786712087011,0.00371303380785251,2020-08-31
"157",78,0.00741138083716048,0.00188062094689459,0.000104545207564811,0.00375796302236264,2020-09-01
"158",78.5,0.00750033167464648,0.00189687803359293,0.0001063339071182,0.00380333279088234,2020-09-01
"159",79,0.00759013622541593,0.0019193439073952,0.000108153313983059,0.00384914476969949,2020-09-02
"160",79.5,0.00768079715411349,0.00194350205323788,0.000110003940464922,0.0038954005472892,2020-09-02
"161",80,0.00777231697607722,0.00196794618088304,0.000111886308049233,0.00394210164206322,2020-09-03
"162",80.5,0.00786469805267022,0.00199279123226792,0.000113800947515677,0.00398924950009295,2020-09-03
"163",81,0.00795794258655672,0.00201873794750433,0.000115748399056521,0.00403684549280662,2020-09-04
"164",81.5,0.00805205261692398,0.00204454380996697,0.000117729212398859,0.00408489091466142,2020-09-04
"165",82,0.0081470300146515,0.00206863565605279,0.000119743946930701,0.0041333869807911,2020-09-05
"166",82.5,0.00824287647742937,0.00208968161847462,0.000121793171830838,0.00418233482463011,2020-09-05
"167",83,0.00833959352482725,0.00211086554264178,0.000123877466202408,0.00423173549551483,2020-09-06
"168",83.5,0.00843718249331598,0.00213223421309893,0.000125997419210134,0.00428158995626306,2020-09-06
"169",84,0.00853564453124383,0.0021537885912391,0.000128153630221154,0.00433189908073249,2020-09-07
"170",84.5,0.00863498059376932,0.00217552962934307,0.000130346708949428,0.00438266365135937,2020-09-07
"171",85,0.00873519143775292,0.00219745827015854,0.000132577275603653,0.00443388435667828,2020-09-08
"172",85.5,0.0088362776166099,0.00222313809432573,0.00013484596103868,0.00448556178882429,2020-09-08
"173",86,0.00893823947512678,0.00225283816819089,0.000137153406910383,0.00453769644101858,2020-09-09
"174",86.5,0.00904107714424386,0.00228303493991124,0.000139500265833959,0.00459028870503891,2020-09-09
"175",87,0.00914479053580657,0.00231511189989936,0.000141887201545641,0.00464333886867611,2020-09-10
"176",87.5,0.00924937933728848,0.00234760658978683,0.000144314889067795,0.00469684711317814,2020-09-10
"177",88,0.00935484300648873,0.002380523282027,0.000146784014877403,0.00475081351068307,2020-09-11
"178",88.5,0.00946118076620711,0.00241013451071458,0.000149295277077894,0.0048052380216425,2020-09-11
"179",89,0.00956839159889983,0.00243443483467386,0.000151849385574338,0.00486012049223709,2020-09-12
"180",89.5,0.0096764742413194,0.00246091688175922,0.000154447062251981,0.00491546065178569,2020-09-12
"181",90,0.00978542717914192,0.00248943161812463,0.000157089041158126,0.00497125811015002,2020-09-13
"182",90.5,0.00989524864158556,0.00251825560724974,0.000159776068687347,0.00502751235513645,2020-09-13
"183",91,0.0100059365960237,0.00254881570902994,0.000162508903770051,0.00508422274989686,2020-09-14
"184",91.5,0.0101174887425966,0.00257870496936669,0.000165288318064376,0.00514138853033049,2020-09-14
"185",92,0.010229902508826,0.00260891486348675,0.000168115096151442,0.00519900880248874,2020-09-15
"186",92.5,0.010343175044236,0.0026498026908284,0.000170990035733954,0.00525708253998499,2020-09-15
"187",93,0.0104573032149849,0.00267583191695393,0.000173913947838162,0.00531560858141155,2020-09-16
"188",93.5,0.0105722835985127,0.00269843243185539,0.000176887657019204,0.00537458562776595,2020-09-16
"189",94,0.0106881124782078,0.00272420794619192,0.000179912001569815,0.00543401223988883,2020-09-17
"190",94.5,0.0108047858380989,0.00275616219585727,0.00018298783373245,0.00549388683591569,2020-09-17
"191",95,0.0109222993575753,0.00278607693398017,0.000186116019914795,0.00555420768874505,2020-09-18
"192",95.5,0.0110406484061418,0.00283114553742744,0.000189297440908721,0.00561497292352527,2020-09-18
"193",96,0.0111598280382128,0.00286521935016484,0.000192532992112663,0.00567618051516272,2020-09-19
"194",96.5,0.0112798329879502,0.00290043796384397,0.00019582358375746,0.00573782828585383,2020-09-19
"195",97,0.0114006576641516,0.002926855617765,0.000199170141135668,0.00579991390264363,2020-09-20
"196",97.5,0.0115222961451929,0.00295903759275433,0.000202573604834367,0.00586243487501361,2020-09-20
"197",98,0.0116447421740316,0.00299150877324475,0.000206034930971473,0.00592538855250153,2020-09-21
"198",98.5,0.0117679891532767,0.0030268291656564,0.000209555091435586,0.00598877212235615,2020-09-21
"199",99,0.01189203014033,0.00306025668338134,0.000213135074129387,0.00605258260722968,2020-09-22
"200",99.5,0.0120168578426054,0.00309040700191278,0.000216775883216601,0.006116816862911,2020-09-22
"201",100,0.0121424646128325,0.00312430493643495,0.000220478539372561,0.00618147157610252,2020-09-23
"202",100.5,0.0122688424444494,0.00315823633636951,0.000224244080038375,0.0062465432622439,2020-09-23
"203",101,0.0123959829670925,0.00319763896543089,0.000228073559678737,0.00631202826338564,2020-09-24
"204",101.5,0.0125238774421881,0.00323822993396516,0.000231968050043384,0.00637792274611572,2020-09-24
"205",102,0.0126525167586528,0.00327729066947942,0.00023592864043224,0.00644422269954254,2020-09-25
"206",102.5,0.0127818914287105,0.00331256190898498,0.00023995643796425,0.00651092393333736,2020-09-25
"207",103,0.0129119915838292,0.00336266596758108,0.000244052567849941,0.00657802207583957,2020-09-26
"208",103.5,0.0130428069707885,0.00339243104526659,0.000248218173667722,0.00664551257222811,2020-09-26
"209",104,0.013174326947881,0.00342373449540048,0.000252454417643942,0.00671339068276246,2020-09-27
"210",104.5,0.0133065404812562,0.00345896479012335,0.000256762480936741,0.00678165148109646,2020-09-27
"211",105,0.0134394361414134,0.00348906956320505,0.000261143563923697,0.00685028985266857,2020-09-28
"212",105.5,0.0135730020998506,0.00351504467889201,0.000265598886493297,0.00691930049317193,2020-09-28
"213",106,0.0137072261258751,0.0035411203994016,0.000270129688340253,0.00698867790710766,2020-09-29
"214",106.5,0.0138420955835853,0.00357491297148468,0.000274737229264679,0.007058416406425,2020-09-29
"215",107,0.0139775974290283,0.00360936334291441,0.000279422789475148,0.00712851010925171,2020-09-30
"216",107.5,0.014113718207541,0.00364298631613618,0.000284187669895643,0.0071989529387183,2020-09-30
"217",108,0.0142504440512827,0.00367966176786284,0.000289033192476427,0.00726973862187956,2020-10-01
"218",108.5,0.0143877606769651,0.00371540050602837,0.000293960700508835,0.00734086068873698,2020-10-01
"219",109,0.0145573251674344,0.00375531057401517,0.000298971558944015,0.00742814836318921,2020-10-02
"220",109.5,0.0147491061903424,0.00380726611251441,0.000304067154715627,0.007526586672529,2020-10-02
"221",110,0.0149418784024991,0.00384998910404745,0.000309248897066505,0.00762556364978283,2020-10-03
"222",110.5,0.0151355969421375,0.00388404057220341,0.000314518217879309,0.00772505758000843,2020-10-03
"223",111,0.0153302153602593,0.00391495736206441,0.000319876572011157,0.00782504596613523,2020-10-04
"224",111.5,0.0155256856184952,0.00394993645261173,0.00032532543763227,0.00792550552806372,2020-10-04
"225",112,0.0157219580888595,0.00398988589836469,0.00033086631656861,0.00802641220271405,2020-10-05
"226",112.5,0.0159189815554647,0.00401636484858997,0.000336500734648536,0.00812774114505662,2020-10-05
"227",113,0.0161167032182588,0.00404290181604107,0.000342230242053477,0.00822946673015616,2020-10-06
"228",113.5,0.0163150686988476,0.00409291405477939,0.00034805641367262,0.00833156255626011,2020-10-06
"229",114,0.0165140220484601,0.00413670573943726,0.000353980849461611,0.00843400144896086,2020-10-07
"230",114.5,0.016713505758115,0.00416313907299255,0.000360005174805284,0.00853675546646016,2020-10-07
"231",115,0.0169134607710406,0.00419014270980714,0.000366131040884386,0.00863979590596252,2020-10-08
"232",115.5,0.0171138264974003,0.00423755848281563,0.000372360125046319,0.00874309331122329,2020-10-08
"233",116,0.01731454083137,0.00427600987508077,0.000378694131179877,0.00884661748127494,2020-10-09
"234",116.5,0.0175155401706136,0.00431675367377365,0.000385134790093963,0.00895033748035376,2020-10-09
"235",117,0.0177167594381936,0.00437391136620475,0.000391683859900286,0.00905422164904696,2020-10-10
"236",117.5,0.017918132106957,0.0044188163955455,0.000398343126400009,0.00915823761667849,2020-10-10
"237",118,0.0181195902264244,0.00446639157066987,0.000405114403474339,0.00926235231494937,2020-10-11
"238",118.5,0.0183210644522137,0.00453085488059586,0.000411999533479032,0.00936653199284634,2020-10-11
"239",119,0.0185224840780175,0.00459607215961988,0.000419000387642784,0.00947074223283016,2020-10-12
"240",119.5,0.0187237770701552,0.00465093830106351,0.000426118866469495,0.00957494796831233,2020-10-12
"241",120,0.0189248701047087,0.00469443732049148,0.000433356900144353,0.00967911350242654,2020-10-13
"242",120.5,0.0191256886072529,0.00473792090663535,0.000440716448943726,0.00978320252809831,2020-10-13
"243",121,0.0193261567951781,0.00477166270451831,0.000448199503648806,0.00988717814941344,2020-10-14
"244",121.5,0.0195261977226035,0.00483786808201692,0.00045580808596297,0.00999100290428324,2020-10-14
"245",122,0.0197257333278693,0.00488747356379156,0.000463544248932814,0.0100946387884011,2020-10-15
"246",122.5,0.0199246844835914,0.00492521057132619,0.000471410077372805,0.0101980472804821,2020-10-15
"247",123,0.0201229710492561,0.00496310566561391,0.000479407688293499,0.0103011893687748,2020-10-16
"248",123.5,0.0203205119263254,0.00500115707327183,0.000487539231333268,0.0104040255788293,2020-10-16
"249",124,0.0205172251158168,0.00504409880070455,0.000495806889193466,0.0105065160025051,2020-10-17
"250",124.5,0.0207130277783158,0.00509240334125395,0.000504212878076976,0.0106086203281964,2020-10-17
"251",125,0.0209078362963714,0.00514097155508966,0.000512759448130053,0.0107102978722507,2020-10-18
"252",125.5,0.0211015663392193,0.00518979970918062,0.000521448883887395,0.0108115076115533,2020-10-18
"253",126,0.0212941329297694,0.0052255173572088,0.000530283504720352,0.0109122082172449,2020-10-19
"254",126.5,0.0214854505137897,0.00526187101653668,0.000539265665288186,0.0110123580895389,2020-10-19
"255",127,0.0216754330312087,0.00531887437013741,0.000548397755992285,0.0111119153936005,2020-10-20
"256",127.5,0.0218639939894553,0.0053763644425938,0.000557682203433234,0.0112108380964443,2020-10-20
"257",128,0.0220510465387455,0.00544458818665111,0.000567121470870628,0.0113090840048081,2020-10-21
"258",128.5,0.0222365035492212,0.00551067578754212,0.000576718058685528,0.0114066108039534,2020-10-21
"259",129,0.0224202776898375,0.00556766080907421,0.000586474504845417,0.0115033760973415,2020-10-22
"260",129.5,0.0226022815088916,0.00562500452188919,0.000596393385371551,0.0115993374471316,2020-10-22
"261",130,0.0227824275160774,0.00567447688248382,0.000606477314808557,0.011694452415443,2020-10-23
"262",130.5,0.0229606282659463,0.00571710013862976,0.000616728946696144,0.0117886786063212,2020-10-23
"263",131,0.0231367964426481,0.0057591004912498,0.000627150974042763,0.0118819737083454,2020-10-24
"264",131.5,0.0233108449458199,0.00580395497660025,0.000637746129801088,0.0119742955378105,2020-10-24
"265",132,0.0234826869774879,0.00586089063262012,0.000648517187345108,0.0120656020824165,2020-10-25
"266",132.5,0.0236522361298398,0.00590208714072133,0.000659466960948707,0.0121558515453943,2020-10-25
"267",133,0.0238194064737222,0.00593595429400172,0.000670598306265501,0.0122450023899939,2020-10-26
"268",133.5,0.023984112647714,0.00599761661535163,0.000681914120809778,0.0123330133842619,2020-10-26
"269",134,0.0241462699476214,0.00606322315768178,0.000693417344438312,0.0124198436460299,2020-10-27
"270",134.5,0.0243057944162387,0.00612983923612168,0.000705110959832859,0.0125054526880358,2020-10-27
"271",135,0.0244626029332135,0.00619137558689413,0.0007169979929831,0.0125898004630983,2020-10-28
"272",135.5,0.0246166133048554,0.00624430220265281,0.000729081513669811,0.0126728474092626,2020-10-28
"273",136,0.0247677443537241,0.00628627386019154,0.00074136463594801,0.0127545544948361,2020-10-29
"274",136.5,0.0249159160078289,0.00632419304352122,0.000753850518629828,0.0128348832632294,2020-10-29
"275",137,0.025061049389275,0.00636204446893378,0.000766542365766844,0.0129137958775209,2020-10-30
"276",137.5,0.0252030669021868,0.00641729701410986,0.00077944342713161,0.0129912551646592,2020-10-30
"277",138,0.0253418923197417,0.00647336730846231,0.000792556998698064,0.0130672246592199,2020-10-31
"278",138.5,0.0254774508701458,0.00653048711571973,0.000805886423120548,0.0131416686466332,2020-10-31
"279",139,0.0256096693213851,0.00660058829221294,0.000819435090211105,0.0132145522057981,2020-11-01
"280",139.5,0.0257384760645869,0.00667720828148912,0.000833206437414735,0.0132858412510008,2020-11-01
"281",140,0.025863801195827,0.00673271002270955,0.000847203950282265,0.0133555025730546,2020-11-02
"282",140.5,0.0259855765962222,0.00678636493679408,0.000861431162940487,0.0134235038795813,2020-11-02
"283",141,0.0261037360101488,0.00682986932107937,0.000875891658559183,0.013489813834354,2020-11-03
"284",141.5,0.0262182151214324,0.00687334355367957,0.000890589069814662,0.0135544020956235,2020-11-03
"285",142,0.0263289516273572,0.00691758024917846,0.000905527079349416,0.0136172393533533,2020-11-04
"286",142.5,0.0264358853103473,0.00695892601783997,0.000920709420227461,0.0136782973652874,2020-11-04
"287",143,0.0265389581071781,0.00700017590756918,0.00093613987638496,0.0137375489917816,2020-11-05
"288",143.5,0.0266381141755802,0.00706502485957484,0.000951822283075653,0.0137949682293279,2020-11-05
"289",144,0.0267332999581026,0.00713723913222178,0.000967760527310657,0.0138505302427066,2020-11-06
"290",144.5,0.026824464243112,0.00718929601639485,0.000983958548292127,0.0139042113957021,2020-11-06
"291",145,0.0269115582228057,0.00723742111314009,0.00100042033784031,0.013955989280323,2020-11-07
"292",145.5,0.0269945355481274,0.00728554278773864,0.00101714994081344,0.0140058427444704,2020-11-07
"293",146,0.027073352380479,0.00735073183494708,0.00103415145551996,0.0140537519179995,2020-11-08
"294",146.5,0.0271479674401301,0.00741885838342081,0.00105142903412256,0.0140996982371263,2020-11-08
"295",147,0.0272183420512344,0.00747785387026413,0.00106898688303329,0.0141436644671338,2020-11-09
"296",147.5,0.0272844401833705,0.0075593139155412,0.00108682926329939,0.0141856347233349,2020-11-09
"297",148,0.0273462284895318,0.00763702378950686,0.00110496049097905,0.0142255944902554,2020-11-10
"298",148.5,0.027403676340499,0.00770099189514528,0.0011233849375065,0.0142635306390027,2020-11-10
"299",149,0.0274567558555371,0.00777778625862203,0.00114210703004577,0.0142994314427914,2020-11-11
"300",149.5,0.0275054419293688,0.00785212500467577,0.00116113125183253,0.0143332865906007,2020-11-11
"301",150,0.0275497122553818,0.00792080043875925,0.0011804621425031,0.0143650871989425,2020-11-12
"302",150.5,0.0275895473450396,0.0079791119822129,0.00120010429841015,0.0143948258217249,2020-11-12
"303",151,0.0276249305434722,0.00803502503473797,0.0012200623729241,0.0144224964581981,2020-11-13
"304",151.5,0.0276558480412327,0.00809091827593473,0.00124034107671969,0.0144480945589762,2020-11-13
"305",152,0.0276822888822157,0.00815274640106322,0.00126094517804661,0.0144716170301312,2020-11-14
"306",152.5,0.0277042449677388,0.00822675646822772,0.00128187950298374,0.0144930622353613,2020-11-14
"307",153,0.0277217110568018,0.00830299276725579,0.00130314893567576,0.0145124299962388,2020-11-15
"308",153.5,0.0277346847625434,0.00837551221443936,0.00132475841855159,0.0145297215905475,2020-11-15
"309",154,0.027743166544925,0.00845023792143923,0.00134671295252349,0.0145449397487242,2020-11-16
"310",154.5,0.0277471596996796,0.00853714360834233,0.00136901759716603,0.0145580886484228,2020-11-16
"311",155,0.0277466703435709,0.00861898814016587,0.00139167747087399,0.0145691739072224,2020-11-17
"312",155.5,0.0277417073960177,0.0087011544091543,0.00141469775099804,0.0145782025735079,2020-11-17
"313",156,0.0277322825571432,0.00876478349105879,0.00143808367395738,0.0145851831155503,2020-11-18
"314",156.5,0.0277184102823201,0.00881815352260382,0.00146184053532816,0.0145901254088241,2020-11-18
"315",157,0.027700107753285,0.00889264482823432,0.00148597368990658,0.0145930407215958,2020-11-19
"316",157.5,0.0276773948459075,0.00893390251302154,0.00151048855174573,0.0145939416988266,2020-11-19
"317",158,0.0276502940947001,0.00902431448168457,0.00153539059416482,0.0145928423444324,2020-11-20
"318",158.5,0.0276188306541673,0.00912920383943477,0.00156068534972977,0.0145897580019486,2020-11-20
"319",159,0.0275830322570929,0.00921584472267046,0.00158637841020391,0.0145847053336484,2020-11-21
"320",159.5,0.0275429291698719,0.00929698218913522,0.00161247542646751,0.0145777022981697,2020-11-21
"321",160,0.0274985541450004,0.00936669977364925,0.001638982108405,0.0145687681267027,2020-11-22
"322",160.5,0.027449942370837,0.00943634528489656,0.00166590422475842,0.0145579232977977,2020-11-22
"323",161,0.027397131418759,0.00951624851523095,0.00169324760294584,0.0145451895108524,2020-11-23
"324",161.5,0.0274196353281354,0.00960054989921088,0.00172101812884347,0.0145703267284894,2020-11-23
"325",162,0.0274734556694649,0.00965866170870348,0.00174922174652983,0.0146113387079974,2020-11-24
"326",162.5,0.0275250731605052,0.00971393905877254,0.00177786445799082,0.014651468809248,2020-11-24
"327",163,0.0275744743661817,0.009783022269216,0.00180695232278398,0.0146907133444829,2020-11-25
"328",163.5,0.0276216465651718,0.00982965574410067,0.00182791179845438,0.0147247791818131,2020-11-25
"329",164,0.0276665777565997,0.00983818914709664,0.00183442062806076,0.0147504991923302,2020-11-26
"330",164.5,0.0277092566662316,0.00984183548091818,0.00184093252041664,0.0147750945933241,2020-11-26
"331",165,0.0277496727521654,0.00986066496635417,0.00184744727450117,0.0147985600133333,2020-11-27
"332",165.5,0.0277878162100107,0.00992126801948716,0.00185396468774342,0.0148208904488771,2020-11-27
"333",166,0.0278236779775553,0.00993986235681033,0.00186048455602732,0.0148420812667913,2020-11-28
"334",166.5,0.0278572497389145,0.00993712872807758,0.00186700667369689,0.0148621282063057,2020-11-28
"335",167,0.0278885239281608,0.00997469820919829,0.00187353083356176,0.0148810273808613,2020-11-29
"336",167.5,0.0279174937324318,0.0100561153682158,0.00188005682690279,0.0148987752796673,2020-11-29
"337",168,0.0279441530945148,0.0101074264431347,0.00188658444347804,0.0149153687689964,2020-11-30
"338",168.5,0.0279684967149077,0.0101582069332383,0.00189311347152899,0.0149308050932183,2020-11-30
"339",169,0.0279905200533552,0.0102084437020065,0.0018996436977869,0.0149450818755711,2020-12-01
"340",169.5,0.0280102193298615,0.010258123722978,0.00190617490747953,0.0149581971186705,2020-12-01
"341",170,0.0280275915251799,0.0103072340877327,0.00191270688433801,0.014970149204759,2020-12-02
"342",170.5,0.0280426343807813,0.0103351868235692,0.00191923941060404,0.0149809368956927,2020-12-02
"343",171,0.0280553463983036,0.0104011907327891,0.00192577226703732,0.0149905593326705,2020-12-03
"344",171.5,0.0280657268384853,0.0104510200974578,0.00193230523292314,0.0149990160357042,2020-12-03
"345",172,0.0280737757195857,0.0104977253906637,0.00193883808608036,0.015006306902833,2020-12-04
"346",172.5,0.0280794938152968,0.0105189810523656,0.00194537060286956,0.0150124322090832,2020-12-04
"347",173,0.0281788173444678,0.0105428660642665,0.00195190255820147,0.0150653599513346,2020-12-05
"348",173.5,0.0282844503403894,0.0106062179353267,0.00195843372554561,0.0151214420329675,2020-12-05
"349",174,0.0286058669313695,0.010654672359539,0.00196496387693927,0.0152854154041544,2020-12-06
"350",174.5,0.0289263465502037,0.010710359311319,0.0019714927829967,0.0154489196666002,2020-12-06
"351",175,0.0292457371835293,0.0107442595620691,0.00197802021291851,0.0156118786982239,2020-12-07
"352",175.5,0.0295638848905634,0.0107756208859926,0.00198454593450144,0.0157742154125324,2020-12-07
"353",176,0.0298806339372087,0.0108408727284825,0.0019910697141483,0.0159358518256785,2020-12-08
"354",176.5,0.0301958269359577,0.0108825165753901,0.00199759131687824,0.016096709126418,2020-12-08
"355",177,0.0305093049914368,0.0109175752179442,0.00200411050633718,0.016256707748887,2020-12-09
"356",177.5,0.0308209078514105,0.0109811961787747,0.00201062704480863,0.0164157674481095,2020-12-09
"357",178,0.0311304740630464,0.0110274749878439,0.0020171406932247,0.0165738073781356,2020-12-10
"358",178.5,0.0314378411342236,0.0110364965707515,0.00202365121117737,0.0167307461727005,2020-12-10
"359",179,0.0317428456996456,0.0111025070620603,0.00203015835693006,0.0168865020282878,2020-12-11
"360",179.5,0.0320453236915033,0.0111329462026087,0.00203666188742948,0.0170409927894664,2020-12-11
"361",180,0.0323451105144126,0.0111203961903521,0.00204316155831765,0.0171941360363651,2020-12-12
"362",180.5,0.0326420412243338,0.0111555831935644,0.00204965712394433,0.0173458491741391,2020-12-12
"363",181,0.0329359507111653,0.011182083036079,0.00205614833737959,0.0174960495242725,2020-12-13
"364",181.5,0.0332266738846834,0.0112556070310823,0.00206263495042676,0.0176446544175551,2020-12-13
"365",182,0.0335140458634887,0.0112744276582475,0.00206911671363552,0.0177915812885621,2020-12-14
"366",182.5,0.0337979021666017,0.0112557461138709,0.0020755933763154,0.0179367477714586,2020-12-14
"367",183,0.0340780789073386,0.0113189538139032,0.00208206468654946,0.018080071796944,2020-12-15
"368",183.5,0.0343544129890838,0.0113488245866673,0.00208853039120823,0.018221471690146,2020-12-15
"369",184,0.0346267423025647,0.0113709369748049,0.002094990235964,0.0183608662692643,2020-12-16
"370",184.5,0.0348949059242257,0.0114037156996787,0.00210144396530531,0.0184981749447655,2020-12-16
"371",185,0.0351587443152855,0.0114342077687436,0.00210789132255174,0.0186333178189186,2020-12-17
"372",185.5,0.0354180995210569,0.0114432411740894,0.00211433204986893,0.0187662157854629,2020-12-17
"373",186,0.0356728153701017,0.0114939529204806,0.00212076588828397,0.0188967906291928,2020-12-18
"374",186.5,0.0359227376727864,0.0115272183403067,0.00212719257770092,0.0190249651252437,2020-12-18
"375",187,0.0361677144188025,0.0116063988307643,0.00213361185691674,0.0191506631378596,2020-12-19
"376",187.5,0.036407595973212,0.0116282670939816,0.00214002346363737,0.0192738097184247,2020-12-19
"377",188,0.0366422352705801,0.0116827584907523,0.00214642713449417,0.0193943312025371,2020-12-20
"378",188.5,0.0368714880067545,0.0116728606490768,0.00215282260506056,0.0195121553059076,2020-12-20
"379",189,0.0370952128278576,0.0116917536919916,0.00215920960986898,0.0196272112188633,2020-12-21
"380",189.5,0.0373132715160572,0.011718966313999,0.00216558788242812,0.0197394296992427,2020-12-21
"381",190,0.0375255291716926,0.0117258567633008,0.00217195715524035,0.0198487431634665,2020-12-22
"382",190.5,0.0377318543913338,0.0117513631417253,0.0021783171598195,0.0199550857755767,2020-12-22
"383",191,0.0379321194413654,0.0117761986090837,0.00218466762670884,0.0200583935340371,2020-12-23
"384",191.5,0.0381262004266937,0.0117687165639402,0.0021910082854994,0.0201586043560966,2020-12-23
"385",192,0.0383139774541899,0.0117898050432637,0.00219733886484846,0.0202556581595192,2020-12-24
"386",192.5,0.0384953347904909,0.0118103517131775,0.0022036590924984,0.0203494969414946,2020-12-24
"387",193,0.0386701610137989,0.0118010576036953,0.00220996869529572,0.0204400648545473,2020-12-25
"388",193.5,0.0388383491593328,0.0118119285838571,0.00221626739921042,0.0205273082792716,2020-12-25
"389",194,0.0389997968581023,0.0118611888314495,0.00222255492935556,0.0206111758937289,2020-12-26
"390",194.5,0.0391544064686936,0.0118584440423064,0.00222883101000712,0.0206916187393503,2020-12-26
"391",195,0.0393020852017762,0.0118704235521657,0.0022350953646241,0.0207685902832002,2020-12-27
"392",195.5,0.039442745237057,0.0118394279469634,0.00224134771586889,0.020842046476463,2020-12-27
"393",196,0.0395763038324317,0.0118342754931126,0.00224758778562792,0.0209119458090298,2020-12-28
"394",196.5,0.0397026834251046,0.011807810427418,0.00225381529503249,0.0209782493600685,2020-12-28
"395",197,0.0398218117244703,0.0118021106725711,0.00226002996447993,0.0210409208444751,2020-12-29
"396",197.5,0.0399336217965725,0.0118104713414708,0.00226623151365498,0.0210999266551137,2020-12-29
"397",198,0.0400380521399816,0.0118496073300643,0.00227241966155142,0.0211552359007665,2020-12-30
"398",198.5,0.0401350467529541,0.0118997984258841,0.00227859412649393,0.021206820439724,2020-12-30
"399",199,0.0402245551917634,0.0119077127435466,0.00228475462616024,0.0212546549089618,2020-12-31
"400",199.5,0.040306532620113,0.0119192358302817,0.00229090087760351,0.0212987167488582,2020-12-31
"401",200,0.0403809398495724,0.0118730582685524,0.0022970325972749,0.0213389862234237,2021-01-01
"402",200.5,0.0404477433709963,0.0118493012276105,0.00230314950104648,0.0213754464360214,2021-01-01
"403",201,0.0405069153769139,0.011816697167243,0.00230925130423427,0.0214080833405741,2021-01-02
"404",201.5,0.0405584337749004,0.011819642272824,0.00231533772162159,0.021436885748261,2021-01-02
"405",202,0.0406022821919659,0.0118393371876075,0.00232140846748265,0.0214618453297243,2021-01-03
"406",202.5,0.0406384499700192,0.0118281309787271,0.0023274632556063,0.0214829566128128,2021-01-03
"407",203,0.0406669321524909,0.0118449328243823,0.00233350179932007,0.0215002169759055,2021-01-04
"408",203.5,0.0406877294622176,0.0119258409419118,0.00233952381151446,0.021513626636866,2021-01-04
"409",204,0.0407008482707168,0.0119502155484295,0.00234552900466734,0.0215231886376921,2021-01-05
"410",204.5,0.0407063005589971,0.0119382328876001,0.00235151709086871,0.0215289088249329,2021-01-05
"411",205,0.0407041038700748,0.0119366407269301,0.00235748778184563,0.0215307958259602,2021-01-06
"412",205.5,0.040694281253382,0.0119190521774348,0.00236344078898726,0.0215288610211846,2021-01-06
"413",206,0.0406768612012743,0.0119002014971092,0.00236937582337034,0.0215231185123223,2021-01-07
"414",206.5,0.0406518775778603,0.0118594528665373,0.00237529259578464,0.0215135850868225,2021-01-07
"415",207,0.0406193695403947,0.011850498959642,0.00238119081675879,0.0215002801785768,2021-01-08
"416",207.5,0.0405793814534895,0.0118673373195635,0.00238707019658623,0.0214832258250379,2021-01-08
"417",208,0.040531962796414,0.011868785919386,0.00239293044535137,0.0214624466208827,2021-01-09
"418",208.5,0.0404771680637668,0.0118939572399896,0.00239877127295602,0.0214379696683614,2021-01-09
"419",209,0.0404150566598151,0.011844178628546,0.0024045923891459,0.0214098245244805,2021-01-10
"420",209.5,0.0403456927868071,0.0117912906287693,0.00241039350353742,0.0213780431451723,2021-01-10
"421",210,0.0402691453275736,0.0117378473119344,0.00241617432564464,0.0213426598266091,2021-01-11
"422",210.5,0.0401854877227419,0.0116988182298777,0.0024219345649064,0.0213037111438242,2021-01-11
"423",211,0.0400947978428949,0.0117095577291028,0.00242767393071366,0.0212612358868043,2021-01-12
"424",211.5,0.0399971578560106,0.0116539192969836,0.00243339213243696,0.0212152749942238,2021-01-12
"425",212,0.0398926540905254,0.011573152652049,0.0024390888794541,0.0211658714849898,2021-01-13
"426",212.5,0.0397813768943661,0.0115111633177149,0.002444763881178,0.0211130703877721,2021-01-13
"427",213,0.0396634204902982,0.0114487440542231,0.00245041684708472,0.0210569186686915,2021-01-14
"428",213.5,0.0395388828279405,0.01142355775619,0.0024560474867416,0.0209974651573411,2021-01-14
"429",214,0.0394078654327948,0.0113915797005205,0.0024616555098356,0.0209347604713152,2021-01-15
"430",214.5,0.0394134027532169,0.0113236469708522,0.00246724062620183,0.0209403216897094,2021-01-15
"431",215,0.0394519179743704,0.0112808101481963,0.00247280254585213,0.0209623602601113,2021-01-16
"432",215.5,0.039485595982732,0.0112819496096933,0.0024783409790039,0.020981968480868,2021-01-16
"433",216,0.0395144323913657,0.0112855912231672,0.00248385563610902,0.0209991440137374,2021-01-17
"434",216.5,0.0395384251391858,0.0113028110132602,0.00248934622788292,0.0210138856835344,2021-01-17
"435",217,0.0395575744825046,0.0112822502613861,0.00249481246533378,0.0210261934739192,2021-01-18
"436",217.5,0.0395718829843091,0.0112797253418153,0.00250025405979187,0.0210360685220505,2021-01-18
"437",218,0.0395813555013006,0.0113019707272708,0.002505670722939,0.0210435131121198,2021-01-19
"438",218.5,0.0395859991687327,0.0113201351304901,0.00251106216683814,0.0210485306677854,2021-01-19
"439",219,0.0395858233830909,0.0113363480907814,0.00251642810396306,0.021051125743527,2021-01-20
"440",219.5,0.0395808397826543,0.0112943267851104,0.00252176824722819,0.0210513040149413,2021-01-20
"441",220,0.0395710622259886,0.011243983780351,0.00252708231001853,0.0210490722680036,2021-01-21
"442",220.5,0.0395565067684189,0.0112000428391628,0.00253237000621963,0.0210444383873193,2021-01-21
"443",221,0.0395371916365348,0.011180244023713,0.00253763105024779,0.0210374113433913,2021-01-22
"444",221.5,0.0395131372007833,0.0111571769600644,0.00254286515708018,0.0210280011789317,2021-01-22
"445",222,0.0394843659462069,0.0110863745682196,0.00254807204228522,0.021016218994246,2021-01-23
"446",222.5,0.0394509024413859,0.0110206966645804,0.00255325142205291,0.0210020769317194,2021-01-23
"447",223,0.0394127733056486,0.010985551031711,0.00255840301322532,0.020985588159437,2021-01-24
"448",223.5,0.0393700071746117,0.0109563183949092,0.00256352653332712,0.0209667668539694,2021-01-24
"449",224,0.0393226346641172,0.0109323472337899,0.00256862170059618,0.0209456281823567,2021-01-25
"450",224.5,0.0392706883326342,0.0109120328124172,0.00257368823401425,0.0209221882833242,2021-01-25
"451",225,0.0392142026421921,0.0108826633733773,0.00257872585333764,0.0208964642477649,2021-01-26
"452",225.5,0.0391532139179186,0.0108637064935134,0.00258373427912808,0.0208684740985233,2021-01-26
"453",226,0.0390877603062501,0.0108222684556739,0.00258871323278344,0.0208382367695168,2021-01-27
"454",226.5,0.0390178817318904,0.0107883391715684,0.00259366243656868,0.0208057720842295,2021-01-27
"455",227,0.0389436198535873,0.0107401674964545,0.00259858161364672,0.020771100733617,2021-01-28
"456",227.5,0.0388650180188037,0.0107550424320239,0.00260347048810935,0.0207342442534565,2021-01-28
"457",228,0.0387821212173552,0.010735355508947,0.00260832878500825,0.0206952250011817,2021-01-29
"458",228.5,0.0386949760340897,0.0106841644881184,0.002606245634899,0.0206506108344943,2021-01-29
"459",229,0.0386036306006829,0.0106386890937481,0.0025960790630269,0.0205998548318549,2021-01-30
"460",229.5,0.0385081345466253,0.0105873517277008,0.00258589944662698,0.0205470169966261,2021-01-30
"461",230,0.0384085389494731,0.0105114673242793,0.00257570745686093,0.020492123203167,2021-01-31
"462",230.5,0.03830489628444,0.0104469651408158,0.00256550376077022,0.0204352000226051,2021-01-31
"463",231,0.0381972603734,0.010377660689518,0.00255528902121683,0.0203762746973084,2021-02-01
"464",231.5,0.0380856863333776,0.0103081907674781,0.00254506389682548,0.0203153751151016,2021-02-01
"465",232,0.0379702305245959,0.0102385695607733,0.00253482904192741,0.0202525297832616,2021-02-02
"466",232.5,0.0378509504981534,0.0102015827184944,0.00252458510650562,0.0201877678023295,2021-02-02
"467",233,0.0377279049434031,0.010166530978194,0.00251433273614161,0.0201211188397724,2021-02-03
"468",233.5,0.0376011536350995,0.0101120053323212,0.00250407257196368,0.0200526131035316,2021-02-03
"469",234,0.0374707573803848,0.0100547014865243,0.00249380525059659,0.0199822813154907,2021-02-04
"470",234.5,0.0373367779656804,0.00999710500629003,0.00248353140411286,0.0199101546848966,2021-02-04
"471",235,0.0371992781035484,0.00993922835831099,0.00247325165998542,0.0198362648817669,2021-02-05
"472",235.5,0.0370583213795888,0.00988108393396211,0.00246296664104177,0.0197606440103153,2021-02-05
"473",236,0.0369139721994345,0.00982268404523145,0.00245267696541969,0.0196833245824271,2021-02-06
"474",236.5,0.0367662957359043,0.00976404092076935,0.00244238324652421,0.0196043394912143,2021-02-06
"475",237,0.036615357876375,0.00969317950890819,0.00243208609298628,0.0195237219846806,2021-02-07
"476",237.5,0.036461225170428,0.00962200396716731,0.00242178610862264,0.0194415056395253,2021-02-07
"477",238,0.0363039647778286,0.00955079319983522,0.0024114838923973,0.019357724335113,2021-02-08
"478",238.5,0.0361436444168892,0.00950181153745489,0.00240118003838436,0.0192724122276368,2021-02-08
"479",239,0.0359803323132707,0.00944944659584632,0.00239087513573226,0.0191856037245015,2021-02-09
"480",239.5,0.0358140971492713,0.00937280532499412,0.00238056976862942,0.0190973334589504,2021-02-09
"481",240,0.0356450080136495,0.00929856834101904,0.00237026451627135,0.0190076362649604,2021-02-10
"482",240.5,0.0354731343520291,0.00922660932036831,0.00235663818932852,0.0189148862706788,2021-02-10
"483",241,0.0352985459179298,0.0091546837370123,0.00231917819957615,0.018808862058753,2021-02-11
"484",241.5,0.0351213127244634,0.00908963385614194,0.00228225142488344,0.0187017820746734,2021-02-11
"485",242,0.0349415049967384,0.00904208419444278,0.0022458523213999,0.0185936786590692,2021-02-12
"486",242.5,0.034759193125008,0.00895946034921179,0.00220997533263481,0.0184845842288214,2021-02-12
"487",243,0.0345744476185983,0.00889402350063199,0.00217461489250229,0.0183745312555503,2021-02-13
"488",243.5,0.0343873390606509,0.00882890727661659,0.00213976542825691,0.0182635522444539,2021-02-13
"489",244,0.0341979380637094,0.00876034330181041,0.00210542136332209,0.0181516797135157,2021-02-14
"490",244.5,0.034006315226181,0.00872166623095409,0.00207157712001345,0.0180389461730972,2021-02-14
"491",245,0.0338125410896993,0.00868978887950031,0.00203822712215945,0.0179253841059294,2021-02-15
"492",245.5,0.0336166860974143,0.00865770021450267,0.00200536579762144,0.0178110259475179,2021-02-15
"493",246,0.0334188205532318,0.00862503418640736,0.00197298758071537,0.0176959040669736,2021-02-16
"494",246.5,0.033219014582025,0.00858079435507949,0.0019410869145374,0.0175800507482812,2021-02-16
"495",247,0.0330173380908357,0.00853636669559306,0.00190965825319563,0.0174634981720157,2021-02-17
"496",247.5,0.032813860731084,0.00848840813948564,0.00187869606395015,0.0173462783975171,2021-02-17
"497",248,0.0326086518618005,0.00844697809721232,0.00184819482926355,0.017228423345532,2021-02-18
"498",248.5,0.032401780513896,0.00840391124018176,0.00181814904876419,0.0171099647813301,2021-02-18
"499",249,0.0321933153554795,0.00836688100213311,0.00178855324112428,0.0169909342983019,2021-02-19
"500",249.5,0.0319833246582336,0.00832965882891795,0.00175940194585498,0.0168713633020443,2021-02-19
"501",250,0.0317718762648584,0.00829225038553559,0.00173068972502068,0.0167512829949395,2021-02-20
"502",250.5,0.0315590375575866,0.00825411896049475,0.00170241116487448,0.0166307243612305,2021-02-20
"503",251,0.031344875427778,0.00820500498270101,0.00167456087741706,0.0165097181525975,2021-02-21
"504",251.5,0.0311294562465942,0.00814829952726406,0.00164713350188091,0.0163882948742376,2021-02-21
"505",252,0.0309128458367571,0.00810300445596999,0.00162012370614207,0.0162664847714496,2021-02-22
"506",252.5,0.0306951094453899,0.00805574305048772,0.00159352618806127,0.0161443178167256,2021-02-22
"507",253,0.0304763117179404,0.00800735743653523,0.00156733567675658,0.0160218236973485,2021-02-23
"508",253.5,0.030256516673184,0.00795428490553636,0.00154154693380943,0.0158990318034967,2021-02-23
"509",254,0.0300357876793013,0.00790350042807172,0.00151615475440599,0.0157759712168537,2021-02-24
"510",254.5,0.029814187431027,0.00785140398794127,0.00149115396841577,0.0156526706997214,2021-02-24
"511",255,0.0295917779278616,0.00777085083088913,0.00146653944140942,0.0155291586846355,2021-02-25
"512",255.5,0.02936862045334,0.00770785792213688,0.00144230607561734,0.0154054632644787,2021-02-25
"513",256,0.0291606436052561,0.00765486564759931,0.00141844881083118,0.0152895462080436,2021-02-26
"514",256.5,0.0289978895793647,0.00760188022443085,0.00139496262524982,0.0151964261023073,2021-02-26
"515",257,0.0288330395660706,0.0075561149355353,0.00137184253627165,0.0151024410511711,2021-02-27
"516",257.5,0.0286661593262685,0.00752322675919989,0.00134908360123482,0.0150076214637517,2021-02-27
"517",258,0.0284973146233908,0.00747138013642832,0.00132668091810719,0.014911997770749,2021-02-28
"518",258.5,0.0283265711802848,0.00740617456081927,0.0013046296261276,0.0148156004032062,2021-02-28
"519",259,0.028153994637005,0.00734786798586274,0.00128292490640003,0.0147184597717025,2021-03-01
"520",259.5,0.027979650509546,0.00730333461235879,0.0012615619824423,0.0146206062459941,2021-03-01
"521",260,0.0278036041495438,0.00724870271048975,0.0012405361206908,0.0145220701351173,2021-03-02
"522",260.5,0.0276259207049675,0.00720052671959722,0.00121984263096284,0.0144228816679652,2021-03-02
"523",261,0.0274466650818247,0.00715235287063634,0.00119947686687793,0.0143230709743513,2021-03-03
"524",261.5,0.0272659019068987,0.00710418753974888,0.00117943422623968,0.0142226680665692,2021-03-03
"525",262,0.0270836954915358,0.00705603701420628,0.00115971015137947,0.0141217028214576,2021-03-04
"526",262.5,0.0269001097964968,0.00700790749175009,0.00114030012946351,0.0140202049629802,2021-03-04
"527",263,0.0267152083978881,0.00695980507998628,0.00112119969276444,0.0139182040453263,2021-03-05
"528",263.5,0.0265290544541812,0.00690321409941762,0.00110240441889888,0.01381572943654,2021-03-05
"529",264,0.026341710674332,0.00686370556502022,0.00108390993103226,0.0137128103026821,2021-03-06
"530",264.5,0.0261532392870061,0.00681243575480472,0.00106248178550634,0.0136078605362562,2021-03-06
"531",265,0.0259637020109175,0.00675483045238316,0.00104127846999215,0.0135024902404548,2021-03-07
"532",265.5,0.0257731600262816,0.00669746433827193,0.00102048369919481,0.0133968218627382,2021-03-07
"533",266,0.025581673947389,0.00664997025429752,0.0010000901834562,0.0132908820654226,2021-03-08
"534",266.5,0.0253893037962962,0.00658876484689735,0.000980090739774655,0.0131846972680354,2021-03-08
"535",267,0.0251961089776359,0.00653952816252709,0.000960478291224578,0.0130782936344302,2021-03-09
"536",267.5,0.0250021482545414,0.00649032559229376,0.000941245866331324,0.0129716970604364,2021-03-09
"537",268,0.0248074797256832,0.00644116444045167,0.000922386598403995,0.0128649331620436,2021-03-10
"538",268.5,0.024612160803411,0.00639205189073939,0.000903893724828851,0.0127580272641199,2021-03-10
"539",269,0.0244162481929946,0.00634299500561309,0.000885760586325807,0.0126510043896602,2021-03-11
"540",269.5,0.0242197978729556,0.00629010709623791,0.000867980626170472,0.012543889249563,2021-03-11
"541",270,0.0240228650764807,0.00622908344970018,0.000850547389384043,0.0124367062329324,2021-03-12
"542",270.5,0.0238255042739052,0.00616837618565333,0.000833454521893298,0.0123294793978992,2021-03-12
"543",271,0.0236526153410425,0.0061079900201968,0.000816695769662837,0.0122346555553527,2021-03-13
"544",271.5,0.0235526301138714,0.00604267745321093,0.000800264977801638,0.0121764475458365,2021-03-13
"545",272,0.0234509335184047,0.00598790053631923,0.00078415608964589,0.0121175448040253,2021-03-14
"546",272.5,0.0233475622744735,0.00593200597162055,0.000768363145820017,0.0120579627101468,2021-03-14
"547",273,0.0232425533459965,0.00586060463587815,0.000752880283277695,0.0119977168146371,2021-03-15
"548",273.5,0.0231359439170838,0.00579842826157758,0.000737701734324614,0.0119368228257042,2021-03-15
"549",274,0.0230277713683494,0.005743895755344,0.000722821825624626,0.011875296596987,2021-03-16
"550",274.5,0.0229180732534517,0.00569198440672428,0.000708234977190902,0.0118131541153213,2021-03-16
"551",275,0.0228068872758831,0.00563375169498231,0.000693935701363591,0.0117504114886233,2021-03-17
"552",275.5,0.0226942512660248,0.00557721440264966,0.000679918601775452,0.0116870849339001,2021-03-17
"553",276,0.022580203158488,0.00550844915136371,0.000666178372306836,0.0116231907653974,2021-03-18
"554",276.5,0.0224647809697555,0.00545939141136799,0.000652709796031353,0.0115587453828934,2021-03-18
"555",277,0.0223480227761432,0.00541536897444071,0.000639507744153478,0.0114937652601483,2021-03-19
"556",277.5,0.0222299666920943,0.00537687814401075,0.000626567174939301,0.0114282669335168,2021-03-19
"557",278,0.0221106508488231,0.0053314222447801,0.000613883132641572,0.0113622669907324,2021-03-20
"558",278.5,0.0219901133733223,0.00527228806885059,0.000601450746420128,0.0112957820598712,2021-03-20
"559",279,0.0218683923677451,0.00521366727944667,0.000589265229258743,0.0112288287985019,2021-03-21
"560",279.5,0.0217455258891775,0.0051702779210824,0.000577321876879376,0.0111614238830284,2021-03-21
"561",280,0.0216230338014125,0.00513412903034884,0.000565616066654776,0.0110943249340336,2021-03-22
"562",280.5,0.0215738367946453,0.00510093005943436,0.000554143256520305,0.0110639900255828,2021-03-22
"563",281,0.0215228886218843,0.00506780934275803,0.000542898983885849,0.0110328938028851,2021-03-23
"564",281.5,0.0214702090316535,0.00503476907686861,0.000531878864548586,0.011001043948101,2021-03-23
"565",282,0.0214158182393417,0.00499249357844349,0.000521078591607399,0.0109684484154745,2021-03-24
"566",282.5,0.0213597369123747,0.00494514093358971,0.000510493934379617,0.0109351154233771,2021-03-24
"567",283,0.021301986155222,0.00489394651113629,0.00050012073732078,0.0109010534462714,2021-03-25
"568",283.5,0.0212425874942549,0.00484318569892897,0.000489954918948058,0.0108662712066015,2021-03-25
"569",284,0.021181562862471,0.00478073117169873,0.000479992470767919,0.0108307776666194,2021-03-26
"570",284.5,0.0211189345841038,0.00472032668346037,0.000470229456208618,0.0107945820201562,2021-03-26
"571",285,0.0210547253591327,0.00466892815166742,0.00046066200955804,0.0107576936843454,2021-03-27
"572",285.5,0.0209889582477089,0.00463088894824162,0.00045128633490738,0.0107201222913081,2021-03-27
"573",286,0.0209216566545152,0.00459133807053016,0.000442098705101153,0.0106818776798082,2021-03-28
"574",286.5,0.0208528443130738,0.00454764123964326,0.000433095460693946,0.0106429698868839,2021-03-28
"575",287,0.0207825452700189,0.0045118808418913,0.000424273008914339,0.0106034091394666,2021-03-29
"576",287.5,0.0207107838693486,0.00447628278843277,0.00041562782263637,0.0105632058459925,2021-03-29
"577",288,0.0206375847366729,0.00442941241943869,0.0004071564393589,0.0105223705880159,2021-03-30
"578",288.5,0.0205629727634707,0.0043812612313885,0.000398855460193208,0.0104809141118319,2021-03-30
"579",289,0.0204869730913717,0.00433353271799298,0.000390721548859125,0.0104388473201154,2021-03-31
"580",289.5,0.020409611096478,0.00428622552661535,0.000382751430689986,0.010396181263584,2021-03-31
"581",290,0.0203309123737381,0.00424304853412421,0.000374941891646666,0.0103529271326924,2021-04-01
"582",290.5,0.0202509027213876,0.00420954192520227,0.000367289777340935,0.0103090962493643,2021-04-01
"583",291,0.0201696081254708,0.00417620868269505,0.000359791992068359,0.0102647000587696,2021-04-02
"584",291.5,0.0200870547444546,0.00413370767416406,0.00035244549785094,0.0102197501211528,2021-04-02
