"","time","top","med","bottom","pseudo_med","date"
"1",0,0.0264675856003473,0.020964894023087,0.0155228283567561,0.0209952069785517,2020-06-10
"2",0.5,0.0265278030411184,0.0210372696807911,0.0155841978654901,0.0210560004533042,2020-06-10
"3",1,0.0265864544048163,0.0210725790400733,0.0156438794635031,0.0211151669341597,2020-06-11
"4",1.5,0.0266435927957444,0.0211399088369052,0.0157019372743787,0.0211727650350615,2020-06-11
"5",2,0.0267702852847944,0.0212016540835724,0.0157584326645135,0.021264358974654,2020-06-12
"6",2.5,0.0269946068740785,0.0212817151597094,0.0158134243658369,0.0214040156199577,2020-06-12
"7",3,0.0272087133739893,0.0213686605516265,0.0158669685930211,0.0215378409835052,2020-06-13
"8",3.5,0.0274129399721652,0.0214148608825254,0.0159191191554319,0.0216660295637986,2020-06-13
"9",4,0.0276076248660801,0.0214514728359694,0.0159699275640533,0.0217887762150667,2020-06-14
"10",4.5,0.0277931071968686,0.0215395576723642,0.0160194431336149,0.0219062751652418,2020-06-14
"11",5,0.027969725258298,0.0216059807644378,0.0160677130801366,0.0220187191692173,2020-06-15
"12",5.5,0.0281378149524523,0.0216841912935203,0.0161147826140967,0.0221262987832745,2020-06-15
"13",6,0.0283432339990045,0.0217884272430966,0.0161606950294196,0.0222519645142121,2020-06-16
"14",6.5,0.0286478020116021,0.0218510563234177,0.0162054917884736,0.0224266469000379,2020-06-16
"15",7,0.0289364811323312,0.0219169935335094,0.0162492126032543,0.0225928468677928,2020-06-17
"16",7.5,0.0292101334472306,0.0219679316267615,0.016291895512929,0.0227510144800798,2020-06-17
"17",8,0.029469573912534,0.0220171335844626,0.0163335769579028,0.0229015754352184,2020-06-18
"18",8.5,0.029715572934858,0.0220998488574307,0.0163742918505647,0.0230449323927114,2020-06-18
"19",9,0.0299488588100978,0.0221615142273524,0.0164140736428624,0.0231814662264801,2020-06-19
"20",9.5,0.0301701200287689,0.0221813070807651,0.0164529543908473,0.0233115372098081,2020-06-19
"21",10,0.0303800074551076,0.0222229952686918,0.016490964816328,0.0234354861357178,2020-06-20
"22",10.5,0.0305791363868445,0.0222511247340789,0.0165281343657603,0.0235536353763024,2020-06-20
"23",11,0.0307680885021853,0.0223024184499619,0.0165644912664999,0.0236662898843426,2020-06-21
"24",11.5,0.0309474137001754,0.0223342601305396,0.0166000625805342,0.0237737381403548,2020-06-21
"25",12,0.0311176318402878,0.0223782408934189,0.016634874255808,0.0238762530480479,2020-06-22
"26",12.5,0.031279234386752,0.0224222104249747,0.0166689511752515,0.0239740927810018,2020-06-22
"27",13,0.0314326859628413,0.0224550257316175,0.0167023172036125,0.0240675015832269,2020-06-23
"28",13.5,0.0315784258200491,0.0224865991935011,0.0167349952321923,0.0241567105261207,2020-06-23
"29",14,0.0317168692268155,0.022516971579226,0.0167670072215805,0.024241938224198,2020-06-24
"30",14.5,0.0318484087812087,0.0225461827729608,0.0167983742424763,0.0243233915118425,2020-06-24
"31",15,0.031973415651727,0.0225742717555072,0.0168291165146847,0.0244012660832059,2020-06-25
"32",15.5,0.0320922407501574,0.0226062863025735,0.0168592534443681,0.0244757470972627,2020-06-25
"33",16,0.0322052158402101,0.0226345316394653,0.0168888036596321,0.0245470097499211,2020-06-26
"34",16.5,0.0323126545854483,0.0226538438130446,0.0169177850445211,0.0246152198149847,2020-06-26
"35",17,0.032414853539836,0.0226761152675121,0.0169462147714937,0.0246805341556649,2020-06-27
"36",17.5,0.032512093084046,0.0226986111599054,0.0169741093324476,0.0247431012082468,2020-06-27
"37",18,0.0326046383104999,0.0227223620387645,0.0170014845683581,0.024803061439429,2020-06-28
"38",18.5,0.0326927398599466,0.0227470849452659,0.0170283556975936,0.0248605477787701,2020-06-28
"39",19,0.0327766347122323,0.0227710589832141,0.0170547373429663,0.0249156860275993,2020-06-29
"40",19.5,0.0328565469337729,0.0227902874409918,0.0170806435575762,0.0249685952456746,2020-06-29
"41",20,0.0329326883840977,0.0228120595657552,0.0171060878495011,0.0250193881167994,2020-06-30
"42",20.5,0.0330052593837065,0.0228422894769961,0.0171310832053861,0.0250681712945463,2020-06-30
"43",21,0.0330744493453595,0.0228744475394026,0.0171556421129808,0.0251150457291701,2020-07-01
"44",21.5,0.0331404373708004,0.0228998098341075,0.0171797765826719,0.0251601069767361,2020-07-01
"45",22,0.0332033928148082,0.0229245830266504,0.0172034981680563,0.0252034454914322,2020-07-02
"46",22.5,0.0332634758183648,0.0229498530630001,0.017226817985598,0.0252451469019814,2020-07-02
"47",23,0.0333208378126306,0.0229805328162338,0.0172497467334093,0.0252852922730199,2020-07-03
"48",23.5,0.0333756219953265,0.0230087272287908,0.0172722947091966,0.0253239583522615,2020-07-03
"49",24,0.0334279637810334,0.0230235085284526,0.0172944718274069,0.0253612178042201,2020-07-04
"50",24.5,0.0334779912268377,0.0230404135517647,0.0173162876356127,0.0253971394312252,2020-07-04
"51",25,0.0335258254346722,0.0230621171492128,0.0173377513301679,0.02543178838242,2020-07-05
"52",25.5,0.0335715809316295,0.0230871455980791,0.0173588717711678,0.0254652263513987,2020-07-05
"53",26,0.0336153660294535,0.0231123081881129,0.0173796574967456,0.0254975117630996,2020-07-06
"54",26.5,0.0336572831643494,0.02313699629725,0.0174001167367333,0.0255286999505413,2020-07-06
"55",27,0.0336974292181904,0.0231612172358831,0.0174202574257165,0.0255588433219534,2020-07-07
"56",27.5,0.0337358958221386,0.0231833627317412,0.0174400872155111,0.0255879915188248,2020-07-07
"57",28,0.033772769643645,0.0232156010806816,0.0174596134870859,0.0256161915653655,2020-07-08
"58",28.5,0.0338081326577368,0.0232467677696507,0.017478843361958,0.0256434880098474,2020-07-08
"59",29,0.033842062403454,0.0232727056711927,0.0174977837130823,0.0256699230582682,2020-07-09
"60",29.5,0.0338746322262472,0.0232931829307206,0.0175164411752611,0.0256955367007541,2020-07-09
"61",30,0.0339059115071068,0.0233132838345003,0.0175348221550914,0.0257203668310991,2020-07-10
"62",30.5,0.033935965879149,0.0233239366957239,0.017552932840474,0.0257444493598115,2020-07-10
"63",31,0.0339648574323457,0.0233340709164881,0.0175707792097016,0.0257678183210236,2020-07-11
"64",31.5,0.033992644907048,0.0233440367757941,0.0175883670401468,0.0257905059735974,2020-07-11
"65",32,0.0340193838769166,0.0233543662715978,0.0176057019165663,0.0258125428967415,2020-07-12
"66",32.5,0.0340451269218393,0.0233698569883755,0.017622789239039,0.0258339580804391,2020-07-12
"67",33,0.0340699237913836,0.0233850790088117,0.0176396342305549,0.0258547790109692,2020-07-13
"68",33.5,0.0340938215593032,0.0234000370623225,0.0176562419442699,0.0258750317517866,2020-07-13
"69",34,0.0341168647695877,0.0234147357892832,0.017672617270442,0.0258947410200148,2020-07-14
"70",34.5,0.034139095574519,0.0234291797431367,0.0176887649430616,0.0259139302587903,2020-07-14
"71",35,0.0341605538651722,0.0234410358976886,0.0177046895461926,0.0259326217056824,2020-07-15
"72",35.5,0.0341812773947738,0.0234525676556929,0.0177203955200335,0.0259508364574036,2020-07-15
"73",36,0.0342013018953099,0.0234693041635073,0.0177358871667145,0.0259685945310122,2020-07-16
"74",36.5,0.0342206611877523,0.0234844959653957,0.01775116865584,0.0259859149217962,2020-07-16
"75",37,0.0342393872862534,0.0234977314508565,0.0177662440297889,0.0260028156580212,2020-07-17
"76",37.5,0.0342575104966389,0.0235107377670601,0.017772324926886,0.0260149177117624,2020-07-17
"77",38,0.0342750595095117,0.0235235189119149,0.0177759052684677,0.0260254823889897,2020-07-18
"78",38.5,0.0342920614882611,0.0235360788107816,0.0177794468295532,0.0260357541589072,2020-07-18
"79",39,0.0343085421522572,0.0235484213180124,0.0177829502916618,0.0260457462219595,2020-07-19
"80",39.5,0.0343245258554929,0.0235605502184413,0.0177864163122664,0.0260554710838796,2020-07-19
"81",40,0.0343400356609239,0.0235724692288288,0.0177898455259837,0.0260649405934538,2020-07-20
"82",40.5,0.0343550934107418,0.0235841819992636,0.0177932385457008,0.0260741659782213,2020-07-20
"83",41,0.0343697197928033,0.0235941142854964,0.0177965959636409,0.0260831578782221,2020-07-21
"84",41.5,0.0343839344034248,0.0236007932443329,0.0177999183523726,0.0260919263778987,2020-07-21
"85",42,0.0343977558067429,0.0236073203347062,0.0178032062657655,0.0261004810362542,2020-07-22
"86",42.5,0.0344112015908286,0.0236176172517662,0.0178064602398939,0.0261088309153612,2020-07-22
"87",43,0.0344242884207314,0.0236293108522983,0.0178096807938937,0.0261169846073126,2020-07-23
"88",43.5,0.0344370320886236,0.0236379337046786,0.0178128684307725,0.0261249502596981,2020-07-23
"89",44,0.0344494475612019,0.0236440646079277,0.0178160236381774,0.0261327355996896,2020-07-24
"90",44.5,0.0344615490244972,0.0236554802834776,0.0178191468891214,0.0261403479568093,2020-07-24
"91",45,0.0344733499262346,0.0236722969350265,0.0178222386426719,0.0261477942844533,2020-07-25
"92",45.5,0.0344848630158769,0.0236859644330948,0.0178252993446024,0.0261550811802396,2020-07-25
"93",46,0.0344961003824795,0.0236969509277157,0.0178283294280095,0.0261622149052445,2020-07-26
"94",46.5,0.0345070734904763,0.0237055554832262,0.0178313293138976,0.0261692014021869,2020-07-26
"95",47,0.0345177932135083,0.0237103863344652,0.0178342994117326,0.0261760463126205,2020-07-27
"96",47.5,0.0345282698664051,0.0237151248911983,0.0178372401199668,0.026182754993186,2020-07-27
"97",48,0.0345385132354172,0.0237197732594172,0.0178401518265352,0.0261893325309762,2020-07-28
"98",48.5,0.034548532606797,0.0237243334829807,0.0178430349093269,0.026195783758062,2020-07-28
"99",49,0.0345583367938184,0.0237288075459227,0.017845889736631,0.0262021132652247,2020-07-29
"100",49.5,0.0345679341623196,0.02374135225576,0.0178487166675591,0.0262083254149393,2020-07-29
"101",50,0.0345773326548514,0.0237542840288626,0.0178515160524465,0.0262144243536489,2020-07-30
"102",50.5,0.0345865398135058,0.0237609641933581,0.0178542882332315,0.0262204140233687,2020-07-30
"103",51,0.0345955628014987,0.0237649571010942,0.0178570335438157,0.0262262981726572,2020-07-31
"104",51.5,0.0346044084235735,0.0237753205583477,0.017859752310405,0.0262320803669892,2020-07-31
"105",52,0.0346130831452907,0.0237811073237623,0.017862444851833,0.0262377639985618,2020-08-01
"106",52.5,0.0346215931112653,0.0237855949889021,0.0178651114798684,0.0262433522955668,2020-08-01
"107",53,0.0346299441624077,0.0237864863620402,0.0178677524995054,0.0262488483309566,2020-08-02
"108",53.5,0.0346381418522247,0.0237873380793683,0.01787036820924,0.0262542550307323,2020-08-02
"109",54,0.0346461914622304,0.0237881519439628,0.0178729589013314,0.0262595751817809,2020-08-03
"110",54.5,0.0346540980165168,0.0237889296753487,0.017875524862051,0.0262648114392839,2020-08-03
"111",55,0.0346618662955295,0.0237951020156328,0.0178780663719176,0.0262699663337236,2020-08-04
"112",55.5,0.0346695008490923,0.0238022802604672,0.0178805837059212,0.0262750422775067,2020-08-04
"113",56,0.0346770060087215,0.0238036602733752,0.0178830771337352,0.0262800415712284,2020-08-05
"114",56.5,0.0346843858992692,0.0238045309877888,0.0178855469199184,0.0262849664095938,2020-08-05
"115",57,0.0346916444499321,0.023805363431604,0.0178879933241057,0.0262898188870189,2020-08-06
"116",57.5,0.0346987854046598,0.0238061592953661,0.017889097866956,0.0262939416358079,2020-08-06
"117",58,0.0347058123319972,0.0238069201949457,0.0178892879436397,0.0262975501378184,2020-08-07
"118",58.5,0.0347127286343903,0.023808137865461,0.0178894676690182,0.0263010981517043,2020-08-07
"119",59,0.0347195375569854,0.0238106224754848,0.0178896375982456,0.0263045875776155,2020-08-08
"120",59.5,0.034726242195949,0.0238130347135069,0.0178897982573459,0.0263080202266475,2020-08-08
"121",60,0.0347328455063364,0.0238153767396885,0.0178899501446925,0.0263113978255145,2020-08-09
"122",60.5,0.0347393503095304,0.0238176506480407,0.0178900937324163,0.0263147220209733,2020-08-09
"123",61,0.0347457593002768,0.0238216626050434,0.0178902294677455,0.0263179943840111,2020-08-10
"124",61.5,0.034752075053337,0.023829663218598,0.0178903577742807,0.0263212164138089,2020-08-10
"125",62,0.0347583000297794,0.0238370168679625,0.0178904790532069,0.0263243895414931,2020-08-11
"126",62.5,0.0347644365829282,0.0238390421071164,0.0178905936844469,0.0263275151336876,2020-08-11
"127",63,0.0347704869639906,0.0238450767718794,0.0178907020277576,0.0263305944958741,2020-08-12
"128",63.5,0.0347764533273771,0.0238513378382633,0.0178908044237718,0.0263336288755745,2020-08-12
"129",64,0.0347823377357342,0.0238575248087911,0.0178909011949893,0.0263366194653617,2020-08-13
"130",64.5,0.0347881421647033,0.0238613411035395,0.0178909926467173,0.0263395674057103,2020-08-13
"131",65,0.0347938685074229,0.023865295456838,0.0178910790679651,0.026342473787694,2020-08-14
"132",65.5,0.0347995185787853,0.0238721299201004,0.0178911607322935,0.0263453396555394,2020-08-14
"133",66,0.0348050941194642,0.0238789616655453,0.0178912378986211,0.0263481660090427,2020-08-15
"134",66.5,0.0348105967997232,0.0238857910052045,0.0178913108119908,0.026350953805857,2020-08-15
"135",67,0.0348160282230191,0.0238912283941191,0.0178913797042969,0.026353703963658,2020-08-16
"136",67.5,0.0348213899294101,0.0238914454297115,0.0178914447949754,0.0263564173621927,2020-08-16
"137",68,0.0348266833987796,0.0238926264829194,0.0178915062916595,0.0263590948452196,2020-08-17
"138",68.5,0.0348319100538864,0.0238940494815541,0.0178915643908018,0.0263617372223441,2020-08-17
"139",69,0.0348370712632501,0.0238954316822823,0.0178916192782636,0.0263643452707569,2020-08-18
"140",69.5,0.0348421683438807,0.0238967742789392,0.0178916711298759,0.0263669197368783,2020-08-18
"141",70,0.0348472025638616,0.0238980784294231,0.0178917201119696,0.0263694613379156,2020-08-19
"142",70.5,0.034852175144793,0.0239022497507456,0.0178917663818799,0.0263719707633364,2020-08-19
"143",71,0.0348570872641044,0.0239161293179943,0.0178918100884236,0.026374448676264,2020-08-20
"144",71.5,0.0348619400572425,0.0239174379118516,0.0178918513723526,0.0263768957147975,2020-08-20
"145",72,0.0348667346197411,0.0239175166546071,0.0178918903667833,0.0263793124932622,2020-08-21
"146",72.5,0.0348714720091813,0.0239175916722633,0.0178919271976038,0.0263816996033925,2020-08-21
"147",73,0.0348761532470452,0.0239176631411835,0.0178919619838601,0.0263840576154527,2020-08-22
"148",73.5,0.034880779320471,0.0239177312293796,0.0178919948381221,0.0263863870792966,2020-08-22
"149",74,0.0348853511839144,0.0239177960969069,0.0178920258668301,0.0263886885253722,2020-08-23
"150",74.5,0.0348898697607204,0.0239178578962406,0.0178920551706238,0.0263909624656721,2020-08-23
"151",75,0.0348943359446124,0.0239179167726349,0.0178920828446536,0.026393209394633,2020-08-24
"152",75.5,0.034898750601101,0.0239179728644646,0.0178921089788754,0.0263954297899882,2020-08-24
"153",76,0.0349031145688178,0.0239180263035507,0.0178921336583305,0.0263976241135742,2020-08-25
"154",76.5,0.034907428660779,0.023918077215471,0.0178921569634102,0.0263997928120946,2020-08-25
"155",77,0.034911693665581,0.0239181257198553,0.0178921789701067,0.0264019363178439,2020-08-26
"156",77.5,0.0349159103485335,0.0239226069276043,0.0178921997502504,0.0264040550493919,2020-08-26
"157",78,0.0349200794527316,0.0239339766177633,0.0178922193717349,0.0264061494122333,2020-08-27
"158",78.5,0.0349242017000723,0.0239340834519373,0.0178922378987303,0.0264082197994013,2020-08-27
"159",79,0.0349282777922166,0.0239341857794325,0.0178922553918846,0.0264102665920506,2020-08-28
"160",79.5,0.034932308411501,0.0239342837893388,0.0178922719085147,0.0264122901600079,2020-08-28
"161",80,0.0349362942218014,0.02393437766287,0.0178922875027871,0.0264142908622943,2020-08-29
"162",80.5,0.0349402358693513,0.0239344675736882,0.0178923022258894,0.0264162690476203,2020-08-29
"163",81,0.0349441339835175,0.0239351119560221,0.0178923161261916,0.0264182250548546,2020-08-30
"164",81.5,0.0349479891775348,0.0239358345027275,0.0178923292494003,0.0264201592134675,2020-08-30
"165",82,0.0349518020492026,0.0239365360529312,0.0178923416387029,0.0264220718439527,2020-08-31
"166",82.5,0.0349555731815454,0.023937217228001,0.0178923533349056,0.0264239632582255,2020-08-31
"167",83,0.0349593031434386,0.0239378786305371,0.0178923643765629,0.0264258337600008,2020-09-01
"168",83.5,0.0349629924902023,0.0239385208449498,0.017892374800101,0.0264276836451516,2020-09-01
"169",84,0.0349666417641639,0.0239391444380192,0.0178923846399336,0.0264295132020487,2020-09-02
"170",84.5,0.0349702514951926,0.0239397499594382,0.0178923939285722,0.0264313227118824,2020-09-02
"171",85,0.0349738222012049,0.0239403379423373,0.0178924026967306,0.0264331124489677,2020-09-03
"172",85.5,0.034977354388646,0.0239409089037941,0.0178924109734226,0.0264348826810343,2020-09-03
"173",86,0.0349808485529452,0.0239414633453267,0.017892418786056,0.0264366336695006,2020-09-04
"174",86.5,0.0349843051789489,0.0239420017533712,0.0178924261605201,0.0264383656697345,2020-09-04
"175",87,0.0349877247413309,0.0239425245997447,0.0178924331212695,0.0264400789313002,2020-09-05
"176",87.5,0.0349911077049829,0.0239430323420943,0.0178924396914026,0.0264417736981928,2020-09-05
"177",88,0.0349944545253843,0.0239435254243311,0.0178924458927364,0.0264434502090604,2020-09-06
"178",88.5,0.0349977656489543,0.0239440042770517,0.0178924517458767,0.0264451086974155,2020-09-06
"179",89,0.0350010415133853,0.0239444693179456,0.0178924572702853,0.0264467493918353,2020-09-07
"180",89.5,0.0350042825479613,0.0239449209521909,0.0178924624843424,0.0264483725161518,2020-09-07
"181",90,0.0350074891738585,0.0239453595728368,0.0178924674054066,0.0264499782896326,2020-09-08
"182",90.5,0.0350106618044327,0.0239462827035002,0.0178924720498713,0.026451566927152,2020-09-08
"183",91,0.0350138008454919,0.0239517235172383,0.0178924764332177,0.0264531386393548,2020-09-09
"184",91.5,0.0350169066955551,0.0239571519882648,0.0178924805700652,0.0264546936328102,2020-09-09
"185",92,0.0350199797460997,0.0239625681956066,0.0178924844742193,0.0264562321101595,2020-09-10
"186",92.5,0.0350230203817952,0.0239679722156761,0.0178924881587165,0.0264577542702558,2020-09-10
"187",93,0.0350260289807274,0.0239733641223793,0.0178924916358664,0.0264592603082969,2020-09-11
"188",93.5,0.0350290059146106,0.0239794765140928,0.0178924949172926,0.0264607504159516,2020-09-11
"189",94,0.0350319515489902,0.0239892711678513,0.0178924980139704,0.0264622247814803,2020-09-12
"190",94.5,0.0350348662434354,0.0239990228400473,0.0178925009362624,0.0264636835898489,2020-09-12
"191",95,0.0350377503517234,0.0240087317787893,0.0178925036939532,0.0264651270228383,2020-09-13
"192",95.5,0.0350406042220141,0.0240147416609815,0.0178925062962806,0.0264665552591473,2020-09-13
"193",96,0.0350434281970174,0.0240190681116692,0.0178925087519665,0.026467968474492,2020-09-14
"194",96.5,0.0350462226141523,0.0240233632509218,0.0178925110692457,0.026469366841699,2020-09-14
"195",97,0.0350489878056991,0.0240276273036711,0.0178925132558923,0.0264707505307957,2020-09-15
"196",97.5,0.0350517240989443,0.0240318604931419,0.0178925153192457,0.026472119709095,2020-09-15
"197",98,0.0350544318163193,0.024036063040873,0.017892517266235,0.0264734745412771,2020-09-16
"198",98.5,0.0350571112755323,0.0240402351667366,0.0178925191034013,0.0264748151894668,2020-09-16
"199",99,0.0350597627896951,0.0240443770889586,0.0178925208369196,0.0264761418133073,2020-09-17
"200",99.5,0.0350623866674437,0.0240495814718351,0.0178925224726192,0.0264774545700314,2020-09-17
"201",100,0.0350649832130537,0.0240594177574118,0.0178925240160028,0.0264787536145283,2020-09-18
"202",100.5,0.0350675527265512,0.0240665413555514,0.0178925254722649,0.0264800390994081,2020-09-18
"203",101,0.0350700955038183,0.0240709353828749,0.0178925268463087,0.0264813111750635,2020-09-19
"204",101.5,0.0350726118366942,0.0240749598830508,0.0178925281427626,0.0264825699897284,2020-09-19
"205",102,0.0350751020130726,0.0240789545323115,0.0178925293659954,0.026483815689534,2020-09-20
"206",102.5,0.0350775663169944,0.0240828235042607,0.0178925305201309,0.0264850484185626,2020-09-20
"207",103,0.0350800050287367,0.0240828624254497,0.0178925316090613,0.026486268318899,2020-09-21
"208",103.5,0.0350824184248985,0.0240829000180078,0.0178925326364606,0.0264874755306795,2020-09-21
"209",104,0.0350848067784825,0.0240829363285154,0.0178925336057963,0.0264886701921394,2020-09-22
"210",104.5,0.0350871703589742,0.0240829714018733,0.0178925345203412,0.0264898524396577,2020-09-22
"211",105,0.035089509432417,0.0240830052813648,0.0178925353831843,0.0264910224078007,2020-09-23
"212",105.5,0.0350918242614851,0.0240830380087156,0.0178925361972411,0.0264921802293631,2020-09-23
"213",106,0.0350941151055537,0.0240830696241516,0.0178925369652631,0.0264933260354084,2020-09-24
"214",106.5,0.0350963822207654,0.024083100166454,0.0178925376898472,0.0264944599553063,2020-09-24
"215",107,0.0350986258600958,0.0240831296730131,0.0178925383734442,0.02649558211677,2020-09-25
"216",107.5,0.0351008462734152,0.0240831581798794,0.0178925390183671,0.0264966926458912,2020-09-25
"217",108,0.0351030437075488,0.024083185721813,0.0178925396267988,0.0264977916671738,2020-09-26
"218",108.5,0.0351052184063343,0.0240832123323311,0.0178925402007992,0.0264988793035668,2020-09-26
"219",109,0.035107370610678,0.0240832380437538,0.0178925407423125,0.0264999556764953,2020-09-27
"220",109.5,0.0351095005586087,0.024083262887248,0.0178925412531733,0.026501020905891,2020-09-27
"221",110,0.035111608485329,0.0240832868928697,0.0178925417351129,0.0265020751102209,2020-09-28
"222",110.5,0.0351136946232661,0.024083310089605,0.0178925421897651,0.0265031184065156,2020-09-28
"223",111,0.0351157592021203,0.0240833325054089,0.0178925426186716,0.0265041509103959,2020-09-29
"224",111.5,0.0351178024489115,0.0240833541672432,0.0178925430232873,0.0265051727360994,2020-09-29
"225",112,0.0351198245880248,0.0240833751011129,0.0178925434049852,0.026506183996505,2020-09-30
"226",112.5,0.0351218258412546,0.0240833953321012,0.0178925437650606,0.0265071848031576,2020-09-30
"227",113,0.0351238064278468,0.0240834148844027,0.0178925441047361,0.0265081752662915,2020-10-01
"228",113.5,0.0351257665645402,0.0240834337813561,0.0178925444251652,0.0265091554948527,2020-10-01
"229",114,0.0351277064656065,0.0240834520454756,0.0178925447274363,0.0265101255965214,2020-10-02
"230",114.5,0.0351296263428889,0.0240834696984802,0.0178925450125764,0.0265110856777327,2020-10-02
"231",115,0.03513152640584,0.0240834867613232,0.0178925452815547,0.0265120358436974,2020-10-03
"232",115.5,0.0351334068615581,0.0240835032542197,0.0178925455352856,0.0265129761984218,2020-10-03
"233",116,0.0351352679148226,0.0240835191966733,0.0178925457746317,0.0265139068447272,2020-10-04
"234",116.5,0.0351371097681291,0.0240835346075021,0.0178925460004073,0.0265148278842682,2020-10-04
"235",117,0.0351389326217222,0.0240835495048634,0.0178925462133805,0.0265157394175513,2020-10-05
"236",117.5,0.0351490172217696,0.0240835639062773,0.0178925464142758,0.0265207818180227,2020-10-05
"237",118,0.0351673681086998,0.02408357782865,0.0178925466037772,0.0265299573562385,2020-10-06
"238",118.5,0.0351856867327504,0.024083591288296,0.0178925467825298,0.0265391167576401,2020-10-06
"239",119,0.0352039731119327,0.0240836043009592,0.0178925469511423,0.0265482600315375,2020-10-07
"240",119.5,0.0352222272642421,0.0240836168818332,0.017892547110189,0.0265573871872155,2020-10-07
"241",120,0.0352404492076672,0.0240836290455819,0.0178925472602117,0.0265664982339395,2020-10-08
"242",120.5,0.0352586389601997,0.0240836408063574,0.0178925474017217,0.0265755931809607,2020-10-08
"243",121,0.0352767965398427,0.0240836521778193,0.0178925475352013,0.026584672037522,2020-10-09
"244",121.5,0.0352949219646194,0.0240836631731518,0.0178925476611055,0.0265937348128624,2020-10-09
"245",122,0.0353130152525805,0.0240836738050811,0.0178925477798636,0.0266027815162221,2020-10-10
"246",122.5,0.0353310764218122,0.0240836840858911,0.0178925478918806,0.0266118121568464,2020-10-10
"247",123,0.0353491054904425,0.0240836940274402,0.0178925479975386,0.0266208267439906,2020-10-11
"248",123.5,0.0353671024766485,0.0240837036411754,0.0178925480971982,0.0266298252869233,2020-10-11
"249",124,0.0353850673986622,0.0240837129381477,0.0178925481911993,0.0266388077949308,2020-10-12
"250",124.5,0.0354030002747768,0.0240837219290261,0.0178925482798629,0.0266477742773199,2020-10-12
"251",125,0.0354209011233517,0.0240837306241108,0.0178925483634916,0.0266567247434217,2020-10-13
"252",125.5,0.0354387699628186,0.0240837390333466,0.017892548442371,0.0266656592025948,2020-10-13
"253",126,0.0354566068116855,0.0240837471663356,0.0178925485167703,0.0266745776642279,2020-10-14
"254",126.5,0.0354744116885423,0.024083755032349,0.0178925485869439,0.0266834801377431,2020-10-14
"255",127,0.0354921846120646,0.0240837626403391,0.0178925486531313,0.0266923666325979,2020-10-15
"256",127.5,0.0355099256010181,0.0240837699989505,0.0178925487155587,0.0267012371582884,2020-10-15
"257",128,0.0355276346742625,0.0240837771165308,0.0178925487744395,0.026710091724351,2020-10-16
"258",128.5,0.0355453118507549,0.0240837840011416,0.0178925488299749,0.0267189303403649,2020-10-16
"259",129,0.0355629571495537,0.0240837906605678,0.0178925488823548,0.0267277530159542,2020-10-17
"260",129.5,0.0355805705898216,0.0240837971023279,0.0178925489317582,0.0267365597607899,2020-10-17
"261",130,0.0356168971240462,0.0240838033336835,0.0178925489783542,0.0267547230512002,2020-10-18
"262",130.5,0.0356552196267061,0.0240838093616476,0.017892549022302,0.026773884324504,2020-10-18
"263",131,0.0356934799175,0.0240838151929941,0.0178925490637521,0.0267930144906261,2020-10-19
"264",131.5,0.035731677905063,0.0240838208342659,0.0178925491028461,0.0268121135039545,2020-10-19
"265",132,0.0357698134990573,0.0240838262917827,0.017892549139718,0.0268311813193876,2020-10-20
"266",132.5,0.035807886610175,0.0240838315716492,0.0178925491744938,0.0268502178923344,2020-10-20
"267",133,0.0358458971501394,0.0240838366797627,0.0178925492072927,0.026869223178716,2020-10-21
"268",133.5,0.0358838450317066,0.0240838416218197,0.0178925492382268,0.0268881971349667,2020-10-21
"269",134,0.0359217301686669,0.0240838464033238,0.0178925492674021,0.0269071397180345,2020-10-22
"270",134.5,0.0359595524758461,0.0240838510295916,0.0178925492949185,0.0269260508853823,2020-10-22
"271",135,0.0359973118691062,0.0240838555057596,0.0178925493208703,0.0269449305949882,2020-10-23
"272",135.5,0.0360350082653467,0.0240838598367908,0.0178925493453463,0.0269637788053465,2020-10-23
"273",136,0.036072641582505,0.0240838640274798,0.0178925493684303,0.0269825954754677,2020-10-24
"274",136.5,0.0361102117395572,0.0240838680824597,0.0178925493902015,0.0270013805648794,2020-10-24
"275",137,0.0361569475828188,0.0240838720062068,0.0178925494107344,0.0270247484967766,2020-10-25
"276",137.5,0.0362057063131313,0.0240838758030468,0.0178925494300995,0.0270491278716154,2020-10-25
"277",138,0.0362545155748793,0.0240838794771593,0.017892549448363,0.0270735325116212,2020-10-26
"278",138.5,0.0363033750617772,0.0240838830325834,0.0178925494655876,0.0270979622636824,2020-10-26
"279",139,0.0363522844661319,0.0240916668661776,0.0178925494818324,0.0271224169739822,2020-10-27
"280",139.5,0.0364012434788498,0.0241086201842975,0.017892549497153,0.0271468964880014,2020-10-27
"281",140,0.0364502517894428,0.0241133946954457,0.017892549511602,0.0271714006505224,2020-10-28
"282",140.5,0.0364993090860354,0.0241134224118826,0.0178925495252288,0.0271959293056321,2020-10-28
"283",141,0.0365484150553716,0.0241134495728636,0.0178925495380804,0.027220482296726,2020-10-29
"284",141.5,0.0365975693828214,0.0241134761897408,0.0178925495502006,0.027245059466511,2020-10-29
"285",142,0.0366467717523881,0.0241135022736249,0.0178925495616312,0.0272696606570096,2020-10-30
"286",142.5,0.0366960218467151,0.024113527835391,0.0178925495724113,0.0272942857095632,2020-10-30
"287",143,0.0367453193470931,0.0241135528856834,0.0178925495825779,0.0273189344648355,2020-10-31
"288",143.5,0.0367946639334675,0.0241135774349216,0.0178925495921659,0.0273436067628167,2020-10-31
"289",144,0.0368440552844453,0.0241136014933047,0.0178925496012083,0.0273683024428268,2020-11-01
"290",144.5,0.0368934930773025,0.0241136250708167,0.0178925496097359,0.0273930213435192,2020-11-01
"291",145,0.036942976987992,0.0241136481772314,0.0178925496177782,0.0274177633028851,2020-11-02
"292",145.5,0.0369925066911505,0.024113670822117,0.0178925496253628,0.0274425281582566,2020-11-02
"293",146,0.0370420818601063,0.0241136930148409,0.0178925496325156,0.0274673157463109,2020-11-03
"294",146.5,0.0370917021668872,0.0241137147645737,0.0178925496392612,0.0274921259030742,2020-11-03
"295",147,0.037141367282228,0.0241137360802945,0.0178925496456228,0.0275169584639254,2020-11-04
"296",147.5,0.0371910768755782,0.024113756970794,0.0178925496516222,0.0275418132636002,2020-11-04
"297",148,0.0372408306151103,0.0241137774446797,0.0178925496572801,0.0275666901361952,2020-11-05
"298",148.5,0.0372906281677271,0.0241137975103794,0.0178925496626158,0.0275915889151715,2020-11-05
"299",149,0.0373404691990706,0.0241138171761454,0.0178925496676478,0.0276165094333592,2020-11-06
"300",149.5,0.0373903533735293,0.0241138364500583,0.0178925496723932,0.0276414515229613,2020-11-06
"301",150,0.0374402803542471,0.0241138553400306,0.0178925496768684,0.0276664150155578,2020-11-07
"302",150.5,0.037490249803131,0.0241138738538107,0.0178925496810888,0.0276913997421099,2020-11-07
"303",151,0.0375402613808596,0.0241138919989865,0.0178925496850689,0.0277164055329643,2020-11-08
"304",151.5,0.0375903147468919,0.0241139097829883,0.0178925496888223,0.0277414322178571,2020-11-08
"305",152,0.0376404095594751,0.0241139272130933,0.017892549692362,0.0277664796259185,2020-11-09
"306",152.5,0.0376905454756537,0.0241139442964278,0.0178925496957001,0.0277915475856769,2020-11-09
"307",153,0.0377407221512781,0.0241139610399713,0.0178925496988481,0.0278166359250631,2020-11-10
"308",153.5,0.0377909392410129,0.0241139774505594,0.0178925497018168,0.0278417444714148,2020-11-10
"309",154,0.037841196398346,0.0241139935348866,0.0178925497046164,0.0278668730514812,2020-11-11
"310",154.5,0.0378914932755976,0.0241140092995101,0.0178925497072565,0.0278920214914271,2020-11-11
"311",155,0.0379418295239288,0.0241140247508519,0.0178925497097463,0.0279171896168375,2020-11-12
"312",155.5,0.0379922047933505,0.0241140398952023,0.0178925497120943,0.0279423772527224,2020-11-12
"313",156,0.038042618732733,0.0241140547387226,0.0178925497143085,0.0279675842235207,2020-11-13
"314",156.5,0.0380930709898146,0.0241140692874475,0.0178925497163966,0.0279928103531056,2020-11-13
"315",157,0.038143561211211,0.0241140835472885,0.0178925497183657,0.0280180554647883,2020-11-14
"316",157.5,0.0381940890424246,0.0241140975240359,0.0178925497202226,0.0280433193813236,2020-11-14
"317",158,0.0382446541278538,0.0241141112233616,0.0178925497219738,0.0280686019249138,2020-11-15
"318",158.5,0.0382952561108024,0.0241141246508219,0.0178925497236252,0.0280939029172138,2020-11-15
"319",159,0.0383458946334891,0.0241141378118592,0.0178925497251825,0.0281192221793358,2020-11-16
"320",159.5,0.0383965693370569,0.0241141507118055,0.0178925497266511,0.028144559531854,2020-11-16
"321",160,0.0384472798615829,0.0241141633558837,0.017892549728036,0.0281699147948095,2020-11-17
"322",160.5,0.038498025846088,0.0241141757492106,0.0178925497293421,0.028195287787715,2020-11-17
"323",161,0.0385488069285462,0.0241141878967988,0.0178925497305737,0.0282206783295599,2020-11-18
"324",161.5,0.0385996227458951,0.0241141998035589,0.0178925497317351,0.0282460862388151,2020-11-18
"325",162,0.0386504729340451,0.0241142114743019,0.0178925497328303,0.0282715113334377,2020-11-19
"326",162.5,0.0387013571278898,0.0241142229137411,0.0178925497338632,0.0282969534308765,2020-11-19
"327",163,0.0387522749613157,0.0241142341264941,0.0178925497348371,0.0283224123480764,2020-11-20
"328",163.5,0.0388032260672123,0.0241142451170849,0.0178925497357556,0.028347887901484,2020-11-20
"329",164,0.0388542100774825,0.0241142558899459,0.0178925497366218,0.0283733799070521,2020-11-21
"330",164.5,0.0389052266230524,0.0241169795017574,0.0178925497374386,0.0283988881802455,2020-11-21
"331",165,0.0389562753338816,0.0241219349090487,0.0178925497382088,0.0284244125360452,2020-11-22
"332",165.5,0.0390073558389739,0.0241268797522007,0.0178925497389351,0.0284499527889545,2020-11-22
"333",166,0.039058467766387,0.0241316050395193,0.0178925497396201,0.0284755087530035,2020-11-23
"334",166.5,0.0391096107432435,0.024131614746273,0.017892549740266,0.0285010802417547,2020-11-23
"335",167,0.039160784395741,0.0241316242618363,0.0178925497408751,0.028526667068308,2020-11-24
"336",167.5,0.0392119883491629,0.0241316335899749,0.0178925497414495,0.0285522690453062,2020-11-24
"337",168,0.0392632222278889,0.0241316427343804,0.0178925497419911,0.02857788598494,2020-11-25
"338",168.5,0.0393144856554054,0.0241316516986719,0.0178925497425019,0.0286035176989536,2020-11-25
"339",169,0.0393657782543167,0.0241316604863968,0.0178925497429835,0.0286291639986501,2020-11-26
"340",169.5,0.0394170996463552,0.0241316691010331,0.0178925497434377,0.0286548246948965,2020-11-26
"341",170,0.0394684494523929,0.02413167754599,0.0178925497438661,0.0286804995981295,2020-11-27
"342",170.5,0.0395198272924515,0.0241316858246095,0.01789254974427,0.0287061885183607,2020-11-27
"343",171,0.0395712327857139,0.024131693940168,0.0178925497446508,0.0287318912651823,2020-11-28
"344",171.5,0.0396226655505348,0.0241317018958772,0.01789254974501,0.0287576076477724,2020-11-28
"345",172,0.0397128906671779,0.0241317096948857,0.0178925497453487,0.0288027202062633,2020-11-29
"346",172.5,0.0398245100832002,0.0241317173402799,0.0178925497456681,0.0288585299144342,2020-11-29
"347",173,0.0399366312702356,0.0241317248350855,0.0178925497459693,0.0289145905081024,2020-11-30
"348",173.5,0.0400492545257582,0.0241317321822685,0.0178925497462533,0.0289709021360057,2020-11-30
"349",174,0.0401623801225646,0.0241317393847367,0.0178925497465211,0.0290274649345428,2020-12-01
"350",174.5,0.0402760083085343,0.0241317464453405,0.0178925497467737,0.029084279027654,2020-12-01
"351",175,0.0403901393063916,0.024131753366874,0.0178925497470118,0.0291413445267017,2020-12-02
"352",175.5,0.0405047733134681,0.0241317601520766,0.0178925497472364,0.0291986615303522,2020-12-02
"353",176,0.0406199105014663,0.0241317668036334,0.0178925497474482,0.0292562301244572,2020-12-03
"354",176.5,0.0407355510162247,0.0241317733241769,0.0178925497476479,0.0293140503819363,2020-12-03
"355",177,0.0408516949774843,0.0241317797162875,0.0178925497478362,0.0293721223626602,2020-12-04
"356",177.5,0.0409683424786553,0.024131785982495,0.0178925497480138,0.0294304461133345,2020-12-04
"357",178,0.0410854935865866,0.0241317921252792,0.0178925497481812,0.0294890216673839,2020-12-05
"358",178.5,0.0412031483413356,0.0241317981470712,0.0178925497483391,0.0295478490448373,2020-12-05
"359",179,0.0413213067559401,0.0241318040502541,0.017892549748488,0.0296069282522141,2020-12-06
"360",179.5,0.0414399688161915,0.0241318098371641,0.0178925497486284,0.02966625928241,2020-12-06
"361",180,0.0415591344804095,0.0241318155100913,0.0178925497487608,0.0297258421145851,2020-12-07
"362",180.5,0.0416788036792185,0.0241318210712809,0.0178925497488857,0.0297856767140521,2020-12-07
"363",181,0.0417989763153262,0.0241318265229336,0.0178925497490034,0.0298457630321648,2020-12-08
"364",181.5,0.041919652263303,0.0241318318672071,0.0178925497491145,0.0299061010062087,2020-12-08
"365",182,0.0420408313693643,0.0241318371062163,0.0178925497492191,0.0299666905592917,2020-12-09
"366",182.5,0.0421625134511541,0.0241318422420346,0.0178925497493179,0.030027531600236,2020-12-09
"367",183,0.0422846982975304,0.0241318472766945,0.017892549749411,0.0300886240234707,2020-12-10
"368",183.5,0.0424073856683535,0.0241318522121884,0.0178925497494988,0.0301499677089261,2020-12-10
"369",184,0.0425305752942753,0.0241318570504696,0.0178925497495815,0.0302115625219284,2020-12-11
"370",184.5,0.0426542668765317,0.0241318617934529,0.0178925497496596,0.0302734083130956,2020-12-11
"371",185,0.0427784600867368,0.0241318664430153,0.0178925497497332,0.030335504918235,2020-12-12
"372",185.5,0.0429031545666792,0.0241318710009968,0.0178925497498026,0.0303978521582409,2020-12-12
"373",186,0.0430283499281212,0.0241318754692014,0.0178925497498681,0.0304604498389947,2020-12-13
"374",186.5,0.0431540457526002,0.0241318798493973,0.0178925497499298,0.030523297751265,2020-12-13
"375",187,0.043280241591232,0.024131884143318,0.017892549749988,0.03058639567061,2020-12-14
"376",187.5,0.043406936964518,0.0241318883526629,0.0178925497500429,0.0306497433572804,2020-12-14
"377",188,0.0435341313621537,0.0241318924790977,0.0178925497500946,0.0307133405561242,2020-12-15
"378",188.5,0.0436618242428406,0.0241318965242556,0.0178925497501434,0.030777186996492,2020-12-15
"379",189,0.0437900150341006,0.0241319004897373,0.0178925497501894,0.030841282392145,2020-12-16
"380",189.5,0.0439187031320935,0.0241319043771124,0.0178925497502328,0.0309056264411632,2020-12-16
"381",190,0.0440478879014371,0.0241319081879191,0.0178925497502737,0.0309702188258554,2020-12-17
"382",190.5,0.0441775686750304,0.0241319119236657,0.0178925497503123,0.0310350592126714,2020-12-17
"383",191,0.0443077447538798,0.0241319155858306,0.0178925497503487,0.0311001472521142,2020-12-18
"384",191.5,0.0444384154069284,0.024131919175863,0.017892549750383,0.0311654825786557,2020-12-18
"385",192,0.0445695798708885,0.0241319226951838,0.0178925497504154,0.0312310648106519,2020-12-19
"386",192.5,0.0447012373500772,0.0241319261451858,0.0178925497504459,0.0312968935502615,2020-12-19
"387",193,0.0448333870162554,0.0241319295272342,0.0178925497504746,0.031362968383365,2020-12-20
"388",193.5,0.0449660280084704,0.0241319328426676,0.0178925497505018,0.0314292888794861,2020-12-20
"389",194,0.045099159432901,0.024131936092798,0.0178925497505273,0.0314958545917142,2020-12-21
"390",194.5,0.0452327803627076,0.0241319392789117,0.0178925497505515,0.0315626650566295,2020-12-21
"391",195,0.0453668898378842,0.0241319424022696,0.0178925497505742,0.0316297197942292,2020-12-22
"392",195.5,0.0455014868651153,0.0241319454641077,0.0178925497505957,0.0316970183078555,2020-12-22
"393",196,0.045636570417636,0.0241319484656379,0.0178925497506159,0.0317645600841259,2020-12-23
"394",196.5,0.0457721394350955,0.0241319514080479,0.017892549750635,0.0318323445928652,2020-12-23
"395",197,0.0459081928234251,0.0241319542925023,0.0178925497506529,0.031900371287039,2020-12-24
"396",197.5,0.0460447294547096,0.0241319571201426,0.0178925497506699,0.0319686396026897,2020-12-24
"397",198,0.0461817481670628,0.0241319598920877,0.0178925497506859,0.0320371489588743,2020-12-25
"398",198.5,0.0463192477645069,0.0241319626094348,0.017892549750701,0.0321058987576039,2020-12-25
"399",199,0.0464572270168561,0.0241319652732592,0.0178925497507152,0.0321748883837856,2020-12-26
"400",199.5,0.0465956846596044,0.0241319678846152,0.0178925497507286,0.0322441172051665,2020-12-26
"401",200,0.0467346193938172,0.0241319704445361,0.0178925497507412,0.0323135845722792,2020-12-27
"402",200.5,0.0468740298860275,0.0241319729540352,0.0178925497507532,0.0323832898183903,2020-12-27
"403",201,0.0470139147681363,0.0241319754141055,0.0178925497507644,0.0324532322594504,2020-12-28
"404",201.5,0.0471542726373177,0.0241319778257205,0.017892549750775,0.0325234111940463,2020-12-28
"405",202,0.0472951020559274,0.0241319801898349,0.017892549750785,0.0325938259033562,2020-12-29
"406",202.5,0.0474364015514171,0.024131982507384,0.0178925497507944,0.0326644756511058,2020-12-29
"407",203,0.0475781696162524,0.0241319847792851,0.0178925497508033,0.0327353596835279,2020-12-30
"408",203.5,0.0477204047078358,0.0241319870064374,0.0178925497508117,0.0328064772293237,2020-12-30
"409",204,0.0478631052484339,0.0241319891897222,0.0178925497508196,0.0328778274996267,2020-12-31
"410",204.5,0.0480062696251099,0.0241319913300035,0.017892549750827,0.0329494096879685,2020-12-31
"411",205,0.0481498961896608,0.0241319934281284,0.0178925497508341,0.0330212229702474,2021-01-01
"412",205.5,0.0482939832585585,0.0241319954849273,0.0178925497508407,0.0330932665046996,2021-01-01
"413",206,0.0484385291128973,0.024132536695679,0.0178925497508469,0.0331655394318721,2021-01-02
"414",206.5,0.0485835319983449,0.0241344379719535,0.0178925497508528,0.0332380408745989,2021-01-02
"415",207,0.0487289901250995,0.0241363320346633,0.0178925497508584,0.0333107699379789,2021-01-03
"416",207.5,0.0488749016678509,0.0241382189103983,0.0178925497508636,0.0333837257093573,2021-01-03
"417",208,0.0490212647657478,0.0241400986256566,0.0178925497508686,0.0334569072583082,2021-01-04
"418",208.5,0.0491680775223694,0.0241419712068445,0.0178925497508732,0.0335303136366213,2021-01-04
"419",209,0.0493153380057021,0.0241438366802769,0.0178925497508776,0.0336039438782898,2021-01-05
"420",209.5,0.0494630442481224,0.0241456950721772,0.0178925497508817,0.0336777969995021,2021-01-05
"421",210,0.049611194246384,0.0241459393219082,0.0178925497508857,0.0337518719986348,2021-01-06
"422",210.5,0.0497597859616108,0.0241459393383573,0.0178925497508893,0.03382616785625,2021-01-06
"423",211,0.049908817319295,0.0241459393542338,0.0178925497508928,0.0339006835350939,2021-01-07
"424",211.5,0.0500874256662168,0.0241459393695576,0.0178925497508961,0.0339899877085564,2021-01-07
"425",212,0.0502896998614732,0.0241459393843481,0.0178925497508992,0.0340911248061862,2021-01-08
"426",212.5,0.0504930459570042,0.0241459393986237,0.0178925497509021,0.0341927978539532,2021-01-08
"427",213,0.0506974654153577,0.0241459394124024,0.0178925497509048,0.0342950075831313,2021-01-09
"428",213.5,0.0509029596413858,0.0241459394257015,0.0178925497509074,0.0343977546961466,2021-01-09
"429",214,0.0511095299815142,0.0241459394385377,0.0178925497509099,0.034501039866212,2021-01-10
"430",214.5,0.0513171777230123,0.0241459394509271,0.0178925497509122,0.0346048637369622,2021-01-10
"431",215,0.0515259040932648,0.0241459394628852,0.0178925497509143,0.0347092269220896,2021-01-11
"432",215.5,0.0517357102590452,0.024145939474427,0.0178925497509164,0.0348141300049808,2021-01-11
"433",216,0.0519465973257912,0.0241459394855671,0.0178925497509183,0.0349195735383548,2021-01-12
"434",216.5,0.0521585663368818,0.0241459394963195,0.0178925497509201,0.035025558043901,2021-01-12
"435",217,0.0523716182729173,0.0241459395066975,0.0178925497509218,0.0351320840119196,2021-01-13
"436",217.5,0.0525857540510012,0.0241459395167143,0.0178925497509235,0.0352391519009623,2021-01-13
"437",218,0.0528009745240254,0.0241459395263825,0.017892549750925,0.0353467621374752,2021-01-14
"438",218.5,0.0530172804799576,0.0241459395357141,0.0178925497509264,0.035454915115442,2021-01-14
"439",219,0.0532346726411325,0.0241459395447209,0.0178925497509278,0.0355636111960301,2021-01-15
"440",219.5,0.0534531516635459,0.0241459395534141,0.0178925497509291,0.0356728507072375,2021-01-15
"441",220,0.0536727181361525,0.0241459395618048,0.0178925497509303,0.0357826339435414,2021-01-16
"442",220.5,0.0538933725801671,0.0241459395699034,0.0178925497509314,0.0358929611655493,2021-01-16
"443",221,0.0541151154483707,0.0241459395777201,0.0178925497509325,0.0360038325996516,2021-01-17
"444",221.5,0.0543379471244196,0.0241459395852648,0.0178925497509335,0.0361152484376766,2021-01-17
"445",222,0.0545618679221596,0.0241459395925468,0.0178925497509344,0.036227208836547,2021-01-18
"446",222.5,0.0547868780849447,0.0241459395995753,0.0178925497509353,0.03633971391794,2021-01-18
"447",223,0.0550129777849609,0.0241459396063592,0.0178925497509362,0.0364527637679485,2021-01-19
"448",223.5,0.0552401671225543,0.0241459396129069,0.017892549750937,0.0365663584367456,2021-01-19
"449",224,0.0554684461255655,0.0241459396192267,0.0178925497509377,0.0366804979382516,2021-01-20
"450",224.5,0.0556978147486687,0.0241459396253265,0.0178925497509385,0.0367951822498036,2021-01-20
"451",225,0.0559282728727172,0.0241459396312141,0.0178925497509391,0.0369104113118282,2021-01-21
"452",225.5,0.0561598203040943,0.0241459396368966,0.0178925497509398,0.037026185027517,2021-01-21
"453",226,0.0563924567740709,0.0241459396423814,0.0178925497509403,0.0371425032625056,2021-01-22
"454",226.5,0.0566261819381694,0.0241459396476752,0.0178925497509409,0.0372593658445552,2021-01-22
"455",227,0.056860995375534,0.0241459396527848,0.0178925497509414,0.0373767725632377,2021-01-23
"456",227.5,0.0570968965883086,0.0241459396577165,0.0178925497509419,0.0374947231696253,2021-01-23
"457",228,0.0573338850010209,0.0241459396624766,0.0178925497509424,0.0376132173759816,2021-01-24
"458",228.5,0.0575719599599749,0.024145939667071,0.0178925497509429,0.0377322548554589,2021-01-24
"459",229,0.0578111207326504,0.0241459396715054,0.0178925497509433,0.0378518352417969,2021-01-25
"460",229.5,0.0580513665071105,0.0241459396757855,0.0178925497509437,0.0379719581290271,2021-01-25
"461",230,0.0582926963914173,0.0241459396799166,0.017892549750944,0.0380926230711807,2021-01-26
"462",230.5,0.0585351094130555,0.0241459396839039,0.0178925497509444,0.038213829582,2021-01-26
"463",231,0.0587786045183659,0.0241459396877524,0.0178925497509447,0.0383355771346553,2021-01-27
"464",231.5,0.0590231805719856,0.024145939691467,0.017892549750945,0.0384578651614653,2021-01-27
"465",232,0.0592688363562996,0.0241459396950522,0.0178925497509453,0.0385806930536225,2021-01-28
"466",232.5,0.0595155705708997,0.0241459396985127,0.0178925497509456,0.0387040601609226,2021-01-28
"467",233,0.0597633818320541,0.0241459397018527,0.0178925497509459,0.0388279657915,2021-01-29
"468",233.5,0.0600122686721868,0.0241459397050764,0.0178925497509461,0.0389524092115664,2021-01-29
"469",234,0.0602622295393661,0.024145939708188,0.0178925497509463,0.0390773896451562,2021-01-30
"470",234.5,0.0605132627968046,0.0241459397111912,0.0178925497509466,0.0392029062738756,2021-01-30
"471",235,0.0607653667223684,0.0241459397140899,0.0178925497509468,0.0393289582366576,2021-01-31
"472",235.5,0.0610185395080983,0.0241459397168876,0.017892549750947,0.0394555446295227,2021-01-31
"473",236,0.0612727792597411,0.024145939719588,0.0178925497509472,0.0395826645053441,2021-02-01
"474",236.5,0.0615280839962922,0.0241459397221944,0.0178925497509473,0.0397103168736198,2021-02-01
"475",237,0.06178445164955,0.0241459397247101,0.0178925497509475,0.0398385007002487,2021-02-02
"476",237.5,0.0620418800636819,0.0241459397271382,0.0178925497509476,0.0399672149073148,2021-02-02
"477",238,0.0623003669948019,0.0241459397294818,0.0178925497509478,0.0400964583728749,2021-02-03
"478",238.5,0.0625599101105605,0.0241459397317438,0.0178925497509479,0.0402262299307542,2021-02-03
"479",239,0.0628205069897472,0.0241459397339271,0.0178925497509481,0.0403565283703476,2021-02-04
"480",239.5,0.063082155121905,0.0241459397360344,0.0178925497509482,0.0404873524364266,2021-02-04
"481",240,0.0633448519069587,0.0241459397380683,0.0178925497509483,0.0406187008289535,2021-02-05
"482",240.5,0.0636085946548552,0.0241459397400314,0.0178925497509484,0.0407505722029018,2021-02-05
"483",241,0.0638733805852175,0.0241459397419262,0.0178925497509485,0.040882965168083,2021-02-06
"484",241.5,0.0641392068270125,0.024145939743755,0.0178925497509486,0.0410158782889806,2021-02-06
"485",242,0.0644060704182322,0.0241459397455202,0.0178925497509487,0.0411493100845904,2021-02-07
"486",242.5,0.0646739683055886,0.024145939747224,0.0178925497509488,0.0412832590282687,2021-02-07
"487",243,0.0649428973442231,0.0241459397488684,0.0178925497509489,0.041417723547586,2021-02-08
"488",243.5,0.0652128542974304,0.0241459397504556,0.0178925497509489,0.0415527020241897,2021-02-08
"489",244,0.0654838358363963,0.0241459397519875,0.017892549750949,0.0416881927936726,2021-02-09
"490",244.5,0.0657558385399508,0.0241459397534661,0.0178925497509491,0.0418241941454499,2021-02-09
"491",245,0.0660288588943363,0.0241459397548933,0.0178925497509491,0.0419607043226427,2021-02-10
"492",245.5,0.0663028932929903,0.0241459397562708,0.0178925497509492,0.0420977215219697,2021-02-10
"493",246,0.0665779380363441,0.0241459397576003,0.0178925497509492,0.0422352438936467,2021-02-11
"494",246.5,0.0668539893316369,0.0241459397588835,0.0178925497509493,0.0423732695412931,2021-02-11
"495",247,0.0671310432927453,0.0241459397601221,0.0178925497509494,0.0425117965218473,2021-02-12
"496",247.5,0.0674090959400293,0.0241459397613176,0.0178925497509494,0.0426508228454893,2021-02-12
"497",248,0.067688143200194,0.0241459397624714,0.0178925497509494,0.0427903464755717,2021-02-13
"498",248.5,0.0679681809061678,0.0241459397635851,0.0178925497509495,0.0429303653285586,2021-02-13
"499",249,0.0682492047969969,0.02414593976466,0.0178925497509495,0.0430708772739732,2021-02-14
"500",249.5,0.0685312105177568,0.0241459397656975,0.0178925497509496,0.0432118801343532,2021-02-14
"501",250,0.06881419361948,0.0241459397666989,0.0178925497509496,0.0433533716852148,2021-02-15
"502",250.5,0.0690981495591014,0.0241459397676655,0.0178925497509496,0.0434953496550255,2021-02-15
"503",251,0.0693830736994204,0.0241459397685984,0.0178925497509497,0.043637811725185,2021-02-16
"504",251.5,0.0696689613090804,0.0241459397694988,0.0178925497509497,0.043780755530015,2021-02-16
"505",252,0.0699558075625654,0.0241459397703679,0.0178925497509497,0.0439241786567576,2021-02-17
"506",252.5,0.0702436075402151,0.0241459397712067,0.0178925497509498,0.0440680786455825,2021-02-17
"507",253,0.0705323562282568,0.0241459397720163,0.0178925497509498,0.0442124529896033,2021-02-18
"508",253.5,0.0708220485188552,0.0241459397727978,0.0178925497509498,0.0443572991349025,2021-02-18
"509",254,0.0711126792101813,0.024145939773552,0.0178925497509498,0.0445026144805656,2021-02-19
"510",254.5,0.0714042430064978,0.02414593977428,0.0178925497509498,0.0446483963787238,2021-02-19
"511",255,0.071696734518264,0.0241459397749826,0.0178925497509499,0.0447946421346069,2021-02-20
"512",255.5,0.0719901482622585,0.0241459397756608,0.0178925497509499,0.0449413490066042,2021-02-20
"513",256,0.0722844786617205,0.0241459397763154,0.0178925497509499,0.0450885142063352,2021-02-21
"514",256.5,0.0725797200465095,0.0241459397769472,0.0178925497509499,0.0452361348987297,2021-02-21
"515",257,0.072875866653284,0.024145939777557,0.0178925497509499,0.045384208202117,2021-02-22
"516",257.5,0.0731729126256986,0.0241459397781456,0.0178925497509499,0.0455327311883243,2021-02-22
"517",258,0.0734708520146201,0.0241459397787137,0.01789254975095,0.045681700882785,2021-02-23
"518",258.5,0.0737696787783627,0.024145939779262,0.01789254975095,0.0458311142646563,2021-02-23
"519",259,0.0740693867829416,0.0241459397797912,0.01789254975095,0.0459809682669458,2021-02-24
"520",259.5,0.0743699698023467,0.0241459397803021,0.01789254975095,0.0461312597766483,2021-02-24
"521",260,0.0746714215188342,0.0241459397807951,0.01789254975095,0.0462819856348921,2021-02-25
"522",260.5,0.0749737355232384,0.0241459397812709,0.01789254975095,0.0464331426370942,2021-02-25
"523",261,0.0752769053153021,0.0241459397817303,0.01789254975095,0.0465847275331261,2021-02-26
"524",261.5,0.0755809243040267,0.0241459397821736,0.01789254975095,0.0467367370274884,2021-02-26
"525",262,0.0758857858080413,0.0241459397826015,0.01789254975095,0.0468891677794957,2021-02-27
"526",262.5,0.076191483055991,0.0241459397830144,0.0178925497509501,0.0470420164034705,2021-02-27
"527",263,0.0764980091869453,0.0241459397834131,0.0178925497509501,0.0471952794689477,2021-02-28
"528",263.5,0.0768053572508252,0.0241459397837978,0.0178925497509501,0.0473489535008876,2021-02-28
"529",264,0.0771135202088497,0.0241459397841692,0.0178925497509501,0.0475030349798999,2021-03-01
"530",264.5,0.0774224909340023,0.0241459397845276,0.0178925497509501,0.0476575203424762,2021-03-01
"531",265,0.077732262211516,0.0241459397848735,0.0178925497509501,0.047812405981233,2021-03-02
"532",265.5,0.0780428267393785,0.0241459397852074,0.0178925497509501,0.0479676882451643,2021-03-02
"533",266,0.0783541771288562,0.0241459397855297,0.0178925497509501,0.0481233634399032,2021-03-03
"534",266.5,0.078666305905038,0.0241459397858408,0.0178925497509501,0.0482794278279941,2021-03-03
"535",267,0.0789792055073981,0.024145939786141,0.0178925497509501,0.0484358776291741,2021-03-04
"536",267.5,0.0792928682903776,0.0241459397864308,0.0178925497509501,0.0485927090206639,2021-03-04
"537",268,0.0796072865239869,0.0241459397867105,0.0178925497509501,0.0487499181374685,2021-03-05
"538",268.5,0.079922452394425,0.0241459397869804,0.0178925497509501,0.0489075010726876,2021-03-05
"539",269,0.0802383580047202,0.024145939787241,0.0178925497509501,0.0490654538778352,2021-03-06
"540",269.5,0.0805549953753878,0.0241459397874925,0.0178925497509501,0.049223772563169,2021-03-06
"541",270,0.0808723564451085,0.0241459397877352,0.0178925497509501,0.0493824530980293,2021-03-07
"542",270.5,0.0811904330714243,0.0241459397879695,0.0178925497509501,0.0495414914111872,2021-03-07
"543",271,0.0815092170314541,0.0241459397881957,0.0178925497509501,0.0497008833912021,2021-03-08
"544",271.5,0.0818287000226276,0.0241459397884139,0.0178925497509501,0.0498606248867889,2021-03-08
"545",272,0.0821488736634377,0.0241459397886246,0.0178925497509501,0.0500207117071939,2021-03-09
"546",272.5,0.0824697294942118,0.0241459397888279,0.0178925497509501,0.050181139622581,2021-03-09
"547",273,0.0827912589779009,0.0241459397890242,0.0178925497509501,0.0503419043644255,2021-03-10
"548",273.5,0.0831134535008875,0.0241459397892136,0.0178925497509502,0.0505030016259188,2021-03-10
"549",274,0.0834363043738111,0.0241459397893964,0.0178925497509502,0.0506644270623806,2021-03-11
"550",274.5,0.0837598028324119,0.0241459397895729,0.0178925497509502,0.050826176291681,2021-03-11
"551",275,0.0840839400383924,0.0241459397897432,0.0178925497509502,0.0509882448946713,2021-03-12
"552",275.5,0.0844087070802965,0.0241459397899076,0.0178925497509502,0.0511506284156233,2021-03-12
"553",276,0.0847340949744061,0.0241459397900663,0.0178925497509502,0.0513133223626781,2021-03-13
"554",276.5,0.0850600946656551,0.0241459397902195,0.0178925497509502,0.0514763222083026,2021-03-13
"555",277,0.0853866970285603,0.0241459397903673,0.0178925497509502,0.0516396233897553,2021-03-14
"556",277.5,0.08571389286817,0.0241459397905099,0.0178925497509502,0.0518032213095601,2021-03-14
"557",278,0.0860416729210283,0.0241459397906477,0.0178925497509502,0.0519671113359892,2021-03-15
"558",278.5,0.0863700278561567,0.0241459397907806,0.0178925497509502,0.0521312888035534,2021-03-15
"559",279,0.0866989482760522,0.0241459397909089,0.0178925497509502,0.0522957490135012,2021-03-16
"560",279.5,0.0870284247177009,0.0241459397910327,0.0178925497509502,0.0524604872343255,2021-03-16
"561",280,0.0873584476536082,0.0241459397911522,0.0178925497509502,0.0526254987022792,2021-03-17
"562",280.5,0.0876890074928442,0.0241459397912675,0.0178925497509502,0.0527907786218972,2021-03-17
"563",281,0.0880200945821051,0.0241459397913789,0.0178925497509502,0.0529563221665277,2021-03-18
"564",281.5,0.0883516992067896,0.0241459397914863,0.0178925497509502,0.0531221244788699,2021-03-18
"565",282,0.08868381159209,0.0241459397915901,0.0178925497509502,0.0532881806715201,2021-03-19
"566",282.5,0.089016421904099,0.0241459397916902,0.0178925497509502,0.0534544858275246,2021-03-19
"567",283,0.0893495202509297,0.0241459397917868,0.0178925497509502,0.0536210350009399,2021-03-20
"568",283.5,0.0896830966838513,0.0241459397918801,0.0178925497509502,0.0537878232174007,2021-03-20
"569",284,0.0900171411984375,0.0241459397919701,0.0178925497509502,0.0539548454746938,2021-03-21
"570",284.5,0.0903516437357294,0.024145939792057,0.0178925497509502,0.0541220967433398,2021-03-21
"571",285,0.0906865941834116,0.0241459397921408,0.0178925497509502,0.0542895719671809,2021-03-22
"572",285.5,0.0910219823770013,0.0241459397922218,0.0178925497509502,0.0544572660639757,2021-03-22
"573",286,0.0913577981010508,0.0241459397922999,0.0178925497509502,0.0546251739260005,2021-03-23
"574",286.5,0.0916940310903615,0.0241459397923753,0.0178925497509502,0.0547932904206558,2021-03-23
"575",287,0.0920306710312116,0.0241459397924481,0.0178925497509502,0.0549616103910809,2021-03-24
"576",287.5,0.0923677075625943,0.0241459397925183,0.0178925497509502,0.0551301286567722,2021-03-24
"577",288,0.092705130277469,0.0241459397925861,0.0178925497509502,0.0552988400142096,2021-03-25
"578",288.5,0.0930429287240224,0.0241459397926515,0.0178925497509502,0.0554677392374863,2021-03-25
"579",289,0.0933810924069421,0.0241459397927147,0.0178925497509502,0.0556368210789461,2021-03-26
"580",289.5,0.0937196107886997,0.0241459397927757,0.0178925497509502,0.0558060802698249,2021-03-26
"581",290,0.0940584732908448,0.0241459397928345,0.0178925497509502,0.0559755115208975,2021-03-27
"582",290.5,0.0943976692953092,0.0241459397928913,0.0178925497509502,0.0561451095231297,2021-03-27
"583",291,0.09473718814572,0.0241459397929461,0.0178925497509502,0.0563148689483351,2021-03-28
"584",291.5,0.0950770191487229,0.024145939792999,0.0178925497509502,0.0564847844498366,2021-03-28
"585",292,0.0954171515753142,0.0241459397930501,0.0178925497509502,0.0566548506631322,2021-03-29
"586",292.5,0.0957575746621811,0.0241459397930994,0.0178925497509502,0.0568250622065656,2021-03-29
"587",293,0.0960982776130506,0.024145939793147,0.0178925497509502,0.0569954136820004,2021-03-30
"588",293.5,0.0964392496000468,0.0241459397931929,0.0178925497509502,0.0571658996754985,2021-03-30
"589",294,0.0967804797650543,0.0241459397932372,0.0178925497509502,0.0573365147580022,2021-03-31
"590",294.5,0.0971219572210908,0.02414593979328,0.0178925497509502,0.0575072534860205,2021-03-31
