"","time_point","num_antibody_positive","date","num_antibody_total","percent_positive"
"1",1,3,2021-04-23,16,0.1875
"2",2,0,2021-04-24,10,0
"3",3,1,2021-04-25,2,0.5
"4",4,2,2021-04-26,18,0.111111111111111
"5",5,1,2021-04-27,13,0.0769230769230769
"6",6,1,2021-04-28,4,0.25
"7",7,1,2021-04-29,3,0.333333333333333
"8",25,4,2021-05-17,33,0.121212121212121
"9",26,1,2021-05-18,12,0.0833333333333333
"10",27,1,2021-05-19,7,0.142857142857143
"11",28,1,2021-05-20,16,0.0625
"12",29,0,2021-05-21,9,0
"13",30,0,2021-05-22,8,0
"14",31,0,2021-05-23,5,0
"15",56,5,2021-06-17,15,0.333333333333333
"16",57,2,2021-06-18,12,0.166666666666667
"17",60,1,2021-06-21,11,0.0909090909090909
"18",61,1,2021-06-22,13,0.0769230769230769
"19",62,0,2021-06-23,9,0
"20",125,1,2021-08-25,1,1
"21",126,8,2021-08-26,19,0.421052631578947
"22",127,2,2021-08-27,7,0.285714285714286
"23",128,0,2021-08-28,6,0
"24",129,1,2021-08-29,18,0.0555555555555556
"25",130,2,2021-08-30,22,0.0909090909090909
"26",131,1,2021-08-31,19,0.0526315789473684
