"","time","top","med","bottom","pseudo_med","date"
"1",0,0.00827402206418498,0.00169906939654806,9.60629247003819e-06,0.00414181417832751,2021-04-23
"2",0.5,0.00796423914740483,0.00163283722306272,4.03909473213982e-05,0.00400231504736311,2021-04-23
"3",1,0.00766621678290912,0.00159455455985214,6.46013734049427e-05,0.00386540907815703,2021-04-24
"4",1.5,0.00737950482791541,0.00154874833655431,8.60869093601251e-05,0.00373279586863777,2021-04-24
"5",2,0.0071036704509588,0.00149911376375569,9.53940554300681e-05,0.00359953225319443,2021-04-25
"6",2.5,0.0068382974643324,0.00144981869843673,9.83457153423675e-05,0.00346832158983738,2021-04-25
"7",3,0.00658298568231012,0.00142562638577597,0.000100789027051147,0.00334188735468063,2021-04-26
"8",3.5,0.00633735030415531,0.00137585814130775,0.000102766375483222,0.00322005833981926,2021-04-26
"9",4,0.00610102132095703,0.00133891885064634,0.0001043172229364,0.00310266927194671,2021-04-27
"10",4.5,0.00587364294537296,0.00128922220703515,0.000105478293495745,0.00298956061943435,2021-04-27
"11",5,0.0056548730633935,0.00124540152742599,0.000106283746394489,0.002880578404894,2021-04-28
"12",5.5,0.00544438270727592,0.00121039190462613,0.00010676533896058,0.00277557402311825,2021-04-28
"13",6,0.0052418555488302,0.00118449167287248,0.000106952579753514,0.00267440406429186,2021-04-29
"14",6.5,0.00504698741227011,0.00114209301431797,0.000106872872461897,0.002576930142366,2021-04-29
"15",7,0.00485948580587309,0.00111898315147108,0.00010655165109976,0.00248301872848642,2021-04-30
"16",7.5,0.00467906947172223,0.00107511552320249,0.000106012507009134,0.00239254098936568,2021-04-30
"17",8,0.00450546795283134,0.00102920872738251,0.000105277308147525,0.00230537263048943,2021-05-01
"18",8.5,0.00433842117698134,0.000998752779795612,0.000104366311111647,0.00222139374404649,2021-05-01
"19",9,0.00417767905662214,0.000966689998918728,0.000103298266323101,0.00214048866147262,2021-05-02
"20",9.5,0.00409840797065331,0.000940469629438856,0.000102090516777343,0.00210024924371533,2021-05-02
"21",10,0.00402890910941875,0.000907496949521666,0.000100759090734388,0.00206483410007657,2021-05-03
"22",10.5,0.00396520677928443,0.000883887860265508,9.93187887080218e-05,0.00203226278399623,2021-05-03
"23",11,0.0039071704105339,0.000851468532302929,9.7783265089888e-05,0.00200247683781189,2021-05-04
"24",11.5,0.00385467766506595,0.000823656202377747,9.61651047254964e-05,0.00197542138489572,2021-05-04
"25",12,0.0038076141982204,0.000793943553164556,9.3952201705231e-05,0.00195078319996282,2021-05-05
"26",12.5,0.00376587343194002,0.000770903838231891,9.00666543291733e-05,0.00192797004313459,2021-05-05
"27",13,0.00372935633882122,0.000742157706467696,8.62603223545364e-05,0.00190780833058788,2021-05-06
"28",13.5,0.00369797123662047,0.000720472426204001,8.25427565080528e-05,0.00189025699656426,2021-05-06
"29",14,0.00367163359279588,0.000707437215430581,7.8921555028053e-05,0.00187527757391197,2021-05-07
"30",14.5,0.00365026583867615,0.000689184997820847,7.54026169071441e-05,0.00186283422779165,2021-05-07
"31",15,0.00363379719285993,0.000676047699265503,7.19903663341312e-05,0.00185289377959703,2021-05-08
"32",15.5,0.00362216349345941,0.000655659412545506,6.8687951433783e-05,0.0018454257224466,2021-05-08
"33",16,0.00361530703881152,0.000638184385413166,6.54974200784986e-05,0.00184040222944501,2021-05-09
"34",16.5,0.00361317643628872,0.000620590046422224,6.24198752549176e-05,0.00183779815577182,2021-05-09
"35",17,0.00361572645884988,0.000596848842528819,5.94556122075822e-05,0.00183759103552873,2021-05-10
"36",17.5,0.0036229179089782,0.000578209901541154,5.66042393478319e-05,0.00183976107416301,2021-05-10
"37",18,0.00363471748966032,0.000564466299842859,5.38647847064066e-05,0.00184429113718336,2021-05-11
"38",18.5,0.00365109768206562,0.000550845919542568,5.08430530506529e-05,0.00185097036755813,2021-05-11
"39",19,0.00367203662958998,0.00053277729215321,4.76964448175353e-05,0.00185986653720376,2021-05-12
"40",19.5,0.00369751802793211,0.000513115016357452,4.47345114302464e-05,0.00187112626968118,2021-05-12
"41",20,0.0037275310208737,0.000502931623811798,4.19475632600721e-05,0.00188473929206688,2021-05-13
"42",20.5,0.00376207010143709,0.000499228106722281,3.93262807660646e-05,0.00190069819110158,2021-05-13
"43",21,0.00380113501809599,0.000484970463830067,3.68617189844649e-05,0.00191899836854023,2021-05-14
"44",21.5,0.00384473068571515,0.000468607749609524,3.4545308627403e-05,0.00193963799717128,2021-05-14
"45",22,0.00389286710089555,0.000456241774709887,3.23688543452372e-05,0.00196261797762039,2021-05-15
"46",22.5,0.0039455592614003,0.000441775623884569,3.03245306350341e-05,0.00198794189601767,2021-05-15
"47",23,0.00400282708933552,0.000427780851508376,2.84048758143277e-05,0.00201561598257492,2021-05-16
"48",23.5,0.00406469535775771,0.00041565974055812,2.66027844234791e-05,0.0020456490710906,2021-05-16
"49",24,0.00413119362037631,0.000402536011123853,2.49114983708298e-05,0.00207805255937357,2021-05-17
"50",24.5,0.0042023561440161,0.000389966363347119,2.33245970916327e-05,0.00211284037055387,2021-05-17
"51",25,0.00427822184349966,0.000380510547215966,2.18359869537915e-05,0.00215002891522672,2021-05-18
"52",25.5,0.00435883421860445,0.000365130645304279,2.04398901101242e-05,0.00218963705435729,2021-05-18
"53",26,0.00444424129274314,0.000353591209097936,1.91308329676706e-05,0.0022316860628554,2021-05-19
"54",26.5,0.00453449555300855,0.000339627107426535,1.79036344189975e-05,0.00227619959371377,2021-05-19
"55",27,0.00462965389121734,0.000337014440013236,1.67533939581063e-05,0.00232320364258772,2021-05-20
"56",27.5,0.00472977754557767,0.000330165943461148,1.56754797840391e-05,0.00237272651268085,2021-05-20
"57",28,0.00483493204259722,0.000320693890898102,1.46655169782698e-05,0.00242479877978774,2021-05-21
"58",28.5,0.00494518713883806,0.000317393374375989,1.37193758271806e-05,0.00247945325733262,2021-05-21
"59",29,0.00506061676211422,0.000309892074091987,1.28331603480708e-05,0.00253672496123115,2021-05-22
"60",29.5,0.0051812989517168,0.000299530685550086,1.20031970660251e-05,0.00259665107439141,2021-05-22
"61",30,0.00530731579723948,0.000290370044570914,1.12260240793433e-05,0.00265927091065941,2021-05-23
"62",30.5,0.00543875337556512,0.000282307456624587,1.0498380442949e-05,0.00272462587800403,2021-05-23
"63",31,0.00557570168556098,0.000274356461568491,9.81719589206881e-06,0.00279275944072652,2021-05-24
"64",31.5,0.00571825458001697,0.000269059937168678,9.17958092237437e-06,0.00286371708046967,2021-05-24
"65",32,0.00586650969434717,0.000263731779031004,8.58281723757787e-06,0.00293754625579237,2021-05-25
"66",32.5,0.00602056837156092,0.00025967694403252,8.0243485710513e-06,0.00301429636006599,2021-05-25
"67",33,0.00618053558299518,0.000255027730149858,7.50177188430979e-06,0.00309401867743974,2021-05-26
"68",33.5,0.00634651984428498,0.000249762900077949,7.01282894206501e-06,0.00317676633661352,2021-05-26
"69",34,0.00651863312603427,0.000243740361735937,6.55539826094286e-06,0.00326259426214761,2021-05-27
"70",34.5,0.00669699075863431,0.000238261926322523,6.12748742680171e-06,0.00335155912303056,2021-05-27
"71",35,0.006881711330662,0.000232919958618475,5.72722577382231e-06,0.00344371927821791,2021-05-28
"72",35.5,0.0070729165802762,0.000227870674369485,5.35285741711698e-06,0.00353913471884666,2021-05-28
"73",36,0.00727073127901573,0.000223456388699821,5.00273462947586e-06,0.0036378670068226,2021-05-29
"74",36.5,0.00747528310738889,0.000219115072772242,4.67531155199228e-06,0.00373997920947044,2021-05-29
"75",37,0.00768670252163176,0.000214244094662302,4.36913822765064e-06,0.00384553582992971,2021-05-30
"76",37.5,0.00790512261099984,0.000209754925680941,4.08285494648873e-06,0.00395460273297316,2021-05-30
"77",38,0.00813067894494694,0.000204672084910043,3.81518689063247e-06,0.00406724706591878,2021-05-31
"78",38.5,0.00836350940953507,0.000199656020807476,3.56493906732285e-06,0.0041835371743012,2021-05-31
"79",39,0.0086037540324108,0.000194655581362379,3.33099151798947e-06,0.00430354251196439,2021-06-01
"80",39.5,0.00885155479567702,0.000188320732769824,3.11229479145522e-06,0.00442733354523424,2021-06-01
"81",40,0.00910705543598425,0.00018220519113048,2.90786566946592e-06,0.00455498165082686,2021-06-02
"82",40.5,0.00937040123116343,0.000176300718670707,2.71678313291318e-06,0.00468655900714817,2021-06-02
"83",41,0.00964173877272222,0.000170438856055736,2.53818455734677e-06,0.00482213847863978,2021-06-03
"84",41.5,0.00992121572353013,0.000164249639852932,2.37126212664319e-06,0.00496179349282839,2021-06-03
"85",42,0.0102089805600238,0.000158066529033757,2.21525945400159e-06,0.00510559790973891,2021-06-04
"86",42.5,0.0105051822982741,0.000153563995168836,2.06946839976872e-06,0.00525362588333694,2021-06-04
"87",43,0.01080997020327,0.000150133198888797,1.9332260759443e-06,0.00540595171467299,2021-06-05
"88",43.5,0.0111234934807929,0.000146696594151256,1.8059120275819e-06,0.00556264969641024,2021-06-05
"89",44,0.011445900951277,0.000142935062383567,1.68694558167253e-06,0.00572379394842934,2021-06-06
"90",44.5,0.0117773407050805,0.000139265885486604,1.57578335447576e-06,0.00588945824421747,2021-06-06
"91",45,0.012117959738624,0.000135687000921574,1.47191690864121e-06,0.00605971582776633,2021-06-07
"92",45.5,0.012467903570894,0.000132196381662904,1.37487055184038e-06,0.00623463922072291,2021-06-07
"93",46,0.0128273158398518,0.000127988466172288,1.28419926900178e-06,0.00641430001956038,2021-06-08
"94",46.5,0.0131963378783443,0.000123681556278393,1.19948678060896e-06,0.00659876868256245,2021-06-08
"95",47,0.013575108269169,0.000119357888242855,1.12034371988078e-06,0.00678811430644444,2021-06-09
"96",47.5,0.0139637623790141,0.00011593676661207,1.04640592200361e-06,0.00698240439246806,2021-06-09
"97",48,0.0143624318710697,0.000113382215073193,9.77332818925832e-07,0.0071817046019443,2021-06-10
"98",48.5,0.0147712441961873,0.000111640018413911,9.12805933555128e-07,0.00738607850106042,2021-06-10
"99",49,0.015190322062559,0.000109480977796163,8.52527467517945e-07,0.00759558729501324,2021-06-11
"100",49.5,0.0156197828839847,0.000107007502301997,7.96218976947631e-07,0.00781028955148083,2021-06-11
"101",50,0.0160597382069088,0.000104596216539754,7.43620131063294e-07,0.00803024091351992,2021-06-12
"102",50.5,0.0165102931165229,0.000102245416681595,6.9448754858483e-07,0.00825549380203572,2021-06-12
"103",51,0.0169715456223624,9.99534485906815e-05,6.48593707301006e-07,0.00848609710803486,2021-06-13
"104",51.5,0.0174435860239604,9.75120571433301e-05,6.05725922367086e-07,0.00872209587494137,2021-06-13
"105",52,0.0179264962572689,9.49211089693011e-05,5.65685389156187e-07,0.00896353097132905,2021-06-14
"106",52.5,0.0184203492227169,9.32215782023836e-05,5.2828628672481e-07,0.00921043875450179,2021-06-14
"107",53,0.0189252080959352,9.15659703128699e-05,4.93354938177818e-07,0.00946285072543667,2021-06-15
"108",53.5,0.0194411256223583,8.99457556510154e-05,4.60729024432002e-07,0.00972079317569137,2021-06-15
"109",54,0.0199681433970909,8.81782031620445e-05,4.30256848080459e-07,0.00998428682696951,2021-06-16
"110",54.5,0.0205062911316205,8.5972992101224e-05,4.01496333094638e-07,0.0102533463139768,2021-06-16
"111",55,0.0210555859091545,8.38403752243278e-05,3.68435461066527e-07,0.0105279771723078,2021-06-17
"112",55.5,0.0216160314305648,8.16045395666356e-05,3.38092518082183e-07,0.0108081847615415,2021-06-17
"113",56,0.0221876172531308,7.89513635023652e-05,3.10244542421059e-07,0.0110939637488366,2021-06-18
"114",56.5,0.022770318024488,7.7091956923878e-05,2.84686811019021e-07,0.0113853013556495,2021-06-18
"115",57,0.0233640927144038,7.52851679180672e-05,2.61231353112085e-07,0.0116821769728785,2021-06-19
"116",57.5,0.0239688838472218,7.35292917176155e-05,2.39705584402915e-07,0.0119845617764031,2021-06-19
"117",58,0.0245846167380333,7.14738635188596e-05,2.19951052043553e-07,0.0122924183445427,2021-06-20
"118",58.5,0.0252111987358507,6.9100324625461e-05,2.01822281502379e-07,0.0126057002790661,2021-06-20
"119",59,0.0258485184772696,6.71093155352106e-05,1.85185717096724e-07,0.0129243518314933,2021-06-21
"120",59.5,0.026496445154313,6.55092498373833e-05,1.6991874862982e-07,0.0132483075365308,2021-06-21
"121",60,0.027154827800348,6.39580341556395e-05,1.55908817176007e-07,0.0135774918545826,2021-06-22
"122",60.5,0.0278234945981529,6.29375729649801e-05,1.43052593615546e-07,0.0139118188253732,2021-06-22
"123",61,0.0285022522143865,6.19458939374748e-05,1.31255224033593e-07,0.0142511917348053,2021-06-23
"124",61.5,0.0291908851648692,6.09086375294731e-05,1.20429636570411e-07,0.0145955027972529,2021-06-23
"125",62,0.0298891552152238,5.9621334321062e-05,1.10495904744867e-07,0.0149446328555643,2021-06-24
"126",62.5,0.0305968008215442,5.83608872468574e-05,1.01380662673647e-07,0.0152984511011034,2021-06-24
"127",63,0.0313135366158517,5.71267701652223e-05,9.30165679770721e-08,0.0156568148162098,2021-06-25
"128",63.5,0.0320390529411673,5.59184652795511e-05,8.5341808501552e-08,0.0160195691414879,2021-06-25
"129",64,0.0327730154410634,5.47354631123479e-05,7.82996493007089e-08,0.0163865468703564,2021-06-26
"130",64.5,0.0335150647085666,5.35772624724903e-05,7.18380166043181e-08,0.0167575682732916,2021-06-26
"131",65,0.0342648159992499,5.24433704161639e-05,6.59091157683391e-08,0.0171324409541828,2021-06-27
"132",65.5,0.0350218590132884,5.13333022019267e-05,6.04690804422869e-08,0.0175109597411844,2021-06-27
"133",66,0.0357857577511435,5.02465812403361e-05,5.54776504136915e-08,0.0178929066143969,2021-06-28
"134",66.5,0.036556050447396,4.91827390385529e-05,5.08978757949596e-08,0.0182780506726359,2021-06-28
"135",67,0.0373322495870551,4.81413151403098e-05,4.66958454070062e-08,0.0186661481414502,2021-06-29
"136",67.5,0.0381138420084379,4.71452238640881e-05,4.28404373878806e-08,0.0190569424244376,2021-06-29
"137",68,0.0389002890964344,4.62902782279428e-05,3.93030902144818e-08,0.0194501641997623,2021-06-30
"138",68.5,0.0396910270696474,4.54379929691826e-05,3.60575924724498e-08,0.0198455315636199,2021-06-30
"139",69,0.0404854673645295,4.4333002403663e-05,3.30798898444707e-08,0.0202427502222097,2021-07-01
"140",69.5,0.0412829971192228,4.3256470632449e-05,3.03479079114796e-08,0.0206415137335654,2021-07-01
"141",70,0.042082979759353,4.22076333504428e-05,2.78413894754645e-08,0.0210415038003712,2021-07-02
"142",70.5,0.0428847556875267,4.11857471724178e-05,2.55417452175659e-08,0.0214423906146359,2021-07-02
"143",71,0.0436876430777475,4.01900890689997e-05,2.34319166016745e-08,0.021843833254832,2021-07-03
"144",71.5,0.044490938775389,3.93027018130877e-05,2.14962500224256e-08,0.0222454801358195,2021-07-03
"145",72,0.0452939193027566,3.84659868343741e-05,1.97203812780089e-08,0.022646969511569,2021-07-04
"146",72.5,0.0460958419696357,3.76471497894155e-05,1.80911295231298e-08,0.0230479300303826,2021-07-04
"147",73,0.0468959460875612,3.68458165924072e-05,1.65963999263002e-08,0.0234479813419806,2021-07-05
"148",73.5,0.0476934542858691,3.6061620436689e-05,1.52250943188996e-08,0.0238467347554817,2021-07-05
"149",74,0.0484875739268922,3.52942016801646e-05,1.3967029181574e-08,0.0242437939469607,2021-07-06
"150",74.5,0.0492774986169695,3.43813043167567e-05,1.28128603669487e-08,0.024638755714915,2021-07-06
"151",75,0.0500624098092328,3.3486947871915e-05,1.17540140066981e-08,0.0250312107816234,2021-07-07
"152",75.5,0.0508414784934422,3.26156403131549e-05,1.07826230961007e-08,0.0254207446380327,2021-07-07
"153",76,0.0516138669674596,3.19472659528741e-05,9.89146929061599e-09,0.0258069384294645,2021-07-08
"154",76.5,0.0523787306842853,3.13395646183842e-05,9.07392948707001e-09,0.0261893698791074,2021-07-08
"155",77,0.0531352201679487,3.07459085522344e-05,8.32392679697994e-09,0.0265676142459377,2021-07-09
"156",77.5,0.0538824829909397,3.01659321011169e-05,7.63588555165196e-09,0.0269412453134126,2021-07-09
"157",78,0.0546196658053078,2.95992799311859e-05,7.00469000817042e-09,0.0273098364049989,2021-07-10
"158",78.5,0.0553459164190369,2.90456067092176e-05,6.42564645247916e-09,0.0276729614223417,2021-07-10
"159",79,0.0560603859088451,2.8504576795046e-05,5.89444842062849e-09,0.0280301959016468,2021-07-11
"160",79.5,0.0567622307601531,2.794399930828e-05,5.40714478210542e-09,0.028381118083649,2021-07-11
"161",80,0.0574506150246246,2.72389909934056e-05,4.96011045014351e-09,0.0287253099923675,2021-07-12
"162",80.5,0.0581247124854117,2.65517275494794e-05,4.55001950317535e-09,0.0290623585177156,2021-07-12
"163",81,0.0587837088200383,2.60313484711249e-05,4.17382051928231e-09,0.0293918564969294,2021-07-13
"164",81.5,0.059426803750727,2.55479045691034e-05,3.82871394174338e-09,0.0297134037897205,2021-07-13
"165",82,0.0600532131719332,2.50739539889786e-05,3.51213130870266e-09,0.0300266083420323,2021-07-14
"166",82.5,0.0606621712448739,2.46093058567527e-05,3.22171619367403e-09,0.030331087233295,2021-07-14
"167",83,0.0612529324489539,2.41537730142324e-05,2.95530671617896e-09,0.0306264677021303,2021-07-15
"168",83.5,0.0618247735801782,2.37071719573834e-05,2.71091949336206e-09,0.0309123881455488,2021-07-15
"169",84,0.0623769956869016,2.31850342444258e-05,2.48673491403232e-09,0.0311884990868182,2021-07-16
"170",84.5,0.0629089259336112,2.25248068459111e-05,2.2810836263126e-09,0.0314544641073474,2021-07-16
"171",85,0.0634199193838439,2.18837152253977e-05,2.09243413901793e-09,0.031709960738139,2021-07-17
"172",85.5,0.06390936069382,2.11973388499623e-05,1.91938144508805e-09,0.0319546813066007,2021-07-17
"173",86,0.0643766657089183,2.04791247525725e-05,1.76063658293273e-09,0.0321883337347774,2021-07-18
"174",86.5,0.0648212829557112,1.97849576232248e-05,1.61501705846345e-09,0.0324106422853641,2021-07-18
"175",87,0.0652426950229332,1.91140453424161e-05,1.48143805693341e-09,0.0326213482521856,2021-07-19
"176",87.5,0.0656404198254463,1.85073151619831e-05,1.35890437953514e-09,0.0328202105921753,2021-07-19
"177",88,0.066014011746003,1.80127517424608e-05,1.24650304505447e-09,0.033007006496253,2021-07-20
"178",88.5,0.0663630626503655,1.75323426116115e-05,1.14339650179004e-09,0.033181531896881,2021-07-20
"179",89,0.0666872027721309,1.7065663781054e-05,1.04881639945456e-09,0.0333436019104737,2021-07-21
"180",89.5,0.0669861014644116,1.66123042028611e-05,9.62057874911723e-10,0.0334930512132348,2021-07-21
"181",90,0.0672594678163311,1.61718653784031e-05,8.82474309399702e-10,0.0336297343494027,2021-07-22
"182",90.5,0.0675070511331058,1.57439609784991e-05,8.09472518377926e-10,0.0337535259712892,2021-07-22
"183",91,0.0677286412792895,1.53282164745804e-05,7.42508338333038e-10,0.0338643210108989,2021-07-23
"184",91.5,0.0679240688855436,1.49242687805794e-05,6.8108257781607e-10,0.0339620347833131,2021-07-23
"185",92,0.0680932054200716,1.4531765905261e-05,6.24737302677922e-10,0.0340466030224045,2021-07-24
"186",92.5,0.0682359631265952,1.41950495630354e-05,5.73052427943559e-10,0.0341179818498238,2021-07-24
"187",93,0.0683522948314631,1.38841475846906e-05,5.25642591035377e-10,0.0341761476785528,2021-07-25
"188",93.5,0.0684421936231566,1.35801278624045e-05,4.82154283139521e-10,0.0342210970526554,2021-07-25
"189",94,0.0685056924080877,1.32828379714502e-05,4.4226321742087e-10,0.0342528464251754,2021-07-26
"190",94.5,0.0685428633471693,1.29474903265361e-05,4.05671914547097e-10,0.0342714318764206,2021-07-26
"191",95,0.0685538171781763,1.26076096699801e-05,3.72107487592485e-10,0.0342769087751419,2021-07-27
"192",95.5,0.0685387024293949,1.22770455268625e-05,3.41319609869936e-10,0.0342693513853573,2021-07-27
"193",96,0.068497704530493,1.19555294894646e-05,3.13078650595744e-10,0.0342488524217858,2021-07-28
"194",96.5,0.0684310448269117,1.16428013004445e-05,2.87173964536184e-10,0.0342155225570428,2021-07-28
"195",97,0.0683389795044014,1.13386085925173e-05,2.63412322926975e-10,0.0341694898839069,2021-07-29
"196",97.5,0.0682217984305822,1.10427066368249e-05,2.41616474004669e-10,0.0341108993360993,2021-07-29
"197",98,0.0680798239206149,1.07548580996952e-05,2.21623822450664e-10,0.0340399120711194,2021-07-30
"198",98.5,0.0679134094342195,1.04748328074992e-05,2.03285217930979e-10,0.0339567048187524,2021-07-30
"199",99,0.0677229382113701,1.02024075193294e-05,1.86463843724705e-10,0.033861469198917,2021-07-31
"200",99.5,0.0675088218540431,9.93736570722667e-06,1.71034197177045e-10,0.0337544110125386,2021-07-31
"201",100,0.0672714988613869,9.67949734369853e-06,1.56881154394667e-10,0.033635749509134,2021-08-01
"202",100.5,0.0670114331256294,9.42859869627554e-06,1.43899112226711e-10,0.0335057166347643,2021-08-01
"203",101,0.0667291123959423,9.1844721288655e-06,1.31991201148814e-10,0.0333645562639667,2021-08-02
"204",101.5,0.0664250467173441,8.94519680533348e-06,1.21068563194261e-10,0.0332125234192063,2021-08-02
"205",102,0.0660997668515474,8.69708598154368e-06,1.11049689559644e-10,0.0330498834812985,2021-08-03
"206",102.5,0.0657538226864465,8.45587204667872e-06,1.01859812955864e-10,0.0328769113941531,2021-08-03
"207",103,0.0653877816407014,8.22136349447604e-06,9.34303501822008e-11,0.0326938908670659,2021-08-04
"208",103.5,0.0650022270696071,7.99337409884651e-06,8.56983907744732e-11,0.0325011135776527,2021-08-04
"209",104,0.0645977566781467,7.77172277094288e-06,7.86062279208636e-11,0.0322988783783765,2021-08-05
"210",104.5,0.0641749809468158,7.55623341993838e-06,7.21009281532407e-11,0.0320874905094584,2021-08-05
"211",105,0.0637345215754795,7.34673481742831e-06,6.61339366101713e-11,0.0318672608208067,2021-08-06
"212",105.5,0.0632770099501852,7.14306046536888e-06,6.0660714932364e-11,0.031638505005423,2021-08-06
"213",106,0.0628030856375024,6.94504846746928e-06,5.56404090940209e-11,0.0314015428465714,2021-08-07
"214",106.5,0.062313394910608,6.75254140395428e-06,5.10355446962674e-11,0.0311566974808218,2021-08-07
"215",107,0.0618085893109744,6.56538620961633e-06,4.68117474531538e-11,0.0309042946788931,2021-08-08
"216",107.5,0.06128932424916,6.38343405507753e-06,4.29374867881765e-11,0.0306446621460487,2021-08-08
"217",108,0.0607562576478407,6.20654023118359e-06,3.93838406312521e-11,0.0303781288436123,2021-08-09
"218",108.5,0.0602100486298696,6.03456403645307e-06,3.6124279663862e-11,0.030105024332997,2021-08-09
"219",109,0.0596513562538028,5.8673686675071e-06,3.31344694048486e-11,0.0298256781434687,2021-08-10
"220",109.5,0.0590808382989898,5.70482111240594e-06,3.03920886621517e-11,0.0295404191646909,2021-08-10
"221",110,0.0584991501019972,5.54679204682054e-06,2.78766629976181e-11,0.0292495750649369,2021-08-11
"222",110.5,0.0579069434458167,5.39315573296844e-06,2.55694119637994e-11,0.028953471735693,2021-08-11
"223",111,0.0573048655030007,5.24378992124517e-06,2.34531089742069e-11,0.0286524327632269,2021-08-12
"224",111.5,0.0566935578335783,5.09857575448334e-06,2.15119527625716e-11,0.0283467789275451,2021-08-12
"225",112,0.0560736554383265,4.95739767477358e-06,1.97314494729737e-11,0.0280368277290289,2021-08-13
"226",112.5,0.0554457858677072,4.82014333278243e-06,1.80983045018878e-11,0.0277228929429027,2021-08-13
"227",113,0.0548105683865378,4.68670349950392e-06,1.66003232858312e-11,0.0274052842015691,2021-08-14
"228",113.5,0.0541686131942282,4.57152757641478e-06,1.52263202949488e-11,0.0270843066047273,2021-08-14
"229",114,0.0535205207002055,4.46759658262027e-06,1.39660355540023e-11,0.0267602603570858,2021-08-15
"230",114.5,0.0528668808539503,4.37568183703819e-06,1.28100580683175e-11,0.0264334404333802,2021-08-15
"231",115,0.0522082725288846,4.28575560058798e-06,1.17497555836981e-11,0.0261041362703172,2021-08-16
"232",115.5,0.0515452629591895,4.19777306628135e-06,1.07772101565121e-11,0.0257726314849833,2021-08-16
"233",116,0.0508784072284769,4.11169046651888e-06,9.88515905346246e-12,0.025439203619181,2021-08-17
"234",116.5,0.0502082478091115,4.02746504850518e-06,9.06694054027102e-12,0.0251041239090892,2021-08-17
"235",117,0.0495353141508551,3.94505505025645e-06,8.31644415495062e-12,0.0247676570795858,2021-08-18
"236",117.5,0.0488601223174045,3.86441967718555e-06,7.62806509476481e-12,0.0244300611625163,2021-08-18
"237",118,0.0481831746693033,3.78551907925008e-06,6.99666237664326e-12,0.02409158733815,2021-08-19
"238",118.5,0.0475049595916308,3.70831432864948e-06,6.41752045895175e-12,0.0237524797990242,2021-08-19
"239",119,0.0468259512648084,3.63276739805756e-06,5.88631403832201e-12,0.0234129756353474,2021-08-20
"240",119.5,0.0461466094768102,3.54382960816472e-06,5.39907575892048e-12,0.0230733047411046,2021-08-20
"241",120,0.0454673794750268,3.45529618014696e-06,4.95216659325126e-12,0.0227336897399895,2021-08-21
"242",120.5,0.044788691856,3.36904281011343e-06,4.5422486735103e-12,0.0223943459302711,2021-08-21
"243",121,0.0441109624912253,3.27362016177837e-06,4.16626037078215e-12,0.0220554812476958,2021-08-22
"244",121.5,0.043434592487212,3.17870800490664e-06,3.82139343613473e-12,0.0217172962455167,2021-08-22
"245",122,0.0427599681779862,3.08656482392478e-06,3.50507203304527e-12,0.0213799840907456,2021-08-23
"246",122.5,0.0420874611482291,2.99710973012509e-06,3.21493350469721e-12,0.021043730575722,2021-08-23
"247",123,0.041789052040042,2.91026418413984e-06,2.94881073262812e-12,0.0208945260214954,2021-08-24
"248",123.5,0.0422136184244649,2.82595192881846e-06,2.70471595507891e-12,0.0211068092135848,2021-08-24
"249",124,0.0426327219228976,2.74409892395855e-06,2.48082592428348e-12,0.0213163609626892,2021-08-25
"250",124.5,0.0430460581280521,2.66463328284298e-06,2.27546829192636e-12,0.0215230290651638,2021-08-25
"251",125,0.0434533242153961,2.58748521053617e-06,2.08710912115841e-12,0.0217266621087416,2021-08-26
"252",125.5,0.0438542194125235,2.51258694389387e-06,1.91434143196552e-12,0.0219271097072189,2021-08-26
"253",126,0.0442484454708715,2.43987269324151e-06,1.75587469439493e-12,0.0221242227363137,2021-08-27
"254",126.5,0.0446357071384989,2.36927858567772e-06,1.61052519121606e-12,0.0223178535700547,2021-08-27
"255",127,0.0450157126326172,2.30074260996004e-06,1.4772071780801e-12,0.0225078563170472,2021-08-28
"256",127.5,0.0453881741105502,2.23420456293122e-06,1.35492477519335e-12,0.0226940870559526,2021-08-28
"257",128,0.0457528081377882,2.16960599744546e-06,1.24276452997797e-12,0.0228764040695155,2021-08-29
"258",128.5,0.0461093361517974,2.1068901717546e-06,1.13988859520106e-12,0.0230546680764687,2021-08-29
"259",129,0.0464574849202481,2.04600200031565e-06,1.0455284716458e-12,0.0232287424606468,2021-08-30
"260",129.5,0.046796986992333,1.9868880059816e-06,9.58979268611941e-13,0.023398493496646,2021-08-30
"261",130,0.0471275811418602,1.93911832148657e-06,8.79594439397083e-13,0.0235637905713699,2021-08-31
"262",130.5,0.0474490128008264,1.89340410555925e-06,8.06780952455577e-13,0.0237245064008166,2021-08-31
"263",131,0.0477610344822007,1.84877247457443e-06,7.39994862183469e-13,0.0238805172414704,2021-09-01
"264",131.5,0.0480634061906835,1.80519772141527e-06,6.78737246260685e-13,0.0240317030956811,2021-09-01
"265",132,0.0483558958202388,1.76265474908639e-06,6.22550479217742e-13,0.0241779479104307,2021-09-02
"266",132.5,0.0486382795372465,1.72111905632602e-06,5.71014814403943e-13,0.0243191397689088,2021-09-02
"267",133,0.0489103421481637,1.68056672355159e-06,5.23745248836121e-13,0.0244551710743437,2021-09-03
"268",133.5,0.0491718774506432,1.64097439913125e-06,4.80388647518625e-13,0.0245859387255618,2021-09-03
"269",134,0.0494226885671107,1.59954791185733e-06,4.40621105762223e-13,0.0247113442837757,2021-09-04
"270",134.5,0.0496625882598685,1.55503274278523e-06,4.04145529806277e-13,0.0248312941301363,2021-09-04
"271",135,0.0498913992268561,1.51176398840448e-06,3.70689417678304e-13,0.0249456996136134,2021-09-05
"272",135.5,0.0501089543772725,1.46970655528263e-06,3.40002823719879e-13,0.0250544771888063,2021-09-05
"273",136,0.0503150970863345,1.42882634273909e-06,3.11856491579105e-13,0.0251575485433232,2021-09-06
"274",136.5,0.0505096814285238,1.38909021466198e-06,2.86040141727587e-13,0.0252548407144049,2021-09-06
"275",137,0.0506925723887538,1.35046597212659e-06,2.6236090071358e-13,0.0253462861945081,2021-09-07
"276",137.5,0.0508636460509659,1.31292232679259e-06,2.40641860421215e-13,0.0254318230256033,2021-09-07
"277",138,0.0510227897637496,1.27790383801877e-06,2.20720756576394e-13,0.0255113948819851,2021-09-08
"278",138.5,0.0511699022826616,1.24690790435881e-06,2.02448756630316e-13,0.025584951141432,2021-09-08
"279",139,0.0513048938890033,1.21554096647675e-06,1.85689347968284e-13,0.0256524469445945,2021-09-09
"280",139.5,0.0514276864848996,1.18293188819419e-06,1.70317318140605e-13,0.025713843242535,2021-09-09
"281",140,0.0515382136646046,1.15121071897023e-06,1.56217819499461e-13,0.0257691068323804,2021-09-10
"282",140.5,0.0516364207620445,1.12035302513191e-06,1.43285511255999e-13,0.0258182103810939,2021-09-10
"283",141,0.0517222648746851,1.09033504855399e-06,1.31423772549919e-13,0.0258611324374083,2021-09-11
"284",141.5,0.0517957148638956,1.06035564651784e-06,1.20543980654203e-13,0.0258978574320081,2021-09-11
"285",142,0.0518567513320542,1.03065073707429e-06,1.10564848923994e-13,0.0259283756660824,2021-09-12
"286",142.5,0.0519053665767188,1.00178071324375e-06,1.0141181954479e-13,0.0259526832884101,2021-09-12
"287",143,0.0519415645222576,9.73722102648032e-07,9.30165065443673e-14,0.0259707822611753,2021-09-13
"288",143.5,0.0519653606294042,9.46452090213474e-07,8.53161849082237e-14,0.0259826803147448,2021-09-13
"289",144,0.0519767817832676,9.1994849995118e-07,7.82533219826055e-14,0.0259883908916729,2021-09-14
"290",144.5,0.0519758661603912,8.94189777232414e-07,7.1775147665041e-14,0.0259879330802315,2021-09-14
"291",145,0.0519626630755127,8.69154971546095e-07,6.5833260171951e-14,0.0259813315377893,2021-09-15
"292",145.5,0.0519372328087324,8.44823719725761e-07,6.03832644386269e-14,0.0259686164043964,2021-09-15
"293",146,0.0518996464138477,8.21176229633647e-07,5.53844404505823e-14,0.0259498232069515,2021-09-16
"294",146.5,0.0518499855086581,7.98193264289843e-07,5.07994390288318e-14,0.0259249927543544,2021-09-16
"295",147,0.0517883420480872,7.75856126434773e-07,4.65940027966981e-14,0.0258941710240669,2021-09-17
"296",147.5,0.0517148180810049,7.54146643513557e-07,4.27367102438289e-14,0.0258574090405238,2021-09-17
"297",148,0.0516295254916671,7.33047153071078e-07,3.91987409756141e-14,0.0258147627458532,2021-09-18
"298",148.5,0.0515325857267168,7.12540488546862e-07,3.59536603944337e-14,0.0257662928633764,2021-09-18
"299",149,0.0514241295087166,6.92609965459169e-07,3.29772222043029e-14,0.0257120647543748,2021-09-19
"300",149.5,0.0513042965371989,6.73239367967923e-07,3.02471872636108e-14,0.0256521482686146,2021-09-19
"301",150,0.0511732351782373,6.54412935806412e-07,2.77431574327583e-14,0.0255866175891325,2021-09-20
"302",150.5,0.0510311021435523,6.36115351571911e-07,2.5446423175503e-14,0.0255155510717889,2021-09-20
"303",151,0.0508780621601687,6.18331728365639e-07,2.33398237755544e-14,0.025439031080096,2021-09-21
"304",151.5,0.0507142876316474,6.01047597772723e-07,2.14076191241925e-14,0.0253571438158344,2021-09-21
"305",152,0.0505399582919086,5.84248898173048e-07,1.96353721211137e-14,0.0252699791459641,2021-09-22
"306",152.5,0.0503552608526596,5.67921963374125e-07,1.80098408099886e-14,0.0251776304263388,2021-09-22
"307",153,0.05016038864543,5.52053511557334e-07,1.65188794429301e-14,0.0250801943227233,2021-09-23
"308",153.5,0.0499555412592039,5.36630634529118e-07,1.51513477347707e-14,0.0249777706296095,2021-09-23
"309",154,0.0497409241746216,5.2164078726891e-07,1.38970276292227e-14,0.0248704620873177,2021-09-24
"310",154.5,0.0495167483957056,5.07071777765809e-07,1.27465469551126e-14,0.0247583741978592,2021-09-24
"311",155,0.0492832300800402,4.9291175713621e-07,1.1691309402347e-14,0.024641615040026,2021-09-25
"312",155.5,0.0490405901683124,4.80638397048786e-07,1.07234302944783e-14,0.0245202950841616,2021-09-25
"313",156,0.0487890540140903,4.68831687676904e-07,9.83567767804181e-15,0.02439452700705,2021-09-26
"314",156.5,0.0485288510146898,4.5731531413171e-07,9.02141828855057e-15,0.0242644255073494,2021-09-26
"315",157,0.0482602142439453,4.46082133405531e-07,8.27456798946697e-15,0.0241301071219768,2021-09-27
"316",157.5,0.0479833800876675,4.35125178132145e-07,7.58954631388449e-15,0.0239916900438376,2021-09-27
"317",158,0.0476985878825377,4.24437652278009e-07,6.96123476930148e-15,0.0238492939412723,2021-09-28
"318",158.5,0.0474060795591504,4.14012926938593e-07,6.38493859398202e-15,0.0237030397795784,2021-09-28
"319",159,0.0471060992898792,4.03844536237293e-07,5.85635167918336e-15,0.0235530496449425,2021-09-29
"320",159.5,0.0467988931422025,3.93926173324447e-07,5.37152439518112e-15,0.0233994465711039,2021-09-29
"321",160,0.0464847087380874,3.84251686474034e-07,4.9268340807163e-15,0.0232423543690462,2021-09-30
"322",160.5,0.0461637949199903,3.74815075275707e-07,4.51895797538599e-15,0.0230818974599974,2021-09-30
"323",161,0.045836401423993,3.6561048691984e-07,4.14484839275027e-15,0.0229182007119986,2021-10-01
"324",161.5,0.045502778560554,3.56632212573353e-07,3.80170994866791e-15,0.0227513892802789,2021-10-01
"325",162,0.0451631769033156,3.47874683844117e-07,3.48697867472756e-15,0.0225815884516595,2021-10-02
"326",162.5,0.0448178469863659,3.39332469331785e-07,3.19830286072466e-15,0.0224089234931846,2021-10-02
"327",163,0.0444670390103193,3.3100027126297e-07,2.93352548305186e-15,0.0222335195051611,2021-10-03
"328",163.5,0.0441110025575372,3.22872922208719e-07,2.69066808771902e-15,0.02205550127877,2021-10-03
"329",164,0.0437499863167762,3.14945381882287e-07,2.46791600758657e-15,0.0218749931583893,2021-10-04
"330",164.5,0.0433842378175109,3.07212734015274e-07,2.26360480336383e-15,0.0216921189087566,2021-10-04
"331",165,0.0430140031741459,2.99670183310201e-07,2.07620782706689e-15,0.021507001587074,2021-10-05
"332",165.5,0.0426395268402933,2.92313052467706e-07,1.90432481501667e-15,0.0213197634201476,2021-10-05
"333",166,0.04226105137326,2.85136779286509e-07,1.74667142514965e-15,0.0211305256866309,2021-10-06
"334",166.5,0.0418788172088563,2.78136913834411e-07,1.60206964046896e-15,0.0209394086044289,2021-10-06
"335",167,0.0414930624466044,2.71309115688575e-07,1.46943896693454e-15,0.020746531223303,2021-10-07
"336",167.5,0.0411040226453972,2.64649151243429e-07,1.3477883600268e-15,0.0205520113226993,2021-10-07
"337",168,0.0407119306296259,2.58152891084525e-07,1.23620881966204e-15,0.0203559653148135,2021-10-08
"338",168.5,0.0403170163057705,2.51816307426763e-07,1.13386659813169e-15,0.0201585081528858,2021-10-08
"339",169,0.0399195064894197,2.4563547161541e-07,1.03999697031739e-15,0.0199597532447104,2021-10-09
"340",169.5,0.0395196247426598,2.39606551688384e-07,9.53898519634873e-16,0.0197598123713304,2021-10-09
"341",170,0.0391175912217534,2.33725809998313e-07,8.74927897013022e-16,0.0195587956108771,2021-10-10
"342",170.5,0.0387136225350031,2.2798960089291e-07,8.02495013748587e-16,0.0193568112675019,2021-10-10
"343",171,0.0383079316106751,2.22394368452244e-07,7.36058632318836e-16,0.0191539658053379,2021-10-11
"344",171.5,0.0379007275748418,2.16936644281528e-07,6.75122322207705e-16,0.0189503637874213,2021-10-11
"345",172,0.0374922156389798,2.11613045358052e-07,6.19230750528271e-16,0.0187461078194902,2021-10-12
"346",172.5,0.0370825969971485,2.06420271930961e-07,5.67966279725795e-16,0.0185412984985745,2021-10-12
"347",173,0.0366720687325557,2.01355105472573e-07,5.20945846939987e-16,0.0183360343662781,2021-10-13
"348",173.5,0.0362608237333062,1.96414406679989e-07,4.77818101709582e-16,0.0181304118666533,2021-10-13
"349",174,0.0358490506171133,1.91595113525761e-07,4.38260780632563e-16,0.0179245253085569,2021-10-14
"350",174.5,0.0354369336647478,1.86894239356418e-07,4.01978299365822e-16,0.0177184668323741,2021-10-14
"351",175,0.0350246527619831,1.823088710377e-07,3.68699543971926e-16,0.0175123263809917,2021-10-15
"352",175.5,0.0346123833497911,1.77836167145323e-07,3.38175845110162e-16,0.0173061916748957,2021-10-15
"353",176,0.0342002963825351,1.73473356200203e-07,3.10179119935138e-16,0.0171001481912677,2021-10-16
"354",176.5,0.0337885582938985,1.69217734947018e-07,2.84500167819342e-16,0.0168942791469494,2021-10-16
"355",177,0.0333773309702837,1.65066666675071e-07,2.60947107165354e-16,0.016688665485142,2021-10-17
"356",177.5,0.0329667717314127,1.61017579580407e-07,2.39343941627645e-16,0.0164833858657065,2021-10-17
"357",178,0.032557033317856,1.57067965168183e-07,2.19529245030769e-16,0.0162785166589281,2021-10-18
"358",178.5,0.0321482638852148,1.53215376694295e-07,2.0135495515768e-16,0.0160741319426075,2021-10-18
"359",179,0.0317406070046802,1.49457427645315e-07,1.84685267395327e-16,0.0158703035023402,2021-10-19
"360",179.5,0.0313342016696937,1.4579179025579e-07,1.69395619970849e-16,0.015667100834847,2021-10-19
"361",180,0.030929182308431,1.42216194061991e-07,1.55371763195977e-16,0.0154645911542156,2021-10-20
"362",180.5,0.0305256788018345,1.38728424491219e-07,1.42508905765033e-16,0.0152628394009173,2021-10-20
"363",181,0.0301238165069211,1.35326321485806e-07,1.3071093172758e-16,0.0150619082534606,2021-10-21
"364",181.5,0.0297237162850925,1.32007778160935e-07,1.19889682284897e-16,0.0148618581425463,2021-10-21
"365",182,0.0293254945351812,1.28770739495488e-07,1.09964297043805e-16,0.0146627472675907,2021-10-22
"366",182.5,0.0289292632309653,1.25613201055077e-07,1.00860609805626e-16,0.0144646316154827,2021-10-22
"367",183,0.0285351299628921,1.22533207746494e-07,9.25105943755326e-17,0.0142675649814461,2021-10-23
"368",183.5,0.0281431979837534,1.19528852602794e-07,8.48518562513381e-17,0.0140715989918767,2021-10-23
"369",184,0.0277535662580601,1.16598275598269e-07,7.78271663935293e-17,0.0138767831290301,2021-10-24
"370",184.5,0.02736632951487,1.13739662492576e-07,7.13840335928308e-17,0.013683164757435,2021-10-24
"371",185,0.0269815783038259,1.10951243703304e-07,6.54743122399557e-17,0.013490789151913,2021-10-25
"372",185.5,0.0265993990541711,1.08231293206283e-07,6.00538425667403e-17,0.0132996995270856,2021-10-25
"373",186,0.0262198741365092,1.0557812746295e-07,5.5082120670484e-17,0.0131099370682546,2021-10-26
"374",186.5,0.0258430819270887,1.02990104374123e-07,5.05219958558585e-17,0.0129215409635444,2021-10-26
"375",187,0.0254690968743923,1.0046562225951e-07,4.63393930328683e-17,0.0127345484371962,2021-10-27
"376",187.5,0.0250979895678226,9.80031188623403e-08,4.25030580965675e-17,0.0125489947839113,2021-10-27
"377",188,0.0247298268082803,9.56010703785006e-08,3.89843243859582e-17,0.0123649134041402,2021-10-28
"378",188.5,0.0243646716804377,9.32579905095606e-08,3.57568984770023e-17,0.0121823358402189,2021-10-28
"379",189,0.0240025836265185,9.09724295391153e-08,3.2796663709146e-17,0.0120012918132593,2021-10-29
"380",189.5,0.0236436185214007,8.87429734318644e-08,3.0081499977263e-17,0.0118218092607004,2021-10-29
"381",190,0.0232878287488667,8.65682429548711e-08,2.75911184424583e-17,0.0116439143744334,2021-10-30
"382",190.5,0.0229352632788323,8.44468928204571e-08,2.53069099266553e-17,0.0114676316394162,2021-10-30
"383",191,0.0225859677453919,8.23776108501996e-08,2.32118058581292e-17,0.011292983872696,2021-10-31
"384",191.5,0.022239984525526,8.03591171595137e-08,2.12901507289396e-17,0.011119992262763,2021-10-31
"385",192,0.0218973528183227,7.83901633623132e-08,1.95275851112296e-17,0.0109486764091614,2021-11-01
"386",192.5,0.0215581087245711,7.64695317952571e-08,1.79109383582576e-17,0.0107790543622856,2021-11-01
"387",193,0.0212222853265938,7.45960347610985e-08,1.64281301883957e-17,0.0106111426632969,2021-11-02
"388",193.5,0.0208899127681894,7.27685137906684e-08,1.50680804167015e-17,0.0104449563840947,2021-11-02
"389",194,0.0205610183345647,7.09858389230352e-08,1.38206261595537e-17,0.0102805091672824,2021-11-03
"390",194.5,0.0202356265321407,6.9246908003392e-08,1.26764458936778e-17,0.0101178132660704,2021-11-03
"391",195,0.0199931633116208,6.75506459982372e-08,1.1626989802111e-17,0.00999658165581041,2021-11-04
"392",195.5,0.0197548654803698,6.58960043274226e-08,1.06644158866285e-17,0.00987743274018492,2021-11-04
"393",196,0.0195177889780433,6.42819602126533e-08,9.7815313692439e-18,0.00975889448902165,2021-11-05
"394",196.5,0.0192819765704254,6.27075160420351e-08,8.97173894491855e-18,0.00964098828521273,2021-11-05
"395",197,0.0190474694035054,6.11716987502757e-08,8.2289874838609e-18,0.00952373470175268,2021-11-06
"396",197.5,0.0188143070217639,5.9673559214152e-08,7.54772681504938e-18,0.00940715351088198,2021-11-06
"397",198,0.0185825273873405,5.82121716628704e-08,6.92286625310529e-18,0.00929126369367023,2021-11-07
"398",198.5,0.0183521669000214,5.67866331029523e-08,6.34973655861529e-18,0.00917608345001069,2021-11-07
"399",199,0.0181232604179964,5.5396062757287e-08,5.82405504765777e-18,0.00906163020899818,2021-11-08
"400",199.5,0.0178958412793267,5.40396015180043e-08,5.34189358981991e-18,0.00894792063966337,2021-11-08
"401",200,0.0176699413240736,5.27164114128257e-08,4.89964925557519e-18,0.00883497066203679,2021-11-09
"402",200.5,0.0174455909170337,5.14256750845634e-08,4.49401739368858e-18,0.00872279545851687,2021-11-09
"403",201,0.0172910087353904,5.01665952834419e-08,4.12196693747397e-18,0.00864550436769521,2021-11-10
"404",201.5,0.0172591313036698,4.89383943719282e-08,3.78071775538346e-18,0.00862956565183491,2021-11-10
