"","time","top","med","bottom","pseudo_med","date"
"1",0,0.010340121240203,0.00177658422866031,5.17292539313536e-05,0.00519592524706715,2021-04-23
"2",0.5,0.00974718111813384,0.00173317218701373,0.0001013219991258,0.00492425155862982,2021-04-23
"3",1,0.00918989708659769,0.00167891376238244,0.000143461364065315,0.0046666792253315,2021-04-24
"4",1.5,0.00866611739744025,0.00159648806674068,0.000178997986773861,0.00442255769210706,2021-04-24
"5",2,0.00817382018116103,0.00152922678838476,0.000183690318926945,0.00417875525004399,2021-04-25
"6",2.5,0.00771110560746228,0.00149144798017687,0.000183648195381834,0.00394737690142206,2021-04-25
"7",3,0.00727618851898516,0.00146652339634117,0.000183332690396162,0.00372976060469066,2021-04-26
"8",3.5,0.00686739150967157,0.00140627556242539,0.000182765115351583,0.00352507831251157,2021-04-26
"9",4,0.00648313842091414,0.00136263650282582,0.000181965537034785,0.00333255197897446,2021-04-27
"10",4.5,0.00612194823027686,0.00132403268524072,0.000180952842267156,0.00315145053627201,2021-04-27
"11",5,0.00578242930909087,0.00126176109042988,0.000179744799386425,0.00298108705423865,2021-04-28
"12",5.5,0.0054632740266602,0.00121780640425331,0.000178358116727539,0.00282081607169387,2021-04-28
"13",6,0.00516325368015626,0.00116200973269149,0.000176808498243351,0.00267003108919981,2021-04-29
"14",6.5,0.0048812137305425,0.00113012975987829,0.000175110696399307,0.0025281622134709,2021-04-29
"15",7,0.00461606932605739,0.00108526753695477,0.000173278562470165,0.00239467394426378,2021-04-30
"16",7.5,0.00436680109589888,0.00103693167893482,0.000171325094360988,0.00226906309512993,2021-04-30
"17",8,0.00413245119780082,0.00100795202683747,0.000169262482069014,0.00215085683993492,2021-05-01
"18",8.5,0.00391211960417677,0.000984054327532356,0.000167102150897723,0.00203961087753725,2021-05-01
"19",9,0.00370496061243116,0.000963526400574003,0.00016485480252929,0.00193490770748023,2021-05-02
"20",9.5,0.00351017956590719,0.000936042576877734,0.000162530454056768,0.00183635500998198,2021-05-02
"21",10,0.00332702977275744,0.000903034609469906,0.00016013847507269,0.00174358412391507,2021-05-03
"22",10.5,0.0031548096107908,0.000876776341823424,0.000157687622906337,0.00165624861684857,2021-05-03
"23",11,0.00300098447699511,0.000843545655931505,0.00015518607609768,0.0015780852765464,2021-05-04
"24",11.5,0.00287954807594576,0.000829963556874104,0.000152641466191956,0.00151609477106886,2021-05-04
"25",12,0.00276306413126552,0.000799260387787021,0.000150060907934973,0.00145656251960024,2021-05-05
"26",12.5,0.0026513290235278,0.000785527493639868,0.000146322503636142,0.00139882576358197,2021-05-05
"27",13,0.00254414757563269,0.000764767813168794,0.000139746449088866,0.00134194701236078,2021-05-06
"28",13.5,0.00245352404280961,0.000737515893378739,0.000133315429640582,0.00129341973622509,2021-05-06
"29",14,0.00238169156366972,0.000704603999035378,0.00012704706027966,0.00125436931197469,2021-05-07
"30",14.5,0.0023118011632576,0.000677564501376078,0.000120955230162041,0.00121637819670982,2021-05-07
"31",15,0.00225423929917926,0.000661389625522951,0.000115050590533134,0.0011846449448562,2021-05-08
"32",15.5,0.00227432239060102,0.000638408111234401,0.0001093409875748,0.00119183168908791,2021-05-08
"33",16,0.00229466081890311,0.000620123750914055,0.000103831845974974,0.00119924633243904,2021-05-09
"34",16.5,0.00231525299199792,0.000608381070864498,9.85265084303212e-05,0.00120688975021412,2021-05-09
"35",17,0.00233609739152838,0.000595512871208042,9.34265357633087e-05,0.00121476196364584,2021-05-10
"36",17.5,0.00235719256933176,0.000578787273198627,8.85319718584408e-05,0.0012228622705951,2021-05-10
"37",18,0.00237853714400504,0.000561912553791562,8.38415771930683e-05,0.00123118936059905,2021-05-11
"38",18.5,0.00240012979756807,0.000535988869362648,7.93530343515618e-05,0.00123974141595981,2021-05-11
"39",19,0.00242196927222087,0.000518506997898206,7.50631285635134e-05,0.00124851620039219,2021-05-12
"40",19.5,0.0024440543671914,0.000508260064689418,7.09679059932528e-05,0.00125751113659232,2021-05-12
"41",20,0.00246638393567026,0.000490631721175477,6.70628122259307e-05,0.0012667233739481,2021-05-13
"42",20.5,0.00248895688182928,0.000475200591572967,6.33428131416493e-05,0.00127614984748546,2021-05-13
"43",21,0.00251177215792042,0.000456947441166295,5.98025001408339e-05,0.00128578732903063,2021-05-14
"44",21.5,0.00253482876145221,0.000443405862736537,5.6436181478733e-05,0.00129563247146547,2021-05-14
"45",22,0.00255812573244051,0.000427716239069053,5.32379612823435e-05,0.00130568184686143,2021-05-15
"46",22.5,0.002581662150731,0.000414918404035367,5.02018076571302e-05,0.00131593197919406,2021-05-15
"47",23,0.00260543713339028,0.000397183109008701,4.7321611141814e-05,0.00132637937226605,2021-05-16
"48",23.5,0.00262944983216337,0.000387322965097172,4.45912346355583e-05,0.00133702053339946,2021-05-16
"49",24,0.00265369943099465,0.000376093867260136,4.20045558015983e-05,0.00134785199339812,2021-05-17
"50",24.5,0.00267818514361007,0.000363371297142134,3.9555502843368e-05,0.00135887032322672,2021-05-17
"51",25,0.00270290621115813,0.000348887511863357,3.72380844522666e-05,0.0013700721478052,2021-05-18
"52",25.5,0.00272786189990749,0.000334356476893564,3.50464146392598e-05,0.00138145415727337,2021-05-18
"53",26,0.0027530514989988,0.000320406414815522,3.29747330845398e-05,0.00139301311604167,2021-05-19
"54",26.5,0.00277847431824897,0.000312098878700385,3.10174215695749e-05,0.00140474586990927,2021-05-19
"55",27,0.00280412968600567,0.000301272142490638,2.91690169932445e-05,0.00141664935149946,2021-05-20
"56",27.5,0.00283001694705008,0.00028900298582,2.74242214176645e-05,0.00142872058423387,2021-05-20
"57",28,0.0028561354605463,0.000280744836116339,2.5777909539083e-05,0.00144095668504269,2021-05-21
"58",28.5,0.00288248459803537,0.00027258412475982,2.42251339342956e-05,0.00145335486598483,2021-05-21
"59",29,0.00290906374147235,0.000261720011498716,2.27611283928351e-05,0.00146591243493259,2021-05-22
"60",29.5,0.00293587228130482,0.000250000683922011,2.13813096092711e-05,0.00147862679545705,2021-05-22
"61",30,0.00296290961459118,0.000239941706193916,2.00812774778623e-05,0.00149149544603452,2021-05-23
"62",30.5,0.00299017514315728,0.0002312138557729,1.88568142031548e-05,0.00150451597868022,2021-05-23
"63",31,0.00301766827179008,0.00022614191286353,1.77038824145545e-05,0.00151768607710232,2021-05-24
"64",31.5,0.00304538840646669,0.000219630115878731,1.66186224501158e-05,0.0015310035144584,2021-05-24
"65",32,0.0030733349526178,0.000214424881548087,1.5597348954478e-05,0.00154446615078614,2021-05-25
"66",32.5,0.00310150731342403,0.000210064484993062,1.46365469178086e-05,0.00155807193017092,2021-05-25
"67",33,0.00312990488814419,0.000200736911157424,1.37328672665318e-05,0.00157181887770536,2021-05-26
"68",33.5,0.00315852707047408,0.000191703527406771,1.28831221023335e-05,0.0015857050962882,2021-05-26
"69",34,0.00318737324693506,0.000184270593635824,1.20842796732442e-05,0.00159972876330415,2021-05-27
"70",34.5,0.00321644279529116,0.000178274878955056,1.13334591493546e-05,0.00161388812722026,2021-05-27
"71",35,0.00324573508299372,0.000173307007542111,1.06279252657456e-05,0.00162818150412973,2021-05-28
"72",35.5,0.00327524946565292,0.00016869492498297,9.96508288639596e-06,0.00164260727426966,2021-05-28
"73",36,0.00330498528553492,0.00016665976194549,9.34247153503504e-06,0.00165716387853498,2021-05-29
"74",36.5,0.00333494187008425,0.000163829068880093,8.6908834636945e-06,0.00167181637677397,2021-05-29
"75",37,0.00336511853047018,0.000160726520616329,8.04134359179709e-06,0.00168657993703099,2021-05-30
"76",37.5,0.00339551456015683,0.000157276335247699,7.44019436015968e-06,0.00170147737725849,2021-05-30
"77",38,0.0034261292334959,0.000151926449949979,6.88384891539601e-06,0.00171650654120565,2021-05-31
"78",38.5,0.00345696180434171,0.000147611002451336,6.36898411398239e-06,0.00173166539422785,2021-05-31
"79",39,0.0034880115046877,0.000143089783215528,5.89252139055805e-06,0.00174695201303913,2021-06-01
"80",39.5,0.00351927754332403,0.000137894853380529,5.45160898344343e-06,0.00176236457615374,2021-06-01
"81",40,0.00355075910451558,0.000133857405765716,5.04360542482991e-06,0.0017779013549702,2021-06-02
"82",40.5,0.0035824553467,0.00012994789827922,4.66606420894125e-06,0.00179356070545447,2021-06-02
"83",41,0.00361436540120532,0.000127137002301377,4.31671955700413e-06,0.00180934106038116,2021-06-03
"84",41.5,0.00364648837098667,0.000124522009528819,3.99347320310078e-06,0.00182524092209489,2021-06-03
"85",42,0.00367882332938178,0.000121977566177779,3.69438212992037e-06,0.00184125885575585,2021-06-04
"86",42.5,0.00371136931888496,0.000119942437690343,3.4176471880874e-06,0.00185739348303652,2021-06-04
"87",43,0.00374412534993914,0.000117854646187513,3.16160253713518e-06,0.00187364347623814,2021-06-05
"88",43.5,0.00377709039974588,0.000114610160921523,2.9247058503227e-06,0.0018900075527981,2021-06-05
"89",44,0.00381026341109286,0.000110994178005543,2.70552922937382e-06,0.00190648447016112,2021-06-06
"90",44.5,0.00384364329119895,0.000107499559621029,2.50275077886165e-06,0.0019230730209889,2021-06-06
"91",45,0.00387722891057641,0.000104124381757501,2.31514679337863e-06,0.00193977202868489,2021-06-07
"92",45.5,0.00391101910191026,0.000102285010367052,2.14158451383578e-06,0.00195658034321205,2021-06-07
"93",46,0.00394501265895461,0.000100919956485456,1.98101541223482e-06,0.00197349683718342,2021-06-08
"94",46.5,0.00397920833544591,9.94528880895425e-05,1.83246896706389e-06,0.00199052040220649,2021-06-08
"95",47,0.00401360484403307,9.71517540332928e-05,1.69504689409306e-06,0.00200764994546358,2021-06-09
"96",47.5,0.00404820085522434,9.35131840730585e-05,1.56791779979989e-06,0.00202488438651207,2021-06-09
"97",48,0.00408299499635111,8.98472845331642e-05,1.45031222694703e-06,0.00204222265428903,2021-06-10
"98",48.5,0.00411798585054843,8.6080816821459e-05,1.34151806397416e-06,0.0020596636843062,2021-06-10
"99",49,0.00415317195575255,8.29520778852543e-05,1.2408762918628e-06,0.00207720641602221,2021-06-11
"100",49.5,0.00418855180371534,7.957932655233e-05,1.14777704399514e-06,0.00209484979037967,2021-06-11
"101",50,0.00422412383903581,7.62951517027706e-05,1.06165595626397e-06,0.00211259274749603,2021-06-12
"102",50.5,0.00425988645820883,7.42895766254469e-05,9.81990786308332e-07,0.00213043422449757,2021-06-12
"103",51,0.00429583800869121,7.29465677844622e-05,9.08298282256941e-07,0.00214837315348673,2021-06-13
"104",51.5,0.00433197678798518,7.09979249614566e-05,8.40131282763832e-07,0.00216640845963397,2021-06-13
"105",52,0.00436830104273974,6.90011266684928e-05,7.77076031427351e-07,0.00218453905938558,2021-06-14
"106",52.5,0.00440480896786975,6.67757120241911e-05,7.18749689898458e-07,0.00220276385877982,2021-06-14
"107",53,0.00444149870569326,6.4673201168324e-05,6.64798035114927e-07,0.00222108175186419,2021-06-15
"108",53.5,0.00447836834508722,6.23557399930246e-05,6.14893327149198e-07,0.00223949161920718,2021-06-15
"109",54,0.0045154159206618,6.02088117124913e-05,5.68732335134954e-07,0.00225799232649847,2021-06-16
"110",54.5,0.00455263941195375,5.81645832586616e-05,5.26034509645823e-07,0.0022765827232317,2021-06-16
"111",55,0.00459003674263895,5.61888033558008e-05,4.8654029074363e-07,0.00229526164146485,2021-06-17
"112",55.5,0.00462760577976457,5.42792302525206e-05,4.50009541697717e-07,0.00231402789465313,2021-06-17
"113",56,0.00466534433300115,5.24336929261628e-05,4.16220099105071e-07,0.00233288027655013,2021-06-18
"114",56.5,0.00470325015391503,5.06500890014388e-05,3.84966430817233e-07,0.00235181756017293,2021-06-18
"115",57,0.00474132093526133,4.89263827214289e-05,3.56058393707784e-07,0.00237083849682752,2021-06-19
"116",57.5,0.00477955431029808,4.72606029702008e-05,3.29320083896928e-07,0.00238994181519099,2021-06-19
"117",58,0.00481794785212173,4.56942853974937e-05,3.0458877259052e-07,0.00240912622044716,2021-06-20
"118",58.5,0.00485649907302463,4.4275632412942e-05,2.81713921192728e-07,0.00242839039347291,2021-06-20
"119",59,0.00489520542387465,4.29006724610949e-05,2.60556269817066e-07,0.00244773299007223,2021-06-21
"120",59.5,0.00493406429351773,4.15680831602769e-05,2.40986993752418e-07,0.00246715264025574,2021-06-21
"121",60,0.00497307300820347,4.02765806935561e-05,2.2288692284122e-07,0.00248664794756315,2021-06-22
"122",60.5,0.00501222883103444,3.90249187744856e-05,2.06145819098405e-07,0.00250621748842677,2021-06-22
"123",61,0.00505152896143965,3.78917648143443e-05,1.90661708244142e-07,0.00252585981157394,2021-06-23
"124",61.5,0.00509097053467257,3.70419659379658e-05,1.76340261142711e-07,0.00254557343746686,2021-06-23
"125",62,0.00513055062133433,3.62129019236853e-05,1.63094221435849e-07,0.00256535685777788,2021-06-24
"126",62.5,0.00517026622692243,3.54040364416185e-05,1.50842875933296e-07,0.00258520853489918,2021-06-24
"127",63,0.00521011429140569,3.46148475154358e-05,1.39511564577527e-07,0.00260512690148514,2021-06-25
"128",63.5,0.00525009168882571,3.36303699346442e-05,1.29031227035324e-07,0.00262511036002637,2021-06-25
"129",64,0.00529019522692552,3.25782736240212e-05,1.19337983187187e-07,0.00264515728245436,2021-06-26
"130",64.5,0.00533042164680597,3.15590581952042e-05,1.10372744987915e-07,0.00266526600977548,2021-06-26
"131",65,0.00537076762261017,3.05716994951414e-05,1.02080857359103e-07,0.00268543485173377,2021-06-27
"132",65.5,0.00541122976123681,2.96152050430035e-05,9.44117659479656e-08,0.00270566208650138,2021-06-27
"133",66,0.00545180460208264,2.86886130636494e-05,8.73187097477177e-08,0.00272594596039619,2021-06-28
"134",66.5,0.00549248861681479,2.77909915498965e-05,8.07584367237409e-08,0.00274628468762576,2021-06-28
"135",67,0.00553327820917345,2.69214373527747e-05,7.46909407277337e-08,0.00276667645005709,2021-06-29
"136",67.5,0.00557416971480534,2.60790752989601e-05,6.9079218109833e-08,0.00278711939701172,2021-06-29
"137",68,0.00561515940112868,2.52630573346121e-05,6.38890425570329e-08,0.00280761164508562,2021-06-30
"138",68.5,0.00565624346723005,2.44725616948512e-05,5.90887567958027e-08,0.00282815127799342,2021-06-30
"139",69,0.00569741804379369,2.37067920981416e-05,5.46490798982732e-08,0.00284873634643679,2021-07-01
"140",69.5,0.00573867919306388,2.29649769648573e-05,5.05429290253012e-08,0.00286936486799645,2021-07-01
"141",70,0.00578002290884078,2.22463686593335e-05,4.67452545267051e-08,0.00289003482704765,2021-07-02
"142",70.5,0.00582144511651029,2.15502427547212e-05,4.32328873994831e-08,0.00291074417469884,2021-07-02
"143",71,0.00586294167310854,2.08758973199836e-05,3.99843981793736e-08,0.00293149082875336,2021-07-03
"144",71.5,0.00590450836742133,2.02226522283891e-05,3.69799664101247e-08,0.00295227267369387,2021-07-03
"145",72,0.00594614092011924,1.95898484868751e-05,3.42012598987151e-08,0.00297308756068957,2021-07-04
"146",72.5,0.00598783498392863,1.89768475856717e-05,3.16313230238966e-08,0.00299393330762582,2021-07-04
"147",73,0.00602958614383928,1.83830308675933e-05,2.92544734201595e-08,0.00301480769915635,2021-07-05
"148",73.5,0.00607138991734898,1.78077989164218e-05,2.70562064098688e-08,0.00303570848677769,2021-07-05
"149",74,0.00611324175474547,1.72505709638199e-05,2.50231066032089e-08,0.00305663338892603,2021-07-06
"150",74.5,0.00615513703942638,1.67107843142305e-05,2.31427661289559e-08,0.00307758009109626,2021-07-06
"151",75,0.00619707108825742,1.61718157365778e-05,2.14037089992561e-08,0.00309854624598321,2021-07-07
"152",75.5,0.00623903915196924,1.56317213979464e-05,1.97953211487463e-08,0.00311952947364519,2021-07-07
"153",76,0.00633521635680702,1.51095984075319e-05,1.83077857227425e-08,0.00316761733229637,2021-07-08
"154",76.5,0.00643321799526388,1.45986751931155e-05,1.69320232210446e-08,0.00321661746364355,2021-07-08
"155",77,0.00653244471089333,1.40698105846634e-05,1.56596361333538e-08,0.00326623018526473,2021-07-09
"156",77.5,0.00663290192907144,1.35602921105355e-05,1.4482857729545e-08,0.00331645820596458,2021-07-09
"157",78,0.00673459474588096,1.30694044968912e-05,1.33945046932534e-08,0.00336730407019283,2021-07-10
"158",78.5,0.00683752791391957,1.25964592247808e-05,1.2387933310562e-08,0.00341877015092644,2021-07-10
"159",79,0.00694170582788689,1.21407935166612e-05,1.1456998947163e-08,0.00347085864244292,2021-07-11
"160",79.5,0.00704713250995573,1.170176936183e-05,1.05960185673411e-08,0.00352357155298715,2021-07-11
"161",80,0.00715381159493367,1.12787725792589e-05,9.79973606660212e-09,0.00357691069733487,2021-07-12
"162",80.5,0.00726174631522197,1.08811251256464e-05,9.06329020687146e-09,0.00363087768925609,2021-07-12
"163",81,0.00737093948557913,1.05765698174922e-05,8.38218495900396e-09,0.00368547393388205,2021-07-13
"164",81.5,0.00748139348769767,1.0280897500326e-05,7.75226207198039e-09,0.00374070061997987,2021-07-13
"165",82,0.00759311025460279,9.99383841258783e-06,7.16967570170747e-09,0.00379655871213924,2021-07-14
"166",82.5,0.00770609125488295,9.71181273966464e-06,6.63086894486334e-09,0.00385304894287595,2021-07-14
"167",83,0.00782033747676276,9.38694970165931e-06,6.13255213481925e-09,0.00391017180465745,2021-07-15
"168",83.5,0.00793584941202944,9.07292688820674e-06,5.67168276738875e-09,0.00396792754185611,2021-07-15
"169",84,0.00805262703982515,8.76938415499984e-06,5.24544693407404e-09,0.00402631614263604,2021-07-16
"170",84.5,0.00817066981031785,8.47597322935051e-06,4.85124214965336e-09,0.00408533733078,2021-07-16
"171",85,0.00828997662826474,8.19235732438886e-06,4.48666146944183e-09,0.00414499055746311,2021-07-17
"172",85.5,0.00841054583648271,7.91821076547111e-06,4.14947879940904e-09,0.00420527499298075,2021-07-17
"173",86,0.00853237519924121,7.65321862842994e-06,3.83763530960073e-09,0.00426618951843826,2021-07-18
"174",86.5,0.00865546188559415,7.39707638931014e-06,3.54922686803037e-09,0.00432773271741051,2021-07-18
"175",87,0.00877980245266767,7.15995137945459e-06,3.28249241842217e-09,0.00438990286758004,2021-07-19
"176",87.5,0.00890539282892217,6.93586210670242e-06,3.03580323093621e-09,0.0044526979323627,2021-07-19
"177",88,0.00903222829740748,6.71880906166265e-06,2.8076529603249e-09,0.00451611555253022,2021-07-20
"178",88.5,0.00916030347903097,6.50857119089048e-06,2.59664845088957e-09,0.00458015303783971,2021-07-20
"179",89,0.00928961231585951,6.30493435526269e-06,2.40150123215664e-09,0.00464480735868037,2021-07-21
"180",89.5,0.00942014805447694,6.10769111664157e-06,2.22101965340201e-09,0.0047100751377483,2021-07-21
"181",90,0.00955190322941948,5.91664053091241e-06,2.05410160904643e-09,0.00477595264176054,2021-07-22
"182",90.5,0.00968486964671283,5.7315879472174e-06,1.8997278105456e-09,0.00484243577322032,2021-07-22
"183",91,0.00981903836753501,5.55234481321351e-06,1.75695556373073e-09,0.00490952006224529,2021-07-23
"184",91.5,0.00995439969203043,5.37746527273531e-06,1.62491301363627e-09,0.00497720065847172,2021-07-23
"185",92,0.0100909431433011,5.18728019487433e-06,1.50279382170206e-09,0.00504547232304747,2021-07-24
"186",92.5,0.0102286574516023,5.00382521453513e-06,1.38985224287358e-09,0.00511432942072725,2021-07-24
"187",93,0.0103675305387697,4.83062511681443e-06,1.28539857256218e-09,0.00518376591208412,2021-07-25
"188",93.5,0.0105075495029079,4.66852980234095e-06,1.18879493568313e-09,0.00525377534585143,2021-07-25
"189",94,0.0106487006033686,4.5119345819754e-06,1.09945139207536e-09,0.00532435085140998,2021-07-26
"190",94.5,0.0107909692460486,4.36645672698345e-06,1.01682233453638e-09,0.00539548513143549,2021-07-26
"191",95,0.0109343399690402,4.2271435393255e-06,9.40403157490843e-10,0.00546717045472169,2021-07-27
"192",95.5,0.011078796428663,4.10301913709941e-06,8.69727175962042e-10,0.0055393986491951,2021-07-27
"193",96,0.011224321385912,3.99425709150401e-06,8.04362776042387e-10,0.00561216109513741,2021-07-28
"194",96.5,0.0113708966933534,3.88844646568615e-06,7.43910779471399e-10,0.00568544871863207,2021-07-28
"195",97,0.0115185032825016,3.78550500260026e-06,6.88002006235884e-10,0.00575925198525182,2021-07-29
"196",97.5,0.0116671211517133,3.68026604814916e-06,6.36295020315156e-10,0.00583356089400417,2021-07-29
"197",98,0.0118167293546303,3.56422606300859e-06,5.88474044811668e-10,0.00590836497155218,2021-07-30
"198",98.5,0.011967305989209,3.4518449062605e-06,5.44247033740917e-10,0.00598365326672801,2021-07-30
"199",99,0.01211882818737,3.3430073040028e-06,5.03343888710484e-10,0.00605941434535697,2021-07-31
"200",99.5,0.0122712721053049,3.2376016082816e-06,4.65514809602179e-10,0.00613563628540985,2021-07-31
"201",100,0.0124246129144747,3.13551968327179e-06,4.30528769189052e-10,0.00621230667250171,2021-08-01
"202",100.5,0.0125788247933379,3.03199987746303e-06,3.98172102375376e-10,0.00628941259575501,2021-08-01
"203",101,0.0127338809198435,2.92768754434909e-06,3.68247201447219e-10,0.00636694064404537,2021-08-02
"204",101.5,0.0128897534647248,2.82697519193882e-06,3.40571309368277e-10,0.00644487690264808,2021-08-02
"205",102,0.0130464135856316,2.72973812356068e-06,3.14975403754003e-10,0.00652320695030348,2021-08-03
"206",102.5,0.0132038314221356,2.63585598026611e-06,2.9130316471055e-10,0.0066019158567194,2021-08-03
"207",103,0.013361976091647,2.54521258919048e-06,2.6941002023695e-10,0.00668098818052851,2021-08-04
"208",103.5,0.0135208156862747,2.45769581724507e-06,2.49162263362352e-10,0.00676040796771846,2021-08-04
"209",104,0.013680317270669,2.37319742995162e-06,2.3043623562807e-10,0.0068401587505526,2021-08-05
"210",104.5,0.0138404468808791,2.29161295523729e-06,2.13117571929149e-10,0.00692022354699833,2021-08-05
"211",105,0.0140011695242606,2.21284155201492e-06,1.97100502104708e-10,0.00700058486068056,2021-08-06
"212",105.5,0.0141624491804663,2.13678588337908e-06,1.82287205012795e-10,0.00708122468137676,2021-08-06
"213",106,0.0143242488035529,2.06335199425507e-06,1.68587211145827e-10,0.00716212448607004,2021-08-07
"214",106.5,0.0144865303252357,1.9924491933433e-06,1.5591685013908e-10,0.00724326524057627,2021-08-07
"215",107,0.0146492546593221,1.92398993920737e-06,1.44198739798712e-10,0.00732462740176042,2021-08-08
"216",107.5,0.0148123817073529,1.8578897303596e-06,1.33361313529322e-10,0.00740619092035713,2021-08-08
"217",108,0.0149758703654811,1.79406699920268e-06,1.23338383275459e-10,0.00748793524440973,2021-08-09
"218",108.5,0.0151396785326136,1.73244300969146e-06,1.14068735308328e-10,0.00756983932334118,2021-08-09
"219",109,0.0153037631198437,1.67294175858358e-06,1.05495756389478e-10,0.00765188161266973,2021-08-10
"220",109.5,0.0154680800611961,1.61548988015226e-06,9.75670880286979e-11,0.00773404007938157,2021-08-10
"221",110,0.0156325843257084,1.56001655423912e-06,9.02343067249253e-11,0.00781629220797138,2021-08-11
"222",110.5,0.0157972299308698,1.50645341752936e-06,8.34526282375585e-11,0.00789861500716124,2021-08-11
"223",111,0.015961969957434,1.45473447793552e-06,7.71806340823379e-11,0.00798098501730732,2021-08-12
"224",111.5,0.016126756565625,1.40479603198049e-06,7.13800185816288e-11,0.00806337831850251,2021-08-12
"225",112,0.0162915410127496,1.35657658507377e-06,6.60153549244579e-11,0.00814577053938245,2021-08-13
"226",112.5,0.0164562736722283,1.31001677457932e-06,6.10538788077229e-11,0.00822813686664108,2021-08-13
"227",113,0.0166209040540559,1.26466929116326e-06,5.6465288337348e-11,0.00831045205526061,2021-08-14
"228",113.5,0.0167853808266984,1.21963773573703e-06,5.22215589674442e-11,0.00839269043945997,2021-08-14
"229",114,0.0169496518404311,1.17620398414713e-06,4.82967723473575e-11,0.00847482594436394,2021-08-15
"230",114.5,0.017113664152122,1.134380780704e-06,4.46669580314127e-11,0.00855683209839446,2021-08-15
"231",115,0.0172773640514577,1.09494592672062e-06,4.13099470847069e-11,0.00863868204638384,2021-08-16
"232",115.5,0.0174406970886116,1.05717962235735e-06,3.82052366909452e-11,0.00872034856340841,2021-08-16
"233",116,0.0176036081033453,1.02071313345698e-06,3.53338649354969e-11,0.00880180406933957,2021-08-17
"234",116.5,0.0177660412555376,9.85498295478352e-07,3.2678294998984e-11,0.00888302064410797,2021-08-17
"235",117,0.0179279400571271,9.51492457349868e-07,3.02223080541807e-11,0.00896397004367472,2021-08-18
"236",117.5,0.0180892474054538,9.18654406458926e-07,2.79509042121475e-11,0.00904462371670233,2021-08-18
"237",118,0.0182499056179823,8.86944320843642e-07,2.58502109126815e-11,0.00912495282191627,2021-08-19
"238",118.5,0.0184098564683858,8.56323722940358e-07,2.39073981996200e-11,0.0092049282461466,2021-08-19
"239",119,0.0185690412239646,8.26755434837899e-07,2.21106003635808e-11,0.00928452062303758,2021-08-20
"240",119.5,0.0187274006843738,7.98440319083066e-07,2.04488434736065e-11,0.00936370035241135,2021-08-20
"241",120,0.0188848752216287,7.72775730399824e-07,1.89119783551427e-11,0.00944243762027035,2021-08-21
"242",120.5,0.0190414048213526,7.47943920465041e-07,1.74906186050381e-11,0.00952070241942162,2021-08-21
"243",121,0.0191969291252321,7.23917709489474e-07,1.61760832650172e-11,0.0095984645707041,2021-08-22
"244",121.5,0.0193513874746375,7.00670805808525e-07,1.49603438035233e-11,0.00967569374479895,2021-08-22
"245",122,0.0195047189553659,6.78177776996266e-07,1.38359750821416e-11,0.00975235948460092,2021-08-23
"246",122.5,0.0196568624434589,6.56414021907575e-07,1.27961100071444e-11,0.00982843122812751,2021-08-23
"247",123,0.0198077566520472,6.35355743619233e-07,1.18343975892069e-11,0.00990387833194081,2021-08-24
"248",123.5,0.0199573401791664,6.1497992324172e-07,1.09449641551548e-11,0.0099786700950557,2021-08-24
"249",124,0.0201055515564903,5.95264294574285e-07,1.01223774748548e-11,0.0100527757833063,2021-08-25
"250",124.5,0.0202523292989212,5.7618731957673e-07,9.36161358416142e-12,0.0101261646541414,2021-08-25
"251",125,0.0203976119549771,5.57728164632111e-07,8.65802610130017e-12,0.0101988059818176,2021-08-26
"252",125.5,0.0205413381579099,5.3986667757538e-07,8.00731784929256e-12,0.0102706690829586,2021-08-26
"253",126,0.0206834466774879,5.2258336546374e-07,7.40551461111361e-12,0.0103417233424467,2021-08-27
"254",126.5,0.0208238764723737,5.05859373065219e-07,6.84894085729631e-12,0.0104119382396113,2021-08-27
"255",127,0.0209625667430246,4.89685179844624e-07,6.33419729774392e-12,0.0104812833746794,2021-08-28
"256",127.5,0.021099456985042,4.7357851368882e-07,5.85814012065171e-12,0.0105497284954501,2021-08-28
"257",128,0.021234487042893,4.57851520736404e-07,5.41786179174322e-12,0.0106172435241554,2021-08-29
"258",128.5,0.0213675971639259,4.42646224006765e-07,5.0106732965553e-12,0.0106837985844683,2021-08-29
"259",129,0.0214987280526001,4.27945343352524e-07,4.63408771731924e-12,0.0107493640286171,2021-08-30
"260",129.5,0.0216278209248477,4.14182640281858e-07,4.28580504413597e-12,0.0108139104645668,2021-08-30
"261",130,0.0217548175624855,4.01354334887865e-07,3.96369812768139e-12,0.0108774087832246,2021-08-31
"262",130.5,0.0218796603675903,3.8892504692874e-07,3.66579968764979e-12,0.0109398301856281,2021-08-31
"263",131,0.0220022924167557,3.76882322540609e-07,3.39029029759062e-12,0.011001146210073,2021-09-01
"264",131.5,0.0221226575151401,3.65214097451157e-07,3.13548727275731e-12,0.0110613287591378,2021-09-01
"265",132,0.0222407002502234,3.53908684783428e-07,2.89983439310170e-12,0.0111203501265616,2021-09-02
"266",132.5,0.0224594691543291,3.42954763240862e-07,2.68189239864813e-12,0.0112297345785055,2021-09-02
"267",133,0.0227199359939723,3.32341365661719e-07,2.48033019919837e-12,0.0113599679982263,2021-09-03
"268",133.5,0.0229803403878633,3.22057867931392e-07,2.29391674468145e-12,0.0114901701950786,2021-09-03
"269",134,0.0232405827343705,3.12093978241454e-07,2.12151350649693e-12,0.011620291368246,2021-09-04
"270",134.5,0.0235005616311209,3.02439726684653e-07,1.96206752393192e-12,0.0117502808165415,2021-09-04
"271",135,0.0237601739366501,2.93085455175379e-07,1.81460497318331e-12,0.0118800869692324,2021-09-05
"272",135.5,0.0240193148359856,2.84021807685469e-07,1.67822521970813e-12,0.0120096574188319,2021-09-05
"273",136,0.024277877910145,2.74836766134646e-07,1.55132751535604e-12,0.0121389389558482,2021-09-06
"274",136.5,0.0245357552095185,2.65805393784029e-07,1.43130500250149e-12,0.0122678776054749,2021-09-06
"275",137,0.0247928373310977,2.57075296628721e-07,1.32056353645863e-12,0.0123964186662091,2021-09-07
"276",137.5,0.0250490134994986,2.48533674400577e-07,1.21838585993131e-12,0.0125245067503585,2021-09-07
"277",138,0.0253041716517207,2.39797386300992e-07,1.12411010937682e-12,0.0126520858264224,2021-09-08
"278",138.5,0.0255581985255674,2.31368470361412e-07,1.03712554023383e-12,0.0127790992633023,2021-09-08
"279",139,0.0258109797516479,2.23236111894976e-07,9.56868581747457e-13,0.0129054898763024,2021-09-09
"280",139.5,0.0260623999488653,2.15389876251592e-07,8.82819196004335e-13,0.0130311999748741,2021-09-09
"281",140,0.0263123428232879,2.07819695503974e-07,8.14497517743464e-13,0.0131561714120512,2021-09-10
"282",140.5,0.0265606912702871,2.00515855597456e-07,7.51460753311847e-13,0.0132803456355193,2021-09-10
"283",141,0.0268073274798162,1.93468983947562e-07,6.93300318798536e-13,0.0134036637402548,2021-09-11
"284",141.5,0.0270521330446941,1.86670037469892e-07,6.39639198917316e-13,0.0135260665226669,2021-09-11
"285",142,0.0272949890717447,1.80110291027392e-07,5.90129509626791e-13,0.0136474945361674,2021-09-12
"286",142.5,0.027535776295636,1.73781326280586e-07,5.44450248786138e-13,0.0137678881480902,2021-09-12
"287",143,0.02777437519525,1.67675020926837e-07,5.02305220353601e-13,0.0138871875978761,2021-09-13
"288",143.5,0.0280106661124066,1.61783538315185e-07,4.63421118750669e-13,0.014005333056435,2021-09-13
"289",144,0.0282445293727533,1.56099317423761e-07,4.27545761044925e-13,0.0141222646865904,2021-09-14
"290",144.5,0.0284758454086267,1.50615063187227e-07,3.94446455555401e-13,0.0142379227045106,2021-09-14
"291",145,0.0287044948836783,1.45327991943959e-07,3.63908496361975e-13,0.0143522474420211,2021-09-15
"292",145.5,0.0289303588190554,1.41148902117794e-07,3.35733774010499e-13,0.0144651794096956,2021-09-15
"293",146,0.0291533187209133,1.37093037764266e-07,3.09739493453237e-13,0.0145766593606115,2021-09-16
"294",146.5,0.0293732567090339,1.33156683990294e-07,2.85756990954459e-13,0.0146866283546598,2021-09-16
"295",147,0.0295900556463164,1.29336239965469e-07,2.63630642328253e-13,0.01479502782329,2021-09-17
"296",147.5,0.0298035992688987,1.25628215370713e-07,2.43216855463737e-13,0.014901799634571,2021-09-17
"297",148,0.0300137723166681,1.22029226958541e-07,2.24383140635757e-13,0.0150068861584463,2021-09-18
"298",148.5,0.0302204606639086,1.18535995221423e-07,2.07007252600224e-13,0.0151102303320578,2021-09-18
"299",149,0.0304235514498341,1.15145341164821e-07,1.90976398935772e-13,0.0152117757250125,2021-09-19
"300",149.5,0.0306229332087514,1.11854183181591e-07,1.76186509520304e-13,0.0153114666044638,2021-09-19
"301",150,0.0308184959995935,1.08659534024559e-07,1.62541562425056e-13,0.015409247999878,2021-09-20
"302",150.5,0.0310101315345652,1.05558497874167e-07,1.49952961872438e-13,0.0155050657673576,2021-09-20
"303",151,0.03119773330664,1.02548267498181e-07,1.38338964239659e-13,0.0155988666533892,2021-09-21
"304",151.5,0.0313811967156488,9.96261215005647e-08,1.27624148399913e-13,0.0156905983578882,2021-09-21
"305",152,0.0315604191927007,9.67894216566892e-08,1.17738926978868e-13,0.0157802095964092,2021-09-22
"306",152.5,0.0317353003226799,9.40356103321688e-08,1.08619095368154e-13,0.0158676501613943,2021-09-22
"307",153,0.0319057419645631,9.13622079826685e-08,1.00205415581102e-13,0.0159528709823317,2021-09-23
"308",153.5,0.0320716483693078,8.87668107321358e-08,9.24432322608302e-14,0.0160358241847001,2021-09-23
"309",154,0.032232926295063,8.59573200230362e-08,8.52821183582669e-14,0.0161164631475741,2021-09-24
"310",154.5,0.032389485119463,8.30767687328352e-08,7.86755481892012e-14,0.0161947425597708,2021-09-24
"311",155,0.032541236948767,8.02925515831584e-08,7.25805957562065e-14,0.0162706184744198,2021-09-25
"312",155.5,0.0326880967236162,7.7601455782364e-08,6.69576563843979e-14,0.0163440483618416,2021-09-25
"313",156,0.0328299823211871,7.50003752849882e-08,6.1770189870536e-14,0.0164149911606244,2021-09-26
"314",156.5,0.0329668146535267,7.24863072632262e-08,5.69844834839292e-14,0.0164834073267918,2021-09-26
"315",157,0.0330985177618669,7.00563486942278e-08,5.25694332858183e-14,0.0165492588809597,2021-09-27
"316",157.5,0.0332250189067204,6.77076930594419e-08,4.84963423522657e-14,0.0166125094533845,2021-09-27
"317",158,0.0333462486535763,6.54376271523674e-08,4.47387345947884e-14,0.0166731243268105,2021-09-28
"318",158.5,0.0334621409540176,6.32435279911848e-08,4.12721829737692e-14,0.0167310704770294,2021-09-28
"319",159,0.0335726332221015,6.11228598328539e-08,3.8074150992697e-14,0.0167863166110698,2021-09-29
"320",159.5,0.033677666405848,5.90731712853746e-08,3.51238464471324e-14,0.0168388332029416,2021-09-29
"321",160,0.0337771850536992,5.70920925150137e-08,3.24020864815189e-14,0.0168885925268658,2021-09-30
"322",160.5,0.0338711373758235,5.51773325454022e-08,2.98911730800687e-14,0.0169355686879267,2021-09-30
"323",161,0.0339594753001494,5.33266766455081e-08,2.75747781854248e-14,0.0169797376500885,2021-10-01
"324",161.5,0.0340421545230306,5.15379838035869e-08,2.54378377010635e-14,0.017021077261528,2021-10-01
"325",162,0.0341191345544545,4.98091842843025e-08,2.34664536908635e-14,0.017059567277239,2021-10-02
"326",162.5,0.0341903787577216,4.81382772663059e-08,2.16478041422929e-14,0.0170951893788716,2021-10-02
"327",163,0.0342558543835363,4.6523328557642e-08,1.99700597085991e-14,0.0171279271917781,2021-10-03
"328",163.5,0.0343155325984651,4.49624683864438e-08,1.84223068905435e-14,0.0171577662992418,2021-10-03
"329",164,0.0343693885077298,4.34538892644521e-08,1.69944771598975e-14,0.0171846942538734,2021-10-04
"330",164.5,0.0344174011723189,4.19958439209801e-08,1.56772815653649e-14,0.0172087005861673,2021-10-04
"331",165,0.0344595536204149,4.05866433050191e-08,1.4462150397091e-14,0.0172297768102147,2021-10-05
"332",165.5,0.0344958328531475,3.92246546532553e-08,1.33411775186563e-14,0.0172479164265804,2021-10-05
"333",166,0.0345262298446963,3.79082996218407e-08,1.23070690056796e-14,0.0172631149223543,2021-10-06
"334",166.5,0.0345507395367826,3.66360524798293e-08,1.13530957580346e-14,0.017275369768397,2021-10-06
"335",167,0.0345693608275999,3.54064383622606e-08,1.04730497784188e-14,0.0172846804138052,2021-10-07
"336",167.5,0.0345820965552469,3.42180315809342e-08,9.66120383375951e-15,0.0172910482776283,2021-10-07
"337",168,0.0345889534757406,3.30694539909849e-08,8.91227423784994e-15,0.0172944767378747,2021-10-08
"338",168.5,0.0345899422356964,3.19593734114291e-08,8.22138651383068e-15,0.0172949711178523,2021-10-08
"339",169,0.0345850773397774,3.08865020979106e-08,7.58404371378679e-15,0.0172925386698925,2021-10-09
"340",169.5,0.0345743771130228,2.98495952659347e-08,6.99609718994835e-15,0.0172871885565149,2021-10-09
"341",170,0.034557863658178,2.88474496629323e-08,6.45371962786796e-15,0.0172789318290922,2021-10-10
"342",170.5,0.0345355628081601,2.79070051293878e-08,5.95338016660803e-15,0.0172677814040831,2021-10-10
"343",171,0.0345075040738001,2.70222068114617e-08,5.49182144449724e-15,0.0172537520369028,2021-10-11
"344",171.5,0.0344737205870125,2.61655634152489e-08,5.06603842149691e-15,0.0172368602935088,2021-10-11
"345",172,0.034434249039554,2.53361763678104e-08,4.67325884073531e-15,0.0172171245197793,2021-10-12
"346",172.5,0.0343891296175374,2.45331758335032e-08,4.31092520239497e-15,0.0171945648087709,2021-10-12
"347",173,0.0343384059318769,2.37557197941643e-08,3.97667813294414e-15,0.0171692029659404,2021-10-13
"348",173.5,0.0342821249448452,2.30029931587123e-08,3.66834104175155e-15,0.0171410624724244,2021-10-13
"349",174,0.0342203368929316,2.22742069012288e-08,3.38390596547269e-15,0.0171101684464675,2021-10-14
"350",174.5,0.0341530952061926,2.15685972266101e-08,3.12152050829937e-15,0.0170765476030979,2021-10-14
"351",175,0.0340804564242935,2.08854247629123e-08,2.87947579327251e-15,0.0170402282121482,2021-10-15
"352",175.5,0.034002480109442,2.02239737795348e-08,2.65619534641694e-15,0.0170012400547223,2021-10-15
"353",176,0.0339192287564188,1.95835514304208e-08,2.4502248415086e-15,0.0169596143782106,2021-10-16
"354",176.5,0.0338307676999136,1.89634870214746e-08,2.26022263886867e-15,0.0169153838499579,2021-10-16
"355",177,0.0337371650193743,1.83631313014229e-08,2.08495105673133e-15,0.0168685825096882,2021-10-17
"356",177.5,0.0336384914415819,1.77818557753724e-08,1.92326831848563e-15,0.0168192457207919,2021-10-17
"357",178,0.033534820241162,1.72190520403379e-08,1.77412112347849e-15,0.0167674101205819,2021-10-18
"358",178.5,0.0334262271392454,1.66741311420399e-08,1.63653779311302e-15,0.0167131135696235,2021-10-18
"359",179,0.0333127902004881,1.61465229522921e-08,1.50962194771047e-15,0.0166563951002448,2021-10-19
"360",179.5,0.0331945897286623,1.56356755663209e-08,1.39254667304981e-15,0.0165972948643318,2021-10-19
"361",180,0.033071708161026,1.51046570695356e-08,1.28454913867774e-15,0.0165358540805136,2021-10-20
"362",180.5,0.0329442299616792,1.45881518660765e-08,1.1849256330154e-15,0.0164721149808402,2021-10-20
"363",181,0.0328122415141094,1.40892965853838e-08,1.09302698299414e-15,0.0164061207570553,2021-10-21
"364",181.5,0.0326758310131281,1.36074886422769e-08,1.00825432844981e-15,0.0163379155065646,2021-10-21
"365",182,0.0325350883563956,1.31421459998059e-08,9.30055223808973e-16,0.0162675441781982,2021-10-22
"366",182.5,0.032390105035727,1.26927064696628e-08,8.57920041726099e-16,0.0161950525178639,2021-10-22
"367",183,0.0322409740283697,1.22586270363609e-08,7.91378655291876e-16,0.0161204870141852,2021-10-23
"368",183.5,0.0320877896884339,1.18393832043781e-08,7.29997377242575e-16,0.0160438948442173,2021-10-23
"369",184,0.0319306476386584,1.14344683674847e-08,6.73376136269725e-16,0.0159653238193296,2021-10-24
"370",184.5,0.0317696446626831,1.10433931995043e-08,6.21145872069836e-16,0.0158848223313418,2021-10-24
"371",185,0.0316048785979958,1.06656850657822e-08,5.72966132195069e-16,0.0158024392989982,2021-10-25
"372",185.5,0.0314364482297176,1.03008874546575e-08,5.28522855077014e-16,0.015718224114859,2021-10-25
"373",186,0.0312644531853786,9.94855942826284e-09,4.87526324805506e-16,0.0156322265926896,2021-10-26
"374",186.5,0.0310889938308374,9.60827509199511e-09,4.49709284360575e-16,0.0155444969154189,2021-10-26
"375",187,0.0309101711674824,9.27962308202428e-09,4.14825195025449e-16,0.0154550855837414,2021-10-27
"376",187.5,0.0307280867308546,8.9622060702288e-09,3.8264663065863e-16,0.0153640433654275,2021-10-27
"377",188,0.0305428424908172,8.6556402859664e-09,3.52963796379627e-16,0.0152714212454088,2021-10-28
"378",188.5,0.0303545407533966,8.35955505410918e-09,3.25583162031716e-16,0.0151772703766985,2021-10-28
"379",189,0.0301632840644075,8.0735923487911e-09,3.00326201531204e-16,0.0150816420322039,2021-10-29
"380",189.5,0.0299691751149701,7.79740636233497e-09,2.77028229901123e-16,0.0149845875574852,2021-10-29
"381",190,0.0297723166490204,7.5306630888437e-09,2.55537330422347e-16,0.0148861583245103,2021-10-30
"382",190.5,0.0295728113729066,7.2730399219581e-09,2.3571336492115e-16,0.0147864056864534,2021-10-30
"383",191,0.029370761867156,7.02422526630055e-09,2.17427060752758e-16,0.0146853809335781,2021-10-31
"384",191.5,0.0291662705004945,6.78391816213982e-09,2.00559168539263e-16,0.0145831352502474,2021-10-31
"385",192,0.0289594393461877,6.55182792282826e-09,1.84999685180371e-16,0.014479719673094,2021-11-01
"386",192.5,0.0287503701007701,6.32767378457777e-09,1.7064713708001e-16,0.0143751850503851,2021-11-01
"387",193,0.0285391640052199,6.11118456815547e-09,1.57407918923463e-16,0.01426958200261,2021-11-02
"388",193.5,0.0283259217686318,5.90209835209432e-09,1.45195683701038e-16,0.014162960884316,2021-11-02
"389",194,0.0281107434944305,5.7001621570276e-09,1.33930780007647e-16,0.0140553717472153,2021-11-03
"390",194.5,0.0278937286091652,5.50513164076952e-09,1.23539732955209e-16,0.0139468643045827,2021-11-03
"391",195,0.0276749757939166,5.3167708037767e-09,1.1395476531854e-16,0.0138374878969583,2021-11-04
"392",195.5,0.0274545829183404,5.13485170463805e-09,1.05113355797157e-16,0.0137272914591703,2021-11-04
"393",196,0.0272326469773706,4.9591541852522e-09,9.6957831516909e-17,0.0136163234886853,2021-11-05
"394",196.5,0.0270092640305927,4.78946560536336e-09,8.94349921181606e-17,0.0135046320152964,2021-11-05
"395",197,0.0267845291442985,4.62558058613754e-09,8.24957629827938e-17,0.0133922645721493,2021-11-06
"396",197.5,0.0265585363362239,4.46730076247188e-09,7.60948753419096e-17,0.013279268168112,2021-11-06
"397",198,0.026331378522967,4.31443454374035e-09,7.01905711810652e-17,0.0131656892614836,2021-11-07
"398",198.5,0.0261031474700824,4.16679688268885e-09,6.47443310212664e-17,0.0130515737350412,2021-11-07
"399",199,0.0258739337448353,4.02420905220287e-09,5.97206228028302e-17,0.0129369668724177,2021-11-08
"400",199.5,0.0256438266716039,3.88649842967995e-09,5.50866702365942e-17,0.012821913335802,2021-11-08
"401",200,0.0254129142899055,3.75349828874829e-09,5.08122391136678e-17,0.0127064571449528,2021-11-09
"402",200.5,0.0251812833150242,3.62504759808195e-09,4.68694401818307e-17,0.0125906416575121,2021-11-09
"403",201,0.02494901910121,3.50099082707092e-09,4.32325473045308e-17,0.012474509550605,2021-11-10
"404",201.5,0.0247162056074186,3.38117775811334e-09,3.98778297179345e-17,0.0123581028037093,2021-11-10
