"","time","top","med","bottom","pseudo_med","date"
"1",0,0.008069670269463,0.00176873358915137,0.000106599143482909,0.00408813470647296,2021-04-23
"2",0.5,0.00764540516742794,0.00169938675814355,0.000165303931740108,0.00390535454958403,2021-04-23
"3",1,0.00724367628859456,0.00164921953100989,0.000172080964834287,0.00370787862671442,2021-04-24
"4",1.5,0.00686327632139572,0.00159985520502915,0.000171390288949417,0.00351733330517257,2021-04-24
"5",2,0.00650306308273619,0.00153796500730658,0.00017072473799853,0.00333689391036736,2021-04-25
"6",2.5,0.00616195598489266,0.00148059095182861,0.000170082861888691,0.00316601942339067,2021-04-25
"7",3,0.00583893269494394,0.00145017458386832,0.000169463295170169,0.00300419799505705,2021-04-26
"8",3.5,0.00553302597620158,0.00138769641982919,0.000168864752096455,0.00285094536414902,2021-04-26
"9",4,0.00524332070168843,0.00133347589460988,0.000168286021972584,0.0027058033618305,2021-04-27
"10",4.5,0.00496895103025886,0.00129176767124299,0.000167725964774925,0.00256833849751689,2021-04-27
"11",5,0.00470909773647005,0.00124609319254414,0.000167183507026607,0.00243814062174833,2021-04-28
"12",5.5,0.00446298568580123,0.00119960844481088,0.00016665763791366,0.00231482166185745,2021-04-28
"13",6,0.00433349000829533,0.00115860313599755,0.000166147405627819,0.00224981870696158,2021-04-29
"14",6.5,0.00421091271087461,0.00112694085419701,0.000165651913922763,0.00218828231239868,2021-04-29
"15",7,0.00409128486465522,0.00108096799792207,0.000165170318871339,0.00212822759176328,2021-04-30
"16",7.5,0.00397456594002818,0.0010524849888296,0.000164701825812031,0.0020696338829201,2021-04-30
"17",8,0.00386071386395999,0.001029955247685,0.000164245686473645,0.00201247977521682,2021-05-01
"18",8.5,0.00374968521466679,0.00100789637984049,0.000163801196267787,0.00195674320546729,2021-05-01
"19",9,0.00364143540280047,0.000971833158955197,0.000163367691739364,0.00190240154726992,2021-05-02
"20",9.5,0.00353591883993278,0.000930378390149215,0.000162944548165873,0.00184943169404932,2021-05-02
"21",10,0.00343308909508088,0.000900716267325852,0.000162531177296795,0.00179781013618884,2021-05-03
"22",10.5,0.00333289903997884,0.000880078357813971,0.000160847528136345,0.00174687328405759,2021-05-03
"23",11,0.00323530098376091,0.000850945405416073,0.000151698841657361,0.00169349991270914,2021-05-04
"24",11.5,0.00314024679768739,0.00082264265286625,0.000143067585715498,0.00164165719170145,2021-05-04
"25",12,0.00304768803050906,0.000796939612449754,0.000134924757493822,0.00159130639400144,2021-05-05
"26",12.5,0.00295757601503437,0.000768321352006623,0.000127242956308998,0.00154240948567169,2021-05-05
"27",13,0.00286986196643258,0.000741577489102485,0.000119996297234177,0.00149492913183338,2021-05-06
"28",13.5,0.00278449707277682,0.000715700720993296,0.000113160329184449,0.00144882870098064,2021-05-06
"29",14,0.00270143257830373,0.000691497275080663,0.000106711957252451,0.00140407226777809,2021-05-07
"30",14.5,0.00262061985983957,0.000672416402608412,0.000100629369090067,0.00136062461446482,2021-05-07
"31",15,0.00254201049681832,0.000654087216585612,9.48919651403689e-05,0.00131845123097935,2021-05-08
"32",15.5,0.00249274550674484,0.000636938070778968,8.94802925319799e-05,0.00129111289963841,2021-05-08
"33",16,0.00244788957159054,0.000616481485378688,8.43759824559189e-05,0.00126613277702323,2021-05-09
"34",16.5,0.00243538188389609,0.000603926779999818,7.95616908526295e-05,0.00125747178737436,2021-05-09
"35",17,0.00243135130194377,0.00058598569733713,7.502104224437e-05,0.00125318617209407,2021-05-10
"36",17.5,0.00242753260878071,0.000563537168654367,7.07385765553788e-05,0.00124913559266804,2021-05-10
"37",18,0.00242391631500989,0.000548447360601792,6.66996987692489e-05,0.00124530800688957,2021-05-11
"38",18.5,0.00242049329520565,0.000535429562489289,6.28906312797454e-05,0.0012416919632427,2021-05-11
"39",19,0.00241725477390721,0.000522676735742881,5.92983687978655e-05,0.00123827657135254,2021-05-12
"40",19.5,0.00241419231215453,0.000508965276684171,5.59106356842794e-05,0.00123505147391941,2021-05-12
"41",20,0.00241129779454523,0.000491579871661186,5.27158455824015e-05,0.00123200682006381,2021-05-13
"42",20.5,0.00240856341679261,0.000477621209757963,4.97030632332237e-05,0.00122913324001292,2021-05-13
"43",21,0.00240598167376534,0.000464313359602504,4.68619683586978e-05,0.00122642182106202,2021-05-14
"44",21.5,0.00240354534799008,0.000449337630817762,4.41828215058925e-05,0.00122386408474799,2021-05-14
"45",22,0.00240124749859924,0.000439776972904574,4.16564317493645e-05,0.0012214519651743,2021-05-15
"46",22.5,0.00239908145070654,0.000431161311253538,3.92741261541866e-05,0.00121917778843036,2021-05-15
"47",23,0.00239704078519395,0.000409578192452062,3.70277209068694e-05,0.00121703425305041,2021-05-16
"48",23.5,0.00239511932889389,0.000396891218911936,3.49094940260034e-05,0.00121501441145995,2021-05-16
"49",24,0.00239331114515163,0.000380306425395569,3.29121595688364e-05,0.00121311165236024,2021-05-17
"50",24.5,0.00239161052475294,0.000369503853864938,3.10288432542027e-05,0.00121131968400357,2021-05-17
"51",25,0.00239001197720302,0.000359185416271777,2.92530594262284e-05,0.00120963251831462,2021-05-18
"52",25.5,0.002388510222343,0.00035278154799023,2.75786892870694e-05,0.00120804445581504,2021-05-18
"53",26,0.0023871001822911,0.000343881357029239,2.59999603305909e-05,0.00120655007131085,2021-05-19
"54",26.5,0.00238577697369562,0.000334618601900519,2.45114269123872e-05,0.00120514420030401,2021-05-19
"55",27,0.00238453590028797,0.000321398611502353,2.31079518948603e-05,0.00120382192609142,2021-05-20
"56",27.5,0.00238337244572393,0.00030828927003022,2.17846893092444e-05,0.00120257856751659,2021-05-20
"57",28,0.00238228226670206,0.000295289420532506,2.0537067979479e-05,0.00120140966734077,2021-05-21
"58",28.5,0.00238126118634852,0.00028616463612409,1.93607760557044e-05,0.00120031098120211,2021-05-21
"59",29,0.00238030518785801,0.000277678233282132,1.82517464078856e-05,0.00119927846713295,2021-05-22
"60",29.5,0.00237941040838078,0.000270301234667126,1.72061428326688e-05,0.00119830827560673,2021-05-22
"61",30,0.00237857313314643,0.000259838659361647,1.62203470290481e-05,0.00119739674008774,2021-05-23
"62",30.5,0.00237778978981506,0.00024998041754361,1.5290946300765e-05,0.00119654036805791,2021-05-23
"63",31,0.00240417442841249,0.000242537727100154,1.44147219455997e-05,0.00120929457517905,2021-05-24
"64",31.5,0.00243310815568364,0.000232883606314858,1.35886382938298e-05,0.00122334839698874,2021-05-24
"65",32,0.00246233844450527,0.000223209601106535,1.28098323601468e-05,0.00123757413843271,2021-05-25
"66",32.5,0.0024918677010835,0.000216022636833556,1.20756040752313e-05,0.00125197165257936,2021-05-25
"67",33,0.0025216983033266,0.000209669145290644,1.13834070650033e-05,0.0012665408551958,2021-05-26
"68",33.5,0.00255183260061474,0.000202343819988907,1.07308399472807e-05,0.00128128172028101,2021-05-26
"69",34,0.00258227291351213,0.000197588943051799,1.01156381172177e-05,0.00129619427581467,2021-05-27
"70",34.5,0.00261302153342346,0.000194518853267017,9.53566599443612e-06,0.00131127859970895,2021-05-27
"71",35,0.0026440807221958,0.000189264325984735,8.98890970623568e-06,0.00132653481595102,2021-05-28
"72",35.5,0.00267545271166757,0.000186055722526055,8.47347018265691e-06,0.00134196309092511,2021-05-28
"73",36,0.0027071397031658,0.000182192233258494,7.98755664049067e-06,0.00135756362990314,2021-05-29
"74",36.5,0.00273914386695309,0.000175665127803976,7.52948043457627e-06,0.00137333667369383,2021-05-29
"75",37,0.0027714673416253,0.000169865490519133,7.09764925591402e-06,0.00138928249544061,2021-05-30
"76",37.5,0.00280411223346131,0.000162466245224357,6.69056165723844e-06,0.00140540139755927,2021-05-30
"77",38,0.00283708061572579,0.000157928361756957,6.30680188775975e-06,0.00142169370880677,2021-05-31
"78",38.5,0.0028703745279262,0.000154121718250225,5.94503501978587e-06,0.00143815978147299,2021-05-31
"79",39,0.00290399597502488,0.000149671719597971,5.60400235088838e-06,0.00145479998868789,2021-06-01
"80",39.5,0.00293794692660729,0.000145906777072819,5.28251706617604e-06,0.00147161472183673,2021-06-01
"81",40,0.00297222931600732,0.000142204080721583,4.97946014609137e-06,0.0014886043880767,2021-06-02
"82",40.5,0.00300684503939051,0.000137920725058965,4.69377650595172e-06,0.00150576940794823,2021-06-02
"83",41,0.00304179595479614,0.00013378222446657,4.42447135421914e-06,0.00152311021307518,2021-06-03
"84",41.5,0.00307708388113894,0.000131050508286648,4.17060675720426e-06,0.00154062724394807,2021-06-03
"85",42,0.00311271059717125,0.000127593366501641,3.93129839859181e-06,0.00155832094778492,2021-06-04
"86",42.5,0.00314867784040643,0.000124611384716634,3.70571252282083e-06,0.00157619177646462,2021-06-04
"87",43,0.00318498730600427,0.000121846672489967,3.49306305196213e-06,0.00159424018452812,2021-06-05
"88",43.5,0.00322164064561921,0.00011762441331403,3.29260886631281e-06,0.00161246662724276,2021-06-05
"89",44,0.00325863946621193,0.000114576038158599,3.10365123947283e-06,0.0016308715587257,2021-06-06
"90",44.5,0.00329598532882525,0.000110438783486449,2.92553141918369e-06,0.00164945543012222,2021-06-06
"91",45,0.0033336797473249,0.000106455329242167,2.75762834569697e-06,0.0016682186878353,2021-06-07
"92",45.5,0.00337172418710584,0.000102619795456622,2.59935649990048e-06,0.00168716177180287,2021-06-07
"93",46,0.00341012006376499,9.89265331853682e-05,2.45016387386487e-06,0.00170628511381943,2021-06-08
"94",46.5,0.00344886874174085,9.51965459506755e-05,2.30953005688478e-06,0.00172558913589887,2021-06-08
"95",47,0.00348797153292082,9.12921002035815e-05,2.17696443047687e-06,0.00174507424867565,2021-06-09
"96",47.5,0.00352742969521691,8.76022986394409e-05,2.0520044661641e-06,0.00176474084984154,2021-06-09
"97",48,0.00356724443111045,8.40641858628847e-05,1.934214120222e-06,0.00178458932261533,2021-06-10
"98",48.5,0.00360741688616655,8.12039152952389e-05,1.82318231989039e-06,0.00180462003424322,2021-06-10
"99",49,0.00366416301070554,7.86190116555203e-05,1.71852153586304e-06,0.0018329407661207,2021-06-11
"100",49.5,0.00372310645817134,7.611629844165e-05,1.61986643615982e-06,0.00186236316230375,2021-06-11
"101",50,0.00378300638821707,7.36931353345064e-05,1.52687261676174e-06,0.00189226663041691,2021-06-12
"102",50.5,0.00384387308191256,7.13469698708556e-05,1.43921540464971e-06,0.00192265614865861,2021-06-12
"103",51,0.0039057169087386,6.88900851066113e-05,1.35658872913368e-06,0.00195353674873387,2021-06-13
"104",51.5,0.00396854832200565,6.67614392596922e-05,1.27870405759122e-06,0.00198491351303162,2021-06-13
"105",52,0.00403237785414876,6.48677711325413e-05,1.2052893919535e-06,0.00201679157177036,2021-06-14
"106",52.5,0.00409721611189331,6.27944496463701e-05,1.13608832248394e-06,0.0020491761001079,2021-06-14
"107",53,0.00416307377128635,6.01571225469214e-05,1.07085913558985e-06,0.00208207231521097,2021-06-15
"108",53.5,0.00422996157258819,5.77820233203347e-05,1.00937397259202e-06,0.00211548547328039,2021-06-15
"109",54,0.00429789031501924,5.59149373154378e-05,9.51418036551272e-07,0.0021494208665279,2021-06-16
"110",54.5,0.00436687085135656,5.37467940137377e-05,8.96788844415064e-07,0.00218388382010049,2021-06-16
"111",55,0.00443691408237524,5.1935212682791e-05,8.45295521902764e-07,0.00221887968894857,2021-06-17
"112",55.5,0.00450803095112937,5.038244442855e-05,7.9675813869408e-07,0.00225441385463403,2021-06-17
"113",56,0.00458023243706739,4.91997397161974e-05,7.51007081623613e-07,0.00229049172207451,2021-06-18
"114",56.5,0.00465352954997697,4.8107812780262e-05,7.07882463714678e-07,0.00232711871622034,2021-06-18
"115",57,0.00472793332375419,4.70449884427365e-05,6.64841900020352e-07,0.0023642990828271,2021-06-19
"116",57.5,0.00480345480999226,4.60102750625606e-05,6.1823515266487e-07,0.00240203652257246,2021-06-19
"117",58,0.00488010507138481,4.47367090141199e-05,5.74894236918366e-07,0.00244033998281086,2021-06-20
"118",58.5,0.00495789517493885,4.32766519038571e-05,5.34590479851027e-07,0.00247921488270935,2021-06-20
"119",59,0.00503683618499288,4.20745198862075e-05,4.97111199273302e-07,0.00251866664809607,2021-06-21
"120",59.5,0.00511693915603519,4.05619109295246e-05,4.62258588088757e-07,0.00255870070731164,2021-06-21
"121",60,0.00519821512531811,3.90478469695973e-05,4.29848676169648e-07,0.00259932248699714,2021-06-22
"122",60.5,0.00528067510526352,3.75892556520152e-05,3.99710364407044e-07,0.00264053740781397,2021-06-22
"123",61,0.00536433007565532,3.61841686251306e-05,3.71684525951505e-07,0.00268235088009063,2021-06-23
"124",61.5,0.00544919097561469,3.49891494920388e-05,3.45623170000313e-07,0.00272476829939235,2021-06-23
"125",62,0.00553526869535404,3.40223268211562e-05,3.21388663804588e-07,0.00276779504200892,2021-06-24
"126",62.5,0.00562257406770559,3.29657439302833e-05,2.98853008865676e-07,0.00281143646035723,2021-06-24
"127",63,0.00571111785942088,3.20530393636705e-05,2.77897167566445e-07,0.00285569787829422,2021-06-25
"128",63.5,0.00580091076223756,3.11986229489024e-05,2.58410436740752e-07,0.00290058458633715,2021-06-25
"129",64,0.00589196338370989,3.04076262738225e-05,2.40289864924626e-07,0.00294610183678741,2021-06-26
"130",64.5,0.00598428623779988,2.97862039209204e-05,2.23439710256716e-07,0.00299225483875507,2021-06-26
"131",65,0.0060778897352257,2.91787725763265e-05,2.0777093620444e-07,0.00303904875308095,2021-06-27
"132",65.5,0.00617278417356481,2.84730998295479e-05,1.93200742486893e-07,0.00308648868715365,2021-06-27
"133",66,0.00626897972710893,2.77386689673033e-05,1.79652128747053e-07,0.00313457968961884,2021-06-28
"134",66.5,0.00636648643646857,2.70252524600213e-05,1.67053488694853e-07,0.00318332674497863,2021-06-28
"135",67,0.00646531419792503,2.6332165192939e-05,1.55338232600235e-07,0.00323273476807881,2021-06-29
"136",67.5,0.00656547275252779,2.56587478749911e-05,1.44444436162051e-07,0.00328280859848197,2021-06-29
"137",68,0.00666697167493604,2.47414562287409e-05,1.34314513915392e-07,0.00333355299472498,2021-06-30
"138",68.5,0.00676982036200275,2.39175852090933e-05,1.2489491546725e-07,0.00338497262845911,2021-06-30
"139",69,0.00687402802110054,2.32962969514396e-05,1.16135842969022e-07,0.00343707207847175,2021-07-01
"140",69.5,0.0069796036581886,2.27236300573469e-05,1.07990988344808e-07,0.00348985582458847,2021-07-01
"141",70,0.00708655606562055,2.22339313073746e-05,1.00417288897269e-07,0.00354332824145472,2021-07-02
"142",70.5,0.00719489380969309,2.18565778596678e-05,9.33747000086046e-08,0.00359749359219655,2021-07-02
"143",71,0.00730462521793621,2.14369472201387e-05,8.68259837433232e-08,0.00365235602195998,2021-07-03
"144",71.5,0.00741575836614569,2.0954166890787e-05,8.07365122424951e-08,0.00370791955132896,2021-07-03
"145",72,0.00752830106515918,2.04831273394926e-05,7.50740848764304e-08,0.00376418806962203,2021-07-04
"146",72.5,0.00764226084737781,2.00235352171306e-05,6.98087581946398e-08,0.003821165328068,2021-07-04
"147",73,0.00775764495303535,1.93568104376691e-05,6.49126877788788e-08,0.00387885493286156,2021-07-05
"148",73.5,0.00787446031621771,1.86918511344102e-05,6.03599811673735e-08,0.00393726033809944,2021-07-05
"149",74,0.00799271355063606,1.80497007188887e-05,5.61265610763145e-08,0.00399638483859857,2021-07-06
"150",74.5,0.00811241093515716,1.74295805114846e-05,5.21900381986609e-08,0.00405623156259768,2021-07-06
"151",75,0.00823355839909523,1.68813541362805e-05,4.85295929105173e-08,0.00411680346434407,2021-07-07
"152",75.5,0.00835616150727016,1.64409492982049e-05,4.51258652620714e-08,0.00417810331656771,2021-07-07
"153",76,0.00848022544483753,1.60121022990134e-05,4.19608526735625e-08,0.0042401337028451,2021-07-08
"154",76.5,0.00860575500189626,1.55945126179932e-05,3.90178147972084e-08,0.00430289700985553,2021-07-08
"155",77,0.00873275455788066,1.51878873054002e-05,3.62811850436623e-08,0.00436639541953285,2021-07-09
"156",77.5,0.00886122806574405,1.47919408042913e-05,3.37364883065936e-08,0.00443063090111618,2021-07-09
"157",78,0.00899117903594179,1.43582113191955e-05,3.13702644515736e-08,0.00449560520310312,2021-07-10
"158",78.5,0.00912261052022234,1.38984210927637e-05,2.91699971657609e-08,0.00456131984510975,2021-07-10
"159",79,0.00925552509523555,1.34530999810814e-05,2.71240477930841e-08,0.00462777610964167,2021-07-11
"160",79.5,0.00938992484596816,1.30218047652879e-05,2.5221593805858e-08,0.00469497503378098,2021-07-11
"161",80,0.00952581134901711,1.26041052027158e-05,2.34525715881751e-08,0.00476291740079435,2021-07-12
"162",80.5,0.00966318565571205,1.21995836782204e-05,2.1807623229118e-08,0.00483160373166764,2021-07-12
"163",81,0.00980204827509937,1.18078348631505e-05,2.02780470449635e-08,0.00490103427657321,2021-07-13
"164",81.5,0.00994239915680033,1.1488644762229e-05,1.88557515691879e-08,0.00497120900627595,2021-07-13
"165",82,0.0100842376737573,1.12502948834313e-05,1.75332127673652e-08,0.00504212760348504,2021-07-14
"166",82.5,0.0102275626048824,1.10343269729885e-05,1.63034342510425e-08,0.00511378945415834,2021-07-14
"167",83,0.0103723721176239,1.07483962421802e-05,1.51599102804906e-08,0.00518619363876709,2021-07-15
"168",83.5,0.0105186637504662,1.04341743309252e-05,1.40965913609345e-08,0.0052593389235288,2021-07-15
"169",84,0.010666434395381,1.0129690599026e-05,1.31078522505435e-08,0.00533322375161664,2021-07-16
"170",84.5,0.0108156802802464,9.88771617940409e-06,1.2188462211188e-08,0.00540784623435429,2021-07-16
"171",85,0.0109663969512531,9.65916315721636e-06,1.13335573447978e-08,0.00548320414240521,2021-07-17
"172",85.5,0.0111185792553174,9.43597885310901e-06,1.05386148691666e-08,0.00555929489696613,2021-07-17
"173",86,0.0112722213225203,9.21803342586869e-06,9.78899318984648e-09,0.00563611555575675,2021-07-18
"174",86.5,0.0114273165485946,9.00520034962505e-06,9.06678687762428e-09,0.00571366280769076,2021-07-18
"175",87,0.0115838575774815,8.79735632078263e-06,8.39785744846686e-09,0.0057919329876695,2021-07-19
"176",87.5,0.0117418362839795,8.59438116795872e-06,7.77827527949147e-09,0.00587092203112741,2021-07-19
"177",88,0.0119012437565094,8.39615776481332e-06,7.20440052833513e-09,0.00595062548045499,2021-07-20
"178",88.5,0.0120620702800195,8.17968472199809e-06,6.67286177060067e-09,0.00603103847644064,2021-07-20
"179",89,0.0122243053190561,7.93655731731106e-06,6.18053621144702e-09,0.00611215574979618,2021-07-21
"180",89.5,0.0123879375010262,7.70086926738495e-06,5.72453135540381e-09,0.0061939716127788,2021-07-21
"181",90,0.0125529545996776,7.47238659962423e-06,5.29481330075403e-09,0.00627647994724544,2021-07-22
"182",90.5,0.0127193435188253,7.25088289077359e-06,4.89592494870179e-09,0.0063596742073751,2021-07-22
"183",91,0.0128870902763522,7.03613901735965e-06,4.52700689120686e-09,0.00644354740167956,2021-07-23
"184",91.5,0.0130561799885129,6.8279429145841e-06,4.18581412847945e-09,0.00652809208716351,2021-07-23
"185",92,0.0132265968545697,6.62608934337444e-06,3.87026924937438e-09,0.00661330036241945,2021-07-24
"186",92.5,0.0133983241417927,6.4303796653091e-06,3.57844997030295e-09,0.00669916386012131,2021-07-24
"187",93,0.0135713441708538,6.24517895004017e-06,3.30857759646665e-09,0.00678567373971568,2021-07-25
"188",93.5,0.0137456383016464,6.0717100200642e-06,3.05900633750913e-09,0.00687282068032636,2021-07-25
"189",94,0.0139211869195633,5.89739499573272e-06,2.82821341465056e-09,0.00696059487388837,2021-07-26
"190",94.5,0.0140979694222654,5.72814004619823e-06,2.61478990097587e-09,0.00704898601852763,2021-07-26
"191",95,0.0142759642069736,5.56379737863288e-06,2.4174322408205e-09,0.00713798331220292,2021-07-27
"192",95.5,0.0144551486583195,5.40422352698966e-06,2.23493439815939e-09,0.00722757544662693,2021-07-27
"193",96,0.0146354991367858,5.24927922494046e-06,2.06618058757784e-09,0.00731775060148321,2021-07-28
"194",96.5,0.0148169909677741,5.09882928260594e-06,1.91013854480942e-09,0.00740849643895635,2021-07-28
"195",97,0.0149995984313316,4.9527424669576e-06,1.76585329698334e-09,0.00749980009859245,2021-07-29
"196",97.5,0.0151832947525734,4.81089138577678e-06,1.63244139565169e-09,0.00759164819250739,2021-07-29
"197",98,0.0153680520928348,4.67315237505942e-06,1.50908557838056e-09,0.00768402680096018,2021-07-30
"198",98.5,0.0155538415415882,4.53940538975931e-06,1.39502982720525e-09,0.00777692146830901,2021-07-30
"199",99,0.0157406331091598,4.40953389776628e-06,1.28957479458137e-09,0.0078703171993673,2021-07-31
"200",99.5,0.015928395720281,4.28342477701952e-06,1.19207356962575e-09,0.00796419845617729,2021-07-31
"201",100,0.0161170972085093,4.16096821565952e-06,1.10192775944408e-09,0.00805854915521854,2021-08-01
"202",100.5,0.016306704311553,4.04205761512545e-06,1.01858386219938e-09,0.00815335266506843,2021-08-01
"203",101,0.0164971826675338,3.92658949610807e-06,9.41529910296267e-10,0.00824859180453187,2021-08-02
"204",101.5,0.0166884968122219,3.81446340727116e-06,8.70292363650654e-10,0.00834424884125715,2021-08-02
"205",102,0.0168806101772754,3.70558183665743e-06,8.04433234492556e-10,0.00844030549085433,2021-08-03
"206",102.5,0.0170734850895183,3.59985012569768e-06,7.43547426519164e-10,0.00853674291653286,2021-08-03
"207",103,0.017267082771288,3.49717638574465e-06,6.8726027248427e-10,0.00863354172927416,2021-08-04
"208",103.5,0.0174613633418846,3.39747141705558e-06,6.35225255485977e-10,0.00873068198855494,2021-08-04
"209",104,0.0176562858201511,3.30064863014989e-06,5.87121900304063e-10,0.0088281432036365,2021-08-05
"210",104.5,0.0178518081282155,3.20662396947104e-06,5.42653822147657e-10,0.00892590433543465,2021-08-05
"211",105,0.0180478870964221,3.11531583928347e-06,5.01546921109041e-10,0.0090239437989845,2021-08-06
"212",105.5,0.0182444784694801,3.02748705136163e-06,4.63547711485643e-10,0.0091222394665139,2021-08-06
"213",106,0.0184415369138546,2.95060166837215e-06,4.28421775934842e-10,0.00922076867113818,2021-08-07
"214",106.5,0.0186390160264258,2.87567773485665e-06,3.95952335169577e-10,0.00931950821118905,2021-08-07
"215",107,0.0188368683444386,2.80266474912212e-06,3.65938924591385e-10,0.00941843435518874,2021-08-08
"216",107.5,0.0190350453567651,2.73151353600773e-06,3.38196169895355e-10,0.00951752284748062,2021-08-08
"217",108,0.0192334975164996,2.66217621049353e-06,3.12552654272243e-10,0.00961674891452613,2021-08-09
"218",108.5,0.0194321742549045,2.59460614239867e-06,2.88849870380233e-10,0.00971608727187719,2021-08-09
"219",109,0.0196310239967233,2.52875792213163e-06,2.66941250765586e-10,0.00981551213183228,2021-08-10
"220",109.5,0.0198299941768759,2.46458732745589e-06,2.46691270880784e-10,0.00991499721178359,2021-08-10
"221",110,0.0200290312585478,2.3984207398423e-06,2.27974619283472e-10,0.0100145157432612,2021-08-11
"222",110.5,0.0202280807526844,2.32497246169994e-06,2.10675430001988e-10,0.0101140404816799,2021-08-11
"223",111,0.0204270872388975,2.25380895063325e-06,1.94686572426072e-10,0.010213543716792,2021-08-12
"224",111.5,0.0206259943877912,2.18485815346988e-06,1.79908994426497e-10,0.0103129972838501,2021-08-12
"225",112,0.0208247449847094,2.11805031431116e-06,1.66251114726987e-10,0.0104123725754803,2021-08-13
"226",112.5,0.0210232809549065,2.05331790075349e-06,1.53628260847745e-10,0.0105116405542674,2021-08-13
"227",113,0.0212215433901399,1.9905955324851e-06,1.41962149213934e-10,0.010610771766051,2021-08-14
"228",113.5,0.0214194725766801,1.92981991218189e-06,1.31180404276147e-10,0.0107097363539303,2021-08-14
"229",114,0.0216170080247313,1.87092975862865e-06,1.21216113724827e-10,0.0108085040729737,2021-08-15
"230",114.5,0.021814088499253,1.81386574199428e-06,1.12007417098043e-10,0.0109070443056302,2021-08-15
"231",115,0.0220106520521718,1.75857042119177e-06,1.03497125283367e-10,0.0110053260778345,2021-08-16
"232",115.5,0.0222066360559657,1.70498818325605e-06,9.56323686009996e-11,0.0111033180757991,2021-08-16
"233",116,0.0224019772386056,1.6530651846748e-06,8.83642713277949e-11,0.0112009886634849,2021-08-17
"234",116.5,0.0225966117198315,1.60274929460957e-06,8.16476506815977e-11,0.0112983059007396,2021-08-17
"235",117,0.0227904750487406,1.55399003994628e-06,7.54407384331288e-11,0.0113952375620907,2021-08-18
"236",117.5,0.0229835022426606,1.50673855211635e-06,6.97049234495234e-11,0.0114917511561827,2021-08-18
"237",118,0.0231756278272777,1.46094751563144e-06,6.4404513600301e-11,0.0115878139458411,2021-08-19
"238",118.5,0.0233667858779892,1.41657111827676e-06,5.95065155737972e-11,0.0116833929687478,2021-08-19
"239",119,0.0235569100624418,1.37356500290934e-06,5.49804312606123e-11,0.0117784550587111,2021-08-20
"240",119.5,0.0237459336842214,1.33188622080979e-06,5.07980694610734e-11,0.0118729668675097,2021-08-20
"241",120,0.0239337897276492,1.29149318653738e-06,4.6933371766668e-11,0.0119668948872913,2021-08-21
"242",120.5,0.0241204109036439,1.25234563424002e-06,4.33622515514434e-11,0.0120602054735031,2021-08-21
"243",121,0.0243057296966001,1.21440457537227e-06,4.00624450889844e-11,0.0121528648683313,2021-08-22
"244",121.5,0.024489678412235,1.177632257776e-06,3.70133738842692e-11,0.0122448392246242,2021-08-22
"245",122,0.0246721892263512,1.14199212607971e-06,3.41960173778916e-11,0.0123360946302736,2021-08-23
"246",122.5,0.0248531942344603,1.10744878337403e-06,3.15927952432368e-11,0.0124265971330265,2021-08-23
"247",123,0.0250326255022091,1.07396795412216e-06,2.91874585555921e-11,0.0125163127656983,2021-08-24
"248",123.5,0.025210415116551,1.04151644826557e-06,2.69649891662031e-11,0.012605207571758,2021-08-24
"249",124,0.0253864952375975,1.01006212648611e-06,2.49115066642833e-11,0.0126932476312545,2021-08-25
"250",124.5,0.0255607981510873,9.79573866587517e-07,2.30141823562479e-11,0.0127803990870508,2021-08-25
"251",125,0.0257332563214062,9.50021530959937e-07,2.12611597342437e-11,0.0128666281713337,2021-08-26
"252",125.5,0.0259038024450879,9.21375935092619e-07,1.9641480945653e-11,0.0129519012323647,2021-08-26
"253",126,0.0260723695047271,8.93608817100905e-07,1.81450188118939e-11,0.013036184761436,2021-08-27
"254",126.5,0.0262388908232307,8.6669280823475e-07,1.67624139787384e-11,0.0131194454199966,2021-08-27
"255",127,0.0264033001183357,8.40601404337073e-07,1.54850168117363e-11,0.0132016500669104,2021-08-28
"256",127.5,0.0265655315573152,8.15308938221263e-07,1.43048336793538e-11,0.01328276578581,2021-08-28
"257",128,0.0267255198117993,7.90790552938131e-07,1.32144772932753e-11,0.0133627599125069,2021-08-29
"258",128.5,0.0268832001126306,7.67022175903581e-07,1.22071208001591e-11,0.0134416000624189,2021-08-29
"259",129,0.0270385083046771,7.43980493859184e-07,1.1276455342107e-11,0.0135192541579768,2021-08-30
"260",129.5,0.0271913809015219,7.21642928638734e-07,1.04166508243643e-11,0.0135956904559693,2021-08-30
"261",130,0.0273417551399506,6.99987613714749e-07,9.62231964842742e-12,0.0136708775747864,2021-08-31
"262",130.5,0.0274895690341549,6.78993371499703e-07,8.88848318692071e-12,0.0137447845215217,2021-08-31
"263",131,0.0276347614295721,6.5863969137759e-07,8.21054079342938e-12,0.0138173807188913,2021-09-01
"264",131.5,0.0277772720562795,6.39846378350225e-07,7.58424115603533e-12,0.0138886360319319,2021-09-01
"265",132,0.0279170415818626,6.22866487055562e-07,7.00565581769618e-12,0.0139585207944341,2021-09-02
"266",132.5,0.0280540116636769,6.06337393511448e-07,6.47115469992124e-12,0.014027005835074,2021-09-02
"267",133,0.0281881250004234,5.90247119507128e-07,5.97738347851228e-12,0.0140940625032004,2021-09-03
"268",133.5,0.0283193253829587,5.74584005657614e-07,5.52124267152562e-12,0.01415966269424,2021-09-03
"269",134,0.0284475577442597,5.59336702885988e-07,5.09986831014685e-12,0.0142237788746798,2021-09-04
"270",134.5,0.0285727682084686,5.44494164135099e-07,4.71061407291108e-12,0.0142863841065896,2021-09-04
"271",135,0.0286949041389386,5.28807987423647e-07,4.35103477271284e-12,0.0143474520716448,2021-09-05
"272",135.5,0.0288139141852088,5.13042527584062e-07,4.01887109438259e-12,0.0144069570946138,2021-09-05
"273",136,0.0289297483288329,4.97750721167847e-07,3.71203548831354e-12,0.0144648741662725,2021-09-06
"274",136.5,0.0290423579279916,4.82918241506081e-07,3.42859913274984e-12,0.0145211789657101,2021-09-06
"275",137,0.0291516957608202,4.68531197597335e-07,3.1667798839383e-12,0.0145758478819935,2021-09-07
"276",137.5,0.0292577160673816,4.54576120814414e-07,2.92493113944097e-12,0.0146288580351533,2021-09-07
"277",138,0.0293603745902237,4.41039952016929e-07,2.70153154554258e-12,0.0146801872964626,2021-09-08
"278",138.5,0.0294596286134554,4.27910029057364e-07,2.49517548489922e-12,0.0147298143079753,2021-09-08
"279",139,0.0295554370002833,4.1517407466866e-07,2.30456428539454e-12,0.0147777185012939,2021-09-09
"280",139.5,0.0296477602289521,4.02820184721704e-07,2.12849809562668e-12,0.0148238801155403,2021-09-09
"281",140,0.0297365604270334,3.90836816841453e-07,1.96586837657057e-12,0.0148682802144996,2021-09-10
"282",140.5,0.0298218014040135,3.79212779370781e-07,1.81565096277098e-12,0.0149109007029146,2021-09-10
"283",141,0.0299034486821306,3.67937220671444e-07,1.67689964994531e-12,0.0149517243419038,2021-09-11
"284",141.5,0.0299814695254177,3.56999618751904e-07,1.54874026913343e-12,0.0149907347634832,2021-09-11
"285",142,0.0300558329669092,3.46389771212031e-07,1.43036521054404e-12,0.0150279164841698,2021-09-12
"286",142.5,0.030126509833974,3.36097785495041e-07,1.32102836303279e-12,0.0150632549176475,2021-09-12
"287",143,0.0301934727717392,3.26114069437281e-07,1.22004043772225e-12,0.0150967363864796,2021-09-13
"288",143.5,0.0302566962645752,3.164293221068e-07,1.12676464665532e-12,0.015128348132851,2021-09-13
"289",144,0.0303161566556132,3.07034524921866e-07,1.0406127095746e-12,0.0151580783283269,2021-09-14
"290",144.5,0.030371832164273,2.97920933040916e-07,9.61041163955977e-13,0.015185916082617,2021-09-14
"291",145,0.0304237029017796,2.89080067015632e-07,8.8754795530603e-13,0.0152118514513336,2021-09-15
"292",145.5,0.0304717508846541,2.80402981291096e-07,8.19669286472553e-13,0.0152358754427369,2021-09-15
"293",146,0.0305159600461651,2.71846843930676e-07,7.56976706325855e-13,0.015257980023461,2021-09-16
"294",146.5,0.030556316245732,2.63555304128747e-07,6.99074419655184e-13,0.0152781581232156,2021-09-16
"295",147,0.0305928072762767,2.55520076916895e-07,6.4559680149918e-13,0.0152964036384612,2021-09-17
"296",147.5,0.0306254228695202,2.47733139635415e-07,5.96206100399896e-13,0.0153127114350582,2021-09-17
"297",148,0.0306541546992288,2.40186723549478e-07,5.50590316244578e-13,0.0153270773498897,2021-09-18
"298",148.5,0.0306789963824146,2.32873305735314e-07,5.08461239445254e-13,0.0153394981914615,2021-09-18
"299",149,0.0306999434785005,2.25785601227659e-07,4.69552639209947e-13,0.015349971739485,2021-09-19
"300",149.5,0.0307169934864637,2.18916555420005e-07,4.33618589587234e-13,0.0153584967434486,2021-09-19
"301",150,0.0307301458399734,2.1210687275174e-07,4.00431922823582e-13,0.0153650729201869,2021-09-20
"302",150.5,0.0307394019005441,2.05064470287019e-07,3.69782800365734e-13,0.0153697009504569,2021-09-20
"303",151,0.0307447649487274,1.98255840969689e-07,3.41477392573303e-13,0.0153723824745344,2021-09-21
"304",151.5,0.0307462401733698,1.91673229117535e-07,3.15336658884133e-13,0.0153731200868426,2021-09-21
"305",152,0.030743834658966,1.85309136072072e-07,2.91195220801172e-13,0.0153719173296286,2021-09-22
"306",152.5,0.0307375573711418,1.79156311696348e-07,2.68900320648329e-13,0.0153687786857053,2021-09-22
"307",153,0.0307274191403008,1.73207746153167e-07,2.48310859577784e-13,0.0153637095702746,2021-09-23
"308",153.5,0.0307134326434769,1.67456661954548e-07,2.29296508805636e-13,0.0153567163218531,2021-09-23
"309",154,0.0306956123844307,1.61896506273485e-07,2.1173688850979e-13,0.0153478061923212,2021-09-24
"310",154.5,0.0306739746720367,1.56520943509415e-07,1.95520809246401e-13,0.0153369873361161,2021-09-24
"311",155,0.0306485375970072,1.51323848099034e-07,1.80545571131551e-13,0.0153242687985939,2021-09-25
"312",155.5,0.0306193210070005,1.46299297564427e-07,1.66716316395699e-13,0.0153096605035836,2021-09-25
"313",156,0.0305863464801672,1.41441565790682e-07,1.5394543125188e-13,0.0152931732401606,2021-09-26
"314",156.5,0.0305496372971849,1.36745116525461e-07,1.42151993326877e-13,0.0152748186486635,2021-09-26
"315",157,0.0305092184118389,1.32204597093224e-07,1.31261261189386e-13,0.0152546092059851,2021-09-27
"316",157.5,0.0304651164202032,1.28161085311712e-07,1.212042027725e-13,0.0152325582101622,2021-09-27
"317",158,0.0304173595284824,1.24566928017339e-07,1.11917059731065e-13,0.0152086797642972,2021-09-28
"318",158.5,0.0303659775195724,1.21076029235161e-07,1.03340944999351e-13,0.0151829887598379,2021-09-28
"319",159,0.0303110017184023,1.17685356721461e-07,9.54214710222305e-14,0.0151555008592489,2021-09-29
"320",159.5,0.0302524649561183,1.1439196895463e-07,8.81084063251051e-14,0.0151262324781032,2021-09-29
"321",160,0.0301904015331743,1.11193012380393e-07,8.13553582652565e-14,0.0150952007666278,2021-09-30
"322",160.5,0.0301248471813911,1.08085718741556e-07,7.51194799712962e-14,0.0150624235907331,2021-09-30
"323",161,0.0300558390250506,1.0506740248967e-07,6.93611996289308e-14,0.01502791951256,2021-10-01
"324",161.5,0.0299834155410891,1.02135458276094e-07,6.40439704112971e-14,0.0149917077705766,2021-10-01
"325",162,0.0299076165184547,9.92873585199962e-08,5.91340394815324e-14,0.0149538082592569,2021-10-02
"326",162.5,0.0298284830166961,9.65206510509228e-08,5.46002346148296e-14,0.0149142415083753,2021-10-02
"327",163,0.0297460573238463,9.40642724354673e-08,5.0413767097728e-14,0.0148730286619484,2021-10-03
"328",163.5,0.0296603829136689,9.1757452318863e-08,4.65480496645032e-14,0.0148301914568577,2021-10-03
"329",164,0.0295715044023305,8.95073040517336e-08,4.29785283248723e-14,0.0147857522011868,2021-10-04
"330",164.5,0.0294794675045666,8.73124328194244e-08,3.96825270244179e-14,0.0147397337523032,2021-10-04
"331",165,0.0293843189894034,8.47622855696082e-08,3.66391041596968e-14,0.01469215949472,2021-10-05
"332",165.5,0.029286106635501,8.21777543975907e-08,3.38289200444396e-14,0.0146430533177674,2021-10-05
"333",166,0.0291848791861815,7.96736392827748e-08,3.12341144920281e-14,0.0145924395931063,2021-10-06
"334",166.5,0.029080686304203,7.72473972067625e-08,2.88381937429959e-14,0.0145403431521159,2021-10-06
"335",167,0.0289735785263438,7.48965664819947e-08,2.66259260250178e-14,0.0144867892631852,2021-10-07
"336",167.5,0.0288636072178552,7.26187641357448e-08,2.45832450871126e-14,0.0144318036089399,2021-10-07
"337",168,0.028750824526843,7.04116833782231e-08,2.26971610999176e-14,0.0143754122634328,2021-10-08
"338",168.5,0.0286352833386373,6.82730911521064e-08,2.09556783602125e-14,0.0143176416693291,2021-10-08
"339",169,0.0285170372302064,6.62008257608923e-08,1.93477192806668e-14,0.0142585186151129,2021-10-09
"340",169.5,0.0283961404246703,6.41927945735603e-08,1.78630541853277e-14,0.0141980702123441,2021-10-09
"341",170,0.02827264774597,6.22469718031002e-08,1.64922364678977e-14,0.0141363238729933,2021-10-10
"342",170.5,0.0281466145737427,6.03613963565447e-08,1.5226542703604e-14,0.014073307286879,2021-10-10
"343",171,0.0280180967984564,5.85341697542191e-08,1.40579173366479e-14,0.0140090483992352,2021-10-11
"344",171.5,0.027887150776852,5.67634541159913e-08,1.29789215940336e-14,0.0139435753884325,2021-10-11
"345",172,0.0277538332877417,5.50474702123775e-08,1.19826863031929e-14,0.0138769166438768,2021-10-12
"346",172.5,0.0276182014882096,5.33844955784249e-08,1.10628683154164e-14,0.0138091007441103,2021-10-12
"347",173,0.027480312870258,5.17728626883588e-08,1.02136102598196e-14,0.0137401564351341,2021-10-13
"348",173.5,0.0273402252179438,5.02109571890467e-08,9.42950337356408e-15,0.0136701126089766,2021-10-13
"349",174,0.0271979965650443,4.86972161903914e-08,8.7055531734426e-15,0.0135989982825265,2021-10-14
"350",174.5,0.0270536851532917,4.7230126610827e-08,8.03714775185488e-15,0.0135268425766499,2021-10-14
"351",175,0.0269073493912137,4.56708297411735e-08,7.42002849674732e-15,0.0134536746956105,2021-10-15
"352",175.5,0.0267590478136145,4.40888845893125e-08,6.85026305038136e-15,0.0133795239068107,2021-10-15
"353",176,0.026608839041731,4.25616001703089e-08,6.32422033591836e-15,0.0133044195208687,2021-10-16
"354",176.5,0.0264567817440938,4.11675636470047e-08,5.83854749385745e-15,0.0132283908720498,2021-10-16
"355",177,0.0263029345981233,3.98608316411802e-08,5.39014858241607e-15,0.0131514672990643,2021-10-17
"356",177.5,0.0261473562524885,3.85958293161425e-08,4.97616490707842e-15,0.0130736781262467,2021-10-17
"357",178,0.025990105290254,3.73712163114197e-08,4.593956854823e-15,0.0129950526451293,2021-10-18
"358",178.5,0.0258312401928393,3.61856955544303e-08,4.24108711804286e-15,0.0129156200964218,2021-10-18
"359",179,0.0256708193048113,3.50380118554415e-08,3.9153052019497e-15,0.0128354096524076,2021-10-19
"360",179.5,0.0255089007995311,3.39269505483369e-08,3.61453311736162e-15,0.0127544503997674,2021-10-19
"361",180,0.0253455426456738,3.28513361756952e-08,3.33685216826442e-15,0.0126727713228386,2021-10-20
"362",180.5,0.0251808025746356,3.18100312167283e-08,3.08049075045508e-15,0.0125904012873193,2021-10-20
"363",181,0.0250147380488453,3.08019348566787e-08,2.84381308396764e-15,0.0125073690244241,2021-10-21
"364",181.5,0.0248474062309917,2.9825981796317e-08,2.62530880788498e-15,0.0124237031154972,2021-10-21
"365",182,0.0246788639541793,2.88811411002297e-08,2.42358337159368e-15,0.0123394319770908,2021-10-22
"366",182.5,0.0245091676930198,2.79664150826273e-08,2.23734916157609e-15,0.012254583846511,2021-10-22
"367",183,0.0243383735356707,2.70808382294457e-08,2.06541730748678e-15,0.0121691867678364,2021-10-23
"368",183.5,0.0241665371568236,2.62234761555542e-08,1.90669011555853e-15,0.0120832685784128,2021-10-23
"369",184,0.0239937137916507,2.53934245959215e-08,1.76015408135235e-15,0.0119968568958262,2021-10-24
"370",184.5,0.0238199582107096,2.458980842963e-08,1.62487343753354e-15,0.0119099791053556,2021-10-24
"371",185,0.0236453246958113,2.38117807356641e-08,1.49998419574205e-15,0.0118226623479064,2021-10-25
"372",185.5,0.023469867016849,2.30585218794341e-08,1.38468864475427e-15,0.0117349335084252,2021-10-25
"373",186,0.0232936384095901,2.232923862903e-08,1.27825027002257e-15,0.0116468192047957,2021-10-26
"374",186.5,0.0231166915544257,2.16231633002357e-08,1.17998906234808e-15,0.0115583457772135,2021-10-26
"375",187,0.0229390785560775,2.09395529293611e-08,1.08927718590692e-15,0.0114695392780393,2021-10-27
"376",187.5,0.0227608509242554,2.02776884729859e-08,1.00553497812735e-15,0.0113804254621282,2021-10-27
"377",188,0.0225820595552606,1.9636874033733e-08,9.28227256017898e-16,0.0112910297776307,2021-10-28
"378",188.5,0.0224027547145281,1.9016436111224e-08,8.56859905488925e-16,0.0112013773572645,2021-10-28
"379",189,0.0222229860200999,1.84157228773919e-08,7.90976732004093e-16,0.0111114930100503,2021-10-29
"380",189.5,0.0220428024270194,1.78341034753576e-08,7.30156552554966e-16,0.0110214012135101,2021-10-29
"381",190,0.0218622522126396,1.72709673410984e-08,6.74010510482284e-16,0.0109311261063201,2021-10-30
"382",190.5,0.0216813829628314,1.67257235471669e-08,6.22179596080805e-16,0.010840691481416,2021-10-30
"383",191,0.0215002415590826,1.61978001677386e-08,5.7433235722993e-16,0.0107501207795416,2021-10-31
"384",191.5,0.0213188741664746,1.56866436642919e-08,5.3016278549791e-16,0.0106594370832375,2021-10-31
"385",192,0.0211373262225224,1.51917182912491e-08,4.89388364280873e-16,0.0105686631112615,2021-11-01
"386",192.5,0.0209556424268674,1.4712505520924e-08,4.51748266566198e-16,0.0104778212134339,2021-11-01
"387",193,0.0207738667318043,1.4248503487149e-08,4.17001690859511e-16,0.0103869333659024,2021-11-02
"388",193.5,0.0205920423336308,1.37992264469701e-08,3.84926324691658e-16,0.0102960211668156,2021-11-02
"389",194,0.0204102116648023,1.33642042598216e-08,3.55316925932038e-16,0.0102051058324013,2021-11-03
"390",194.5,0.0202284163868761,1.29429818836104e-08,3.27984012882814e-16,0.0101142081934382,2021-11-03
"391",195,0.0200466973842293,1.25351188871567e-08,3.02752654819368e-16,0.0100233486921148,2021-11-04
"392",195.5,0.0198650947585317,1.21401889784609e-08,2.7946135528045e-16,0.009932547379266,2021-11-04
"393",196,0.0196836478239589,1.17577795482772e-08,2.57961021000706e-16,0.00984182391197956,2021-11-05
"394",196.5,0.0195023951031248,1.13874912284976e-08,2.38114009922442e-16,0.0097511975515625,2021-11-05
"395",197,0.0194447560190181,1.10289374648619e-08,2.19793252226064e-16,0.00972237800950917,2021-11-06
"396",197.5,0.0194475021884787,1.06817441035278e-08,2.02881438782685e-16,0.00972375109423946,2021-11-06
"397",198,0.0194479721013131,1.03455489910485e-08,1.87270271861032e-16,0.00972398605065666,2021-11-07
"398",198.5,0.019446168617854,1.00200015873222e-08,1.72859773316563e-16,0.00972308430892711,2021-11-07
"399",199,0.0194420956393567,9.70476259108924e-09,1.59557645856221e-16,0.00972104781967841,2021-11-08
"400",199.5,0.0194357581017528,9.39950357756995e-09,1.47278683309788e-16,0.00971787905087648,2021-11-08
"401",200,0.0194271619684345,9.10390664784629e-09,1.35944226150531e-16,0.00971358098421734,2021-11-09
"402",200.5,0.0194163142220823,8.81766408960583e-09,1.25481658795649e-16,0.00970815711104119,2021-11-09
"403",201,0.0194032228555542,8.5404780488776e-09,1.15823945482871e-16,0.00970161142777715,2021-11-10
"404",201.5,0.0193878968618551,8.27206021240225e-09,1.06909201765019e-16,0.00969394843092761,2021-11-10
