"","time","top","med","bottom","pseudo_med","date"
"1",0,0.982619915571709,0.975876411155622,0.968403930503633,0.975511923037671,2021-04-23
"2",0.5,0.982556810671452,0.975859619453711,0.9683620411709,0.975459425921176,2021-04-23
"3",1,0.982493768664792,0.975829202786719,0.968320935972911,0.975407352318851,2021-04-24
"4",1.5,0.982430790280657,0.975794239224772,0.968280600442786,0.975355695361722,2021-04-24
"5",2,0.982367876244811,0.975732947510765,0.968241020372638,0.975304448308724,2021-04-25
"6",2.5,0.982305027279823,0.975670854875694,0.96820218180923,0.975253604544526,2021-04-25
"7",3,0.982242244105039,0.975607931993847,0.968164071049703,0.975203157577371,2021-04-26
"8",3.5,0.98217952743655,0.975557420490541,0.968126674637359,0.975153101036955,2021-04-26
"9",4,0.982116877987163,0.975511990938179,0.968089979357499,0.975103428672331,2021-04-27
"10",4.5,0.982054296466371,0.975446092034512,0.968053972233332,0.975054134349852,2021-04-27
"11",5,0.981991783580327,0.975430568009348,0.968018640521938,0.975005212051133,2021-04-28
"12",5.5,0.981929340031812,0.975401380686348,0.967983971710287,0.97495665587105,2021-04-28
"13",6,0.981866966520207,0.975334439436003,0.967949953511324,0.974908460015766,2021-04-29
"14",6.5,0.981827909594147,0.975246332411302,0.967916573860106,0.974872241727126,2021-04-29
"15",7,0.981819399228146,0.975160723611185,0.967883820909997,0.974851610069072,2021-04-30
"16",7.5,0.981811588155545,0.975124349484811,0.967851683028926,0.974831635592235,2021-04-30
"17",8,0.981804418916465,0.975106201486589,0.967820148795695,0.97481228385608,2021-05-01
"18",8.5,0.981797838772296,0.975095269681957,0.967779996795267,0.974788917783782,2021-05-01
"19",9,0.981791799317787,0.975083899960343,0.967681735570386,0.974736767444086,2021-05-02
"20",9.5,0.981786256125001,0.975072589619918,0.967582247251883,0.974684251688442,2021-05-02
"21",10,0.981781168416528,0.975053402402365,0.96748151783143,0.974631343123979,2021-05-03
"22",10.5,0.98177649876554,0.975012045850736,0.967379533175108,0.974578015970324,2021-05-03
"23",11,0.981772212820496,0.974994018971818,0.967276279023207,0.974524245921852,2021-05-04
"24",11.5,0.981768279052453,0.974976146509819,0.967171740990053,0.974470010021253,2021-05-04
"25",12,0.981764668523154,0.974958421259525,0.967065904563864,0.974415286543509,2021-05-05
"26",12.5,0.981761354672153,0.974940836210528,0.966958755106636,0.974360054889394,2021-05-05
"27",13,0.981758313121445,0.974914999416847,0.966850277854068,0.974304295487756,2021-05-06
"28",13.5,0.981755521496138,0.974896567942051,0.966740457915514,0.974247989705826,2021-05-06
"29",14,0.981752959259866,0.974866203879715,0.966629280273966,0.974191119766916,2021-05-07
"30",14.5,0.981750607563718,0.974831700188595,0.966516729786083,0.9741336686749,2021-05-07
"31",15,0.981748449107588,0.974798242112546,0.966402791182243,0.974075620144915,2021-05-08
"32",15.5,0.981746468012908,0.974788093968615,0.96585412630032,0.973800297156614,2021-05-08
"33",16,0.981744649705848,0.974764235388773,0.964915873204472,0.97333026145516,2021-05-09
"34",16.5,0.981742980810104,0.974729281366325,0.963912276069475,0.972827628439789,2021-05-09
"35",17,0.981741449048498,0.974720994717459,0.962839061058319,0.972290255053409,2021-05-10
"36",17.5,0.98174004315267,0.974709111210622,0.961691715553389,0.971715879353029,2021-05-10
"37",18,0.981738752780176,0.974693037986114,0.960465480896555,0.971102116838366,2021-05-11
"38",18.5,0.981737568438416,0.974677739386389,0.959155345902028,0.970446457170222,2021-05-11
"39",19,0.981736481414792,0.974629991592126,0.957756041342413,0.969746261378603,2021-05-12
"40",19.5,0.981735483712626,0.974610041299936,0.956262035633847,0.968998759673236,2021-05-12
"41",20,0.981734567992326,0.974583508160094,0.954667531973053,0.968201049982689,2021-05-13
"42",20.5,0.981733727517397,0.97457001429626,0.952966467207222,0.96735009736231,2021-05-13
"43",21,0.981732956104885,0.974528612092623,0.951152512746516,0.966442734425701,2021-05-14
"44",21.5,0.981732248079889,0.974514744601242,0.949219077858052,0.96547566296897,2021-05-14
"45",22,0.981731598233819,0.974500917335283,0.947159315708923,0.964445456971371,2021-05-15
"46",22.5,0.981731001786075,0.974487121559245,0.94496613255309,0.963348567169583,2021-05-15
"47",23,0.981730454348882,0.974457366739853,0.942632200481921,0.962181327415401,2021-05-16
"48",23.5,0.981729951895012,0.974410854043081,0.940149974179373,0.960939963037193,2021-05-16
"49",24,0.981729490728154,0.974362502793752,0.93751171213884,0.959620601433497,2021-05-17
"50",24.5,0.981729067455727,0.974335219584303,0.934709502807652,0.958219285131689,2021-05-17
"51",25,0.981728678963918,0.974327852953366,0.931735296125254,0.956731987544586,2021-05-18
"52",25.5,0.981728322394779,0.974317036617955,0.92858094090982,0.955154631652299,2021-05-18
"53",26,0.981727995125202,0.974294612284172,0.925238228523083,0.953483111824142,2021-05-19
"54",26.5,0.98172769474762,0.974257100661756,0.921698943202,0.95171331897481,2021-05-19
"55",27,0.981727419052299,0.97424512933059,0.917954919385698,0.949841169218999,2021-05-20
"56",27.5,0.981727166011079,0.974231153672137,0.913998106284562,0.94786263614782,2021-05-20
"57",28,0.981726933762455,0.974217128631143,0.90982063983282,0.945773786797637,2021-05-21
"58",28.5,0.981726720597884,0.974203274395583,0.90541492203454,0.943570821316212,2021-05-21
"59",29,0.981726524949215,0.974202408376377,0.900773707554173,0.941250116251694,2021-05-22
"60",29.5,0.981726345377153,0.974197940829583,0.895890197215997,0.938808271296575,2021-05-22
"61",30,0.98172618056067,0.974153998351676,0.890758137862506,0.936242159211588,2021-05-23
"62",30.5,0.98172602928729,0.974119960764427,0.885371927781812,0.933548978534551,2021-05-23
"63",31,0.981725890444165,0.974083474038361,0.879726726651967,0.930726308548066,2021-05-24
"64",31.5,0.981725763009891,0.974077410369572,0.873818568671085,0.927772165840488,2021-05-24
"65",32,0.981725646046994,0.974014165797016,0.867644477253796,0.924685061650395,2021-05-25
"66",32.5,0.981725538695032,0.973970617401607,0.86120257938641,0.921464059040721,2021-05-25
"67",33,0.981725440164269,0.973921799072612,0.854492217457025,0.918108828810646,2021-05-26
"68",33.5,0.981725349729857,0.973907310817703,0.847514056126319,0.914619702928088,2021-05-26
"69",34,0.981725266726515,0.973884599599964,0.84027018159526,0.910997724160888,2021-05-27
"70",34.5,0.981725190543625,0.973851895700759,0.832764190473468,0.907244690508547,2021-05-27
"71",35,0.981725120620745,0.973806140677672,0.82500126537302,0.903363192996882,2021-05-28
"72",35.5,0.981725056443484,0.973785202266744,0.816988234362351,0.899356645402918,2021-05-28
"73",36,0.981724997539722,0.973770483171707,0.808733611527011,0.895229304533366,2021-05-29
"74",36.5,0.981724943476129,0.973705840463522,0.800247616108405,0.890986279792267,2021-05-29
"75",37,0.981724893854987,0.973685331599334,0.791542168033603,0.886633530944295,2021-05-30
"76",37.5,0.981724848311254,0.973670163565528,0.782630858108478,0.882177853209866,2021-05-30
"77",38,0.981724806509887,0.973668587989609,0.773528891715805,0.877626849112846,2021-05-31
"78",38.5,0.981724768143372,0.973605658528215,0.764253005525171,0.872988886834271,2021-05-31
"79",39,0.981724732929465,0.973561749651337,0.754821357461369,0.868273045195417,2021-06-01
"80",39.5,0.981724700609114,0.973542979842254,0.745253390964286,0.8634890457867,2021-06-01
"81",40,0.981724670944553,0.973528615642365,0.735569675372882,0.858647173158717,2021-06-02
"82",40.5,0.981724643717552,0.973525239532747,0.725791725041776,0.853758184379664,2021-06-02
"83",41,0.981724618727817,0.973486451032815,0.715941800513073,0.848833209620445,2021-06-03
"84",41.5,0.981724595791509,0.973467475535763,0.706042695681407,0.843883645736458,2021-06-03
"85",42,0.981724574739896,0.973461789092084,0.696117515373965,0.838921045056931,2021-06-04
"86",42.5,0.981724555418112,0.973458557005767,0.68618944809287,0.833957001755491,2021-06-04
"87",43,0.981724537684014,0.973455393121824,0.676281538817,0.829003038250507,2021-06-05
"88",43.5,0.981724521407142,0.97339736716478,0.666416466726043,0.824070494066592,2021-06-05
"89",44,0.981724506467753,0.973353086154637,0.656616332494081,0.819170419480917,2021-06-06
"90",44.5,0.981724492755947,0.973352914752475,0.646902459416379,0.814313476086163,2021-06-06
"91",45,0.981724480170851,0.973352752040807,0.637295212103611,0.809509846137231,2021-06-07
"92",45.5,0.981724468619882,0.973352597575115,0.627813835832523,0.804769152226203,2021-06-07
"93",46,0.981724458018067,0.973346353105659,0.618476318915942,0.800100388467004,2021-06-08
"94",46.5,0.981724448287411,0.973289909739297,0.609299279685777,0.795511863986594,2021-06-08
"95",47,0.981724439356331,0.973249537139702,0.600297878907607,0.791011159131969,2021-06-09
"96",47.5,0.981724431159125,0.973249534771942,0.591485757699484,0.786605094429304,2021-06-09
"97",48,0.98172442363549,0.973249532626365,0.582048961573823,0.781886692604657,2021-06-10
"98",48.5,0.981724416730079,0.973234119092967,0.571684233473375,0.776704325101727,2021-06-10
"99",49,0.981724410392091,0.97321670788779,0.561513650396838,0.771619030394464,2021-06-11
"100",49.5,0.981724404574901,0.97319928306594,0.55155324171963,0.766638823147265,2021-06-11
"101",50,0.981724399235714,0.973127295119252,0.541817210558125,0.761770804896919,2021-06-12
"102",50.5,0.981724394335252,0.973057814769751,0.532317915070492,0.757021154702872,2021-06-12
"103",51,0.981724389837465,0.972995052134402,0.523065876961838,0.752395133399652,2021-06-13
"104",51.5,0.981724385709266,0.972992811195877,0.514069814563948,0.747897100136607,2021-06-13
"105",52,0.981724381920283,0.972979666744598,0.505336697488878,0.743530539704581,2021-06-14
"106",52.5,0.981724378442645,0.972917482215161,0.496871819630547,0.739298099036596,2021-06-14
"107",53,0.981724375250767,0.972908547879316,0.488678887199131,0.735201631224949,2021-06-15
"108",53.5,0.981724372321168,0.972894954287739,0.480760118503701,0.731242245412435,2021-06-15
"109",54,0.981724369632297,0.97287731705474,0.473116352330125,0.727420360981211,2021-06-16
"110",54.5,0.981724367164373,0.972875130784648,0.465747161972749,0.723735764568561,2021-06-16
"111",55,0.981724364899239,0.972874903730144,0.458650972248756,0.720187668573998,2021-06-17
"112",55.5,0.981724362820234,0.972874685632233,0.451825177133115,0.716774769976675,2021-06-17
"113",56,0.981724360912063,0.9728744761376,0.445266255981532,0.713495308446797,2021-06-18
"114",56.5,0.981724359160687,0.972874274906865,0.438969886643125,0.710347122901906,2021-06-18
"115",57,0.981724357553223,0.972874081614036,0.432931054090769,0.707327705821996,2021-06-19
"116",57.5,0.981724356077846,0.972856837296539,0.427144153505341,0.704434254791594,2021-06-19
"117",58,0.981724354723702,0.972836567787035,0.421603087033272,0.701663720878487,2021-06-20
"118",58.5,0.981724353480829,0.972833301317568,0.416301353690229,0.699012853585529,2021-06-20
"119",59,0.981724352340084,0.972826879337639,0.411232132105026,0.696478242222555,2021-06-21
"120",59.5,0.981724351293075,0.972802733125392,0.406388355986336,0.694056353639706,2021-06-21
"121",60,0.9817243503321,0.97277834275089,0.401762782351115,0.691743566341607,2021-06-22
"122",60.5,0.981724349450088,0.972753705653715,0.397348052679856,0.689536201064972,2021-06-22
"123",61,0.981724348640552,0.972728819256503,0.393136747262115,0.687430547951334,2021-06-23
"124",61.5,0.981724347897537,0.972703680964697,0.389121433069356,0.685422890483447,2021-06-23
"125",62,0.981724347215576,0.972661455571177,0.385294705544047,0.683509526379811,2021-06-24
"126",62.5,0.981724346589652,0.972638878948728,0.381649224727304,0.681686785658478,2021-06-24
"127",63,0.98172434601516,0.972619052427002,0.37817774616531,0.679951046090235,2021-06-25
"128",63.5,0.981724345487875,0.972599082891988,0.37487314704,0.678298746263938,2021-06-25
"129",64,0.981724345003918,0.972578969241825,0.371728447964735,0.676726396484326,2021-06-26
"130",64.5,0.981724344559728,0.972558710373166,0.368736830873183,0.675230587716455,2021-06-26
"131",65,0.981724344152037,0.972540596116162,0.365891653411326,0.673807998781681,2021-06-27
"132",65.5,0.981724343777846,0.972533962201958,0.36318646022012,0.672455401998983,2021-06-27
"133",66,0.981724343434404,0.972508722519966,0.360614991471313,0.671169667452858,2021-06-28
"134",66.5,0.981724343119182,0.972474050720951,0.35817118899232,0.669947766055751,2021-06-28
"135",67,0.981724342829862,0.972462387548258,0.355849200288905,0.668786771559383,2021-06-29
"136",67.5,0.981724342564315,0.972461809254066,0.353643380747314,0.667683861655815,2021-06-29
"137",68,0.981724342320589,0.972449099613826,0.351548294271141,0.666636318295865,2021-06-30
"138",68.5,0.98172434209689,0.972433913276556,0.349558712582829,0.66564152733986,2021-06-30
"139",69,0.981724341891573,0.972417529894948,0.347669613395722,0.664696977643648,2021-07-01
"140",69.5,0.981724341703127,0.972400050431933,0.345876177640105,0.663800259671616,2021-07-01
"141",70,0.981724341530165,0.972348505290527,0.344173785905799,0.662949063717982,2021-07-02
"142",70.5,0.981724341371416,0.972324612466976,0.342558014244702,0.662141177808059,2021-07-02
"143",71,0.981724341225711,0.972310154470606,0.341024629459119,0.661374485342415,2021-07-03
"144",71.5,0.981724341091979,0.972306981721562,0.339569583985823,0.660646962538901,2021-07-03
"145",72,0.981724340969236,0.972303833817599,0.338189010471423,0.659956675720329,2021-07-04
"146",72.5,0.981724340856579,0.97230071055361,0.336879216121702,0.659301778489141,2021-07-04
"147",73,0.981724340753179,0.972297611726724,0.335636676896091,0.658680508824635,2021-07-05
"148",73.5,0.981724340658276,0.972294537136257,0.334458031608148,0.658091186133212,2021-07-05
"149",74,0.981724340571171,0.972291486583662,0.333340075983877,0.657532208277524,2021-07-06
"150",74.5,0.981724340491223,0.972288459872487,0.332279756721644,0.657002048606434,2021-07-06
"151",75,0.981724340417844,0.97228545680833,0.331274165590429,0.656499253004137,2021-07-07
"152",75.5,0.981724340350496,0.972267501315579,0.330320533596961,0.656022436973728,2021-07-07
"153",76,0.981724340288681,0.972247550824692,0.32941622524688,0.65557028276778,2021-07-08
"154",76.5,0.981724340231946,0.972227402805248,0.328558732920372,0.655141536576159,2021-07-08
"155",77,0.981724340179872,0.972207055379862,0.327745671378656,0.654735005779264,2021-07-09
"156",77.5,0.981724340132078,0.972153162838369,0.326974772414173,0.654349556273126,2021-07-09
"157",78,0.981724340088211,0.972074698738382,0.326243879654308,0.653984109871259,2021-07-10
"158",78.5,0.981724340047948,0.972015748528176,0.325550943525859,0.653637641786903,2021-07-10
"159",79,0.981724340010994,0.971994587601947,0.324894016385285,0.653309178198139,2021-07-11
"160",79.5,0.981724339977076,0.971973217504762,0.324271247817832,0.652997793897454,2021-07-11
"161",80,0.981724339945946,0.971951636273218,0.323680880107095,0.65270261002652,2021-07-12
"162",80.5,0.981724339917373,0.971930380788032,0.323121243875187,0.65242279189628,2021-07-12
"163",81,0.981724339891149,0.971930317120049,0.322590753892621,0.652157546891885,2021-07-13
"164",81.5,0.981724339867079,0.971930255326489,0.322087905056028,0.651906122461553,2021-07-13
"165",82,0.981724339844987,0.971930195351881,0.321611268531135,0.651667804188061,2021-07-14
"166",82.5,0.98172433982471,0.971930137142409,0.321159488057763,0.651441913941237,2021-07-14
"167",83,0.9817243398061,0.971930080645868,0.32073127641315,0.651227808109625,2021-07-15
"168",83.5,0.981724339789019,0.971930025811613,0.320325412029492,0.651024875909255,2021-07-15
"169",84,0.981724339773341,0.971929972590511,0.319940735761322,0.650832537767331,2021-07-16
"170",84.5,0.981724339758952,0.971929920934893,0.31957614779812,0.650650243778536,2021-07-16
"171",85,0.981724339745745,0.971929870798515,0.319230604717403,0.650477472231574,2021-07-17
"172",85.5,0.981724339733623,0.971909211848835,0.318903116673433,0.650313728203528,2021-07-17
"173",86,0.981724339722497,0.971873788283489,0.318592744716661,0.650158542219579,2021-07-18
"174",86.5,0.981724339712286,0.971859775265563,0.318298598238996,0.650011468975641,2021-07-18
"175",87,0.981724339702913,0.97185972742392,0.318019832540011,0.649872086121462,2021-07-19
"176",87.5,0.981724339694311,0.97185968101105,0.317755646509267,0.649739993101789,2021-07-19
"177",88,0.981724339686415,0.971859635984088,0.317505280419997,0.649614810053206,2021-07-20
"178",88.5,0.981724339679169,0.971859592301465,0.317268013829475,0.649496176754322,2021-07-20
"179",89,0.981724339672517,0.971859549922864,0.317043163581534,0.649383751627026,2021-07-21
"180",89.5,0.981724339666413,0.971854609895591,0.316830081906761,0.649277210786587,2021-07-21
"181",90,0.98172433966081,0.971816855852824,0.316628154616087,0.649176247138448,2021-07-22
"182",90.5,0.981724339655667,0.971778528888425,0.316436799383559,0.649080569519613,2021-07-22
"183",91,0.981724339650947,0.971739620615296,0.316255464114265,0.648989901882606,2021-07-23
"184",91.5,0.981724339646615,0.97170012253361,0.316083625393497,0.648903982520056,2021-07-23
"185",92,0.981724339642638,0.971691578896195,0.315920787013381,0.64882256332801,2021-07-24
"186",92.5,0.981724339638989,0.971690473630259,0.315766478573355,0.648745409106172,2021-07-24
"187",93,0.981724339635639,0.971689379767147,0.315620254150999,0.648672296893319,2021-07-25
"188",93.5,0.981724339632565,0.971688297187883,0.315481691039879,0.648603015336222,2021-07-25
"189",94,0.981724339629743,0.971672865785858,0.315350388551176,0.64853736409046,2021-07-26
"190",94.5,0.981724339627153,0.971648763939382,0.315225966876044,0.648475153251599,2021-07-26
"191",95,0.981724339624776,0.971624552565545,0.315108066005733,0.648416202815255,2021-07-27
"192",95.5,0.981724339622594,0.971600231043722,0.314996344706667,0.648360342164631,2021-07-27
"193",96,0.981724339620592,0.971575798753628,0.314890479547776,0.648307409584184,2021-07-28
"194",96.5,0.981724339618754,0.971551255075324,0.314790163977509,0.648257251798132,2021-07-28
"195",97,0.981724339617067,0.971526599389222,0.31469510744808,0.648209723532573,2021-07-29
"196",97.5,0.981724339615519,0.971501831076089,0.314605034584574,0.648164687100046,2021-07-29
"197",98,0.981724339614098,0.971476949517053,0.314519684396711,0.648122012005404,2021-07-30
"198",98.5,0.981724339612793,0.971451954093612,0.314438809531105,0.648081574571949,2021-07-30
"199",99,0.981724339611596,0.971445329753161,0.314362175562004,0.6480432575868,2021-07-31
"200",99.5,0.981724339610497,0.971444374248175,0.31428956031856,0.648006949964529,2021-07-31
"201",100,0.981724339609489,0.971443428586194,0.314220753246805,0.647972546428147,2021-08-01
"202",100.5,0.981724339608563,0.97143935811515,0.314155554804551,0.647939947206557,2021-08-01
"203",101,0.981724339607714,0.971408081382387,0.314093775887574,0.647909057747644,2021-08-02
"204",101.5,0.981724339606934,0.971376737225977,0.314035237285467,0.647879788446201,2021-08-02
"205",102,0.981724339606219,0.971345325799335,0.313979769165667,0.647852054385943,2021-08-03
"206",102.5,0.981724339605562,0.971337980120107,0.313927210584214,0.647825775094888,2021-08-03
"207",103,0.981724339604959,0.971337610510383,0.313877409021873,0.647800874313416,2021-08-04
"208",103.5,0.981724339604406,0.971337248383859,0.313830219944331,0.647777279774368,2021-08-04
"209",104,0.981724339603898,0.971336893588492,0.313785506385215,0.647754922994557,2021-08-05
"210",104.5,0.981724339603431,0.971336545975357,0.313743138550792,0.647733739077112,2021-08-05
"211",105,0.981724339603004,0.971336205398578,0.313702993445195,0.647713666524099,2021-08-06
"212",105.5,0.981724339602611,0.971335871715268,0.31366495451516,0.647694647058885,2021-08-06
"213",106,0.98172433960225,0.971335544785465,0.313628911313238,0.647676625457744,2021-08-07
"214",106.5,0.98172433960192,0.97133522447207,0.313594759178547,0.647659549390233,2021-08-07
"215",107,0.981724339601616,0.971334910640789,0.313562398934147,0.647643369267882,2021-08-08
"216",107.5,0.981724339601337,0.971322762089247,0.31353173660019,0.647628038100764,2021-08-08
"217",108,0.981724339601082,0.971302789926662,0.313502683122017,0.647613511361549,2021-08-09
"218",108.5,0.981724339600847,0.971293496776423,0.313475154112442,0.647599746856644,2021-08-09
"219",109,0.981724339600631,0.97129320790194,0.313449069607473,0.647586704604052,2021-08-10
"220",109.5,0.981724339600434,0.971292924862072,0.313424353834786,0.64757434671761,2021-08-10
"221",110,0.981724339600252,0.971292647538983,0.313400934994281,0.647562637297266,2021-08-11
"222",110.5,0.981724339600085,0.971292375817216,0.313378745050101,0.647551542325093,2021-08-11
"223",111,0.981724339599933,0.97126231964256,0.313357719533514,0.647541029566723,2021-08-12
"224",111.5,0.981724339599792,0.971234382853491,0.313337797356088,0.64753106847794,2021-08-12
"225",112,0.981724339599663,0.97122880668525,0.313318920632638,0.647521630116151,2021-08-13
"226",112.5,0.981724339599545,0.971215244677897,0.313301034513421,0.647512687056483,2021-08-13
"227",113,0.981724339599437,0.97120169779981,0.313284087025108,0.647504213312272,2021-08-14
"228",113.5,0.981724339599337,0.971188166098124,0.313268028920071,0.647496184259704,2021-08-14
"229",114,0.981724339599246,0.971174649619708,0.313252813533555,0.6474885765664,2021-08-15
"230",114.5,0.981724339599162,0.971161148411168,0.313238396648321,0.647481368123741,2021-08-15
"231",115,0.981724339599085,0.971147662518843,0.313224736366369,0.647474537982727,2021-08-16
"232",115.5,0.981724339599014,0.971134191988806,0.31321179298738,0.647468066293197,2021-08-16
"233",116,0.981724339598949,0.971120736866863,0.313199528893512,0.647461934246231,2021-08-17
"234",116.5,0.98172433959889,0.971107297198553,0.31318790844024,0.647456124019565,2021-08-17
"235",117,0.981724339598835,0.971093873029149,0.313160541161696,0.647442440380265,2021-08-18
"236",117.5,0.981724339598785,0.971080464403652,0.313129121045302,0.647426730322044,2021-08-18
"237",118,0.981724339598739,0.971070159479631,0.31309920464493,0.647411772121834,2021-08-19
"238",118.5,0.981724339598697,0.971059113928623,0.313070720023681,0.647397529811189,2021-08-19
"239",119,0.981724339598658,0.971048093032348,0.313043598683385,0.647383969141022,2021-08-20
"240",119.5,0.981724339598622,0.971037096732651,0.31301777540048,0.647371057499551,2021-08-20
"241",120,0.98172433959859,0.971026124972229,0.312993188069692,0.647358763834141,2021-08-21
"242",120.5,0.98172433959856,0.971015177694605,0.312969777555165,0.647347058576862,2021-08-21
"243",121,0.981724339598532,0.971004254844104,0.312947487548672,0.647335913573602,2021-08-22
"244",121.5,0.981724339598507,0.970993356365833,0.312926264434583,0.647325302016545,2021-08-22
"245",122,0.981724339598483,0.97098248220566,0.312906057161259,0.647315198379871,2021-08-23
"246",122.5,0.981724339598462,0.97097163231019,0.31288681711858,0.647305578358521,2021-08-23
"247",123,0.981724339598443,0.970960806626747,0.312868498021308,0.647296418809875,2021-08-24
"248",123.5,0.981724339598425,0.970939869761818,0.312851055798006,0.647287697698215,2021-08-24
"249",124,0.981724339598408,0.970906855931923,0.312834448485261,0.647279394041835,2021-08-25
"250",124.5,0.981724339598393,0.970890761395026,0.312818636126944,0.647271487862668,2021-08-25
"251",125,0.981724339598379,0.97088747216052,0.312803580678278,0.647263960138329,2021-08-26
"252",125.5,0.981724339598367,0.970887472058232,0.312789245914487,0.647256792756427,2021-08-26
"253",126,0.981724339598355,0.970887471960384,0.312775597343795,0.647249968471075,2021-08-27
"254",126.5,0.981724339598344,0.970887471866783,0.312762602124586,0.647243470861465,2021-08-27
"255",127,0.981724339598334,0.970887471777245,0.312750228986511,0.647237284292423,2021-08-28
"256",127.5,0.981724339598325,0.970887471691592,0.312738448155368,0.647231393876847,2021-08-28
"257",128,0.981724339598317,0.970887471609656,0.312727231281562,0.647225785439939,2021-08-29
"258",128.5,0.981724339598309,0.970887471531276,0.312716551371984,0.647220445485147,2021-08-29
"259",129,0.981724339598302,0.970887471456297,0.312706382725147,0.647215361161725,2021-08-30
"260",129.5,0.981724339598296,0.970887471384571,0.312696700869414,0.647210520233855,2021-08-30
"261",130,0.98172433959829,0.970887471315958,0.312687482504179,0.647205911051235,2021-08-31
"262",130.5,0.981724339598285,0.970887471250321,0.312678705443862,0.647201522521073,2021-08-31
"263",131,0.98172433959828,0.970887471187532,0.312670348564574,0.647197344081427,2021-09-01
"264",131.5,0.981724339598275,0.970887471127468,0.312662391753333,0.647193365675804,2021-09-01
"265",132,0.981724339598271,0.970887471070009,0.312654815859709,0.64718957772899,2021-09-02
"266",132.5,0.981724339598267,0.970887471015043,0.312647602649777,0.647185971124022,2021-09-02
"267",133,0.981724339598264,0.970887470962462,0.312640734762272,0.647182537180268,2021-09-03
"268",133.5,0.98172433959826,0.970868637262636,0.312634195666841,0.647179267632551,2021-09-03
"269",134,0.981724339598257,0.970842671374831,0.312627969624289,0.647176154611273,2021-09-04
"270",134.5,0.981724339598255,0.970825790799792,0.312622041648728,0.647173190623492,2021-09-04
"271",135,0.981724339598252,0.970825790079172,0.312616397471532,0.647170368534892,2021-09-05
"272",135.5,0.98172433959825,0.970825789384149,0.312611023507017,0.647167681552634,2021-09-05
"273",136,0.981724339598248,0.970825788713814,0.312605906819768,0.647165123209008,2021-09-06
"274",136.5,0.981724339598246,0.970825788067288,0.312601035093516,0.647162687345881,2021-09-06
"275",137,0.981724339598244,0.970825787443727,0.312596396601516,0.64716036809988,2021-09-07
"276",137.5,0.981724339598242,0.970825786842315,0.312591980178336,0.647158159888289,2021-09-07
"277",138,0.981724339598241,0.970825786262264,0.312587775192993,0.647156057395617,2021-09-08
"278",138.5,0.98172433959824,0.970825785702816,0.312583771523378,0.647154055560809,2021-09-08
"279",139,0.981724339598238,0.97082578516324,0.312579959531905,0.647152149565072,2021-09-09
"280",139.5,0.981724339598237,0.970825784642829,0.312576330042319,0.647150334820278,2021-09-09
"281",140,0.981724339598236,0.970825784140902,0.312572874317622,0.647148606957929,2021-09-10
"282",140.5,0.981724339598235,0.970825783656803,0.312569584039044,0.64714696181864,2021-09-10
"283",141,0.981724339598234,0.970825783189899,0.312566451286035,0.647145395442135,2021-09-11
"284",141.5,0.981724339598234,0.970825782739579,0.312563468517198,0.647143904057716,2021-09-11
"285",142,0.981724339598233,0.970825782305254,0.312560628552146,0.647142484075189,2021-09-12
"286",142.5,0.981724339598232,0.970825781886355,0.312557924554221,0.647141132076226,2021-09-12
"287",143,0.981724339598231,0.970825781482334,0.312555350014043,0.647139844806137,2021-09-13
"288",143.5,0.981724339598231,0.970825781092664,0.312552898733847,0.647138619166039,2021-09-13
"289",144,0.98172433959823,0.970825780716835,0.312550564812563,0.647137452205397,2021-09-14
"290",144.5,0.98172433959823,0.970825780354354,0.312548342631619,0.647136341114924,2021-09-14
"291",145,0.981724339598229,0.970825780004748,0.312546226841414,0.647135283219822,2021-09-15
"292",145.5,0.981724339598229,0.970825779667559,0.31254421234845,0.64713427597334,2021-09-15
"293",146,0.981724339598229,0.970825779342346,0.312542294303066,0.647133316950648,2021-09-16
"294",146.5,0.981724339598228,0.970825779028684,0.312540468087772,0.647132403843,2021-09-16
"295",147,0.981724339598228,0.970825778726163,0.312538729306129,0.647131534452179,2021-09-17
"296",147.5,0.981724339598228,0.970825778434387,0.312537073772175,0.647130706685201,2021-09-17
"297",148,0.981724339598227,0.970825778152974,0.312535497500344,0.647129918549286,2021-09-18
"298",148.5,0.981724339598227,0.970825777881556,0.312533996695874,0.647129168147051,2021-09-18
"299",149,0.981724339598227,0.970825777619778,0.312532567745676,0.647128453671951,2021-09-19
"300",149.5,0.981724339598227,0.970825777367298,0.312531207209635,0.647127773403931,2021-09-19
"301",150,0.981724339598227,0.970825777123786,0.312529911812328,0.647127125705278,2021-09-20
"302",150.5,0.981724339598226,0.970825776888922,0.312528678435145,0.647126509016686,2021-09-20
"303",151,0.981724339598226,0.9708257766624,0.312527504108777,0.647125921853502,2021-09-21
"304",151.5,0.981724339598226,0.970825776443924,0.312526386006072,0.647125362802149,2021-09-21
"305",152,0.981724339598226,0.970825776233207,0.312525321435226,0.647124830516726,2021-09-22
"306",152.5,0.981724339598226,0.970825776029975,0.312524307833309,0.647124323715767,2021-09-22
"307",153,0.981724339598226,0.97082577583396,0.312523342760091,0.647123841179158,2021-09-23
"308",153.5,0.981724339598226,0.970825775644908,0.312522423892169,0.647123381745197,2021-09-23
"309",154,0.981724339598226,0.97082577546257,0.312521549017376,0.647122944307801,2021-09-24
"310",154.5,0.981724339598225,0.970825775286708,0.312520716029453,0.647122527813839,2021-09-24
"311",155,0.981724339598225,0.970825775117093,0.312519922922981,0.647122131260603,2021-09-25
"312",155.5,0.981724339598225,0.970825774953501,0.312519167788552,0.647121753693388,2021-09-25
"313",156,0.981724339598225,0.97082577479572,0.312518448808172,0.647121394203199,2021-09-26
"314",156.5,0.981724339598225,0.970825774643543,0.312517764250888,0.647121051924556,2021-09-26
"315",157,0.981724339598225,0.970825774496771,0.312517112468617,0.647120726033421,2021-09-27
"316",157.5,0.981724339598225,0.970825774355211,0.312516491892181,0.647120415745203,2021-09-27
"317",158,0.981724339598225,0.97082577421868,0.312515901027529,0.647120120312877,2021-09-28
"318",158.5,0.981724339598225,0.970825774086997,0.312515338452138,0.647119839025181,2021-09-28
"319",159,0.981724339598225,0.970825773959992,0.312514802811593,0.647119571204909,2021-09-29
"320",159.5,0.981724339598225,0.970825773837497,0.312514292816323,0.647119316207274,2021-09-29
"321",160,0.981724339598225,0.970825773719353,0.312513807238498,0.647119073418361,2021-09-30
"322",160.5,0.981724339598225,0.970825773605405,0.312513344909071,0.647118842253648,2021-09-30
"323",161,0.981724339598225,0.970825773495504,0.312512904714968,0.647118622156596,2021-10-01
"324",161.5,0.981724339598225,0.970825773389506,0.312512485596402,0.647118412597314,2021-10-01
"325",162,0.981724339598225,0.970825773287273,0.31251208654433,0.647118213071277,2021-10-02
"326",162.5,0.981724339598225,0.970825773188671,0.312511706598015,0.64711802309812,2021-10-02
"327",163,0.981724339598225,0.970825773093571,0.312511344842719,0.647117842220472,2021-10-03
"328",163.5,0.981724339598225,0.970825773001849,0.312511000407499,0.647117670002862,2021-10-03
"329",164,0.981724339598225,0.970825772913384,0.31251067246311,0.647117506030668,2021-10-04
"330",164.5,0.981724339598225,0.970825772828061,0.31251036022001,0.647117349909118,2021-10-04
"331",165,0.981724339598225,0.970825772745769,0.312510062926457,0.647117201262341,2021-10-05
"332",165.5,0.981724339598225,0.970825772666399,0.3125097798667,0.647117059732462,2021-10-05
"333",166,0.981724339598225,0.970825772589849,0.312509510359257,0.647116924978741,2021-10-06
"334",166.5,0.981724339598225,0.970825772516017,0.312509253755275,0.64711679667675,2021-10-06
"335",167,0.981724339598225,0.970825772444807,0.312509009436963,0.647116674517594,2021-10-07
"336",167.5,0.981724339598225,0.970825772376127,0.312508776816112,0.647116558207168,2021-10-07
"337",168,0.981724339598225,0.970825772309885,0.312508555332672,0.647116447465448,2021-10-08
"338",168.5,0.981724339598225,0.970825772245997,0.312508344453408,0.647116342025817,2021-10-08
"339",169,0.981724339598225,0.970825772184377,0.312508143670616,0.647116241634421,2021-10-09
"340",169.5,0.981724339598225,0.970825772124946,0.312507952500899,0.647116146049562,2021-10-09
"341",170,0.981724339598225,0.970825772067626,0.312507770484001,0.647116055041113,2021-10-10
"342",170.5,0.981724339598225,0.970825772012342,0.312507597181708,0.647115968389966,2021-10-10
"343",171,0.981724339598225,0.970825771959021,0.31250743217678,0.647115885887503,2021-10-11
"344",171.5,0.981724339598225,0.970825771907593,0.312507275071959,0.647115807335092,2021-10-11
"345",172,0.981724339598225,0.970825771857993,0.312507125489003,0.647115732543614,2021-10-12
"346",172.5,0.981724339598225,0.970825771810154,0.312506983067781,0.647115661333003,2021-10-12
"347",173,0.981724339598225,0.970825771764014,0.312506847465404,0.647115593531815,2021-10-13
"348",173.5,0.981724339598225,0.970825771719513,0.312506718355401,0.647115528976813,2021-10-13
"349",174,0.981724339598225,0.970825771676592,0.31250659542693,0.647115467512577,2021-10-14
"350",174.5,0.981724339598225,0.970825771635196,0.312506478384031,0.647115408991128,2021-10-14
"351",175,0.981724339598225,0.970825771595269,0.312506366944915,0.64711535327157,2021-10-15
"352",175.5,0.981724339598225,0.970825771556761,0.312506260841285,0.647115300219755,2021-10-15
"353",176,0.981724339598225,0.970825771519621,0.312506159817689,0.647115249707957,2021-10-16
"354",176.5,0.981724339598225,0.9708257714838,0.312506063630905,0.647115201614565,2021-10-16
"355",177,0.981724339598225,0.97082577144925,0.312505972049355,0.64711515582379,2021-10-17
"356",177.5,0.981724339598225,0.970825771415928,0.312505884852551,0.647115112225388,2021-10-17
"357",178,0.981724339598225,0.97082577138379,0.31250580183056,0.647115070714393,2021-10-18
"358",178.5,0.981724339598225,0.970825771352793,0.312505722783501,0.647115031190863,2021-10-18
"359",179,0.981724339598225,0.970825771322896,0.31250564752106,0.647114993559643,2021-10-19
"360",179.5,0.981724339598225,0.970825771294062,0.312505575862039,0.647114957730132,2021-10-19
"361",180,0.981724339598225,0.970825771266252,0.312505507633913,0.647114923616069,2021-10-20
"362",180.5,0.981724339598225,0.970825771239429,0.312505442672417,0.647114891135321,2021-10-20
"363",181,0.981724339598225,0.970825771213559,0.312505380821151,0.647114860209688,2021-10-21
"364",181.5,0.981724339598225,0.970825771188608,0.312505321931205,0.647114830764715,2021-10-21
"365",182,0.981724339598225,0.970825771164543,0.312505265860795,0.64711480272951,2021-10-22
"366",182.5,0.981724339598225,0.970825771141333,0.312505212474928,0.647114776036577,2021-10-22
"367",183,0.981724339598225,0.970825771118947,0.312505161645074,0.647114750621649,2021-10-23
"368",183.5,0.981724339598225,0.970825771097356,0.312505113248855,0.64711472642354,2021-10-23
"369",184,0.981724339598225,0.970825771076532,0.312505067169753,0.647114703383989,2021-10-24
"370",184.5,0.981724339598225,0.970825771056447,0.31250502329683,0.647114681447528,2021-10-24
"371",185,0.981724339598225,0.970825771037076,0.312504981524459,0.647114660561342,2021-10-25
"372",185.5,0.981724339598225,0.970825771018393,0.312504941752068,0.647114640675146,2021-10-25
"373",186,0.981724339598225,0.970825771000373,0.312504903883903,0.647114621741064,2021-10-26
"374",186.5,0.981724339598225,0.970825770982993,0.312504867828793,0.647114603713509,2021-10-26
"375",187,0.981724339598225,0.970825770966231,0.312504833499932,0.647114586549078,2021-10-27
"376",187.5,0.981724339598225,0.970825770950064,0.312504800814671,0.647114570206448,2021-10-27
"377",188,0.981724339598225,0.970825770934471,0.312504769694318,0.647114554646271,2021-10-28
"378",188.5,0.981724339598225,0.970825770919432,0.312504740063948,0.647114539831086,2021-10-28
"379",189,0.981724339598225,0.970825770904927,0.312504711852223,0.647114525725224,2021-10-29
"380",189.5,0.981724339598225,0.970825770890937,0.312504684991221,0.647114512294723,2021-10-29
"381",190,0.981724339598225,0.970825770877444,0.312504659416273,0.647114499507249,2021-10-30
"382",190.5,0.981724339598225,0.970825770864431,0.312504635065805,0.647114487332015,2021-10-30
"383",191,0.981724339598225,0.970825770851879,0.31250461188119,0.647114475739707,2021-10-31
"384",191.5,0.981724339598225,0.970825770839773,0.31250458980661,0.647114464702418,2021-10-31
"385",192,0.981724339598225,0.970825770828097,0.312504568788919,0.647114454193572,2021-11-01
"386",192.5,0.981724339598225,0.970825770816836,0.312504548777515,0.64711444418787,2021-11-01
"387",193,0.981724339598225,0.970825770805975,0.312504529724219,0.647114434661222,2021-11-02
"388",193.5,0.981724339598225,0.9708257707955,0.312504511583158,0.647114425590692,2021-11-02
"389",194,0.981724339598225,0.970825770785396,0.312504494310657,0.647114416954441,2021-11-03
"390",194.5,0.981724339598225,0.970825770775652,0.31250447786513,0.647114408731677,2021-11-03
"391",195,0.981724339598225,0.970825770766253,0.312504462206983,0.647114400902604,2021-11-04
"392",195.5,0.981724339598225,0.970825770757189,0.312504447298519,0.647114393448372,2021-11-04
"393",196,0.981724339598225,0.970825770748446,0.312504433103843,0.647114386351034,2021-11-05
"394",196.5,0.981724339598225,0.970825770740014,0.312504419588782,0.647114379593503,2021-11-05
"395",197,0.981724339598225,0.970825770731881,0.312504406720796,0.64711437315951,2021-11-06
"396",197.5,0.981724339598225,0.970825770724037,0.312504394468904,0.647114367033565,2021-11-06
"397",198,0.981724339598225,0.970825770716472,0.31250438280361,0.647114361200917,2021-11-07
"398",198.5,0.981724339598225,0.970825770709175,0.312504371696828,0.647114355647526,2021-11-07
"399",199,0.981724339598225,0.970825770702138,0.312504361121817,0.647114350360021,2021-11-08
"400",199.5,0.981724339598225,0.97082577069535,0.312504351053118,0.647114345325672,2021-11-08
"401",200,0.981724339598225,0.970825770688804,0.312504341466489,0.647114340532357,2021-11-09
"402",200.5,0.981724339598225,0.97082577068249,0.31250433233885,0.647114335968537,2021-11-09
"403",201,0.981724339598225,0.970821547135248,0.312504323648224,0.647114331623225,2021-11-10
"404",201.5,0.981724339598225,0.970815687819163,0.312504315373689,0.647114327485957,2021-11-10
