"","time","top","med","bottom","pseudo_med","date"
"1",0,0.982262352361729,0.97593518345798,0.968544715892215,0.975403534126972,2021-04-23
"2",0.5,0.982257960485716,0.975877605670361,0.968521158742542,0.975389559614129,2021-04-23
"3",1,0.982254009086336,0.975842882522551,0.968499436976726,0.975376723031531,2021-04-24
"4",1.5,0.982250453987082,0.975827673018833,0.968479407601868,0.975364930794475,2021-04-24
"5",2,0.982247255441934,0.975818322418706,0.968460938764678,0.975354097103306,2021-04-25
"6",2.5,0.982244377691043,0.975798071206049,0.968443908883792,0.975344143287418,2021-04-25
"7",3,0.982241788560965,0.975776566657758,0.968428205849647,0.975334997205306,2021-04-26
"8",3.5,0.982239459104985,0.975760628846636,0.968413726286669,0.975326592695827,2021-04-26
"9",4,0.982237363279512,0.975717204016428,0.968377750811048,0.97530755704528,2021-04-27
"10",4.5,0.982235477652925,0.975707468542031,0.968284416619705,0.975259947136315,2021-04-27
"11",5,0.982233781143621,0.975699421494509,0.968195513781774,0.975214647462698,2021-04-28
"12",5.5,0.982232254784326,0.975675622125336,0.968110832905039,0.975171543844682,2021-04-28
"13",6,0.982230881510049,0.975655234536472,0.96803017439838,0.975130527954215,2021-04-29
"14",6.5,0.982229645967301,0.975644889422981,0.967953348021706,0.975091496994503,2021-04-29
"15",7,0.982228534342441,0.975628769703818,0.967880172455734,0.975054353399088,2021-04-30
"16",7.5,0.982227534207249,0.975622743147457,0.967810474890828,0.975019004549038,2021-04-30
"17",8,0.982226634379969,0.975617107343353,0.967744090634113,0.974985362507041,2021-05-01
"18",8.5,0.982225824800309,0.97560929476387,0.967680862734121,0.974953343767215,2021-05-01
"19",9,0.982225096416956,0.975601470295447,0.967620641622248,0.974922869019602,2021-05-02
"20",9.5,0.982224441086391,0.975594026620218,0.967563284770307,0.974893862928349,2021-05-02
"21",10,0.982223851481838,0.975586937133928,0.967508656363526,0.974866253922682,2021-05-03
"22",10.5,0.982223321011354,0.975580177356716,0.967456626988307,0.97483997399983,2021-05-03
"23",11,0.982222843744127,0.975573724757415,0.967407073334145,0.974814958539136,2021-05-04
"24",11.5,0.982222414344171,0.975549083832925,0.967359877909089,0.97479114612663,2021-05-04
"25",12,0.982222028010668,0.975527381798058,0.967314928768154,0.974768478389411,2021-05-05
"26",12.5,0.982221680424293,0.975512855777713,0.967272119254144,0.974746899839219,2021-05-05
"27",13,0.982221367698927,0.975488391650308,0.96723134775032,0.974726357724623,2021-05-06
"28",13.5,0.982221086338202,0.975467480352183,0.967192517444417,0.97470680189131,2021-05-06
"29",14,0.982220833196421,0.975450237359678,0.967155536103498,0.97468818464996,2021-05-07
"30",14.5,0.982220605443379,0.975428772423307,0.967120315859172,0.974670460651275,2021-05-07
"31",15,0.982220400532725,0.975426419276423,0.967086773002714,0.974653586767719,2021-05-08
"32",15.5,0.982220216173494,0.975424263854578,0.967054827789648,0.974637521981571,2021-05-08
"33",16,0.98222005030449,0.975403838738182,0.967024404253375,0.974622227278933,2021-05-09
"34",16.5,0.982219901071246,0.975383683535872,0.966995430027426,0.974607665549336,2021-05-09
"35",17,0.982219766805285,0.975380875901399,0.966967836175971,0.974593801490628,2021-05-10
"36",17.5,0.982219646005472,0.975378293682715,0.966941557032199,0.974580601518836,2021-05-10
"37",18,0.982219537321224,0.975362730033883,0.966916530044222,0.974568033682723,2021-05-11
"38",18.5,0.982219439537417,0.975356904366316,0.966892695628148,0.974556067582783,2021-05-11
"39",19,0.982219351560796,0.975355539601529,0.966869997028015,0.974544674294405,2021-05-12
"40",19.5,0.982219272407754,0.975354288445949,0.966848380182258,0.974533826295006,2021-05-12
"41",20,0.982219201193333,0.975353141261345,0.966827793596425,0.974523497394879,2021-05-13
"42",20.5,0.982219137121333,0.975333791186099,0.966808188221837,0.974513662671585,2021-05-13
"43",21,0.982219079475408,0.975308249366968,0.96678951733994,0.974504298407674,2021-05-14
"44",21.5,0.982219027611057,0.975306682781022,0.966771736452073,0.974495382031565,2021-05-14
"45",22,0.98221898094842,0.975305209642799,0.966754803174409,0.974486892061415,2021-05-15
"46",22.5,0.982218938965794,0.975303823715461,0.966738677137828,0.974478808051811,2021-05-15
"47",23,0.982218901193798,0.97529525825711,0.966723319892493,0.974471110543145,2021-05-16
"48",23.5,0.982218867210129,0.975262178550473,0.966708694816919,0.974463781013524,2021-05-16
"49",24,0.982218836634838,0.975222780974448,0.966694767031315,0.974456801833076,2021-05-17
"50",24.5,0.982218809126084,0.975189532071466,0.966681503315008,0.974450156220546,2021-05-17
"51",25,0.982218784376309,0.975163569334344,0.966668872027761,0.974443828202035,2021-05-18
"52",25.5,0.982218762108803,0.975146572551396,0.966656843034796,0.9744378025718,2021-05-18
"53",26,0.982218742074608,0.975143053034528,0.966645387635358,0.974432064854983,2021-05-19
"54",26.5,0.982218724049734,0.975139544297141,0.966634478494647,0.974426601272191,2021-05-19
"55",27,0.982218707832658,0.975136045870689,0.966624089578971,0.974421398705814,2021-05-20
"56",27.5,0.982218693242067,0.975132557320789,0.966614196093952,0.974416444668009,2021-05-20
"57",28,0.982218680114833,0.975119667574978,0.966604774425666,0.97441172727025,2021-05-21
"58",28.5,0.98221866830419,0.97510612566716,0.966595802084559,0.974407235194374,2021-05-21
"59",29,0.982218657678091,0.975098122316241,0.966587257652012,0.974402957665052,2021-05-22
"60",29.5,0.982218648117732,0.975089009360196,0.966579120729451,0.974398884423592,2021-05-22
"61",30,0.982218639516226,0.975040354557082,0.966571371889848,0.974395005703037,2021-05-23
"62",30.5,0.982218631777404,0.974994876171064,0.966563992631532,0.974391312204468,2021-05-23
"63",31,0.982218624814745,0.974984113972413,0.966556965334184,0.974387795074464,2021-05-24
"64",31.5,0.982218618550402,0.97498338610301,0.966550273216919,0.974384445883661,2021-05-24
"65",32,0.982218612914339,0.974982696548607,0.966543900298352,0.974381256606346,2021-05-25
"66",32.5,0.982218607843543,0.974982043270936,0.966537831358567,0.974378219601055,2021-05-25
"67",33,0.982218603281321,0.974981424341797,0.966532051902877,0.974375327592099,2021-05-26
"68",33.5,0.982218599176665,0.974980837936992,0.966516378471891,0.974367488824278,2021-05-26
"69",34,0.982218595483683,0.9749802823306,0.966485948931499,0.974352272207591,2021-05-27
"70",34.5,0.982218592161088,0.974975036540132,0.966455802150783,0.974337197155935,2021-05-27
"71",35,0.982218589171731,0.974962606097988,0.96642593558428,0.974322262378006,2021-05-28
"72",35.5,0.98221858648219,0.974925566790261,0.966396346707898,0.974307466595044,2021-05-28
"73",36,0.982218584062396,0.974912490992151,0.966367033018764,0.97429280854058,2021-05-29
"74",36.5,0.982218581885294,0.974906707194117,0.966337992035076,0.974278286960185,2021-05-29
"75",37,0.982218579926544,0.974901072779244,0.966309221295953,0.974263900611249,2021-05-30
"76",37.5,0.982218578164246,0.974895583852629,0.96628071836129,0.974249648262768,2021-05-30
"77",38,0.982218576578697,0.974886048675377,0.966252480811605,0.974235528695151,2021-05-31
"78",38.5,0.98221857515217,0.974873573915047,0.966224506247893,0.974221540700032,2021-05-31
"79",39,0.982218573868715,0.974848294240019,0.966152202004901,0.974185387936808,2021-06-01
"80",39.5,0.982218572713985,0.974813617299865,0.966008063475398,0.974113318094691,2021-06-01
"81",40,0.982218571675067,0.974781803650017,0.965861552875901,0.974040062275484,2021-06-02
"82",40.5,0.982218570740348,0.974773884530124,0.96571263450758,0.973965602623964,2021-06-02
"83",41,0.982218569899376,0.974765289183928,0.965561272249243,0.973889921074309,2021-06-03
"84",41.5,0.982218569142748,0.974753883586712,0.965407429556411,0.97381299934958,2021-06-03
"85",42,0.982218568462007,0.97474252348459,0.965251069460572,0.973734818961289,2021-06-04
"86",42.5,0.98221856784954,0.974731208502988,0.965092154568599,0.973655361209069,2021-06-04
"87",43,0.9822185672985,0.974721822154434,0.96493064706236,0.97357460718043,2021-06-05
"88",43.5,0.982218566802726,0.974718356902615,0.96476650869852,0.973492537750623,2021-06-05
"89",44,0.982218566356676,0.974714951074192,0.964599700808535,0.973409133582606,2021-06-06
"90",44.5,0.982218565955362,0.974711603546323,0.964430184298862,0.973324375127112,2021-06-06
"91",45,0.982218565594298,0.974708313223507,0.964257919651375,0.973238242622837,2021-06-07
"92",45.5,0.982218565269447,0.974705079036598,0.964082866924013,0.97315071609673,2021-06-07
"93",46,0.982218564977177,0.974701899941856,0.96389613461777,0.973057349797473,2021-06-08
"94",46.5,0.982218564714219,0.974686919999022,0.963669133568579,0.972943849141399,2021-06-08
"95",47,0.982218564477635,0.9746503646884,0.963439701766202,0.972829133121919,2021-06-09
"96",47.5,0.982218564264779,0.974613389398744,0.963207820438846,0.972713192351813,2021-06-09
"97",48,0.982218564073272,0.974602298165549,0.962973470845694,0.972596017459483,2021-06-10
"98",48.5,0.982218563900971,0.97459739275705,0.962736634282035,0.972477599091503,2021-06-10
"99",49,0.982218563745952,0.974594203044122,0.962497292084509,0.97235792791523,2021-06-11
"100",49.5,0.982218563606479,0.974574252949443,0.96225542563646,0.97223699462147,2021-06-11
"101",50,0.982218563480996,0.974568890640779,0.962011016373393,0.972114789927194,2021-06-12
"102",50.5,0.982218563368097,0.974565782904177,0.961764045788554,0.971991304578326,2021-06-12
"103",51,0.982218563266522,0.974562035086831,0.961514495438609,0.971866529352566,2021-06-13
"104",51.5,0.982218563175134,0.974538195541267,0.961262346949438,0.971740455062286,2021-06-13
"105",52,0.982218563092912,0.974537694347086,0.961007582022041,0.971613072557476,2021-06-14
"106",52.5,0.982218563018936,0.97453720686812,0.960750182438552,0.971484372728744,2021-06-14
"107",53,0.98221856295238,0.974532761782307,0.960490130068365,0.971354346510373,2021-06-15
"108",53.5,0.982218562892499,0.974501239859139,0.960227406874372,0.971222984883436,2021-06-15
"109",54,0.982218562838623,0.974485353190695,0.959961994919304,0.971090278878964,2021-06-16
"110",54.5,0.982218562790152,0.97448284660392,0.959693876372189,0.97095621958117,2021-06-16
"111",55,0.982218562746541,0.974480392048847,0.959423033514916,0.970820798130728,2021-06-17
"112",55.5,0.982218562707304,0.974474729968282,0.959149448748906,0.970684005728105,2021-06-17
"113",56,0.982218562672003,0.974442439854873,0.958873104601896,0.97054583363695,2021-06-18
"114",56.5,0.982218562640242,0.974417647852737,0.958593983734821,0.970406273187532,2021-06-18
"115",57,0.982218562611667,0.974415473181191,0.958312068948812,0.97026531578024,2021-06-19
"116",57.5,0.982218562585958,0.974413342909735,0.958027343192292,0.970122952889125,2021-06-19
"117",58,0.982218562562827,0.974411256113371,0.957739789568178,0.969979176065502,2021-06-20
"118",58.5,0.982218562542016,0.974409211887618,0.957449391341189,0.969833976941602,2021-06-20
"119",59,0.982218562523292,0.974407209347976,0.957156131945252,0.969687347234272,2021-06-21
"120",59.5,0.982218562506446,0.974405247629409,0.956859994991008,0.969539278748727,2021-06-21
"121",60,0.98221856249129,0.974403325885843,0.95656096427342,0.969389763382355,2021-06-22
"122",60.5,0.982218562477653,0.974401443289684,0.956259023779472,0.969238793128562,2021-06-22
"123",61,0.982218562465385,0.974399599031354,0.955954157695971,0.969086360080678,2021-06-23
"124",61.5,0.982218562454347,0.974390815263751,0.955646350417439,0.968932456435893,2021-06-23
"125",62,0.982218562444416,0.974379811619629,0.955335586554089,0.968777074499252,2021-06-24
"126",62.5,0.98221856243548,0.974377877794755,0.955021850939906,0.968620206687693,2021-06-24
"127",63,0.982218562427442,0.974375987093346,0.954705128640799,0.96846184553412,2021-06-25
"128",63.5,0.982218562420209,0.974355510463371,0.954385404962846,0.968301983691527,2021-06-25
"129",64,0.982218562413702,0.974336966822857,0.95406266546062,0.968140613937161,2021-06-26
"130",64.5,0.982218562407847,0.974335372632273,0.953736895945595,0.967977729176721,2021-06-26
"131",65,0.98221856240258,0.974333810706729,0.953408082494622,0.967813322448601,2021-06-27
"132",65.5,0.98221856239784,0.974326927402587,0.953076211458491,0.967647386928166,2021-06-27
"133",66,0.982218562393577,0.974305882746654,0.952741269470548,0.967479915932062,2021-06-28
"134",66.5,0.98221856238974,0.974291930049758,0.952403243455393,0.967310902922567,2021-06-28
"135",67,0.982218562386289,0.974291800117604,0.952062120637634,0.967140341511961,2021-06-29
"136",67.5,0.982218562383184,0.974291674634878,0.951717888550704,0.966968225466944,2021-06-29
"137",68,0.98221856238039,0.974291553448879,0.951370535045732,0.966794548713061,2021-06-30
"138",68.5,0.982218562377876,0.974291436412178,0.951020048300474,0.966619305339175,2021-06-30
"139",69,0.982218562375615,0.974291323382427,0.950666416828283,0.966442489601949,2021-07-01
"140",69.5,0.98221856237358,0.974291214222185,0.95030962948713,0.966264095930355,2021-07-01
"141",70,0.982218562371749,0.974291108798747,0.949949675488665,0.966084118930207,2021-07-02
"142",70.5,0.982218562370102,0.974291006983977,0.949586544407317,0.965902553388709,2021-07-02
"143",71,0.98221856236862,0.974290908654152,0.949220226189413,0.965719394279017,2021-07-03
"144",71.5,0.982218562367287,0.974290813689805,0.948850711162344,0.965534636764816,2021-07-03
"145",72,0.982218562366088,0.974290721975583,0.948477990043735,0.965348276204911,2021-07-04
"146",72.5,0.982218562365008,0.974290633400096,0.948102053950642,0.965160308157825,2021-07-04
"147",73,0.982218562364037,0.974290547855787,0.947722894408758,0.964970728386398,2021-07-05
"148",73.5,0.982218562363164,0.974290465238795,0.947340503361628,0.964779532862396,2021-07-05
"149",74,0.982218562362378,0.97429038544883,0.946954873179858,0.964586717771118,2021-07-06
"150",74.5,0.982218562361671,0.974290308389045,0.946565996670334,0.964392279516002,2021-07-06
"151",75,0.982218562361035,0.974289448506811,0.946173867085414,0.964196214723224,2021-07-07
"152",75.5,0.982218562360462,0.974288359996934,0.945778478132118,0.96399852024629,2021-07-07
"153",76,0.982218562359947,0.974287294516432,0.945379823981288,0.963799193170618,2021-07-08
"154",76.5,0.982218562359484,0.974282055858955,0.944977899276725,0.963598230818105,2021-07-08
"155",77,0.982218562359067,0.974269072545763,0.944572699144288,0.963395630751677,2021-07-09
"156",77.5,0.982218562358692,0.974264295030054,0.944164219200954,0.963191390779823,2021-07-09
"157",78,0.982218562358354,0.974256182664242,0.943752455563836,0.962985508961095,2021-07-10
"158",78.5,0.982218562358051,0.974256181994713,0.943337404859136,0.962777983608593,2021-07-10
"159",79,0.982218562357778,0.974256181369757,0.942919064231051,0.962568813294414,2021-07-11
"160",79.5,0.982218562357532,0.974256180786398,0.9424974313506,0.962357996854066,2021-07-11
"161",80,0.982218562357311,0.974256180241861,0.942072504424386,0.962145533390849,2021-07-12
"162",80.5,0.982218562357112,0.974256179733557,0.941644282203274,0.961931422280193,2021-07-12
"163",81,0.982218562356933,0.974256179259068,0.941212763990974,0.961715663173953,2021-07-13
"164",81.5,0.982218562356772,0.974256178816141,0.940777949652539,0.961498256004656,2021-07-13
"165",82,0.982218562356627,0.97425617840267,0.940339839622757,0.961279200989692,2021-07-14
"166",82.5,0.982218562356497,0.974252546784316,0.939898434914424,0.96105849863546,2021-07-14
"167",83,0.982218562356379,0.974220404933834,0.939453737126512,0.960836149741446,2021-07-15
"168",83.5,0.982218562356274,0.974200943322701,0.939005748452204,0.960612155404239,2021-07-15
"169",84,0.982218562356179,0.974196052950914,0.938537265851772,0.960377914103975,2021-07-16
"170",84.5,0.982218562356094,0.974189835590834,0.937997719123916,0.960108140740005,2021-07-16
"171",85,0.982218562356017,0.974183636087272,0.937451620496993,0.959835091426505,2021-07-17
"172",85.5,0.982218562355948,0.974173935032219,0.936898935861751,0.95955874910885,2021-07-17
"173",86,0.982218562355885,0.97415278385111,0.936339632326712,0.959279097341299,2021-07-18
"174",86.5,0.982218562355829,0.974139325913798,0.93577367826249,0.958996120309159,2021-07-18
"175",87,0.982218562355779,0.97413932582504,0.935201043346388,0.958709802851083,2021-07-19
"176",87.5,0.982218562355734,0.974135258768874,0.934621698607237,0.958420130481485,2021-07-19
"177",88,0.982218562355693,0.974129165480559,0.934035616470427,0.95812708941306,2021-07-20
"178",88.5,0.982218562355656,0.974123089771878,0.933442770803101,0.957830666579379,2021-07-20
"179",89,0.982218562355623,0.974117031602374,0.932843136959462,0.957530849657543,2021-07-21
"180",89.5,0.982218562355594,0.974110990931635,0.932236691826149,0.957227627090871,2021-07-21
"181",90,0.982218562355567,0.974104967719293,0.931623413867637,0.956920988111602,2021-07-22
"182",90.5,0.982218562355543,0.974098961925021,0.931003283171614,0.956610922763578,2021-07-22
"183",91,0.982218562355521,0.974092973508531,0.93037628149428,0.956297421924901,2021-07-23
"184",91.5,0.982218562355502,0.97408700242958,0.929742392305527,0.955980477330515,2021-07-23
"185",92,0.982218562355484,0.974083307202841,0.929101600833932,0.955660081594708,2021-07-24
"186",92.5,0.982218562355469,0.974083263353715,0.928453894111523,0.955336228233496,2021-07-24
"187",93,0.982218562355454,0.974083220850523,0.927799261018257,0.955008911686856,2021-07-25
"188",93.5,0.982218562355442,0.974083179651911,0.92713769232615,0.954678127340796,2021-07-25
"189",94,0.98221856235543,0.974070611953161,0.926469180743003,0.954343871549217,2021-07-26
"190",94.5,0.98221856235542,0.97405677971591,0.925793720955666,0.954006141655543,2021-07-26
"191",95,0.982218562355411,0.97404289932195,0.925111309672772,0.953664936014091,2021-07-27
"192",95.5,0.982218562355402,0.974033758353678,0.92442194566689,0.953320254011146,2021-07-27
"193",96,0.982218562355395,0.974033703106582,0.923725629816023,0.952972096085709,2021-07-28
"194",96.5,0.982218562355388,0.974033649711787,0.923022365144388,0.952620463749888,2021-07-28
"195",97,0.982218562355382,0.974033598106392,0.922312156862424,0.952265359608903,2021-07-29
"196",97.5,0.982218562355376,0.974033548229662,0.921595012405947,0.951906787380662,2021-07-29
"197",98,0.982218562355372,0.974033500022948,0.92087094147439,0.951544751914881,2021-07-30
"198",98.5,0.982218562355367,0.97403345342962,0.920139956068068,0.951179259211717,2021-07-30
"199",99,0.982218562355363,0.974033408394991,0.919380622778146,0.950799592566755,2021-07-31
"200",99.5,0.98221856235536,0.974033364866252,0.918406144621539,0.950312353488449,2021-07-31
"201",100,0.982218562355356,0.974033322792409,0.917419625088894,0.949819093722125,2021-08-01
"202",100.5,0.982218562355353,0.974033282124216,0.916421067135058,0.949319814745206,2021-08-01
"203",101,0.982218562355351,0.974033242814115,0.915410479212667,0.948814520784009,2021-08-02
"204",101.5,0.982218562355348,0.97403320481618,0.914387875393763,0.948303218874556,2021-08-02
"205",102,0.982218562355346,0.974033168086056,0.913353275488048,0.947785918921697,2021-08-03
"206",102.5,0.982218562355344,0.974033132580909,0.912306705157484,0.947262633756414,2021-08-03
"207",103,0.982218562355343,0.97403309825937,0.911248196026928,0.946733379191136,2021-08-04
"208",103.5,0.982218562355341,0.974033065081487,0.910177785790486,0.946198174072913,2021-08-04
"209",104,0.98221856235534,0.974033033008671,0.909095518313282,0.945657040334311,2021-08-05
"210",104.5,0.982218562355339,0.974033002003655,0.908001443728334,0.945110003041836,2021-08-05
"211",105,0.982218562355338,0.974032972030444,0.906895618528217,0.944557090441777,2021-08-06
"212",105.5,0.982218562355337,0.974032943054272,0.905778105651211,0.943998334003274,2021-08-06
"213",106,0.982218562355336,0.974032915041559,0.90464897456163,0.943433768458483,2021-08-07
"214",106.5,0.982218562355335,0.974032887959873,0.903508301324024,0.94286343183968,2021-08-07
"215",107,0.982218562355334,0.974032861777886,0.902356168670966,0.94228736551315,2021-08-08
"216",107.5,0.982218562355333,0.974032836465338,0.901192666064118,0.941705614209726,2021-08-08
"217",108,0.982218562355333,0.974032811993001,0.900017889748314,0.941118226051823,2021-08-09
"218",108.5,0.982218562355332,0.97403278833264,0.898831942798357,0.940525252576845,2021-08-09
"219",109,0.982218562355332,0.974032765456983,0.897634935158285,0.939926748756808,2021-08-10
"220",109.5,0.982218562355331,0.974032743339685,0.896426983672837,0.939322773014084,2021-08-10
"221",110,0.982218562355331,0.974032721955299,0.895208212110879,0.938713387233105,2021-08-11
"222",110.5,0.982218562355331,0.974032701279239,0.893978751180549,0.93809865676794,2021-08-11
"223",111,0.98221856235533,0.974032681287757,0.892738738535915,0.937478650445623,2021-08-12
"224",111.5,0.98221856235533,0.974032661957912,0.891488318774926,0.936853440565128,2021-08-12
"225",112,0.98221856235533,0.974032643267539,0.890227643428475,0.936223102891902,2021-08-13
"226",112.5,0.98221856235533,0.974032625195227,0.888956870940406,0.935587716647868,2021-08-13
"227",113,0.982218562355329,0.974032607720291,0.887676166638296,0.934947364496812,2021-08-14
"228",113.5,0.982218562355329,0.974032590822747,0.886385702694888,0.934302132525108,2021-08-14
"229",114,0.982218562355329,0.974032574483286,0.885085658080059,0.933652110217694,2021-08-15
"230",114.5,0.982218562355329,0.974032558683257,0.883776218503216,0.932997390429273,2021-08-15
"231",115,0.982218562355329,0.974032543404636,0.88245757634606,0.932338069350694,2021-08-16
"232",115.5,0.982218562355329,0.974032528630011,0.88112993058565,0.931674246470489,2021-08-16
"233",116,0.982218562355328,0.97403251434256,0.879793486707752,0.93100602453154,2021-08-17
"234",116.5,0.982218562355328,0.974032500526027,0.878448456610459,0.930333509482894,2021-08-17
"235",117,0.982218562355328,0.974032487164707,0.877095058498095,0.929656810426712,2021-08-18
"236",117.5,0.982218562355328,0.974032474243425,0.875733516765456,0.928976039560392,2021-08-18
"237",118,0.982218562355328,0.974029833696137,0.874364061872444,0.928291312113886,2021-08-19
"238",118.5,0.982218562355328,0.974027165452209,0.872986930209192,0.92760274628226,2021-08-19
"239",119,0.982218562355328,0.974024501181771,0.871602363951797,0.926910463153562,2021-08-20
"240",119.5,0.982218562355328,0.97402184087614,0.870210610908787,0.926214586632057,2021-08-20
"241",120,0.982218562355328,0.974019184526825,0.868811924358516,0.925515243356922,2021-08-21
"242",120.5,0.982218562355328,0.974016532125522,0.867406562877657,0.924812562616492,2021-08-21
"243",121,0.982218562355328,0.974013883664101,0.865994790161014,0.924106676258171,2021-08-22
"244",121.5,0.982218562355328,0.974011239134607,0.864576874832898,0.923397718594113,2021-08-22
"245",122,0.982218562355328,0.974008598529247,0.863153090250334,0.922685826302831,2021-08-23
"246",122.5,0.982218562355328,0.974005961840385,0.861723714298375,0.921971138326851,2021-08-23
"247",123,0.982218562355328,0.974003329060538,0.860289029177848,0.921253795766588,2021-08-24
"248",123.5,0.982218562355328,0.974000700182368,0.858849321185858,0.920533941770593,2021-08-24
"249",124,0.982218562355328,0.973998075198678,0.857404880489407,0.919811721422367,2021-08-25
"250",124.5,0.982218562355328,0.973995454102403,0.855956000892492,0.91908728162391,2021-08-25
"251",125,0.982218562355328,0.973992836886609,0.854502979597103,0.918360770976215,2021-08-26
"252",125.5,0.982218562355328,0.973990223544486,0.853046116958493,0.91763233965691,2021-08-26
"253",126,0.982218562355328,0.973987614069343,0.851585716235189,0.916902139295258,2021-08-27
"254",126.5,0.982218562355328,0.973985008454604,0.850122083334155,0.916170322844741,2021-08-27
"255",127,0.982218562355328,0.973982406693801,0.848655526551593,0.915437044453461,2021-08-28
"256",127.5,0.982218562355328,0.973979808780574,0.84718635630983,0.914702459332579,2021-08-28
"257",128,0.982218562355328,0.973977214708664,0.845714884890787,0.913966723623058,2021-08-29
"258",128.5,0.982218562355328,0.973974624471909,0.844241426166527,0.913229994260928,2021-08-29
"259",129,0.982218562355328,0.973972038064242,0.842766295327362,0.912492428841345,2021-08-30
"260",129.5,0.982218562355328,0.973969455479683,0.841289808608048,0.911754185481688,2021-08-30
"261",130,0.982218562355328,0.973966876712343,0.839812283012573,0.91101542268395,2021-08-31
"262",130.5,0.982218562355328,0.973964301756412,0.838334036038045,0.910276299196687,2021-08-31
"263",131,0.982218562355328,0.973961730606162,0.836855385398211,0.90953697387677,2021-09-01
"264",131.5,0.982218562355328,0.973959163255942,0.835376648747113,0.90879760555122,2021-09-01
"265",132,0.982218562355328,0.973956599700172,0.833898143403401,0.908058352879364,2021-09-02
"266",132.5,0.982218562355328,0.973954039933345,0.832420186075816,0.907319374215572,2021-09-02
"267",133,0.982218562355328,0.973951483950022,0.830943092590352,0.90658082747284,2021-09-03
"268",133.5,0.982218562355328,0.973948931744828,0.829467177619583,0.905842869987456,2021-09-03
"269",134,0.982218562355328,0.973946383312451,0.827992754414669,0.905105658384999,2021-09-04
"270",134.5,0.982218562355328,0.973946000500038,0.826520134540506,0.904369348447917,2021-09-04
"271",135,0.982218562355328,0.973945999568487,0.825049627614499,0.903634094984913,2021-09-05
"272",135.5,0.982218562355328,0.973945998672862,0.823581541049414,0.902900051702371,2021-09-05
"273",136,0.982218562355328,0.973945997811779,0.822116179800756,0.902167371078042,2021-09-06
"274",136.5,0.982218562355328,0.973945996983905,0.820653846119098,0.901436204237213,2021-09-06
"275",137,0.982218562355328,0.97394599618796,0.819194839307776,0.900706700831552,2021-09-07
"276",137.5,0.982218562355328,0.973945995422712,0.817739455486353,0.899979008920841,2021-09-07
"277",138,0.982218562355328,0.973945994686976,0.816287987360207,0.899253274857767,2021-09-08
"278",138.5,0.982218562355328,0.973945993979616,0.814840723996627,0.898529643175977,2021-09-08
"279",139,0.982218562355328,0.973945993299536,0.813397950607736,0.897808256481532,2021-09-09
"280",139.5,0.982218562355328,0.973945992645685,0.811959948340558,0.897089255347943,2021-09-09
"281",140,0.982218562355328,0.973945992017051,0.810526994074534,0.896372778214931,2021-09-10
"282",140.5,0.982218562355328,0.973944504375978,0.80909936022674,0.895658961291034,2021-09-10
"283",141,0.982218562355328,0.973942877975925,0.807677314565073,0.894947938460201,2021-09-11
"284",141.5,0.982218562355328,0.973941261199681,0.806261120029619,0.894239841192473,2021-09-11
"285",142,0.982218562355328,0.973939653990854,0.804851034562407,0.893534798458867,2021-09-12
"286",142.5,0.982218562355328,0.973938056293374,0.803447310945731,0.89283293665053,2021-09-12
"287",143,0.982218562355328,0.973936468051495,0.80205019664919,0.892134379502259,2021-09-13
"288",143.5,0.982218562355328,0.973934889209792,0.800659933685573,0.89143924802045,2021-09-13
"289",144,0.982218562355328,0.973933319713155,0.799276758475706,0.890747660415517,2021-09-14
"290",144.5,0.982218562355328,0.973931759506796,0.797900901722337,0.890059732038832,2021-09-14
"291",145,0.982218562355328,0.973930208536237,0.796532588293116,0.889375575324222,2021-09-15
"292",145.5,0.982218562355328,0.973928666747317,0.795172037112718,0.888695299734023,2021-09-15
"293",146,0.982218562355328,0.973927134086185,0.793819461064118,0.888019011709723,2021-09-16
"294",146.5,0.982218562355328,0.9739256104993,0.792475066899004,0.887346814627166,2021-09-16
"295",147,0.982218562355328,0.973924095933428,0.791139055157317,0.886678808756322,2021-09-17
"296",147.5,0.982218562355328,0.973922590335644,0.789811620095854,0.886015091225591,2021-09-17
"297",148,0.982218562355328,0.973921093653326,0.788492949625873,0.8853557559906,2021-09-18
"298",148.5,0.982218562355328,0.973916567628903,0.787183225259614,0.884700893807471,2021-09-18
"299",149,0.982218562355328,0.973910697969314,0.785882622065622,0.884050592210475,2021-09-19
"300",149.5,0.982218562355328,0.973904828664105,0.784591308632758,0.883404935494043,2021-09-19
"301",150,0.982218562355328,0.973898959718666,0.78330944704275,0.882764004699039,2021-09-20
"302",150.5,0.982218562355328,0.973893091138385,0.78203719285114,0.882127877603234,2021-09-20
"303",151,0.982218562355328,0.973887222928651,0.780774695076441,0.881496628715884,2021-09-21
"304",151.5,0.982218562355328,0.97388135509485,0.779522096197332,0.88087032927633,2021-09-21
"305",152,0.982218562355328,0.973875487642366,0.778279532157691,0.880249047256509,2021-09-22
"306",152.5,0.982218562355328,0.973869620576582,0.777047132379254,0.879632847367291,2021-09-22
"307",153,0.982218562355328,0.973866959175709,0.77582501978169,0.879021791068509,2021-09-23
"308",153.5,0.982218562355328,0.973866959175709,0.774613310809845,0.878415936582586,2021-09-23
"309",154,0.982218562355328,0.973866959175709,0.773412115467939,0.877815338911633,2021-09-24
"310",154.5,0.982218562355328,0.973866959175709,0.772221537360455,0.877220049857891,2021-09-24
"311",155,0.982218562355328,0.973866959175709,0.771041673739471,0.876630118047399,2021-09-25
"312",155.5,0.982218562355328,0.973866959175709,0.769872615558179,0.876045588956753,2021-09-25
"313",156,0.982218562355328,0.973866959175709,0.768714447530324,0.875466504942826,2021-09-26
"314",156.5,0.982218562355328,0.973866959175709,0.767567248195302,0.874892905275315,2021-09-26
"315",157,0.982218562355328,0.973866959175709,0.766431089988634,0.874324826171981,2021-09-27
"316",157.5,0.982218562355328,0.973863017599879,0.765306039317556,0.873762300836442,2021-09-27
"317",158,0.982218562355328,0.973853808052244,0.764192156641447,0.873205359498387,2021-09-28
"318",158.5,0.982218562355328,0.973852368920551,0.763089496556814,0.872654029456071,2021-09-28
"319",159,0.982218562355328,0.97385236892032,0.761998107886567,0.872108335120948,2021-09-29
"320",159.5,0.982218562355328,0.973852368920101,0.760918033773307,0.871568298064317,2021-09-29
"321",160,0.982218562355328,0.973852368919893,0.75984931177635,0.871033937065839,2021-09-30
"322",160.5,0.982218562355328,0.973852368919695,0.758791973972229,0.870505268163778,2021-09-30
"323",161,0.982218562355328,0.973852368919507,0.757746047058398,0.869982304706863,2021-10-01
"324",161.5,0.982218562355328,0.973852368919328,0.756711552459868,0.869465057407598,2021-10-01
"325",162,0.982218562355328,0.973852368919158,0.755688506438534,0.868953534396931,2021-10-02
"326",162.5,0.982218562355328,0.973852368918996,0.754676920204922,0.868447741280125,2021-10-02
"327",163,0.982218562355328,0.973852368918842,0.75367680003211,0.867947681193719,2021-10-03
"328",163.5,0.982218562355328,0.973852368918696,0.752688147371579,0.867453354863453,2021-10-03
"329",164,0.982218562355328,0.973852368918557,0.751710958970762,0.866964760663045,2021-10-04
"330",164.5,0.982218562355328,0.973852368918425,0.750745226992042,0.866481894673685,2021-10-04
"331",165,0.982218562355328,0.973852368918299,0.749790939132988,0.866004750744158,2021-10-05
"332",165.5,0.982218562355328,0.97385236891818,0.748848078747602,0.865533320551465,2021-10-05
"333",166,0.982218562355328,0.973852368918066,0.747916624968365,0.865067593661847,2021-10-06
"334",166.5,0.982218562355328,0.973852368917958,0.746996552828884,0.864607557592106,2021-10-06
"335",167,0.982218562355328,0.973852368917855,0.746087833386923,0.864153197871126,2021-10-07
"336",167.5,0.982218562355328,0.973852368917758,0.745190433847653,0.863704498101491,2021-10-07
"337",168,0.982218562355328,0.973852368917665,0.744304317686919,0.863261440021123,2021-10-08
"338",168.5,0.982218562355328,0.973852205610628,0.743429444774353,0.86282400356484,2021-10-08
"339",169,0.982218562355328,0.973851039655477,0.742565771496175,0.862392166925751,2021-10-09
"340",169.5,0.982218562355328,0.97384988061866,0.741713250877509,0.861965906616418,2021-10-09
"341",170,0.982218562355328,0.973848728459413,0.740871832704069,0.861545197529699,2021-10-10
"342",170.5,0.982218562355328,0.973847583137205,0.740041463643074,0.861130012999201,2021-10-10
"343",171,0.982218562355328,0.973846444611743,0.739222087363243,0.860720324859286,2021-10-11
"344",171.5,0.982218562355328,0.973845312842966,0.738413644653767,0.860316103504547,2021-10-11
"345",172,0.982218562355328,0.973844187791049,0.737616073542096,0.859917317948712,2021-10-12
"346",172.5,0.982218562355328,0.973843069416396,0.736829309410479,0.859523935882903,2021-10-12
"347",173,0.982218562355328,0.97384195767964,0.736053285111096,0.859135923733212,2021-10-13
"348",173.5,0.982218562355328,0.973840852541648,0.735287931079733,0.858753246717531,2021-10-13
"349",174,0.982218562355328,0.973839753963509,0.734533175447874,0.858375868901601,2021-10-14
"350",174.5,0.982218562355328,0.973838661906542,0.733788944153136,0.858003753254232,2021-10-14
"351",175,0.982218562355328,0.97383757633229,0.733055161047973,0.85763686170165,2021-10-15
"352",175.5,0.982218562355328,0.973836497202519,0.732331748006574,0.857275155180951,2021-10-15
"353",176,0.982218562355328,0.973835424479218,0.73161862502989,0.856918593692609,2021-10-16
"354",176.5,0.982218562355328,0.973834358124598,0.730915710348721,0.856567136352025,2021-10-16
"355",177,0.982218562355328,0.973833730049486,0.73022292052484,0.856220741440084,2021-10-17
"356",177.5,0.982218562355328,0.97383373004945,0.729540170550061,0.855879366452695,2021-10-17
"357",178,0.982218562355328,0.973833730049416,0.728867373943262,0.855542968149295,2021-10-18
"358",178.5,0.982218562355328,0.973833730049384,0.728204442845275,0.855211502600301,2021-10-18
"359",179,0.982218562355328,0.973833730049354,0.727551288111656,0.854884925233492,2021-10-19
"360",179.5,0.982218562355328,0.973833730049325,0.726907819403283,0.854563190879305,2021-10-19
"361",180,0.982218562355328,0.973833730049297,0.726273945274765,0.854246253815046,2021-10-20
"362",180.5,0.982218562355328,0.973833730049271,0.725649573260656,0.853934067807992,2021-10-20
"363",181,0.982218562355328,0.973833730049246,0.725034609959452,0.85362658615739,2021-10-21
"364",181.5,0.982218562355328,0.973833730049222,0.724428961115359,0.853323761735343,2021-10-21
"365",182,0.982218562355328,0.973833730049199,0.723832531697847,0.853025547026588,2021-10-22
"366",182.5,0.982218562355328,0.973833730049178,0.723245225978966,0.852731894167147,2021-10-22
"367",183,0.982218562355328,0.973833730049158,0.722666947608443,0.852442754981885,2021-10-23
"368",183.5,0.982218562355328,0.973833730049138,0.722097599686561,0.852158081020944,2021-10-23
"369",184,0.982218562355328,0.97383373004912,0.72153708483483,0.851877823595079,2021-10-24
"370",184.5,0.982218562355328,0.973833730049102,0.720985305264464,0.851601933809896,2021-10-24
"371",185,0.982218562355328,0.973833730049085,0.720442162842672,0.851330362599,2021-10-25
"372",185.5,0.982218562355328,0.973833730049069,0.719907559156798,0.851063060756063,2021-10-25
"373",186,0.982218562355328,0.973833730049054,0.719381395576308,0.850799978965818,2021-10-26
"374",186.5,0.982218562355328,0.97383373004904,0.718863573312663,0.850541067833995,2021-10-26
"375",187,0.982218562355328,0.973833730049026,0.718353993477095,0.850286277916211,2021-10-27
"376",187.5,0.982218562355328,0.973833730049013,0.717852557136317,0.850035559745822,2021-10-27
"377",188,0.982218562355328,0.973833730049001,0.717359165366189,0.849788863860758,2021-10-28
"378",188.5,0.982218562355328,0.973833730048989,0.716873719303376,0.849546140829352,2021-10-28
"379",189,0.982218562355328,0.973833730048978,0.716396120195023,0.849307341275175,2021-10-29
"380",189.5,0.982218562355328,0.973833730048968,0.715926269446489,0.849072415900908,2021-10-29
"381",190,0.982218562355328,0.973833730048958,0.715464068667157,0.848841315511242,2021-10-30
"382",190.5,0.982218562355328,0.973833730048948,0.71500941971438,0.848613991034854,2021-10-30
"383",191,0.982218562355328,0.973833730048939,0.714562224735566,0.848390393545447,2021-10-31
"384",191.5,0.982218562355328,0.97383373004893,0.714122386208472,0.8481704742819,2021-10-31
"385",192,0.982218562355328,0.973833730048922,0.713689806979718,0.847954184667523,2021-11-01
"386",192.5,0.982218562355328,0.973833730048914,0.713264390301575,0.847741476328452,2021-11-01
"387",193,0.982218562355328,0.973833730048907,0.712846039867053,0.84753230111119,2021-11-02
"388",193.5,0.982218562355328,0.9738337300489,0.712434659843338,0.847326611099333,2021-11-02
"389",194,0.982218562355328,0.973833730048893,0.712030154903614,0.847124358629471,2021-11-03
"390",194.5,0.982218562355328,0.973833730048887,0.711632430257301,0.846925496306314,2021-11-03
"391",195,0.982218562355328,0.97383373004888,0.711241391678761,0.846729977017045,2021-11-04
"392",195.5,0.982218562355328,0.973833730048875,0.710856945534503,0.846537753944916,2021-11-04
"393",196,0.982218562355328,0.973833730048869,0.710478998808928,0.846348780582128,2021-11-05
"394",196.5,0.982218562355328,0.973833730048864,0.71010745912865,0.846163010741989,2021-11-05
"395",197,0.982218562355328,0.973833730048859,0.709742234785448,0.845980398570388,2021-11-06
"396",197.5,0.982218562355328,0.973833730048854,0.709383234757858,0.845800898556593,2021-11-06
"397",198,0.982218562355328,0.97383373004885,0.709030368731475,0.845624465543401,2021-11-07
"398",198.5,0.982218562355328,0.973833730048846,0.708683547117985,0.845451054736657,2021-11-07
"399",199,0.982218562355328,0.973833730048842,0.708342681072969,0.845280621714148,2021-11-08
"400",199.5,0.982218562355328,0.973833730048838,0.708007682512516,0.845113122433922,2021-11-08
"401",200,0.982218562355328,0.973833730048834,0.707678464128686,0.844948513242007,2021-11-09
"402",200.5,0.982218562355328,0.97383373004883,0.707354939403858,0.844786750879593,2021-11-09
"403",201,0.982218562355328,0.973833730048827,0.707037022623998,0.844627792489663,2021-11-10
"404",201.5,0.982218562355328,0.973833730048824,0.706724628890877,0.844471595623102,2021-11-10
