,test_date,pcr_result,antibody_result,vaccinated,sector,sewer_zone,zip_code,round_name,record_type,time_point
0,2021-04-23,0,0,No,4,11,40222,5,ProbabilitySelected,21
1,2021-04-23,0,0,No,2,11,40205,5,ProbabilitySelected,21
2,2021-04-23,0,1,No,3,15,40118,5,ProbabilitySelected,21
3,2021-04-23,0,0,No,1,9,40216,5,ProbabilitySelected,21
4,2021-04-23,0,0,No,2,11,40217,5,ProbabilitySelected,21
5,2021-04-23,0,0,No,3,10,40118,5,ProbabilitySelected,21
6,2021-04-23,0,0,No,3,10,40214,5,ProbabilitySelected,21
7,2021-04-23,0,1,No,2,11,40206,5,ProbabilitySelected,21
8,2021-04-23,0,0,No,4,12,40220,5,ProbabilitySelected,21
9,2021-04-23,0,0,No,1,9,40216,5,ProbabilitySelected,21
10,2021-04-23,0,0,No,3,14,40219,5,ProbabilitySelected,21
11,2021-04-23,0,0,No,3,10,40258,5,ProbabilitySelected,21
12,2021-04-23,0,0,No,1,17,40215,5,ProbabilitySelected,21
13,2021-04-23,0,1,No,4,5,40241,5,ProbabilitySelected,21
14,2021-04-23,0,0,No,1,9,40216,5,ProbabilitySelected,21
15,2021-04-23,0,0,No,2,11,40204,5,ProbabilitySelected,21
16,2021-04-24,0,0,No,1,17,40208,5,ProbabilitySelected,22
17,2021-04-24,0,0,No,4,12,40218,5,ProbabilitySelected,22
18,2021-04-24,0,0,No,1,9,40216,5,ProbabilitySelected,22
19,2021-04-24,0,0,No,1,9,40216,5,ProbabilitySelected,22
20,2021-04-24,0,0,No,3,10,40272,5,ProbabilitySelected,22
21,2021-04-24,0,0,No,2,12,40205,5,ProbabilitySelected,22
22,2021-04-24,0,0,No,3,10,40272,5,ProbabilitySelected,22
23,2021-04-24,0,0,No,2,11,40205,5,ProbabilitySelected,22
24,2021-04-24,0,0,No,3,13,40218,5,ProbabilitySelected,22
25,2021-04-24,0,0,No,4,5,40059,5,ProbabilitySelected,22
26,2021-04-25,0,1,No,3,13,40213,5,ProbabilitySelected,23
27,2021-04-25,0,0,No,1,6,40211,5,ProbabilitySelected,23
28,2021-04-26,0,0,No,4,11,40242,5,ProbabilitySelected,24
29,2021-04-26,0,0,No,4,11,40223,5,ProbabilitySelected,24
30,2021-04-26,0,0,No,1,17,40214,5,ProbabilitySelected,24
31,2021-04-26,0,0,No,4,4,40299,5,ProbabilitySelected,24
32,2021-04-26,0,1,No,4,4,40245,5,ProbabilitySelected,24
33,2021-04-26,0,0,No,3,14,40219,5,ProbabilitySelected,24
34,2021-04-26,0,0,No,4,12,40299,5,ProbabilitySelected,24
35,2021-04-26,0,0,No,4,4,40245,5,ProbabilitySelected,24
36,2021-04-26,0,0,No,4,12,40299,5,ProbabilitySelected,24
37,2021-04-26,0,0,No,3,15,40229,5,ProbabilitySelected,24
38,2021-04-26,0,0,No,4,5,40241,5,ProbabilitySelected,24
39,2021-04-26,0,0,No,4,12,40299,5,ProbabilitySelected,24
40,2021-04-26,0,0,No,4,4,40245,5,ProbabilitySelected,24
41,2021-04-26,0,0,No,4,11,40243,5,ProbabilitySelected,24
42,2021-04-26,0,0,No,4,11,40223,5,ProbabilitySelected,24
43,2021-04-26,0,0,No,3,14,40218,5,ProbabilitySelected,24
44,2021-04-26,0,1,No,4,3,40299,5,ProbabilitySelected,24
45,2021-04-26,0,0,No,4,12,40220,5,ProbabilitySelected,24
46,2021-04-27,0,0,No,4,11,40242,5,ProbabilitySelected,25
47,2021-04-27,0,1,No,4,3,40291,5,ProbabilitySelected,25
48,2021-04-27,0,0,No,4,12,40220,5,ProbabilitySelected,25
49,2021-04-27,0,0,No,4,11,40220,5,ProbabilitySelected,25
50,2021-04-27,0,0,No,4,5,40241,5,ProbabilitySelected,25
51,2021-04-27,0,0,No,2,11,40206,5,ProbabilitySelected,25
52,2021-04-27,0,0,No,4,14,40291,5,ProbabilitySelected,25
53,2021-04-27,0,0,No,2,11,40207,5,ProbabilitySelected,25
54,2021-04-27,0,0,No,4,14,40299,5,ProbabilitySelected,25
55,2021-04-27,0,0,No,2,11,40207,5,ProbabilitySelected,25
56,2021-04-27,0,0,No,4,12,40299,5,ProbabilitySelected,25
57,2021-04-27,0,0,No,4,12,40299,5,ProbabilitySelected,25
58,2021-04-27,0,0,No,4,11,40222,5,ProbabilitySelected,25
59,2021-04-28,0,0,No,4,11,40222,5,ProbabilitySelected,26
60,2021-04-28,0,1,No,4,12,40299,5,ProbabilitySelected,26
61,2021-04-28,0,0,No,3,17,40214,5,ProbabilitySelected,26
62,2021-04-28,0,0,No,4,5,40059,5,ProbabilitySelected,26
63,2021-04-29,0,0,No,4,12,40220,5,ProbabilitySelected,27
64,2021-04-29,0,1,No,3,3,40291,5,ProbabilitySelected,27
65,2021-04-29,0,0,No,4,11,40242,5,ProbabilitySelected,27
66,2021-05-17,0,0,No,4,4,40245,6,ProbabilitySelected,45
67,2021-05-17,0,0,No,4,11,40299,6,ProbabilitySelected,45
68,2021-05-17,0,0,No,4,5,40245,6,ProbabilitySelected,45
69,2021-05-17,0,0,No,4,4,40245,6,ProbabilitySelected,45
70,2021-05-17,0,0,No,2,8,40207,6,ProbabilitySelected,45
71,2021-05-17,0,0,No,3,14,40118,6,ProbabilitySelected,45
72,2021-05-17,0,0,No,3,13,40219,6,ProbabilitySelected,45
73,2021-05-17,0,0,No,3,13,40218,6,ProbabilitySelected,45
74,2021-05-17,0,0,No,3,10,40118,6,ProbabilitySelected,45
75,2021-05-17,0,0,No,3,3,40228,6,ProbabilitySelected,45
76,2021-05-17,0,0,No,3,14,40228,6,ProbabilitySelected,45
77,2021-05-17,0,0,No,4,4,40299,6,ProbabilitySelected,45
78,2021-05-17,0,0,No,2,12,40205,6,ProbabilitySelected,45
79,2021-05-17,0,0,No,3,15,40229,6,ProbabilitySelected,45
80,2021-05-17,0,1,No,3,13,40213,6,ProbabilitySelected,45
81,2021-05-17,0,0,No,3,15,40118,6,ProbabilitySelected,45
82,2021-05-17,0,1,No,3,14,40219,6,ProbabilitySelected,45
83,2021-05-17,0,0,No,4,11,40222,6,ProbabilitySelected,45
84,2021-05-17,0,0,No,3,13,40219,6,ProbabilitySelected,45
85,2021-05-17,0,0,No,2,13,40213,6,ProbabilitySelected,45
86,2021-05-17,0,0,No,4,12,40220,6,ProbabilitySelected,45
87,2021-05-17,0,0,No,4,3,40299,6,ProbabilitySelected,45
88,2021-05-17,0,0,No,4,3,40299,6,ProbabilitySelected,45
89,2021-05-17,0,0,No,3,3,40291,6,ProbabilitySelected,45
90,2021-05-17,0,0,No,3,15,40229,6,ProbabilitySelected,45
91,2021-05-17,0,0,No,2,17,40217,6,ProbabilitySelected,45
92,2021-05-17,0,1,No,4,12,40299,6,ProbabilitySelected,45
93,2021-05-17,0,0,No,3,15,40229,6,ProbabilitySelected,45
94,2021-05-17,0,0,No,3,14,40219,6,ProbabilitySelected,45
95,2021-05-17,0,0,No,4,4,40245,6,ProbabilitySelected,45
96,2021-05-17,0,0,No,2,12,40205,6,ProbabilitySelected,45
97,2021-05-17,0,0,No,4,3,40291,6,ProbabilitySelected,45
98,2021-05-17,0,1,No,3,15,40219,6,ProbabilitySelected,45
99,2021-05-18,0,0,No,3,3,40291,6,ProbabilitySelected,46
100,2021-05-18,0,0,No,4,11,40223,6,ProbabilitySelected,46
101,2021-05-18,0,0,No,4,12,40220,6,ProbabilitySelected,46
102,2021-05-18,0,0,No,4,3,40299,6,ProbabilitySelected,46
103,2021-05-18,0,0,No,4,4,40243,6,ProbabilitySelected,46
104,2021-05-18,0,0,No,4,3,40291,6,ProbabilitySelected,46
105,2021-05-18,0,0,No,3,15,40228,6,ProbabilitySelected,46
106,2021-05-18,0,0,No,2,11,40207,6,ProbabilitySelected,46
107,2021-05-18,0,0,No,3,14,40291,6,ProbabilitySelected,46
108,2021-05-18,0,0,No,3,15,40228,6,ProbabilitySelected,46
109,2021-05-18,0,0,No,3,14,40291,6,ProbabilitySelected,46
110,2021-05-18,0,1,No,3,15,40023,6,ProbabilitySelected,46
111,2021-05-19,0,0,No,4,11,40223,6,ProbabilitySelected,47
112,2021-05-19,0,0,No,4,4,40243,6,ProbabilitySelected,47
113,2021-05-19,0,0,No,3,15,40229,6,ProbabilitySelected,47
114,2021-05-19,0,0,No,4,4,40299,6,ProbabilitySelected,47
115,2021-05-19,0,0,No,3,14,40291,6,ProbabilitySelected,47
116,2021-05-19,0,0,No,3,15,40228,6,ProbabilitySelected,47
117,2021-05-19,0,1,No,4,12,40220,6,ProbabilitySelected,47
118,2021-05-20,0,0,No,1,6,40212,6,ProbabilitySelected,48
119,2021-05-20,0,0,No,1,6,40211,6,ProbabilitySelected,48
120,2021-05-20,0,0,No,3,9,40258,6,ProbabilitySelected,48
121,2021-05-20,0,0,No,1,7,40203,6,ProbabilitySelected,48
122,2021-05-20,0,0,No,1,7,40203,6,ProbabilitySelected,48
123,2021-05-20,0,0,No,2,11,40207,6,ProbabilitySelected,48
124,2021-05-20,0,0,No,1,9,40216,6,ProbabilitySelected,48
125,2021-05-20,0,0,No,3,15,40228,6,ProbabilitySelected,48
126,2021-05-20,0,0,No,1,9,40216,6,ProbabilitySelected,48
127,2021-05-20,0,0,No,2,8,40207,6,ProbabilitySelected,48
128,2021-05-20,0,1,No,4,5,40059,6,ProbabilitySelected,48
129,2021-05-20,0,0,No,3,9,40258,6,ProbabilitySelected,48
130,2021-05-20,0,0,No,3,10,40258,6,ProbabilitySelected,48
131,2021-05-20,0,0,No,2,8,40207,6,ProbabilitySelected,48
132,2021-05-20,0,0,No,2,8,40207,6,ProbabilitySelected,48
133,2021-05-20,0,0,No,4,11,40241,6,ProbabilitySelected,48
134,2021-05-21,0,0,No,3,10,40258,6,ProbabilitySelected,49
135,2021-05-21,0,0,No,1,9,40216,6,ProbabilitySelected,49
136,2021-05-21,0,0,No,4,4,40245,6,ProbabilitySelected,49
137,2021-05-21,0,0,No,4,11,40222,6,ProbabilitySelected,49
138,2021-05-21,0,0,No,4,5,40241,6,ProbabilitySelected,49
139,2021-05-21,0,0,No,3,9,40216,6,ProbabilitySelected,49
140,2021-05-21,0,0,No,4,5,40245,6,ProbabilitySelected,49
141,2021-05-21,0,0,No,2,8,40207,6,ProbabilitySelected,49
142,2021-05-21,0,0,No,4,4,40245,6,ProbabilitySelected,49
143,2021-05-22,0,0,No,4,5,40241,6,ProbabilitySelected,50
144,2021-05-22,0,0,No,3,13,40213,6,ProbabilitySelected,50
145,2021-05-22,0,0,No,3,13,40219,6,ProbabilitySelected,50
146,2021-05-22,0,0,No,3,13,40219,6,ProbabilitySelected,50
147,2021-05-22,0,0,No,1,17,40214,6,ProbabilitySelected,50
148,2021-05-22,0,0,No,4,12,40218,6,ProbabilitySelected,50
149,2021-05-22,1,0,No,4,5,40059,6,ProbabilitySelected,50
150,2021-05-22,0,0,No,2,17,40208,6,ProbabilitySelected,50
151,2021-05-23,0,0,No,4,4,40245,6,ProbabilitySelected,51
152,2021-05-23,0,0,No,2,11,40204,6,ProbabilitySelected,51
153,2021-05-23,0,0,No,3,10,40215,6,ProbabilitySelected,51
154,2021-05-23,0,0,No,4,5,40059,6,ProbabilitySelected,51
155,2021-05-23,0,0,No,3,14,40218,6,ProbabilitySelected,51
156,2021-06-17,0,1,No,3,3,40291,7,ProbabilitySelected,76
157,2021-06-17,0,1,No,2,11,40204,7,ProbabilitySelected,76
158,2021-06-17,0,0,No,4,5,40059,7,ProbabilitySelected,76
159,2021-06-17,0,0,No,4,12,40218,7,ProbabilitySelected,76
160,2021-06-17,0,1,No,1,9,40216,7,ProbabilitySelected,76
161,2021-06-17,0,0,No,4,5,40245,7,ProbabilitySelected,76
162,2021-06-17,0,0,No,4,5,40241,7,ProbabilitySelected,76
163,2021-06-17,0,0,No,4,5,40245,7,ProbabilitySelected,76
164,2021-06-17,0,0,No,2,8,40207,7,ProbabilitySelected,76
165,2021-06-17,0,0,No,3,10,40214,7,ProbabilitySelected,76
166,2021-06-17,0,1,No,4,5,40241,7,ProbabilitySelected,76
167,2021-06-17,0,0,No,1,9,40215,7,ProbabilitySelected,76
168,2021-06-17,0,0,No,1,9,40216,7,ProbabilitySelected,76
169,2021-06-17,0,1,No,4,4,40243,7,ProbabilitySelected,76
170,2021-06-17,0,0,No,3,9,40216,7,ProbabilitySelected,76
171,2021-06-18,0,0,No,4,5,40027,7,ProbabilitySelected,77
172,2021-06-18,0,0,No,2,11,40204,7,ProbabilitySelected,77
173,2021-06-18,0,0,No,2,8,40207,7,ProbabilitySelected,77
174,2021-06-18,0,0,No,2,8,40207,7,ProbabilitySelected,77
175,2021-06-18,0,1,No,2,11,40206,7,ProbabilitySelected,77
176,2021-06-18,0,0,No,2,11,40204,7,ProbabilitySelected,77
177,2021-06-18,0,0,No,4,5,40059,7,ProbabilitySelected,77
178,2021-06-18,0,0,No,3,15,40229,7,ProbabilitySelected,77
179,2021-06-18,0,1,No,1,17,40210,7,ProbabilitySelected,77
180,2021-06-18,0,0,No,2,12,40205,7,ProbabilitySelected,77
181,2021-06-18,0,0,No,2,8,40207,7,ProbabilitySelected,77
182,2021-06-18,0,0,No,2,17,40217,7,ProbabilitySelected,77
183,2021-06-21,0,0,No,4,3,40299,7,ProbabilitySelected,80
184,2021-06-21,0,0,No,4,4,40245,7,ProbabilitySelected,80
185,2021-06-21,0,0,No,4,3,40291,7,ProbabilitySelected,80
186,2021-06-21,0,0,No,4,12,40218,7,ProbabilitySelected,80
187,2021-06-21,0,0,No,4,12,40299,7,ProbabilitySelected,80
188,2021-06-21,0,1,No,4,4,40245,7,ProbabilitySelected,80
189,2021-06-21,0,0,No,4,12,40220,7,ProbabilitySelected,80
190,2021-06-21,0,0,No,2,8,40207,7,ProbabilitySelected,80
191,2021-06-21,0,0,No,3,15,40229,7,ProbabilitySelected,80
192,2021-06-21,0,0,No,4,14,40299,7,ProbabilitySelected,80
193,2021-06-21,0,0,No,4,12,40220,7,ProbabilitySelected,80
194,2021-06-22,0,0,No,3,15,40228,7,ProbabilitySelected,81
195,2021-06-22,0,0,No,4,12,40299,7,ProbabilitySelected,81
196,2021-06-22,0,0,No,3,15,40229,7,ProbabilitySelected,81
197,2021-06-22,0,0,No,3,13,40213,7,ProbabilitySelected,81
198,2021-06-22,0,0,No,4,4,40223,7,ProbabilitySelected,81
199,2021-06-22,0,0,No,3,15,40228,7,ProbabilitySelected,81
200,2021-06-22,0,0,No,4,4,40299,7,ProbabilitySelected,81
201,2021-06-22,0,0,No,4,4,40299,7,ProbabilitySelected,81
202,2021-06-22,0,0,No,3,14,40228,7,ProbabilitySelected,81
203,2021-06-22,0,0,No,3,10,40272,7,ProbabilitySelected,81
204,2021-06-22,0,1,No,3,15,40229,7,ProbabilitySelected,81
205,2021-06-22,0,0,No,3,13,40219,7,ProbabilitySelected,81
206,2021-06-22,0,0,No,3,15,40229,7,ProbabilitySelected,81
207,2021-06-23,0,0,No,3,15,40228,7,ProbabilitySelected,82
208,2021-06-23,0,0,No,3,13,40219,7,ProbabilitySelected,82
209,2021-06-23,0,0,No,4,4,40245,7,ProbabilitySelected,82
210,2021-06-23,0,0,No,3,14,40219,7,ProbabilitySelected,82
211,2021-06-23,0,0,No,3,15,40229,7,ProbabilitySelected,82
212,2021-06-23,0,0,No,2,11,40207,7,ProbabilitySelected,82
213,2021-06-23,0,0,No,3,15,40228,7,ProbabilitySelected,82
214,2021-06-23,0,0,No,3,15,40229,7,ProbabilitySelected,82
215,2021-06-23,0,0,No,3,15,40229,7,ProbabilitySelected,82
216,2021-08-25,0,1,No,4,5,40245,8,ProbabilitySelected,145
217,2021-08-26,0,0,No,4,5,40222,8,ProbabilitySelected,146
218,2021-08-26,0,0,No,2,8,40207,8,ProbabilitySelected,146
219,2021-08-26,0,0,No,4,5,40241,8,ProbabilitySelected,146
220,2021-08-26,0,1,No,2,11,40204,8,ProbabilitySelected,146
221,2021-08-26,0,1,No,2,11,40207,8,ProbabilitySelected,146
222,2021-08-26,0,0,No,4,4,40299,8,ProbabilitySelected,146
223,2021-08-26,0,0,No,4,5,40241,8,ProbabilitySelected,146
224,2021-08-26,0,1,No,3,14,40219,8,ProbabilitySelected,146
225,2021-08-26,0,0,No,1,17,40208,8,ProbabilitySelected,146
226,2021-08-26,0,0,No,3,15,40229,8,ProbabilitySelected,146
227,2021-08-26,0,1,No,3,13,40213,8,ProbabilitySelected,146
228,2021-08-26,0,1,No,2,8,40207,8,ProbabilitySelected,146
229,2021-08-26,0,0,No,2,8,40207,8,ProbabilitySelected,146
230,2021-08-26,0,0,No,4,5,40241,8,ProbabilitySelected,146
231,2021-08-26,0,1,No,4,5,40223,8,ProbabilitySelected,146
232,2021-08-26,0,0,No,3,13,40213,8,ProbabilitySelected,146
233,2021-08-26,0,1,No,1,9,40216,8,ProbabilitySelected,146
234,2021-08-26,0,0,No,4,5,40059,8,ProbabilitySelected,146
235,2021-08-26,0,1,No,4,4,40245,8,ProbabilitySelected,146
236,2021-08-27,0,0,No,4,4,40245,8,ProbabilitySelected,147
237,2021-08-27,0,0,No,3,10,40214,8,ProbabilitySelected,147
238,2021-08-27,0,0,No,4,3,40291,8,ProbabilitySelected,147
239,2021-08-27,0,1,No,4,5,40245,8,ProbabilitySelected,147
240,2021-08-27,0,0,No,4,3,40299,8,ProbabilitySelected,147
241,2021-08-27,0,1,No,3,10,40214,8,ProbabilitySelected,147
242,2021-08-27,0,0,No,4,4,40245,8,ProbabilitySelected,147
243,2021-08-28,0,0,No,3,15,40228,8,ProbabilitySelected,148
244,2021-08-28,0,0,No,4,4,40299,8,ProbabilitySelected,148
245,2021-08-28,0,0,No,1,7,40203,8,ProbabilitySelected,148
246,2021-08-28,0,0,No,3,13,40218,8,ProbabilitySelected,148
247,2021-08-28,0,0,No,4,12,40218,8,ProbabilitySelected,148
248,2021-08-28,0,0,No,2,17,40203,8,ProbabilitySelected,148
249,2021-08-29,0,0,No,4,3,40299,8,ProbabilitySelected,149
250,2021-08-29,0,1,No,4,12,40220,8,ProbabilitySelected,149
251,2021-08-29,0,0,No,2,8,40207,8,ProbabilitySelected,149
252,2021-08-29,0,0,No,2,8,40207,8,ProbabilitySelected,149
253,2021-08-29,0,0,No,4,3,40299,8,ProbabilitySelected,149
254,2021-08-29,0,0,No,1,17,40215,8,ProbabilitySelected,149
255,2021-08-29,0,0,No,4,3,40299,8,ProbabilitySelected,149
256,2021-08-29,0,0,No,4,5,40241,8,ProbabilitySelected,149
257,2021-08-29,0,0,No,4,3,40291,8,ProbabilitySelected,149
258,2021-08-29,0,0,No,4,11,40223,8,ProbabilitySelected,149
259,2021-08-29,0,0,No,4,5,40245,8,ProbabilitySelected,149
260,2021-08-29,0,0,No,4,5,40245,8,ProbabilitySelected,149
261,2021-08-29,0,0,No,3,15,40219,8,ProbabilitySelected,149
262,2021-08-29,0,0,No,3,3,40228,8,ProbabilitySelected,149
263,2021-08-29,0,0,No,2,8,40207,8,ProbabilitySelected,149
264,2021-08-29,0,0,No,4,5,40241,8,ProbabilitySelected,149
265,2021-08-29,0,0,No,2,11,40207,8,ProbabilitySelected,149
266,2021-08-29,0,0,No,3,9,40216,8,ProbabilitySelected,149
267,2021-08-30,0,0,No,4,4,40245,8,ProbabilitySelected,150
268,2021-08-30,0,1,No,3,12,40218,8,ProbabilitySelected,150
269,2021-08-30,0,1,No,3,13,40213,8,ProbabilitySelected,150
270,2021-08-30,0,0,No,3,13,40218,8,ProbabilitySelected,150
271,2021-08-30,0,0,No,4,12,40218,8,ProbabilitySelected,150
272,2021-08-30,0,0,No,3,15,40229,8,ProbabilitySelected,150
273,2021-08-30,0,0,No,4,12,40218,8,ProbabilitySelected,150
274,2021-08-30,0,0,No,3,15,40229,8,ProbabilitySelected,150
275,2021-08-30,0,0,No,3,3,40291,8,ProbabilitySelected,150
276,2021-08-30,0,0,No,3,15,40118,8,ProbabilitySelected,150
277,2021-08-30,0,0,No,3,15,40229,8,ProbabilitySelected,150
278,2021-08-30,0,0,No,3,10,40272,8,ProbabilitySelected,150
279,2021-08-30,0,0,No,4,12,40220,8,ProbabilitySelected,150
280,2021-08-30,0,0,No,4,4,40299,8,ProbabilitySelected,150
281,2021-08-30,0,0,No,3,15,40229,8,ProbabilitySelected,150
282,2021-08-30,0,0,No,3,15,40229,8,ProbabilitySelected,150
283,2021-08-30,0,0,No,4,4,40245,8,ProbabilitySelected,150
284,2021-08-30,0,0,No,3,10,40214,8,ProbabilitySelected,150
285,2021-08-30,0,0,No,3,14,40118,8,ProbabilitySelected,150
286,2021-08-30,0,0,No,4,4,40299,8,ProbabilitySelected,150
287,2021-08-30,0,0,No,3,14,40219,8,ProbabilitySelected,150
288,2021-08-30,0,0,No,2,11,40204,8,ProbabilitySelected,150
289,2021-08-31,0,0,No,1,9,40216,8,ProbabilitySelected,151
290,2021-08-31,0,0,No,3,9,40258,8,ProbabilitySelected,151
291,2021-08-31,0,0,No,3,10,40258,8,ProbabilitySelected,151
292,2021-08-31,0,0,No,2,12,40205,8,ProbabilitySelected,151
293,2021-08-31,0,0,No,1,7,40212,8,ProbabilitySelected,151
294,2021-08-31,0,0,No,4,12,40220,8,ProbabilitySelected,151
295,2021-08-31,0,0,No,1,17,40216,8,ProbabilitySelected,151
296,2021-08-31,0,0,No,4,3,40299,8,ProbabilitySelected,151
297,2021-08-31,0,0,No,4,4,40245,8,ProbabilitySelected,151
298,2021-08-31,0,0,No,4,14,40291,8,ProbabilitySelected,151
299,2021-08-31,0,0,No,1,17,40214,8,ProbabilitySelected,151
300,2021-08-31,0,0,No,4,4,40245,8,ProbabilitySelected,151
301,2021-08-31,0,1,No,1,17,40208,8,ProbabilitySelected,151
302,2021-08-31,0,0,No,3,15,40229,8,ProbabilitySelected,151
303,2021-08-31,0,0,No,4,3,40299,8,ProbabilitySelected,151
304,2021-08-31,0,0,No,2,13,40213,8,ProbabilitySelected,151
305,2021-08-31,0,0,No,2,17,40204,8,ProbabilitySelected,151
306,2021-08-31,0,0,No,4,4,40245,8,ProbabilitySelected,151
307,2021-08-31,0,0,No,4,3,40023,8,ProbabilitySelected,151
