,test_date,pcr_result,antibody_result,vaccinated,sector,sewer_zone,zip_code,round_name,record_type,time_point
0,2021-04-23,0,0,No,4,11,40222,5,ProbabilitySelected,21
1,2021-04-23,0,1,No,4,5,40241,5,ProbabilitySelected,21
2,2021-04-23,0,0,No,4,12,40220,5,ProbabilitySelected,21
3,2021-04-24,0,0,No,4,12,40218,5,ProbabilitySelected,22
4,2021-04-24,0,0,No,4,5,40059,5,ProbabilitySelected,22
5,2021-04-26,0,1,No,4,3,40299,5,ProbabilitySelected,24
6,2021-04-26,0,0,No,4,4,40245,5,ProbabilitySelected,24
7,2021-04-26,0,0,No,4,12,40220,5,ProbabilitySelected,24
8,2021-04-26,0,0,No,4,5,40241,5,ProbabilitySelected,24
9,2021-04-26,0,0,No,4,12,40299,5,ProbabilitySelected,24
10,2021-04-26,0,0,No,4,4,40245,5,ProbabilitySelected,24
11,2021-04-26,0,0,No,4,11,40243,5,ProbabilitySelected,24
12,2021-04-26,0,0,No,4,4,40299,5,ProbabilitySelected,24
13,2021-04-26,0,0,No,4,12,40299,5,ProbabilitySelected,24
14,2021-04-26,0,0,No,4,12,40299,5,ProbabilitySelected,24
15,2021-04-26,0,0,No,4,11,40242,5,ProbabilitySelected,24
16,2021-04-26,0,1,No,4,4,40245,5,ProbabilitySelected,24
17,2021-04-26,0,0,No,4,11,40223,5,ProbabilitySelected,24
18,2021-04-26,0,0,No,4,11,40223,5,ProbabilitySelected,24
19,2021-04-27,0,1,No,4,3,40291,5,ProbabilitySelected,25
20,2021-04-27,0,0,No,4,11,40222,5,ProbabilitySelected,25
21,2021-04-27,0,0,No,4,5,40241,5,ProbabilitySelected,25
22,2021-04-27,0,0,No,4,11,40220,5,ProbabilitySelected,25
23,2021-04-27,0,0,No,4,12,40299,5,ProbabilitySelected,25
24,2021-04-27,0,0,No,4,11,40242,5,ProbabilitySelected,25
25,2021-04-27,0,0,No,4,12,40299,5,ProbabilitySelected,25
26,2021-04-27,0,0,No,4,12,40220,5,ProbabilitySelected,25
27,2021-04-27,0,0,No,4,14,40291,5,ProbabilitySelected,25
28,2021-04-27,0,0,No,4,14,40299,5,ProbabilitySelected,25
29,2021-04-28,0,1,No,4,12,40299,5,ProbabilitySelected,26
30,2021-04-28,0,0,No,4,5,40059,5,ProbabilitySelected,26
31,2021-04-28,0,0,No,4,11,40222,5,ProbabilitySelected,26
32,2021-04-29,0,0,No,4,12,40220,5,ProbabilitySelected,27
33,2021-04-29,0,0,No,4,11,40242,5,ProbabilitySelected,27
34,2021-05-17,0,0,No,4,5,40245,6,ProbabilitySelected,45
35,2021-05-17,0,0,No,4,11,40299,6,ProbabilitySelected,45
36,2021-05-17,0,0,No,4,4,40299,6,ProbabilitySelected,45
37,2021-05-17,0,0,No,4,4,40245,6,ProbabilitySelected,45
38,2021-05-17,0,0,No,4,12,40220,6,ProbabilitySelected,45
39,2021-05-17,0,0,No,4,4,40245,6,ProbabilitySelected,45
40,2021-05-17,0,0,No,4,3,40299,6,ProbabilitySelected,45
41,2021-05-17,0,0,No,4,3,40299,6,ProbabilitySelected,45
42,2021-05-17,0,0,No,4,3,40291,6,ProbabilitySelected,45
43,2021-05-17,0,0,No,4,4,40245,6,ProbabilitySelected,45
44,2021-05-17,0,1,No,4,12,40299,6,ProbabilitySelected,45
45,2021-05-17,0,0,No,4,11,40222,6,ProbabilitySelected,45
46,2021-05-18,0,0,No,4,12,40220,6,ProbabilitySelected,46
47,2021-05-18,0,0,No,4,3,40299,6,ProbabilitySelected,46
48,2021-05-18,0,0,No,4,11,40223,6,ProbabilitySelected,46
49,2021-05-18,0,0,No,4,4,40243,6,ProbabilitySelected,46
50,2021-05-18,0,0,No,4,3,40291,6,ProbabilitySelected,46
51,2021-05-19,0,1,No,4,12,40220,6,ProbabilitySelected,47
52,2021-05-19,0,0,No,4,4,40243,6,ProbabilitySelected,47
53,2021-05-19,0,0,No,4,4,40299,6,ProbabilitySelected,47
54,2021-05-19,0,0,No,4,11,40223,6,ProbabilitySelected,47
55,2021-05-20,0,0,No,4,11,40241,6,ProbabilitySelected,48
56,2021-05-20,0,1,No,4,5,40059,6,ProbabilitySelected,48
57,2021-05-21,0,0,No,4,5,40241,6,ProbabilitySelected,49
58,2021-05-21,0,0,No,4,5,40245,6,ProbabilitySelected,49
59,2021-05-21,0,0,No,4,11,40222,6,ProbabilitySelected,49
60,2021-05-21,0,0,No,4,4,40245,6,ProbabilitySelected,49
61,2021-05-21,0,0,No,4,4,40245,6,ProbabilitySelected,49
62,2021-05-22,1,0,No,4,5,40059,6,ProbabilitySelected,50
63,2021-05-22,0,0,No,4,12,40218,6,ProbabilitySelected,50
64,2021-05-22,0,0,No,4,5,40241,6,ProbabilitySelected,50
65,2021-05-23,0,0,No,4,4,40245,6,ProbabilitySelected,51
66,2021-05-23,0,0,No,4,5,40059,6,ProbabilitySelected,51
67,2021-06-17,0,1,No,4,5,40241,7,ProbabilitySelected,76
68,2021-06-17,0,1,No,4,4,40243,7,ProbabilitySelected,76
69,2021-06-17,0,0,No,4,5,40245,7,ProbabilitySelected,76
70,2021-06-17,0,0,No,4,5,40241,7,ProbabilitySelected,76
71,2021-06-17,0,0,No,4,5,40245,7,ProbabilitySelected,76
72,2021-06-17,0,0,No,4,12,40218,7,ProbabilitySelected,76
73,2021-06-17,0,0,No,4,5,40059,7,ProbabilitySelected,76
74,2021-06-18,0,0,No,4,5,40059,7,ProbabilitySelected,77
75,2021-06-18,0,0,No,4,5,40027,7,ProbabilitySelected,77
76,2021-06-21,0,0,No,4,3,40291,7,ProbabilitySelected,80
77,2021-06-21,0,0,No,4,12,40218,7,ProbabilitySelected,80
78,2021-06-21,0,0,No,4,4,40245,7,ProbabilitySelected,80
79,2021-06-21,0,0,No,4,12,40220,7,ProbabilitySelected,80
80,2021-06-21,0,0,No,4,14,40299,7,ProbabilitySelected,80
81,2021-06-21,0,0,No,4,12,40220,7,ProbabilitySelected,80
82,2021-06-21,0,0,No,4,3,40299,7,ProbabilitySelected,80
83,2021-06-21,0,0,No,4,12,40299,7,ProbabilitySelected,80
84,2021-06-21,0,1,No,4,4,40245,7,ProbabilitySelected,80
85,2021-06-22,0,0,No,4,4,40299,7,ProbabilitySelected,81
86,2021-06-22,0,0,No,4,4,40299,7,ProbabilitySelected,81
87,2021-06-22,0,0,No,4,4,40223,7,ProbabilitySelected,81
88,2021-06-22,0,0,No,4,12,40299,7,ProbabilitySelected,81
89,2021-06-23,0,0,No,4,4,40245,7,ProbabilitySelected,82
90,2021-08-25,0,1,No,4,5,40245,8,ProbabilitySelected,145
91,2021-08-26,0,0,No,4,5,40222,8,ProbabilitySelected,146
92,2021-08-26,0,0,No,4,5,40241,8,ProbabilitySelected,146
93,2021-08-26,0,0,No,4,5,40241,8,ProbabilitySelected,146
94,2021-08-26,0,0,No,4,5,40059,8,ProbabilitySelected,146
95,2021-08-26,0,1,No,4,4,40245,8,ProbabilitySelected,146
96,2021-08-26,0,1,No,4,5,40223,8,ProbabilitySelected,146
97,2021-08-26,0,0,No,4,5,40241,8,ProbabilitySelected,146
98,2021-08-26,0,0,No,4,4,40299,8,ProbabilitySelected,146
99,2021-08-27,0,0,No,4,3,40291,8,ProbabilitySelected,147
100,2021-08-27,0,0,No,4,4,40245,8,ProbabilitySelected,147
101,2021-08-27,0,0,No,4,4,40245,8,ProbabilitySelected,147
102,2021-08-27,0,1,No,4,5,40245,8,ProbabilitySelected,147
103,2021-08-27,0,0,No,4,3,40299,8,ProbabilitySelected,147
104,2021-08-28,0,0,No,4,12,40218,8,ProbabilitySelected,148
105,2021-08-28,0,0,No,4,4,40299,8,ProbabilitySelected,148
106,2021-08-29,0,0,No,4,3,40299,8,ProbabilitySelected,149
107,2021-08-29,0,0,No,4,5,40241,8,ProbabilitySelected,149
108,2021-08-29,0,0,No,4,5,40241,8,ProbabilitySelected,149
109,2021-08-29,0,0,No,4,5,40245,8,ProbabilitySelected,149
110,2021-08-29,0,0,No,4,11,40223,8,ProbabilitySelected,149
111,2021-08-29,0,1,No,4,12,40220,8,ProbabilitySelected,149
112,2021-08-29,0,0,No,4,5,40245,8,ProbabilitySelected,149
113,2021-08-29,0,0,No,4,3,40299,8,ProbabilitySelected,149
114,2021-08-29,0,0,No,4,3,40291,8,ProbabilitySelected,149
115,2021-08-29,0,0,No,4,3,40299,8,ProbabilitySelected,149
116,2021-08-30,0,0,No,4,4,40245,8,ProbabilitySelected,150
117,2021-08-30,0,0,No,4,12,40218,8,ProbabilitySelected,150
118,2021-08-30,0,0,No,4,12,40218,8,ProbabilitySelected,150
119,2021-08-30,0,0,No,4,4,40299,8,ProbabilitySelected,150
120,2021-08-30,0,0,No,4,12,40220,8,ProbabilitySelected,150
121,2021-08-30,0,0,No,4,4,40299,8,ProbabilitySelected,150
122,2021-08-30,0,0,No,4,4,40245,8,ProbabilitySelected,150
123,2021-08-31,0,0,No,4,4,40245,8,ProbabilitySelected,151
124,2021-08-31,0,0,No,4,4,40245,8,ProbabilitySelected,151
125,2021-08-31,0,0,No,4,14,40291,8,ProbabilitySelected,151
126,2021-08-31,0,0,No,4,3,40299,8,ProbabilitySelected,151
127,2021-08-31,0,0,No,4,12,40220,8,ProbabilitySelected,151
128,2021-08-31,0,0,No,4,4,40245,8,ProbabilitySelected,151
129,2021-08-31,0,0,No,4,3,40299,8,ProbabilitySelected,151
130,2021-08-31,0,0,No,4,3,40023,8,ProbabilitySelected,151
