,test_date,pcr_result,antibody_result,vaccinated,sector,sewer_zone,zip_code,round_name,record_type,time_point
0,2021-04-23,0,0,No,2,11,40204,5,ProbabilitySelected,21
1,2021-04-23,0,1,No,2,11,40206,5,ProbabilitySelected,21
2,2021-04-23,0,0,No,2,11,40217,5,ProbabilitySelected,21
3,2021-04-23,0,0,No,2,11,40205,5,ProbabilitySelected,21
4,2021-04-24,0,0,No,2,11,40205,5,ProbabilitySelected,22
5,2021-04-24,0,0,No,2,12,40205,5,ProbabilitySelected,22
6,2021-04-27,0,0,No,2,11,40207,5,ProbabilitySelected,25
7,2021-04-27,0,0,No,2,11,40207,5,ProbabilitySelected,25
8,2021-04-27,0,0,No,2,11,40206,5,ProbabilitySelected,25
9,2021-05-17,0,0,No,2,12,40205,6,ProbabilitySelected,45
10,2021-05-17,0,0,No,2,13,40213,6,ProbabilitySelected,45
11,2021-05-17,0,0,No,2,8,40207,6,ProbabilitySelected,45
12,2021-05-17,0,0,No,2,17,40217,6,ProbabilitySelected,45
13,2021-05-17,0,0,No,2,12,40205,6,ProbabilitySelected,45
14,2021-05-18,0,0,No,2,11,40207,6,ProbabilitySelected,46
15,2021-05-20,0,0,No,2,8,40207,6,ProbabilitySelected,48
16,2021-05-20,0,0,No,2,11,40207,6,ProbabilitySelected,48
17,2021-05-20,0,0,No,2,8,40207,6,ProbabilitySelected,48
18,2021-05-20,0,0,No,2,8,40207,6,ProbabilitySelected,48
19,2021-05-21,0,0,No,2,8,40207,6,ProbabilitySelected,49
20,2021-05-22,0,0,No,2,17,40208,6,ProbabilitySelected,50
21,2021-05-23,0,0,No,2,11,40204,6,ProbabilitySelected,51
22,2021-06-17,0,1,No,2,11,40204,7,ProbabilitySelected,76
23,2021-06-17,0,0,No,2,8,40207,7,ProbabilitySelected,76
24,2021-06-18,0,0,No,2,8,40207,7,ProbabilitySelected,77
25,2021-06-18,0,0,No,2,12,40205,7,ProbabilitySelected,77
26,2021-06-18,0,0,No,2,17,40217,7,ProbabilitySelected,77
27,2021-06-18,0,1,No,2,11,40206,7,ProbabilitySelected,77
28,2021-06-18,0,0,No,2,8,40207,7,ProbabilitySelected,77
29,2021-06-18,0,0,No,2,8,40207,7,ProbabilitySelected,77
30,2021-06-18,0,0,No,2,11,40204,7,ProbabilitySelected,77
31,2021-06-18,0,0,No,2,11,40204,7,ProbabilitySelected,77
32,2021-06-21,0,0,No,2,8,40207,7,ProbabilitySelected,80
33,2021-06-23,0,0,No,2,11,40207,7,ProbabilitySelected,82
34,2021-08-26,0,1,No,2,11,40207,8,ProbabilitySelected,146
35,2021-08-26,0,1,No,2,11,40204,8,ProbabilitySelected,146
36,2021-08-26,0,0,No,2,8,40207,8,ProbabilitySelected,146
37,2021-08-26,0,0,No,2,8,40207,8,ProbabilitySelected,146
38,2021-08-26,0,1,No,2,8,40207,8,ProbabilitySelected,146
39,2021-08-28,0,0,No,2,17,40203,8,ProbabilitySelected,148
40,2021-08-29,0,0,No,2,11,40207,8,ProbabilitySelected,149
41,2021-08-29,0,0,No,2,8,40207,8,ProbabilitySelected,149
42,2021-08-29,0,0,No,2,8,40207,8,ProbabilitySelected,149
43,2021-08-29,0,0,No,2,8,40207,8,ProbabilitySelected,149
44,2021-08-30,0,0,No,2,11,40204,8,ProbabilitySelected,150
45,2021-08-31,0,0,No,2,17,40204,8,ProbabilitySelected,151
46,2021-08-31,0,0,No,2,13,40213,8,ProbabilitySelected,151
47,2021-08-31,0,0,No,2,12,40205,8,ProbabilitySelected,151
