,test_date,pcr_result,antibody_result,vaccinated,sector,sewer_zone,zip_code,round_name,record_type,time_point
0,2021-04-26,0,1,No,4,4,40245,5,ProbabilitySelected,24
1,2021-04-26,0,0,No,4,4,40245,5,ProbabilitySelected,24
2,2021-04-26,0,0,No,4,4,40245,5,ProbabilitySelected,24
3,2021-04-26,0,0,No,4,4,40299,5,ProbabilitySelected,24
4,2021-05-17,0,0,No,4,4,40245,6,ProbabilitySelected,45
5,2021-05-17,0,0,No,4,4,40299,6,ProbabilitySelected,45
6,2021-05-17,0,0,No,4,4,40245,6,ProbabilitySelected,45
7,2021-05-17,0,0,No,4,4,40245,6,ProbabilitySelected,45
8,2021-05-18,0,0,No,4,4,40243,6,ProbabilitySelected,46
9,2021-05-19,0,0,No,4,4,40243,6,ProbabilitySelected,47
10,2021-05-19,0,0,No,4,4,40299,6,ProbabilitySelected,47
11,2021-05-21,0,0,No,4,4,40245,6,ProbabilitySelected,49
12,2021-05-21,0,0,No,4,4,40245,6,ProbabilitySelected,49
13,2021-05-23,0,0,No,4,4,40245,6,ProbabilitySelected,51
14,2021-06-17,0,1,No,4,4,40243,7,ProbabilitySelected,76
15,2021-06-21,0,0,No,4,4,40245,7,ProbabilitySelected,80
16,2021-06-21,0,1,No,4,4,40245,7,ProbabilitySelected,80
17,2021-06-22,0,0,No,4,4,40299,7,ProbabilitySelected,81
18,2021-06-22,0,0,No,4,4,40223,7,ProbabilitySelected,81
19,2021-06-22,0,0,No,4,4,40299,7,ProbabilitySelected,81
20,2021-06-23,0,0,No,4,4,40245,7,ProbabilitySelected,82
21,2021-08-26,0,1,No,4,4,40245,8,ProbabilitySelected,146
22,2021-08-26,0,0,No,4,4,40299,8,ProbabilitySelected,146
23,2021-08-27,0,0,No,4,4,40245,8,ProbabilitySelected,147
24,2021-08-27,0,0,No,4,4,40245,8,ProbabilitySelected,147
25,2021-08-28,0,0,No,4,4,40299,8,ProbabilitySelected,148
26,2021-08-30,0,0,No,4,4,40245,8,ProbabilitySelected,150
27,2021-08-30,0,0,No,4,4,40299,8,ProbabilitySelected,150
28,2021-08-30,0,0,No,4,4,40299,8,ProbabilitySelected,150
29,2021-08-30,0,0,No,4,4,40245,8,ProbabilitySelected,150
30,2021-08-31,0,0,No,4,4,40245,8,ProbabilitySelected,151
31,2021-08-31,0,0,No,4,4,40245,8,ProbabilitySelected,151
32,2021-08-31,0,0,No,4,4,40245,8,ProbabilitySelected,151
