"","time_point","num_antibody_positive","date","num_antibody_total","percent_positive"
"1",1,0,2021-04-23,4,0
"2",2,0,2021-04-24,3,0
"3",3,0,2021-04-25,1,0
"4",4,0,2021-04-26,1,0
"5",28,0,2021-05-20,6,0
"6",29,0,2021-05-21,1,0
"7",30,0,2021-05-22,1,0
"8",56,1,2021-06-17,3,0.333333333333333
"9",57,1,2021-06-18,1,1
"10",126,1,2021-08-26,2,0.5
"11",128,0,2021-08-28,1,0
"12",129,0,2021-08-29,1,0
"13",131,1,2021-08-31,5,0.2
