"","time","top","med","bottom","pseudo_med","date"
"1",0,0.000987665780143841,0.000215805889768248,1.54214599898958e-05,0.000501543620066868,2021-04-23
"2",0.5,0.000966231971753852,0.000214973774257532,1.51440133452931e-05,0.000490687992549573,2021-04-23
"3",1,0.000945249291321264,0.000211602125947094,1.48715540712613e-05,0.000480060422696263,2021-04-24
"4",1.5,0.000924708856797058,0.00021087546369569,1.46039926633122e-05,0.000469656424730185,2021-04-24
"5",2,0.000904601933892269,0.000207595382297849,1.43412412179334e-05,0.000459471587555101,2021-04-25
"6",2.5,0.000884919934867338,0.000202153606667591,1.40832134041405e-05,0.000449501574135739,2021-04-25
"7",3,0.000865654417265714,0.000198267668078013,1.38298244355282e-05,0.000439742120850621,2021-04-26
"8",3.5,0.000846797082596003,0.000194168365307388,1.35809910428112e-05,0.000430189036819407,2021-04-26
"9",4,0.000828339774966779,0.000192052290425621,1.33366314468472e-05,0.000420838203206813,2021-04-27
"10",4.5,0.000810274479677977,0.000189224574560771,1.30966653321338e-05,0.000411685572505055,2021-04-27
"11",5,0.000792593321772604,0.000187067718708609,1.28610138207703e-05,0.000402727167796687,2021-04-28
"12",5.5,0.000775288564552347,0.000183794631080891,1.26295994468778e-05,0.000393959081999612,2021-04-28
"13",6,0.000758352608060452,0.000179274646681126,1.24023461314682e-05,0.00038537747709596,2021-04-29
"14",6.5,0.000741777987535127,0.000176768114585538,1.21791791577562e-05,0.000376978583346441,2021-04-29
"15",7,0.00073556538003287,0.000175914384375742,1.19600251469049e-05,0.000373762702589888,2021-04-30
"16",7.5,0.000765206026343952,0.000174536830930363,1.17448120341988e-05,0.000388475419189075,2021-04-30
"17",8,0.000796031054543931,0.000171669513125041,1.15334690456361e-05,0.000403782261794784,2021-05-01
"18",8.5,0.000828086963570141,0.000170420305463408,1.13259266749342e-05,0.000419706445122538,2021-05-01
"19",9,0.000861422009704984,0.000169385608560246,1.1117713138162e-05,0.000436269861421573,2021-05-02
"20",9.5,0.000896086267326508,0.000166307872973302,1.08544927499501e-05,0.000453470380038229,2021-05-02
"21",10,0.000932131691278224,0.000162946329224038,1.05975016030725e-05,0.000471364596440648,2021-05-03
"22",10.5,0.000969612180857689,0.000160921667703345,1.03465924059601e-05,0.000489979386631825,2021-05-03
"23",11,0.00100858364541839,0.000158083913194043,1.01016213438581e-05,0.000509342633381124,2021-05-04
"24",11.5,0.00104910407157388,0.000156562993509628,9.86244799703255e-06,0.000529483259785455,2021-05-04
"25",12,0.00109123359198697,0.00015563174080495,9.52139355333981e-06,0.000550377492770155,2021-05-05
"26",12.5,0.00113503455572,0.000155287572220961,8.74672851597219e-06,0.000571890642117987,2021-05-05
"27",13,0.00118057160011461,0.000153773312671916,8.03508950753275e-06,0.000594303344811071,2021-05-06
"28",13.5,0.00122791172416129,0.000153125950907123,7.38134895754599e-06,0.000617646536559416,2021-05-06
"29",14,0.00127712436330985,0.000151486348395912,6.78079642983548e-06,0.000641952579869845,2021-05-07
"30",14.5,0.0013282814656621,0.000147811267597859,6.22910469223771e-06,0.00066725528517717,2021-05-07
"31",15,0.00138145756947697,0.000146508529510548,5.72229854561073e-06,0.000693589934011288,2021-05-08
"32",15.5,0.00143672988190674,0.000145599805651104,5.25672618784498e-06,0.000720993304047295,2021-05-08
"33",16,0.00149417835887002,0.000143633515962925,4.82903290680036e-06,0.000749503695888413,2021-05-09
"34",16.5,0.00155388578595281,0.000142489863058463,4.43613691283228e-06,0.000779160961432819,2021-05-09
"35",17,0.0016159378602142,0.000138525407452952,4.07520713695148e-06,0.000810006533675574,2021-05-10
"36",17.5,0.0016804232727564,0.000135795151360912,3.74364283479569e-06,0.000842083457795597,2021-05-10
"37",18,0.00174743379190087,0.000133255824486968,3.43905484957853e-06,0.000875436423375225,2021-05-11
"38",18.5,0.00181706434679314,0.000131158967563103,3.15924839911326e-06,0.000910111797596128,2021-05-11
"39",19,0.00188941311123786,0.000128926241754942,2.90220726297369e-06,0.000946157659250415,2021-05-12
"40",19.5,0.00196458158754315,0.000127927263536948,2.66607925592804e-06,0.000983623833399537,2021-05-12
"41",20,0.00204267469012913,0.000126249458442787,2.44916288303734e-06,0.00102256192650608,2021-05-13
"42",20.5,0.00212380082862931,0.000124182373534336,2.24989508031442e-06,0.00106302536185481,2021-05-13
"43",21,0.00220807199018567,0.000122892474495311,2.06683995265219e-06,0.00110506941506916,2021-05-14
"44",21.5,0.00229560382060846,0.000121185360718741,1.89867842790891e-06,0.00114875124951818,2021-05-14
"45",22,0.00238651570403928,0.000119331162982879,1.744198752633e-06,0.00119412995139596,2021-05-15
"46",22.5,0.00248093084072243,0.000118989807748722,1.60228776096952e-06,0.0012412665642417,2021-05-15
"47",23,0.00257897632245239,0.000118884808456204,1.47192285385695e-06,0.00129022412265312,2021-05-16
"48",23.5,0.00268078320522704,0.00011721497853396,1.35216463073768e-06,0.00134106768492889,2021-05-16
"49",24,0.00278648657859459,0.000115490317794483,1.24215012070393e-06,0.00139386436435764,2021-05-17
"50",24.5,0.0028962256311387,0.000113688220447566,1.14108656431781e-06,0.00144868335885151,2021-05-17
"51",25,0.00301014371149983,0.000111463818095048,1.04824570130983e-06,0.00150559597860057,2021-05-18
"52",25.5,0.00312838838428203,0.000109212420310503,9.62958523003655e-07,0.00156467567140252,2021-05-18
"53",26,0.00325111148014272,0.000107007644803569,8.84610451661981e-07,0.00162599804529719,2021-05-19
"54",26.5,0.0033784691393089,0.000105407135783159,8.12636912023331e-07,0.00168964088811046,2021-05-19
"55",27,0.00351062184770613,0.000104365319707173,7.46519263124627e-07,0.00175568418348463,2021-05-20
"56",27.5,0.00364773446482715,0.000102860539864449,6.85781061099491e-07,0.00182421012294412,2021-05-20
"57",28,0.00378997624240462,0.000100471440667375,6.29984626026458e-07,0.00189530311351532,2021-05-21
"58",28.5,0.00393752083288793,9.8142103324697e-05,5.78727888091516e-07,0.00196904978038801,2021-05-21
"59",29,0.00409054628665634,9.63201058924315e-05,5.31641490341566e-07,0.00204553896407334,2021-05-22
"60",29.5,0.00424923503683155,9.48956007745486e-05,4.88386127153845e-07,0.00212486171147935,2021-05-22
"61",30,0.0044137738704808,9.34924539354443e-05,4.48650099244524e-07,0.00220711126029002,2021-05-23
"62",30.5,0.00458435388492805,9.2110342110882e-05,4.12147067599711e-07,0.00229238301599782,2021-05-23
"63",31,0.00476117042781545,9.07489469353842e-05,3.78613990145224e-07,0.0023807745209028,2021-05-24
"64",31.5,0.00494442301948092,8.94079548690878e-05,3.47809226288046e-07,0.0024723854143536,2021-05-24
"65",32,0.00513431525613987,8.85520278356548e-05,3.19510795671895e-07,0.00256731738346777,2021-05-25
"66",32.5,0.00533105469228164,8.80594095020042e-05,2.93514778600349e-07,0.00266567410353012,2021-05-25
"67",33,0.00553485270061324,8.75984538320095e-05,2.69633846601769e-07,0.00276756116722992,2021-05-26
"68",33.5,0.00574592430780617,8.64993319424281e-05,2.47695912547853e-07,0.00287308600185936,2021-05-26
"69",34,0.0059644880042269,8.54127116475547e-05,2.27542890599113e-07,0.00298235777355875,2021-05-27
"70",34.5,0.00619076552575834,8.43793538331169e-05,2.09029557041867e-07,0.00309548727765769,2021-05-27
"71",35,0.00642498160575032,8.33668159594405e-05,1.92022503808276e-07,0.00321258681412706,2021-05-28
"72",35.5,0.00666736369507173,8.30693954114474e-05,1.7639917713881e-07,0.00333377004712443,2021-05-28
"73",36,0.00691814164817738,8.23999429739608e-05,1.62046994459961e-07,0.00345915184758592,2021-05-29
"74",36.5,0.00717754737305018,8.27534951360938e-05,1.48862533113638e-07,0.00358884811779165,2021-05-29
"75",37,0.00744581444283474,8.27083460940371e-05,1.3675078509238e-07,0.00372297559680991,2021-05-30
"76",37.5,0.00772317766694444,8.15087714928673e-05,1.25624472410157e-07,0.00386165164570842,2021-05-30
"77",38,0.00800987261940155,8.01065240653209e-05,1.15403418175406e-07,0.00400499401140986,2021-05-31
"78",38.5,0.00830613512216112,7.84047798278682e-05,1.06013968834361e-07,0.00415312056806497,2021-05-31
"79",39,0.00861220068117623,7.75136284755583e-05,9.73884634214264e-08,0.00430614903481983,2021-06-01
"80",39.5,0.00892830387298739,7.5915907134669e-05,8.94647459920636e-08,0.00446419666886669,2021-06-01
"81",40,0.00925467767966343,7.43248618166112e-05,8.2185717724832e-08,0.00462737993269058,2021-06-02
"82",40.5,0.00959155276998978,7.26565412796729e-05,7.54989254650651e-08,0.00479581413445762,2021-06-02
"83",41,0.00993915672489273,7.10259645357586e-05,6.93561837452533e-08,0.00496961304053823,2021-06-03
"84",41.5,0.01029771320521,6.97341737201521e-05,6.37132275584335e-08,0.00514888845921878,2021-06-03
"85",42,0.0106674410600701,6.87805197276274e-05,5.85293933824858e-08,0.00533374979473174,2021-06-04
"86",42.5,0.0110485533743289,6.78427708001168e-05,5.37673261568082e-08,0.00552430357082754,2021-06-04
"87",43,0.0114412564537351,6.66926747360556e-05,4.93927100998526e-08,0.00572065292322258,2021-06-05
"88",43.5,0.0118457487467575,6.52858073340988e-05,4.5374021427796e-08,0.00592289706038946,2021-06-05
"89",44,0.0122622197023143,6.36698954595886e-05,4.16823011924411e-08,0.00613113069230775,2021-06-06
"90",44.5,0.0126908485629918,6.22108926060711e-05,3.82909466014168e-08,0.0063454434269692,2021-06-06
"91",45,0.0131318030937405,6.07857264435448e-05,3.51755193169315e-08,0.00656591913462989,2021-06-07
"92",45.5,0.0135852382464844,5.97067097665075e-05,3.23135693516775e-08,0.00679263528002689,2021-06-07
"93",46,0.0140512947615804,5.87942640030403e-05,2.96844732928791e-08,0.00702566222302687,2021-06-08
"94",46.5,0.0145300977076189,5.78971209269676e-05,2.72692856887229e-08,0.0072650624884523,2021-06-08
"95",47,0.0150217549616697,5.70150064023783e-05,2.5050602526258e-08,0.0075108900061361,2021-06-09
"96",47.5,0.0155263556327427,5.61476513753528e-05,2.30124358169836e-08,0.00776318932258925,2021-06-09
"97",48,0.0160439684319566,5.52947917796401e-05,2.11400983863847e-08,0.0080219947860275,2021-06-10
"98",48.5,0.016574639993688,5.44561684440126e-05,1.94200980372039e-08,0.008287329706893,2021-06-10
"99",49,0.0171183931528058,5.36315270012705e-05,1.78400403237874e-08,0.00855920549642309,2021-06-11
"100",49.5,0.0176752251839817,5.28206177988728e-05,1.63885392368924e-08,0.00883762078626046,2021-06-11
"101",50,0.0182451060099957,5.18796829220795e-05,1.50551351553462e-08,0.00912256053256541,2021-06-12
"102",50.5,0.0188279763869358,5.11364296199067e-05,1.38302194733144e-08,0.00941399510857764,2021-06-12
"103",51,0.0194237460751966,5.0404035802229e-05,1.2704965360037e-08,0.00971187939008097,2021-06-13
"104",51.5,0.0200322920062235,4.9682340488633e-05,1.16712641530848e-08,0.0100161518387438,2021-06-13
"105",52,0.020653456456009,4.89711850974797e-05,1.07216669267824e-08,0.010326733588838,2021-06-14
"106",52.5,0.0212870452374128,4.81953063613347e-05,9.8493308147358e-09,0.0106435275433718,2021-06-14
"107",53,0.0219328259244401,4.73150457370791e-05,9.04796969966288e-09,0.0109664174862049,2021-06-15
"108",53.5,0.0225905261226616,4.64526082495143e-05,8.31180891519465e-09,0.0112952672172352,2021-06-15
"109",54,0.0232598318009629,4.56076056515149e-05,7.63554363322519e-09,0.0116299197182533,2021-06-16
"110",54.5,0.0239403857007769,4.47796585211223e-05,7.0143006369477e-09,0.0119701963575388,2021-06-16
"111",55,0.0246317858398373,4.39683960572882e-05,6.44360320411055e-09,0.0123158961417203,2021-06-17
"112",55.5,0.025333584128292,4.31734558803307e-05,5.91933884744005e-09,0.0126667950238154,2021-06-17
"113",56,0.0260452851157022,4.24492514532424e-05,5.43772967976521e-09,0.013022645276716,2021-06-18
"114",56.5,0.0267663448880067,4.19246607445373e-05,4.99530519029396e-09,0.013383174941656,2021-06-18
"115",57,0.0274961701339246,4.14065300600063e-05,4.58887723586465e-09,0.0137480873614009,2021-06-19
"116",57.5,0.0282341174004917,4.08947804652686e-05,4.21551706695844e-09,0.0141170608080044,2021-06-19
"117",58,0.0289794925574377,4.03893339745514e-05,3.87253422292022e-09,0.014489748214986,2021-06-20
"118",58.5,0.0297315504899045,3.98736329260804e-05,3.55745714430594e-09,0.0148657770236808,2021-06-20
"119",59,0.0304894950385544,3.92910833442689e-05,3.26801536264732e-09,0.0152447491532849,2021-06-21
"120",59.5,0.0312524792053996,3.87171620417138e-05,3.0021231392924e-09,0.0156262411037614,2021-06-21
"121",60,0.0320196056426949,3.81517399068333e-05,2.75786443542226e-09,0.0160098042002797,2021-06-22
"122",60.5,0.0327899274409442,3.75946897673968e-05,2.5334791049367e-09,0.0163949649872117,2021-06-22
"123",61,0.0335624492304916,3.70458863616414e-05,2.32735021071401e-09,0.0167812257789209,2021-06-23
"124",61.5,0.0343361286092694,3.64831868847274e-05,2.13799237284492e-09,0.0171680653736309,2021-06-23
"125",62,0.0351098779070837,3.58634280859e-05,1.9640410648771e-09,0.0175549399355624,2021-06-24
"126",62.5,0.0358825662943161,3.54125074126731e-05,1.80424278093851e-09,0.0179412840492794,2021-06-24
"127",63,0.0366530222401383,3.493070012377e-05,1.65744600288287e-09,0.0183265119487921,2021-06-25
"128",63.5,0.0374200363222799,3.44213163564008e-05,1.52259290236616e-09,0.0187100189224364,2021-06-25
"129",64,0.0381823643870881,3.39194663061614e-05,1.3987117180585e-09,0.0190911828928999,2021-06-26
"130",64.5,0.0389387310551051,3.34250373100583e-05,1.28490975306122e-09,0.0194693661700074,2021-06-26
"131",65,0.0396878335636959,3.29379183990121e-05,1.18036694206788e-09,0.0198439173720314,2021-06-27
"132",65.5,0.0404283459344358,3.24580002725237e-05,1.08432994191381e-09,0.0202141735093829,2021-06-27
"133",66,0.041158923449062,3.19851752737101e-05,9.9610670293034e-10,0.0205794622225844,2021-06-28
"134",66.5,0.0418782074138561,3.15193373647041e-05,9.15061481984249e-10,0.0209391041644588,2021-06-28
"135",67,0.0425848301884267,3.10732955390846e-05,8.40610261266337e-10,0.0212924155145185,2021-06-29
"136",67.5,0.0432774204510515,3.06684404500287e-05,7.72216539816375e-10,0.021638710611634,2021-06-29
"137",68,0.0439546086690918,3.04456339574472e-05,7.09387467457949e-10,0.0219773046892396,2021-06-30
"138",68.5,0.0446150327395711,3.02253595536395e-05,6.51670293284023e-10,0.0223075166956207,2021-06-30
"139",69,0.0452573437618801,3.00075857823113e-05,5.98649103100768e-10,0.0226286721802646,2021-07-01
"140",69.5,0.0458802119017926,2.97922815779624e-05,5.49941822319432e-10,0.0229401062258672,2021-07-01
"141",70,0.0464823323036172,2.95794162611493e-05,5.05197462698864e-10,0.0232411664044073,2021-07-02
"142",70.5,0.047062431005416,2.93689595338028e-05,4.64093593098544e-10,0.0235312157347548,2021-07-02
"143",71,0.0476192708108431,2.91608814745979e-05,4.26334016016157e-10,0.0238096356185886,2021-07-03
"144",71.5,0.0481516570703368,2.88641037308469e-05,3.91646633166682e-10,0.0240758287309917,2021-07-03
"145",72,0.0486584433241631,2.850700643412e-05,3.59781484722205e-10,0.0243292218419723,2021-07-04
"146",72.5,0.0491385367601805,2.81543173872282e-05,3.30508948083075e-10,0.0245692685453447,2021-07-04
"147",73,0.0495909034401844,2.78059824451673e-05,3.03618083200609e-10,0.0247954518719012,2021-07-05
"148",73.5,0.0500145732502876,2.74619481207863e-05,2.78915112527636e-10,0.0250072867646014,2021-07-05
"149",74,0.050408644532996,2.7126075284952e-05,2.56222024643274e-10,0.025204322394609,2021-07-06
"150",74.5,0.0507722883614065,2.70017830628421e-05,2.35375291489574e-10,0.0253861442983909,2021-07-06
"151",75,0.0511047524192644,2.68796539658399e-05,2.16224689976337e-10,0.0255523763177445,2021-07-07
"152",75.5,0.05140536445441,2.6745205064883e-05,1.98632219462503e-10,0.0257026823265211,2021-07-07
"153",76,0.0516735352773686,2.65153536116248e-05,1.82471107313402e-10,0.0258367677299199,2021-07-08
"154",76.5,0.0519087612814273,2.61479338669902e-05,1.67624895367849e-10,0.0259543807245261,2021-07-08
"155",77,0.0521106264654191,2.57856763094721e-05,1.53986600732083e-10,0.0260553133097029,2021-07-09
"156",77.5,0.0522788039455299,2.5428507673762e-05,1.41457944853182e-10,0.0261394020434939,2021-07-09
"157",78,0.0524130569476689,2.50763557374157e-05,1.29948645316601e-10,0.0262065285388088,2021-07-10
"158",78.5,0.0525132392772164,2.47291493061762e-05,1.19375765264457e-10,0.0262566196982961,2021-07-10
"159",79,0.0525792952682072,2.45156781546703e-05,1.09663115746448e-10,0.0262896476889352,2021-07-11
"160",79.5,0.0526112592191376,2.43044424033633e-05,1.00740706696682e-10,0.0263056296599392,2021-07-11
"161",80,0.0526092543275219,2.40953132213716e-05,9.25442425801208e-11,0.0263046272100331,2021-07-12
"162",80.5,0.0525734911400103,2.38882676075261e-05,8.50146590742363e-11,0.0262867456125125,2021-07-12
"163",81,0.0525042655392321,2.3683282822155e-05,7.80976974471635e-11,0.0262521328086649,2021-07-13
"164",81.5,0.0524019562925096,2.33152877218573e-05,7.17435135652945e-11,0.0262009781821266,2021-07-13
"165",82,0.0522670221911371,2.29395132508621e-05,6.59063187127914e-11,0.0261335111285217,2021-07-14
"166",82.5,0.0520999988120063,2.25701647999031e-05,6.05440496347373e-11,0.0260499994362752,2021-07-14
"167",83,0.0519014949359548,2.22071271036165e-05,5.56180654262317e-11,0.0259507474957865,2021-07-15
"168",83.5,0.0516721886592985,2.18502870325717e-05,5.10928690831926e-11,0.0258360943551957,2021-07-15
"169",84,0.0514128232365771,2.14995335530801e-05,4.69358517083372e-11,0.0257064116417565,2021-07-16
"170",84.5,0.0511242026935945,2.11547576877549e-05,4.31170575290734e-11,0.0255621013683558,2021-07-16
"171",85,0.0508071872503823,2.08158524768108e-05,3.96089680340021e-11,0.0254035936449956,2021-07-17
"172",85.5,0.0504626885937758,2.04827129400872e-05,3.63863036725029e-11,0.0252313443150811,2021-07-17
"173",86,0.0500916650388929,2.01388718325357e-05,3.34258416884355e-11,0.0250458325361594,2021-07-18
"174",86.5,0.0496951166179782,1.97827770264919e-05,3.07062487752531e-11,0.0248475583243422,2021-07-18
"175",87,0.0492740801338566,1.94432396290681e-05,2.82079273466283e-11,0.0246370400810323,2021-07-19
"176",87.5,0.0488296242136717,1.91100857813467e-05,2.59128743148065e-11,0.0244148121197923,2021-07-19
"177",88,0.0483628443967114,1.8783187101009e-05,2.38045513590332e-11,0.024181422210258,2021-07-20
"178",88.5,0.0478748582879896,1.84624178994982e-05,2.18677657491997e-11,0.0239374291549287,2021-07-20
"179",89,0.0473668008069063,1.81636187453393e-05,2.00885608659138e-11,0.0236834004134974,2021-07-21
"180",89.5,0.0468398195577969,1.79424009048758e-05,1.84541156280755e-11,0.0234199097881255,2021-07-21
"181",90,0.0462950703465475,1.775146745127e-05,1.69526521032243e-11,0.0231475351817501,2021-07-22
"182",90.5,0.0457337128647416,1.75625784514403e-05,1.55733506348931e-11,0.0228668564401575,2021-07-22
"183",91,0.0451569065600578,1.73757119480893e-05,1.43062718753687e-11,0.022578453287182,2021-07-23
"184",91.5,0.0445658067088928,1.71908462189551e-05,1.31422851620219e-11,0.0222829033610176,2021-07-23
"185",92,0.0439615607044749,1.70124380651391e-05,1.2073002721082e-11,0.021980780358274,2021-07-24
"186",92.5,0.043345304571092,1.6879277479246e-05,1.1090719224723e-11,0.0216726522910914,2021-07-24
"187",93,0.042718159712514,1.67472060550049e-05,1.01883562659045e-11,0.0213590798613512,2021-07-25
"188",93.5,0.0420812299002588,1.66162145838e-05,9.35941135085154e-12,0.0210406149548091,2021-07-25
"189",94,0.0414355985050616,1.64862939361064e-05,8.597911041606e-12,0.0207177992568297,2021-07-26
"190",94.5,0.0407823259727682,1.63574350608181e-05,7.89836791099418e-12,0.0203911629903333,2021-07-26
"191",95,0.0401224475438974,1.62296289845833e-05,7.25574099982341e-12,0.0200612237755766,2021-07-27
"192",95.5,0.0394569712143171,1.61028668111429e-05,6.66539949135972e-12,0.0197284856104912,2021-07-27
"193",96,0.0387868759328503,1.59771397206758e-05,6.12308934132229e-12,0.0193934379694867,2021-07-28
"194",96.5,0.0381131100301845,1.58524389691489e-05,5.62490262292783e-12,0.0190565550179047,2021-07-28
"195",97,0.0374365898721858,1.57287558876717e-05,5.16724936608307e-12,0.0187182949386765,2021-07-29
"196",97.5,0.0367581987296278,1.55844704770152e-05,4.74683168779656e-12,0.0183790993671873,2021-07-29
"197",98,0.0360787858554217,1.54152147612243e-05,4.3606200273915e-12,0.0180393929298912,2021-07-30
"198",98.5,0.0353991657596733,1.52478165300817e-05,4.00583131526898e-12,0.0176995828818395,2021-07-30
"199",99,0.0347201176722869,1.50822552353995e-05,3.67990891790397e-12,0.0173600588379834,2021-07-31
"200",99.5,0.0340423851823785,1.49185105570728e-05,3.3805042145563e-12,0.0170211925928795,2021-07-31
"201",100,0.0333666760434333,1.47565624005614e-05,3.10545967293708e-12,0.0166833380232694,2021-08-01
"202",100.5,0.0326936621329453,1.45963908943986e-05,2.85279330187252e-12,0.016346831067899,2021-08-01
"203",101,0.0320239795551923,1.44379763877273e-05,2.62068436892989e-12,0.0160119897789065,2021-08-02
"204",101.5,0.0313582288758148,1.42812994478622e-05,2.4074602800859e-12,0.0156791144391111,2021-08-02
"205",102,0.0306969754769773,1.41104138621925e-05,2.21158452689123e-12,0.0153484877395945,2021-08-03
"206",102.5,0.030040750022081,1.39268903541397e-05,2.03164561427781e-12,0.0150203750120563,2021-08-03
"207",103,0.0304619253565607,1.37396115591589e-05,1.86634688922162e-12,0.0152309626792135,2021-08-04
"208",103.5,0.0309430809791367,1.35548730889357e-05,1.71449719696579e-12,0.0154715404904256,2021-08-04
"209",104,0.0314222938335995,1.3372640256698e-05,1.57500229747183e-12,0.0157111469175873,2021-08-05
"210",104.5,0.031899118108757,1.31879984556534e-05,1.44685698024561e-12,0.0159495590551019,2021-08-05
"211",105,0.0323730998268269,1.29985411208376e-05,1.32913782071663e-12,0.016186549914078,2021-08-06
"212",105.5,0.032843777614801,1.28118040693434e-05,1.22099652597276e-12,0.016421888808011,2021-08-06
"213",106,0.033310683525095,1.26277483236389e-05,1.12165382189915e-12,0.0166553417631083,2021-08-07
"214",106.5,0.03377334390379,1.24463354617751e-05,1.03039383767175e-12,0.0168866719524102,2021-08-07
"215",107,0.0342312803044371,1.2267527609559e-05,9.46558947139541e-13,0.0171156401526918,2021-08-08
"216",107.5,0.0346840104450629,1.20912874328335e-05,8.69545029922171e-13,0.0173420052229662,2021-08-08
"217",108,0.0351310492056849,1.19175781298644e-05,7.98797118074121e-13,0.0175655246032419,2021-08-09
"218",108.5,0.0355719096633156,1.1746363423831e-05,7.33805396944911e-13,0.0177859548320247,2021-08-09
"219",109,0.0360061041611208,1.15776075554206e-05,6.74101531417277e-13,0.0180030520808975,2021-08-10
"220",109.5,0.0364331454080919,1.14112752755254e-05,6.19255291049907e-13,0.0182165727043556,2021-08-10
"221",110,0.0368525476052985,1.12473318380392e-05,5.68871449805274e-13,0.0184262738029337,2021-08-11
"222",110.5,0.0372638275945217,1.10857429927542e-05,5.2258693802177e-13,0.0186319137975221,2021-08-11
"223",111,0.0376665060248106,1.09397895862746e-05,4.80068226107057e-13,0.0188332530126453,2021-08-12
"224",111.5,0.0380601085322833,1.07995626699575e-05,4.41008921099313e-13,0.0190300542663622,2021-08-12
"225",112,0.0384441669282906,1.06611444783425e-05,4.05127558777046e-13,0.0192220834643479,2021-08-13
"226",112.5,0.0388182203908911,1.05245115671193e-05,3.7216557540723e-13,0.0194091101956316,2021-08-13
"227",113,0.0391818166544485,1.03896407965416e-05,3.41885444516054e-13,0.0195909083273952,2021-08-14
"228",113.5,0.0395345131920565,1.02565093274828e-05,3.14068965255695e-13,0.0197672565961853,2021-08-14
"229",114,0.0398758783854285,1.01250946175407e-05,2.88515690032983e-13,0.0199379391928585,2021-08-15
"230",114.5,0.0402054926768579,9.9953744171925e-06,2.65041480069316e-13,0.0201027463385615,2021-08-15
"231",115,0.0405229496978607,9.86732676599946e-06,2.43477178483093e-13,0.0202614748490521,2021-08-16
"232",115.5,0.040827857369161,9.74092998885929e-06,2.23667391332798e-13,0.0204139286846924,2021-08-16
"233",116,0.0411198389667611,9.6161626923071e-06,2.05469367836842e-13,0.0205599194834833,2021-08-17
"234",116.5,0.041398534148966,9.49300376086365e-06,1.88751971700939e-13,0.0206992670745774,2021-08-17
"235",117,0.0416635999393951,9.37143235343025e-06,1.73394736140341e-13,0.0208317999697842,2021-08-18
"236",117.5,0.0419147116612122,9.25142789973008e-06,1.59286995787335e-13,0.0209573558306858,2021-08-18
"237",118,0.0421515638180474,9.13297009679497e-06,1.46327089228467e-13,0.0210757819090969,2021-08-19
"238",118.5,0.0423738709173508,9.01603890549741e-06,1.34421626424938e-13,0.0211869354587426,2021-08-19
"239",119,0.0425813682322283,8.90061454712701e-06,1.23484815737115e-13,0.0212906841161759,2021-08-20
"240",119.5,0.0427738124981409,8.78667750001093e-06,1.13437845703674e-13,0.0213869062491272,2021-08-20
"241",120,0.0429509825412101,8.67420849617773e-06,1.04208317120426e-13,0.0214754912706571,2021-08-21
"242",120.5,0.0431126798352604,8.56318851806411e-06,9.57297213263239e-14,0.0215563399176781,2021-08-21
"243",121,0.0432587289851347,8.453598795264e-06,8.794096093717e-14,0.0216293644926113,2021-08-22
"244",121.5,0.0433889781342386,8.34542080131939e-06,8.07859095733757e-14,0.0216944890671597,2021-08-22
"245",122,0.0435032992947115,8.23863625055252e-06,7.4213007409146e-14,0.0217516496473929,2021-08-23
"246",122.5,0.0436015885990614,8.13322709493882e-06,6.81748896285878e-14,0.0218007942995648,2021-08-23
"247",123,0.0436837664725555,8.02917552102011e-06,6.26280451113657e-14,0.0218418832363091,2021-08-24
"248",123.5,0.043749777726109,7.92646394685749e-06,5.75325028883733e-14,0.0218748888630832,2021-08-24
"249",124,0.0437995915698611,7.80921419296687e-06,5.28515441079924e-14,0.0218997957849569,2021-08-25
"250",124.5,0.0438332015480753,7.69204853356964e-06,4.85514374373508e-14,0.0219166007740619,2021-08-25
"251",125,0.0438506253964279,7.57664824670765e-06,4.46011959918597e-14,0.0219253126982363,2021-08-26
"252",125.5,0.0438519048231695,7.4629866427863e-06,4.09723540414466e-14,0.0219259524116052,2021-08-26
"253",126,0.0438371052160466,7.35103743640143e-06,3.7638761884413e-14,0.0219185526080421,2021-08-27
"254",126.5,0.043806315277249,7.24077474022804e-06,3.45763974107631e-14,0.0219031576386418,2021-08-27
"255",127,0.0437596465890086,7.13217305900072e-06,3.17631929971138e-14,0.0218798232945202,2021-08-28
"256",127.5,0.0436972331128052,7.02520728358425e-06,2.917887648578e-14,0.0218486165564172,2021-08-28
"257",128,0.0436192306254428,6.91985268513335e-06,2.68048251021165e-14,0.0218096153127348,2021-08-29
"258",128.5,0.0435258160955309,6.81608490933991e-06,2.46239312574356e-14,0.0217629080477778,2021-08-29
"259",129,0.0434171870041521,6.71387997076671e-06,2.26204792704669e-14,0.0217085935020874,2021-08-30
"260",129.5,0.0432935606137069,6.61321424726621e-06,2.07800321190025e-14,0.0216467803068638,2021-08-30
"261",130,0.0431551731891059,6.51406447448315e-06,1.9089327405655e-14,0.0215775865945625,2021-08-31
"262",130.5,0.043002279175626,6.41640774043987e-06,1.75361817880474e-14,0.0215011395878218,2021-08-31
"263",131,0.0428351503378557,6.3202214802029e-06,1.61094031847527e-14,0.0214175751689359,2021-09-01
"264",131.5,0.0426540748642377,6.22548347062985e-06,1.47987101243329e-14,0.0213270374321263,2021-09-01
"265",132,0.042459356441759,6.13217182519527e-06,1.35946576563007e-14,0.0212296782208863,2021-09-02
"266",132.5,0.0422513133053563,6.04026498889434e-06,1.24885692901122e-14,0.0211256566526844,2021-09-02
"267",133,0.0420302772665865,5.94974173322329e-06,1.14724744717384e-14,0.021015138633299,2021-09-03
"268",133.5,0.0417965927260684,5.86058115123536e-06,1.05390511472677e-14,0.0208982963630394,2021-09-03
"269",134,0.0415506156741281,5.77276265267124e-06,9.68157299964721e-15,0.0207753078370689,2021-09-04
"270",134.5,0.0412927126839835,5.6862659591628e-06,8.89386097834802e-15,0.0206463563419962,2021-09-04
"271",135,0.0410232599016801,5.60107109950908e-06,8.170238772673e-15,0.0205116299508441,2021-09-05
"272",135.5,0.040742642036848,5.51715840502352e-06,7.50549190784496e-15,0.0203713210184277,2021-09-05
"273",136,0.0404512513581863,5.4409339325848e-06,6.89483016911834e-15,0.0202256256790966,2021-09-06
"274",136.5,0.0401494866974013,5.36838901351686e-06,6.33385308313977e-15,0.0200747433487038,2021-09-06
"275",137,0.0398377524651284,5.29681279005067e-06,5.81851820781383e-15,0.0199188762325671,2021-09-07
"276",137.5,0.0395164576821617,5.22619231482288e-06,5.3451120021683e-15,0.0197582288410835,2021-09-07
"277",138,0.0391860150290958,5.1565148135018e-06,4.91022306630509e-15,0.0195930075145503,2021-09-08
"278",138.5,0.0388468399172567,5.08776768248025e-06,4.51071755860194e-15,0.0194234199586306,2021-09-08
"279",139,0.0384993495835681,5.01993848659877e-06,4.14371661301949e-15,0.0192496747917861,2021-09-09
"280",139.5,0.0381439622117619,4.95301495689917e-06,3.80657559378102e-15,0.0190719811058828,2021-09-09
"281",140,0.0377810960821009,4.88698498840776e-06,3.49686503793285e-15,0.0188905480410522,2021-09-10
"282",140.5,0.0374111687515477,4.82183663794798e-06,3.2123531484557e-15,0.0187055843757755,2021-09-10
"283",141,0.037034596266071,4.75755812198203e-06,2.95098971177148e-15,0.018517298133037,2021-09-11
"284",141.5,0.0366517924065501,4.69413781448116e-06,2.71089132375361e-15,0.0183258962032764,2021-09-11
"285",142,0.0362631679695077,4.63156424482412e-06,2.49032781777847e-15,0.0181315839847551,2021-09-12
"286",142.5,0.0358691300836782,4.56982609572357e-06,2.28770979701765e-15,0.0179345650418402,2021-09-12
"287",143,0.0354700815632019,4.50891220117998e-06,2.10157718112761e-15,0.017735040781602,2021-09-13
"288",143.5,0.0350664202980275,4.44881154446264e-06,1.93058868480344e-15,0.0175332101490147,2021-09-13
"289",144,0.0346585386819083,4.38951325611753e-06,1.77351215237847e-15,0.0173292693409551,2021-09-14
"290",144.5,0.034246823078185,4.3310066120016e-06,1.62921567881992e-15,0.0171234115390933,2021-09-14
"291",145,0.0338316533233736,4.27328103134313e-06,1.49665945313817e-15,0.0169158266616875,2021-09-15
"292",145.5,0.0334134022684073,4.21632607482792e-06,1.37488826543231e-15,0.0167067011342043,2021-09-15
"293",146,0.0329924353572242,4.16013144271079e-06,1.26302462357745e-15,0.0164962176786127,2021-09-16
"294",146.5,0.0325691102422518,4.1046869729523e-06,1.16026242995198e-15,0.0162845551211265,2021-09-16
"295",147,0.0321437764362021,4.04998263938008e-06,1.0658611726389e-15,0.0160718882181016,2021-09-17
"296",147.5,0.031716774999474,3.99600854987473e-06,9.79140589242557e-16,0.0158583874997375,2021-09-17
"297",148,0.0312884382623476,3.94275494457973e-06,8.99475764867794e-16,0.0156442191311743,2021-09-18
"298",148.5,0.0308590895810593,3.89021219413519e-06,8.26292628937354e-16,0.0154295447905301,2021-09-18
"299",149,0.0304290431267582,3.83837079793506e-06,7.59063818397105e-16,0.0152145215633795,2021-09-19
"300",149.5,0.0299986037062713,3.78722138240756e-06,6.97304877499126e-16,0.014999301853136,2021-09-19
"301",150,0.029568066613537,3.73675469931841e-06,6.40570766778002e-16,0.0147840333067688,2021-09-20
"302",150.5,0.0291377175105148,3.68696162409667e-06,5.88452656063734e-16,0.0145688587552577,2021-09-20
"303",151,0.0287078323363338,3.63783315418283e-06,5.40574978421502e-16,0.0143539161681672,2021-09-21
"304",151.5,0.028278677243404,3.58936040739892e-06,4.96592723788738e-16,0.0141393386217023,2021-09-21
"305",152,0.0278505085591936,3.54153462034024e-06,4.56188952807271e-16,0.013925254279597,2021-09-22
"306",152.5,0.0274235727723507,3.49434714678854e-06,4.19072512935023e-16,0.0137117863861755,2021-09-22
"307",153,0.0269981065418428,3.44778945614631e-06,3.84975940379405e-16,0.0134990532709216,2021-09-23
"308",153.5,0.0265743367277801,3.40185313189191e-06,3.53653532733574e-16,0.0132871683638902,2021-09-23
"309",154,0.026152480442593,3.35652987005523e-06,3.24879578426839e-16,0.0130762402212967,2021-09-24
"310",154.5,0.0257327451212453,3.31181147771375e-06,2.98446730230501e-16,0.0128663725606228,2021-09-24
"311",155,0.0253153286091761,3.26768987150849e-06,2.74164511098489e-16,0.0126576643045882,2021-09-25
"312",155.5,0.0249004192666855,3.22415707617983e-06,2.51857941575771e-16,0.0124502096333429,2021-09-25
"313",156,0.0244881960885032,3.18120522312279e-06,2.31366278883548e-16,0.0122440980442517,2021-09-26
"314",156.5,0.0240788288373063,3.13882654896152e-06,2.12541858594977e-16,0.0120394144186533,2021-09-26
"315",157,0.0236724781899853,3.09701339414291e-06,1.95249030554468e-16,0.0118362390949928,2021-09-27
"316",157.5,0.0232692958954922,3.05575820154875e-06,1.7936318137269e-16,0.0116346479477462,2021-09-27
"317",158,0.0228694249431403,3.01505351512654e-06,1.64769836453338e-16,0.0114347124715702,2021-09-28
"318",158.5,0.0224729997402683,2.97489197853849e-06,1.51363835080779e-16,0.0112364998701342,2021-09-28
"319",159,0.0220801462982172,2.93526633382851e-06,1.39048572624211e-16,0.0110400731491087,2021-09-29
"320",159.5,0.0216909824256173,2.896169420107e-06,1.27735304397594e-16,0.0108454912128087,2021-09-29
"321",160,0.0213056179280217,2.85759417225315e-06,1.17342506158923e-16,0.0106528089640109,2021-09-30
"322",160.5,0.0209241548129692,2.81953361963457e-06,1.07795286640552e-16,0.0104620774064847,2021-09-30
"323",161,0.0205466874996045,2.78198088484396e-06,9.9024847877218e-17,0.0102733437498023,2021-10-01
"324",161.5,0.020173303032028,2.74492918245264e-06,9.09679894428446e-17,0.010086651516014,2021-10-01
"325",162,0.0198040812955931,2.70837181778072e-06,8.35666530236326e-17,0.00990204064779658,2021-10-02
"326",162.5,0.0194390952354137,2.67230218568366e-06,7.6767504045584e-17,0.0097195476177069,2021-10-02
"327",163,0.0190784110763887,2.636713769355e-06,7.05215473416429e-17,0.00953920553819439,2021-10-03
"328",163.5,0.0187220885440933,2.60160013914509e-06,6.47837740889228e-17,0.00936104427204668,2021-10-03
"329",164,0.0183701810859318,2.56695495139559e-06,5.95128374718218e-17,0.00918509054296591,2021-10-04
"330",164.5,0.0180227360919857,2.53277194728944e-06,5.4670754733832e-17,0.0090113680459929,2021-10-04
"331",165,0.0176797951150347,2.4990449517163e-06,5.02226334710053e-17,0.00883989755751737,2021-10-05
"332",165.5,0.0173413940892638,2.46576787215304e-06,4.61364201947272e-17,0.00867069704463191,2021-10-05
"333",166,0.0170075635472135,2.43293469755919e-06,4.23826693519228e-17,0.00850378177360677,2021-10-06
"334",166.5,0.0166783288345621,2.40053949728716e-06,3.89343311382383e-17,0.00833916441728106,2021-10-06
"335",167,0.0163537103223672,2.36629330182542e-06,3.57665565751635e-17,0.00817685516118361,2021-10-07
"336",167.5,0.0160337236164281,2.33128830822644e-06,3.28565184464668e-17,0.00801686180821409,2021-10-07
"337",168,0.0157183797634623,2.29680273223504e-06,3.0183246803598e-17,0.00785918988173117,2021-10-08
"338",168.5,0.0154076854538208,2.26282884446619e-06,2.77274778546988e-17,0.00770384272691041,2021-10-08
"339",169,0.0151016432204982,2.2293590308429e-06,2.54715151483029e-17,0.00755082161024911,2021-10-09
"340",169.5,0.0148002516342198,2.19638579087294e-06,2.33991020514069e-17,0.0074001258171099,2021-10-09
"341",170,0.0145035054944162,2.1639017359512e-06,2.14953046029787e-17,0.00725175274720809,2021-10-10
"342",170.5,0.0142113960159207,2.13189958768751e-06,1.97464038987366e-17,0.00710569800796035,2021-10-10
"343",171,0.0139239110112493,2.10037217625947e-06,1.81397972317176e-17,0.00696195550562468,2021-10-11
"344",171.5,0.0136410350683446,2.0693124387899e-06,1.6663907276245e-17,0.00682051753417232,2021-10-11
"345",172,0.0133627497236867,2.03871341774853e-06,1.5308098660869e-17,0.00668137486184336,2021-10-12
"346",172.5,0.0130890336306946,2.00856825937766e-06,1.40626013290986e-17,0.00654451681534732,2021-10-12
"347",173,0.0128198627233585,1.9788702121413e-06,1.29184401356569e-17,0.00640993136167924,2021-10-13
"348",173.5,0.0125552103750614,1.94961262519754e-06,1.18673701709248e-17,0.00627760518753071,2021-10-13
"349",174,0.0122950475525654,1.92078894689379e-06,1.09018173475162e-17,0.00614752377628269,2021-10-14
"350",174.5,0.0120393429651498,1.89239272328447e-06,1.00148238208487e-17,0.00601967148257489,2021-10-14
"351",175,0.0117880632089058,1.86441759667092e-06,9.1999978504032e-18,0.00589403160445289,2021-10-15
"352",175.5,0.0115411729062012,1.83685730416314e-06,8.4514677403732e-18,0.00577058645310058,2021-10-15
"353",176,0.0112986348403425,1.80970567626303e-06,7.76383952779277e-18,0.00564931742017127,2021-10-16
"354",176.5,0.0110604100854716,1.78295663546885e-06,7.13215811324338e-18,0.0055302050427358,2021-10-16
"355",177,0.0108264581317423,1.75660419490049e-06,6.55187155404343e-18,0.00541322906587115,2021-10-17
"356",177.5,0.0105967370058334,1.73064245694543e-06,6.01879826261482e-18,0.00529836850291672,2021-10-17
"357",178,0.0103712033868602,1.70506561192482e-06,5.52909687365569e-18,0.00518560169343009,2021-10-18
"358",178.5,0.0101498127177533,1.67986793677957e-06,5.07923856297981e-18,0.00507490635887667,2021-10-18
"359",179,0.00993251931218283,1.65504379377615e-06,4.66598161855028e-18,0.00496625965609142,2021-10-19
"360",179.5,0.00985345756081298,1.63063172517957e-06,4.28634808046436e-18,0.00492672878040649,2021-10-19
"361",180,0.00984103516566213,1.61091102678004e-06,3.93760228155569e-18,0.00492051758283107,2021-10-20
"362",180.5,0.00982741202979285,1.59144919667402e-06,3.61723113397569e-18,0.00491370601489642,2021-10-20
"363",181,0.00981259607702246,1.57224261266347e-06,3.32292601969785e-18,0.00490629803851123,2021-10-21
"364",181.5,0.00979659578958624,1.55328770549718e-06,3.05256615444669e-18,0.00489829789479312,2021-10-21
"365",182,0.00977942019845003,1.53458095807564e-06,2.8042033051704e-18,0.00488971009922502,2021-10-22
"366",182.5,0.00976107887311385,1.51611890466806e-06,2.57604775093039e-18,0.00488053943655693,2021-10-22
"367",183,0.00974158191092512,1.49853720333293e-06,2.36645538604065e-18,0.00487079095546256,2021-10-23
"368",183.5,0.00972093992592128,1.4817788309503e-06,2.17391587252148e-18,0.00486046996296064,2021-10-23
"369",184,0.00969916403722195,1.46521873440516e-06,1.99704175649294e-18,0.00484958201861098,2021-10-24
"370",184.5,0.00967626585699147,1.44885445268318e-06,1.83455847008037e-18,0.00483813292849573,2021-10-24
"371",185,0.00965225747799313,1.43268355646179e-06,1.68529514678453e-18,0.00482612873899657,2021-10-25
"372",185.5,0.00962715146075701,1.41670364769141e-06,1.54817618413169e-18,0.0048135757303785,2021-10-25
"373",186,0.00960096082038345,1.40091235918231e-06,1.42221349280311e-18,0.00480048041019173,2021-10-26
"374",186.5,0.00957369901300504,1.38530735419701e-06,1.30649937639085e-18,0.00478684950650252,2021-10-26
"375",187,0.00954537992192976,1.36988632604817e-06,1.20019999047077e-18,0.00477268996096488,2021-10-27
"376",187.5,0.0095160178434886,1.35464699770184e-06,1.10254933385831e-18,0.0047580089217443,2021-10-27
"377",188,0.00948562747261089,1.33958712138608e-06,1.01284372874773e-18,0.00474281373630544,2021-10-28
"378",188.5,0.00945422388815097,1.32470447820482e-06,9.30436749958105e-19,0.00472711194407548,2021-10-28
"379",189,0.00942182253798959,1.30657997114049e-06,8.54734566746011e-19,0.0047109112689948,2021-10-29
"380",189.5,0.00938843922393382,1.28750140624302e-06,7.85191663617528e-19,0.00469421961196691,2021-10-29
"381",190,0.00935409008643888,1.26870191894955e-06,7.21306909303536e-19,0.00467704504321944,2021-10-30
"382",190.5,0.00931879158917559,1.25017742034635e-06,6.62619945570961e-19,0.0046593957945878,2021-10-30
"383",191,0.00928256050346662,1.23192388150824e-06,6.08707869847534e-19,0.00464128025173331,2021-10-31
"384",191.5,0.00924541389261494,1.21393733261784e-06,5.59182187754778e-19,0.00462270694630747,2021-10-31
"385",192,0.0092073690961473,1.1962138620977e-06,5.13686013588981e-19,0.00460368454807365,2021-11-01
"386",192.5,0.00916844371399564,1.17874961575524e-06,4.71891498576591e-19,0.00458422185699782,2021-11-01
"387",193,0.00912865559063863,1.16154079594015e-06,4.33497468371869e-19,0.00456432779531931,2021-11-02
"388",193.5,0.00908802279922565,1.14458366071422e-06,3.98227252772427e-19,0.00454401139961282,2021-11-02
"389",194,0.00904656362570467,1.12787452303336e-06,3.65826692013424e-19,0.00452328181285233,2021-11-03
"390",194.5,0.00900429655297543,1.11140974994157e-06,3.36062305273625e-19,0.00450214827648771,2021-11-03
"391",195,0.00896124024508858,1.09518576177683e-06,3.08719608195453e-19,0.00448062012254429,2021-11-04
"392",195.5,0.00891741353151113,1.07919903138856e-06,2.83601567294951e-19,0.00445870676575557,2021-11-04
"393",196,0.00887283539147797,1.06344608336664e-06,2.60527180124016e-19,0.00443641769573898,2021-11-05
"394",196.5,0.0088275249384485,1.0479234932817e-06,2.39330170953466e-19,0.00441376246922425,2021-11-05
"395",197,0.00878150140468719,1.03262788693657e-06,2.19857792577916e-19,0.0043907507023436,2021-11-06
"396",197.5,0.00873478412598582,1.01755593962879e-06,2.01969725608195e-19,0.00436739206299291,2021-11-06
"397",198,0.00868739252654487,1.00270437542383e-06,1.85537067319519e-19,0.00434369626327243,2021-11-07
"398",198.5,0.00863934610403074,9.88069966439081e-07,1.70441402768985e-19,0.00431967305201537,2021-11-07
"399",199,0.00859066441482472,9.73649532138299e-07,1.56573951488793e-19,0.00429533220741236,2021-11-08
"400",199.5,0.00854136705947911,9.59439938636463e-07,1.43834783606205e-19,0.00427068352973955,2021-11-08
"401",200,0.00849147366839498,9.45438098014791e-07,1.32132099741537e-19,0.00424573683419749,2021-11-09
"402",200.5,0.00844100388773566,9.31640967645842e-07,1.21381569495087e-19,0.00422050194386783,2021-11-09
"403",201,0.00838997736558882,9.18045549528526e-07,1.11505723756081e-19,0.00419498868279441,2021-11-10
"404",201.5,0.00833841373838987,9.0464888963287e-07,1.02433396454564e-19,0.00416920686919493,2021-11-10
