"","time","top","med","bottom","pseudo_med","date"
"1",0,0.0114592797037681,0.00155637125147226,3.20408309423447e-05,0.00574566026735524,2021-04-23
"2",0.5,0.0108183688129681,0.00150301027453038,3.84905746390577e-05,0.00542842969380357,2021-04-23
"3",1,0.0102166548954858,0.00146005421762128,4.40637261233143e-05,0.00513035931080458,2021-04-24
"4",1.5,0.00965169995279941,0.00141550068833169,4.88430787538461e-05,0.00485027151577663,2021-04-24
"5",2,0.00912121804800851,0.0013753289430821,5.29045058520836e-05,0.00458706127693029,2021-04-25
"6",2.5,0.00862306581797628,0.00133643099135579,5.63175070302648e-05,0.00433969166250327,2021-04-25
"7",3,0.00815523357747685,0.0012987605093654,5.91457126799342e-05,0.00410718964507839,2021-04-26
"8",3.5,0.0077158369784102,0.00126700366286772,6.14473497698018e-05,0.00388864216409,2021-04-26
"9",4,0.00730310918945075,0.00122692634300969,6.32756718673766e-05,0.00368319243065906,2021-04-27
"10",4.5,0.00691539356365684,0.00118217851565276,6.46793560815888e-05,0.00349003645986921,2021-04-27
"11",5,0.00655113676359459,0.00116981260952285,6.57028694225042e-05,0.00330841981650855,2021-04-28
"12",5.5,0.00620888231542932,0.00112733056976131,6.63868068880112e-05,0.00313763456115866,2021-04-28
"13",6,0.00588726456521868,0.00109913783703763,6.67682034149368e-05,0.00297701638431681,2021-04-29
"14",6.5,0.00558500301231209,0.00106772907605974,6.68808216724072e-05,0.00282594191699225,2021-04-29
"15",7,0.00530089699632649,0.00104399525452873,6.6755417527453e-05,0.00268382620692697,2021-04-30
"16",7.5,0.00503382071563687,0.00102355790364311,6.64199848760212e-05,0.00255012035025645,2021-04-30
"17",8,0.00478271855669651,0.000986148466717524,6.58999814058555e-05,0.00242430926905118,2021-05-01
"18",8.5,0.00454660071479231,0.000967616792872206,6.52185367404236e-05,0.00230590962576637,2021-05-01
"19",9,0.00432453908805109,0.00095083569782801,6.43966443044853e-05,0.00219446786617779,2021-05-02
"20",9.5,0.00411566342764693,0.00091994965957757,6.34533381513857e-05,0.00208955838289916,2021-05-02
"21",10,0.00391915772822387,0.000907262405717519,6.24058558991091e-05,0.00199078179206149,2021-05-03
"22",10.5,0.00373425684354526,0.000889319660650169,6.12697888360072e-05,0.00189776331619063,2021-05-03
"23",11,0.0035602433133168,0.000863193385085281,6.00592201773902e-05,0.00181015126674709,2021-05-04
"24",11.5,0.00339644438800656,0.000843728382239871,5.87868523803869e-05,0.00172761562019347,2021-05-04
"25",12,0.00324222923930806,0.000824266088393098,5.74641243561812e-05,0.00164984668183212,2021-05-05
"26",12.5,0.00315441616531165,0.000804968161994019,5.61013193555295e-05,0.00160525874233359,2021-05-05
"27",13,0.00308437065977596,0.000780122318018097,5.47076642449642e-05,0.00156953916201046,2021-05-06
"28",13.5,0.00301631331317546,0.00076025953041927,5.32914208369577e-05,0.00153480236700621,2021-05-06
"29",14,0.00300176938120257,0.000747765425998113,5.18599698872215e-05,0.00152681467554489,2021-05-07
"30",14.5,0.00299855306402568,0.000732107907115808,5.04198883259633e-05,0.00152448647617582,2021-05-07
"31",15,0.00299562358486624,0.000720976045849651,4.89770202470282e-05,0.00152230030255663,2021-05-08
"32",15.5,0.0029929729691407,0.00071623809143,4.75365421391649e-05,0.00152025475563993,2021-05-08
"33",16,0.00299059344208088,0.00070274097363024,4.61030228069337e-05,0.00151834823244391,2021-05-09
"34",16.5,0.00298847742347705,0.000691273956336101,4.46804783948067e-05,0.00151657895093593,2021-05-09
"35",17,0.00298661752255949,0.00067635448576616,4.32724228965758e-05,0.00151494497272803,2021-05-10
"36",17.5,0.00298500653301499,0.000661165383691623,4.1881914503114e-05,0.00151344422375905,2021-05-10
"37",18,0.00298363742813462,0.000653450976656509,4.05115981146415e-05,0.00151207451312463,2021-05-11
"38",18.5,0.00298250335608945,0.000646290663966812,3.91637443187692e-05,0.00151083355020411,2021-05-11
"39",19,0.00298159763533087,0.000636371232003008,3.78402851125881e-05,0.00150971896022173,2021-05-12
"40",19.5,0.00298091375011215,0.000620200890117553,3.65428466257904e-05,0.00150872829836897,2021-05-12
"41",20,0.00298044534612824,0.000610354123272514,3.52727790821302e-05,0.00150785906260519,2021-05-13
"42",20.5,0.0029801862262705,0.000601869243255241,3.40311842183356e-05,0.00150710870524442,2021-05-13
"43",21,0.00298013034649359,0.000592345815990897,3.28189403627534e-05,0.00150647464342817,2021-05-14
"44",21.5,0.00298027181179137,0.000583443886875528,3.16367253604514e-05,0.00150595426857591,2021-05-14
"45",22,0.00298060487227917,0.000572688147469287,3.04850375171189e-05,0.00150554495489814,2021-05-15
"46",22.5,0.00298112391937945,0.000563085317114748,2.93642147208066e-05,0.00150524406705013,2021-05-15
"47",23,0.00298481976182258,0.000549457643140195,2.82744518882548e-05,0.00150654710685542,2021-05-16
"48",23.5,0.00300761500174596,0.000537929968706154,2.72158168711966e-05,0.00151741540930858,2021-05-16
"49",24,0.00303034659750457,0.000534559283825276,2.61882649475205e-05,0.00152826743122605,2021-05-17
"50",24.5,0.00305301801178328,0.000522924676528674,2.51916520124719e-05,0.00153910483189788,2021-05-17
"51",25,0.00307563253817158,0.000518395092389961,2.42257465761029e-05,0.00154992914237384,2021-05-18
"52",25.5,0.0030981933064809,0.000508639632043075,2.3290240664894e-05,0.0015607417735729,2021-05-18
"53",26,0.00312070328787392,0.000498453189980778,2.23847597178142e-05,0.00157154402379587,2021-05-19
"54",26.5,0.00316956666273466,0.000489080947321184,2.15088715600118e-05,0.00159553776714734,2021-05-19
"55",27,0.00323252526591435,0.000479764916147545,2.06620945307963e-05,0.00162659368022257,2021-05-20
"56",27.5,0.00329686322317145,0.000467296670517178,1.9843904836533e-05,0.00165835356400399,2021-05-20
"57",28,0.00336260091627455,0.00045262157456353,1.9053743193504e-05,0.00169082732973403,2021-05-21
"58",28.5,0.00342975903499269,0.000438437665135532,1.82910208206358e-05,0.00172402502790666,2021-05-21
"59",29,0.00349835857040128,0.000430423085508546,1.75551248372489e-05,0.00175795684761926,2021-05-22
"60",29.5,0.00356842080781264,0.000417153947614837,1.68454231165909e-05,0.00179263311546461,2021-05-22
"61",30,0.00363996731931135,0.00040940460844129,1.61612686418694e-05,0.00182806429397661,2021-05-23
"62",30.5,0.0037130199558743,0.000403351145742572,1.55020034077622e-05,0.00186426097964103,2021-05-23
"63",31,0.00378760083905503,0.000396416276684141,1.48669619069306e-05,0.00190123390048098,2021-05-24
"64",31.5,0.00386373235221163,0.000386924430059881,1.42554742378832e-05,0.00193899391322476,2021-05-24
"65",32,0.00394143713125712,0.000377852804956738,1.36668688675963e-05,0.00197755200006236,2021-05-25
"66",32.5,0.00402073805491091,0.000373737009597613,1.31004750795921e-05,0.00201691926499525,2021-05-25
"67",33,0.00410165823442985,0.000368868667430691,1.25556251356769e-05,0.00205710692978276,2021-05-26
"68",33.5,0.00418422100279685,0.0003592298692368,1.20316561772352e-05,0.00209812632948704,2021-05-26
"69",34,0.00427953249222288,0.000347283194715429,1.15279118898574e-05,0.00214553020205637,2021-05-27
"70",34.5,0.00439091499261331,0.000335746683543107,1.10437439531132e-05,0.00220097936828321,2021-05-27
"71",35,0.00450496424262768,0.000324605945085876,1.0578513295487e-05,0.00225777137796158,2021-05-28
"72",35.5,0.00462173114652256,0.000316547567747074,1.01315911728205e-05,0.00231593136884769,2021-05-28
"73",36,0.00474126688660766,0.000310309386777663,9.7023600870831e-06,0.00237548462334737,2021-05-29
"74",36.5,0.00486362287980407,0.000303058264964929,9.29021456087379e-06,0.00243645654718247,2021-05-29
"75",37,0.00503037793945009,0.000298159084203092,8.8945617817633e-06,0.00251963625061593,2021-05-30
"76",37.5,0.00530660194526605,0.000290584952038995,8.5148221293861e-06,0.00265755838369772,2021-05-30
"77",38,0.00559742015359239,0.000280919703512839,8.15042959709222e-06,0.00280278529159474,2021-05-31
"78",38.5,0.00590353588055623,0.000272792328682244,7.80083211895487e-06,0.00295566835633759,2021-05-31
"79",39,0.00622567880048783,0.000271041298216044,7.46549181199768e-06,0.00311657214614992,2021-06-01
"80",39.5,0.00656460503603031,0.000268638590081423,7.14388514264824e-06,0.00328587446058648,2021-06-01
"81",40,0.00692109712132634,0.000263877925248965,6.83550302563568e-06,0.00346396631217599,2021-06-02
"82",40.5,0.0072959638207685,0.000258017063925768,6.53985086282576e-06,0.00365125183581566,2021-06-02
"83",41,0.00769003978437712,0.000251062143697723,6.25644852882065e-06,0.00384814811645297,2021-06-03
"84",41.5,0.00810418501942192,0.000245622845152664,5.98483030953894e-06,0.00405508492486573,2021-06-03
"85",42,0.00853928415644701,0.000240433148960017,5.72454479942951e-06,0.00427250435062322,2021-06-04
"86",42.5,0.00899624548641493,0.000234768396525619,5.47515476245711e-06,0.00450086032058869,2021-06-04
"87",43,0.00947599974427793,0.000229359178985254,5.23623696152413e-06,0.00474061799061973,2021-06-05
"88",43.5,0.00997949861294435,0.000226220286923699,5.00738196055908e-06,0.00499225299745246,2021-06-05
"89",44,0.0105077129203694,0.000223290312668164,4.78819390310387e-06,0.00525625055713626,2021-06-06
"90",44.5,0.0110616305014032,0.000221011322341745,4.57829027086736e-06,0.00553310439583706,2021-06-06
"91",45,0.0116422536951207,0.000217061713450345,4.37730162537824e-06,0.00582331549837305,2021-06-07
"92",45.5,0.0122505964476914,0.000212974008160747,4.18487133556428e-06,0.00612739065951349,2021-06-07
"93",46,0.0128876809904807,0.000209000193256131,4.00065529380461e-06,0.00644584082288724,2021-06-08
"94",46.5,0.0135545340630719,0.000205136012707148,3.82432162274598e-06,0.0067791791923473,2021-06-08
"95",47,0.0142521826513348,0.000201377405220866,3.65555037493885e-06,0.00712791910085487,2021-06-09
"96",47.5,0.0149816492116155,0.000197720494165956,3.49403322713595e-06,0.00749257162242131,2021-06-09
"97",48,0.0157439463536668,0.000194487133005063,3.33947317089984e-06,0.00787364291341887,2021-06-10
"98",48.5,0.0165400709571693,0.000192435640542374,3.19158420098799e-06,0.00827163127068516,2021-06-10
"99",49,0.0173709976996885,0.000190066723499254,3.05009100282119e-06,0.00868702389534564,2021-06-11
"100",49.5,0.0182376719777763,0.000187742005481508,2.91472864019285e-06,0.00912029335320824,2021-06-11
"101",50,0.0191410022077317,0.000185460473750392,2.78524224424194e-06,0.00957189372498798,2021-06-12
"102",50.5,0.0200818514983717,0.000183221143643046,2.6613867045894e-06,0.0100422564425382,2021-06-12
"103",51,0.0210610286951106,0.000181023057602369,2.54292636342669e-06,0.010531785810737,2021-06-13
"104",51.5,0.0220792788027542,0.000178865284247333,2.42963471324334e-06,0.0110408542187337,2021-06-13
"105",52,0.023137272803741,0.000176746917481856,2.32129409878912e-06,0.0115697970489199,2021-06-14
"106",52.5,0.0242355968991227,0.000174667075640445,2.2176954237826e-06,0.0121189072972732,2021-06-14
"107",53,0.025374741211369,0.000171835588332595,2.11863786280329e-06,0.0126884299246159,2021-06-15
"108",53.5,0.026555088001069,0.000168650263291759,2.02392857873573e-06,0.0132785559648239,2021-06-15
"109",54,0.0277768994637074,0.000166275121958319,1.93338244607323e-06,0.0138894164230767,2021-06-16
"110",54.5,0.0290403051877954,0.000163954218504804,1.84682178033309e-06,0.0145210760047879,2021-06-16
"111",55,0.0303452893715628,0.000161686355748881,1.76407607378571e-06,0.0151735267238183,2021-06-17
"112",55.5,0.031691677911943,0.000159470358943727,1.6849817376551e-06,0.0158466814468403,2021-06-17
"113",56,0.0330791254964227,0.000157305075529793,1.6093818509085e-06,0.0165403674391368,2021-06-18
"114",56.5,0.0345071028451348,0.000154641083330139,1.53712591571678e-06,0.0172543199855253,2021-06-18
"115",57,0.0359748842669548,0.000151078668562225,1.46806961963557e-06,0.0179881761682872,2021-06-19
"116",57.5,0.0374815357088412,0.000147604657953599,1.40207460452855e-06,0.0187414688917229,2021-06-19
"117",58,0.0390259034917508,0.000144216564373931,1.33900824222932e-06,0.0195136212499965,2021-06-20
"118",58.5,0.0406066039385883,0.000140911985334242,1.2787434169158e-06,0.0203039413410026,2021-06-20
"119",59,0.04222201410926,0.000137629777545039,1.2211583141517e-06,0.0211116176337871,2021-06-21
"120",59.5,0.0438702638643814,0.000135219318309618,1.16613621653243e-06,0.021935715000299,2021-06-21
"121",60,0.0455492294819699,0.000132931897844521,1.11356530585783e-06,0.0227751715236379,2021-06-22
"122",60.5,0.0472565290499801,0.000130698142065145,1.06333847174101e-06,0.0236287961942259,2021-06-22
"123",61,0.0489895198513042,0.000128393341365786,1.01535312655175e-06,0.0244952676022154,2021-06-23
"124",61.5,0.0507452979464616,0.000125403261920478,9.69511026583033e-07,0.0253731337287441,2021-06-23
"125",62,0.052520700142322,0.000123388548068584,9.25718099321426e-07,0.0262608129302107,2021-06-24
"126",62.5,0.0543123085126846,0.000121413499336804,8.8388427669537e-07,0.0271565961984806,2021-06-24
"127",63,0.0561164576083549,0.00011947701586492,8.43923334169723e-07,0.0280586507658445,2021-06-25
"128",63.5,0.0579292444606993,0.000117207357912732,8.05752735550654e-07,0.0289650251067174,2021-06-25
"129",64,0.0597465414438733,0.000114445340193494,7.69293483361451e-07,0.0298736553686783,2021-06-26
"130",64.5,0.0615640120175863,0.000111751790685736,7.3446997464721e-07,0.0307823732437805,2021-06-26
"131",65,0.0633771293251538,0.000109124903631076,7.01209862064596e-07,0.031688915267508,2021-06-27
"132",65.5,0.065181197571647,0.000106562925705766,6.69443920111722e-07,0.0325909335077836,2021-06-27
"133",66,0.0669713760553238,0.000104064154243361,6.39105916352686e-07,0.0334860075806201,2021-06-28
"134",66.5,0.068742705673471,0.000103104683576651,6.10132487491395e-07,0.0343716579029793,2021-06-28
"135",67,0.0704901376726829,0.000102318474563462,5.82463020149775e-07,0.0352453600678515,2021-06-29
"136",67.5,0.0722085643648659,0.000100156070150305,5.56039536206477e-07,0.0361045602022011,2021-06-29
"137",68,0.0738928514853235,9.78860200961677e-05,5.30806582553482e-07,0.036946691145953,2021-06-30
"138",68.5,0.0755378718295041,9.56694548169295e-05,5.06711125129681e-07,0.0377691892703146,2021-06-30
"139",69,0.0771385397716542,9.35050454366225e-05,4.83702447092435e-07,0.0385695117370507,2021-07-01
"140",69.5,0.0786898462428031,9.13914994060259e-05,4.61732050990321e-07,0.039345153987427,2021-07-01
"141",70,0.0801868937280992,8.93275593249605e-05,4.40753564802612e-07,0.040093667240832,2021-07-02
"142",70.5,0.081624930835156,8.75295969591321e-05,4.2072265171367e-07,0.0408126757789038,2021-07-02
"143",71,0.0829993859860959,8.60778564731267e-05,4.01596923493074e-07,0.0414998937915097,2021-07-03
"144",71.5,0.084305899796469,8.46526556323467e-05,3.83335857355185e-07,0.0421531415661632,2021-07-03
"145",72,0.0855403557239071,8.32533929225722e-05,3.65900716174755e-07,0.0427703608123116,2021-07-04
"146",72.5,0.0866989085977425,8.18794859323226e-05,3.49254471938196e-07,0.0433496289261072,2021-07-04
"147",73,0.0877780106770458,8.05303705308077e-05,3.33361732313183e-07,0.0438891720193891,2021-07-05
"148",73.5,0.0887744349276051,7.92055000874162e-05,3.18188670222377e-07,0.0443873765581377,2021-07-05
"149",74,0.0896852952570453,7.78354878950168e-05,3.0307365575503e-07,0.0448427991653505,2021-07-06
"150",74.5,0.0905080635002105,7.60199878088928e-05,2.85466259981757e-07,0.0452541744832352,2021-07-06
"151",75,0.0912405830026659,7.42482867563796e-05,2.6889866900183e-07,0.0456204259506675,2021-07-07
"152",75.5,0.091881078707235,7.25192987097886e-05,2.53308433930558e-07,0.0459406660078344,2021-07-07
"153",76,0.092428163705439,7.13264985156427e-05,2.38636919866383e-07,0.0462142011711794,2021-07-08
"154",76.5,0.0928808422711686,7.03060035251776e-05,2.24829069166913e-07,0.0464405335501189,2021-07-08
"155",77,0.0932385094466449,6.93028110441284e-05,2.11833179640556e-07,0.0466193606399123,2021-07-09
"156",77.5,0.0935009472996225,6.83165382248871e-05,1.99600696701054e-07,0.0467505734501596,2021-07-09
"157",78,0.0936683180149359,6.73468143968491e-05,1.88086018593815e-07,0.0468342530504773,2021-07-10
"158",78.5,0.0937411540221659,6.63932805363256e-05,1.77246313860502e-07,0.0468706656342399,2021-07-10
"159",79,0.0937203453939077,6.54555887637277e-05,1.67041350262135e-07,0.046860256217629,2021-07-11
"160",79.5,0.0936071247755311,6.41165778174061e-05,1.57433334431257e-07,0.0468036411044328,2021-07-11
"161",80,0.0934030501273337,6.27141609000426e-05,1.48386761570757e-07,0.0467015992570476,2021-07-12
"162",80.5,0.0931099855736628,6.13428583232455e-05,1.39868274560842e-07,0.0465550627209687,2021-07-12
"163",81,0.0927300806611516,6.00019689150383e-05,1.31846531876809e-07,0.0463651062538417,2021-07-13
"164",81.5,0.0922657483300322,5.86908079742433e-05,1.24292083758626e-07,0.046132936311058,2021-07-13
"165",82,0.0917196418990429,5.74087068334091e-05,1.17177256109286e-07,0.0458598795381495,2021-07-14
"166",82.5,0.0910946313562776,5.64704807766903e-05,1.10476041632477e-07,0.0455473709161596,2021-07-14
"167",83,0.0903937792360591,5.5617866112583e-05,1.041639977515e-07,0.0451969417000284,2021-07-15
"168",83.5,0.0896203163461916,5.43748437588719e-05,9.8218150880754e-08,0.0448102072821713,2021-07-15
"169",84,0.0887776175914281,5.31608249738869e-05,9.26169066485595e-08,0.0443888551041674,2021-07-16
"170",84.5,0.0878691781183074,5.19750957698563e-05,8.73399656957665e-08,0.0439346327291365,2021-07-16
"171",85,0.0868985899843103,5.08169611010179e-05,8.23682446986302e-08,0.0434493361762775,2021-07-17
"172",85.5,0.0858695195311221,4.96857443028681e-05,7.76838022868843e-08,0.0429347986074622,2021-07-17
"173",86,0.0847856856182046,4.85807865506426e-05,7.32697695489649e-08,0.0423928794439871,2021-07-18
"174",86.5,0.0836508388493561,4.75014463362544e-05,6.91102848359855e-08,0.0418254539798205,2021-07-18
"175",87,0.0824687419018658,4.64470989629511e-05,6.51904325944517e-08,0.0412344035461492,2021-07-19
"176",87.5,0.0812431510456247,4.54171360569861e-05,6.14961859749018e-08,0.0406216062709053,2021-07-19
"177",88,0.0799777989184003,4.45490876752994e-05,5.80143529797454e-08,0.0399889284663767,2021-07-20
"178",88.5,0.078676378603663,4.39153743356847e-05,5.473252592863e-08,0.0393382166680945,2021-07-20
"179",89,0.0773425290390217,4.3291757301229e-05,5.16390340337433e-08,0.0386712903390279,2021-07-21
"180",89.5,0.0759798217666159,4.2678049414671e-05,4.87228988906409e-08,0.0379899352447574,2021-07-21
"181",90,0.0745917490217762,4.20740679501472e-05,4.59737927025133e-08,0.0372958974977845,2021-07-22
"182",90.5,0.0731817131429441,4.1479634466875e-05,4.33819990673504e-08,0.0365908782624716,2021-07-22
"183",91,0.071753017274221,4.08945746692487e-05,4.09383761682532e-08,0.0358765291062986,2021-07-23
"184",91.5,0.0703088573219568,4.03187182730226e-05,3.86343222172495e-08,0.0351544479781395,2021-07-23
"185",92,0.0688523151184301,3.97518988772712e-05,3.6461743012428e-08,0.0344261757900866,2021-07-24
"186",92.5,0.0673863527388309,3.91939538418336e-05,3.44130214770549e-08,0.0336931935759262,2021-07-24
"187",93,0.065913807912334,3.84399269889704e-05,3.24809890576215e-08,0.0329569201966615,2021-07-25
"188",93.5,0.0644373904639433,3.755197052597e-05,3.06588988655304e-08,0.0322187105614211,2021-07-25
"189",94,0.0647429732762588,3.66852680240554e-05,2.89404004543814e-08,0.0323715011083296,2021-07-26
"190",94.5,0.0654249924109416,3.58392966122647e-05,2.73195161316206e-08,0.0327125098652289,2021-07-26
"191",95,0.0660812211474767,3.50135465739711e-05,2.57906187096745e-08,0.0330406234690477,2021-07-27
"192",95.5,0.0667106777704138,3.4207521006473e-05,2.43484106076514e-08,0.0333553510594122,2021-07-27
"193",96,0.0673124267326071,3.35850741128733e-05,2.29879042202681e-08,0.0336562248602557,2021-07-28
"194",96.5,0.067885581660334,3.30533565551012e-05,2.17044034758844e-08,0.0339428016823687,2021-07-28
"195",97,0.0684293081544702,3.25303745249923e-05,2.04934865104184e-08,0.0342146643239784,2021-07-29
"196",97.5,0.0689428263723867,3.20159746729533e-05,1.93509893884964e-08,0.0344714228616881,2021-07-29
"197",98,0.069425413376941,3.15100067573423e-05,1.82729908074814e-08,0.0347127158249659,2021-07-30
"198",98.5,0.0698764052407535,3.10123235617418e-05,1.72557977240399e-08,0.0349382112482756,2021-07-30
"199",99,0.0702951988958589,3.05227808153048e-05,1.62959318466739e-08,0.0351476075958954,2021-07-31
"200",99.5,0.0706812537207816,3.00412371160312e-05,1.53901169411658e-08,0.0353406345554492,2021-07-31
"201",100,0.0710340928590842,2.95675538568357e-05,1.45352668991899e-08,0.0355170536971756,2021-08-01
"202",100.5,0.0713533042654484,2.91030386202007e-05,1.3728474523435e-08,0.0356766589969615,2021-08-01
"203",101,0.0716385414773511,2.87131029971242e-05,1.29670009854825e-08,0.035819277222176,2021-08-02
"204",101.5,0.0718895241123736,2.83283989611272e-05,1.22482659153999e-08,0.0359447681803198,2021-08-02
"205",102,0.0721060380931029,2.7948855735726e-05,1.15698380845536e-08,0.0360530248314705,2021-08-03
"206",102.5,0.0722879356034347,2.7574403540006e-05,1.09294266455289e-08,0.0361439732664307,2021-08-03
"207",103,0.0724351347818565,2.72049735723672e-05,1.03248728952811e-08,0.0362175725533647,2021-08-04
"208",103.5,0.0725476191589449,2.6840497994658e-05,9.7541425297332e-09,0.0362738144565437,2021-08-04
"209",104,0.072625436847858,2.6480909916683e-05,9.21531836000102e-09,0.0363127230315882,2021-08-05
"210",104.5,0.0726686994980184,2.61261433810705e-05,8.70659346226318e-09,0.0363343541023059,2021-08-05
"211",105,0.0726775810234571,2.5776133348486e-05,8.22626473502017e-09,0.0363387946248609,2021-08-06
"212",105.5,0.0726523161184226,2.54308156831786e-05,7.77272683910136e-09,0.0363261619455747,2021-08-06
"213",106,0.0725931985738373,2.50901271388491e-05,7.34446649729479e-09,0.0362966029591519,2021-08-07
"214",106.5,0.0725005794090133,2.47540053448259e-05,6.94005713189516e-09,0.0362502931745352,2021-08-07
"215",107,0.0723748648337128,2.44223887925412e-05,6.55815381979717e-09,0.0361874356959333,2021-08-08
"216",107.5,0.072216514056158,2.40952168222929e-05,6.19748854601031e-09,0.0361082601268233,2021-08-08
"217",108,0.0720260369529676,2.37724296102858e-05,5.85686573764251e-09,0.0360130214049166,2021-08-09
"218",108.5,0.0718039916172204,2.34539681559398e-05,5.53515806149798e-09,0.0359019985761892,2021-08-09
"219",109,0.0715509818009344,2.31397742694582e-05,5.23130246946485e-09,0.0357754935161185,2021-08-10
"220",109.5,0.0712676542681995,2.28297905596461e-05,4.94429647683393e-09,0.035633829606248,2021-08-10
"221",110,0.0709546960750349,2.2523960421971e-05,4.67319465959627e-09,0.0354773503741148,2021-08-11
"222",110.5,0.0706128317917537,2.22222280268579e-05,4.41710535761685e-09,0.0353064181044295,2021-08-11
"223",111,0.0702428206832271,2.19245383082118e-05,4.17518757137924e-09,0.0351214124292074,2021-08-12
"224",111.5,0.0698454538619536,2.16308369521598e-05,3.94664804074394e-09,0.0349227289043008,2021-08-12
"225",112,0.0694215514282709,2.13847777586803e-05,3.73073849486485e-09,0.0347107775795047,2021-08-13
"226",112.5,0.0689719596114016,2.11476064487197e-05,3.52675306306685e-09,0.0344859815690774,2021-08-13
"227",113,0.0684975479243197,2.09131707933084e-05,3.33402583710536e-09,0.0342487756291728,2021-08-14
"228",113.5,0.0679992063446647,2.06814380372299e-05,3.15192857580827e-09,0.0339996047482967,2021-08-14
"229",114,0.0674778425331317,2.04523758358026e-05,2.97986854364514e-09,0.0337389227565001,2021-08-15
"230",114.5,0.0669343790999321,2.01731091042388e-05,2.81728647527883e-09,0.0334671909586093,2021-08-15
"231",115,0.0663697509290674,1.98422725436499e-05,2.66365465863437e-09,0.033184876796361,2021-08-16
"232",115.5,0.0657849025692886,1.95170575069203e-05,2.51847512946958e-09,0.0328924525438819,2021-08-16
"233",116,0.0651807856997436,1.93000202804667e-05,2.38127797085423e-09,0.0325903940405108,2021-08-17
"234",116.5,0.0645583566774444,1.90985238894018e-05,2.25161971136127e-09,0.0322791794645321,2021-08-17
"235",117,0.0639185741728258,1.88992892938158e-05,2.12908181614567e-09,0.0319592881509538,2021-08-18
"236",117.5,0.063262396898824,1.87022895149423e-05,2.01326926543592e-09,0.0316311994560466,2021-08-18
"237",118,0.0625907814380826,1.85074979148098e-05,1.90380921529153e-09,0.0312953916709459,2021-08-19
"238",118.5,0.0619046801720962,1.83148881914804e-05,1.80034973578793e-09,0.030952340986223,2021-08-19
"239",119,0.0612050393153406,1.81244343743774e-05,1.70255862207967e-09,0.0306025205089496,2021-08-20
"240",119.5,0.0604927970567053,1.79361108196963e-05,1.61012227406449e-09,0.0302463993334138,2021-08-20
"241",120,0.0600735058460718,1.77498922058989e-05,1.52274464062614e-09,0.0300367536844082,2021-08-21
"242",120.5,0.0600726149342665,1.75657535292867e-05,1.44014622467382e-09,0.0300363081872063,2021-08-21
"243",121,0.0600479828452597,1.73836700996516e-05,1.36206314542102e-09,0.0300239921036614,2021-08-22
"244",121.5,0.0599997971772755,1.72036175360023e-05,1.28824625455841e-09,0.0299998992327609,2021-08-22
"245",122,0.0599282793495251,1.70255717623633e-05,1.21846030317416e-09,0.0299641402839927,2021-08-23
"246",122.5,0.0598336835353283,1.68495090036452e-05,1.15248315646179e-09,0.0299168423439057,2021-08-23
"247",123,0.0597162955152303,1.66754057815839e-05,1.09010505343119e-09,0.0298581483026677,2021-08-24
"248",123.5,0.0595764314572117,1.65032389107477e-05,1.03112790900359e-09,0.0297882162441698,2021-08-24
"249",124,0.0594144366312314,1.63329854946089e-05,9.75364656025773e-10,0.029707218803298,2021-08-25
"250",124.5,0.0592306840654284,1.61646229216807e-05,9.22638624885011e-10,0.0296153424940335,2021-08-25
"251",125,0.0590255731513423,1.59981288617145e-05,8.72782958542823e-10,0.0295127870120626,2021-08-26
"252",125.5,0.058799528205498,1.58334812619595e-05,8.25640060934327e-10,0.029399764515569,2021-08-26
"253",126,0.0585529969946379,1.56706583434807e-05,7.81061076801093e-10,0.0292764988878495,2021-08-27
"254",126.5,0.0582864492317746,1.55069170256268e-05,7.38905401138976e-10,0.02914322498534,2021-08-27
"255",127,0.0580003750500943,1.53246406366797e-05,6.99040216549395e-10,0.0290001878745673,2021-08-28
"256",127.5,0.0576952834615508,1.50724510062036e-05,6.61340056883034e-10,0.0288476420614454,2021-08-28
"257",128,0.0573717008067736,1.48245462742017e-05,6.2568639565944e-10,0.02868585071623,2021-08-29
"258",128.5,0.0570301692026628,1.45808515239741e-05,5.91967257834891e-10,0.028515084897315,2021-08-29
"259",129,0.0566712449937669,1.43412931817918e-05,5.6007685357449e-10,0.0283356227769219,2021-08-30
"260",129.5,0.0562954972132417,1.41057989922517e-05,5.29915232763035e-10,0.0281477488715785,2021-08-30
"261",130,0.0559035060588683,1.38742979940958e-05,5.01387959063162e-10,0.0279517532801281,2021-08-31
"262",130.5,0.0554958613892747,1.36467204964884e-05,4.7440580239878e-10,0.0277479309318403,2021-08-31
"263",131,0.0550731612451602,1.34229980557395e-05,4.48884448807264e-10,0.0275365808470223,2021-09-01
"264",131.5,0.0546360103999642,1.32030634524666e-05,4.24744226665367e-10,0.0273180054123542,2021-09-01
"265",132,0.0541850189440618,1.29868506691876e-05,4.01909848351742e-10,0.0270925096729858,2021-09-02
"266",132.5,0.0537208009062035,1.27742948683329e-05,3.80310166463409e-10,0.0268604006432568,2021-09-02
"267",133,0.0532439729155518,1.25653323706722e-05,3.59877943754771e-10,0.0266219866377149,2021-09-03
"268",133.5,0.0527551529073076,1.23599006341454e-05,3.40549636015992e-10,0.0263775766239286,2021-09-03
"269",134,0.0522549588745607,1.21579382330903e-05,3.22265187152953e-10,0.026127479598413,2021-09-04
"270",134.5,0.0517440076686498,1.19593848378599e-05,3.04967835773687e-10,0.0258720039868088,2021-09-04
"271",135,0.051222913849976,1.17641811948207e-05,2.8860393262641e-10,0.02561145706929,2021-09-05
"272",135.5,0.0506922885908845,1.15722691067255e-05,2.731227682721e-10,0.0253461444320036,2021-09-05
"273",136,0.0501527386319085,1.13835914134528e-05,2.58476410410168e-10,0.0250763694451925,2021-09-06
"274",136.5,0.0496048652923675,1.12107511161364e-05,2.44619550309323e-10,0.0248024327684935,2021-09-06
"275",137,0.0493364516313235,1.10680973158978e-05,2.31509357827259e-10,0.0246682259314164,2021-09-07
"276",137.5,0.0490758057168503,1.09005782220742e-05,2.19105344532532e-10,0.0245379029679778,2021-09-07
"277",138,0.0487999742251493,1.07209636536717e-05,2.07369234469959e-10,0.0243999872162592,2021-09-08
"278",138.5,0.0485093851069712,1.05444171911934e-05,1.96264842137214e-10,0.024254692651618,2021-09-08
"279",139,0.048204478244594,1.03708847185217e-05,1.85757957265108e-10,0.024102239215176,2021-09-09
"280",139.5,0.0478857042764262,1.02003130997908e-05,1.7581623601739e-10,0.0239428522261212,2021-09-09
"281",140,0.0475535234281521,1.00326501612585e-05,1.66409098247921e-10,0.0237767617972806,2021-09-10
"282",140.5,0.0472084043544441,9.89307712635017e-06,1.5750763047377e-10,0.0236042022559758,2021-09-10
"283",141,0.0468508229950379,9.7605213033256e-06,1.49084494242327e-10,0.0234254115720612,2021-09-11
"284",141.5,0.0464812614487265,9.62974100100734e-06,1.41113839588887e-10,0.0232406307949202,2021-09-11
"285",142,0.0461002068685793,9.50071244954591e-06,1.33571223298485e-10,0.0230501035010752,2021-09-12
"286",142.5,0.0457081503814431,9.37341219719123e-06,1.26433531702087e-10,0.0228540752539383,2021-09-12
"287",143,0.0453055860345232,9.2478171060266e-06,1.1967890775259e-10,0.0226527930771011,2021-09-13
"288",143.5,0.0448930097715837,9.12390434776073e-06,1.13286682140589e-10,0.0224465049424352,2021-09-13
"289",144,0.0444709184410526,9.00165139957708e-06,1.07237308223508e-10,0.022235459274145,2021-09-14
"290",144.5,0.0440398088380581,8.88103604003973e-06,1.01512300554526e-10,0.0220199044697852,2021-09-14
"291",145,0.0436001767821743,8.7620363450548e-06,9.60941768098969e-11,0.0218000884391342,2021-09-15
"292",145.5,0.0431525162324057,8.64463068388673e-06,9.096640292463e-11,0.0215762581616861,2021-09-15
"293",146,0.0426973184407023,8.52879771522861e-06,8.6113341257287e-11,0.0213486592634078,2021-09-16
"294",146.5,0.0422350711450623,8.4145163833257e-06,8.15202016147985e-11,0.0211175356132913,2021-09-16
"295",147,0.0417662578030586,8.3017659141515e-06,7.71729949777487e-11,0.0208831289401158,2021-09-17
"296",147.5,0.0412913568664083,8.19052581163551e-06,7.30584897756019e-11,0.0206456784697334,2021-09-17
"297",148,0.0408108410970017,8.08077585394203e-06,6.91641705698376e-11,0.0204054205830829,2021-09-18
"298",148.5,0.040325176924613,7.97249608979916e-06,6.54781990109712e-11,0.0201625884950456,2021-09-18
"299",149,0.0398348238463331,7.86566683487743e-06,6.19893769429901e-11,0.0199174119541612,2021-09-19
"300",149.5,0.0393402338675932,7.7602686682172e-06,5.86871115358542e-11,0.0196701169631402,2021-09-19
"301",150,0.0388418509844881,7.65628242870435e-06,5.55613823334271e-11,0.0194209255200248,2021-09-20
"302",150.5,0.0383401107069623,7.55368921159333e-06,5.2602710110532e-11,0.0191700553797825,2021-09-20
"303",151,0.037835439622284,7.45247036507711e-06,4.98021274387978e-11,0.018917719836043,2021-09-21
"304",151.5,0.03732825499811,7.35260748690329e-06,4.71511508665942e-11,0.0186641275226306,2021-09-21
"305",152,0.0368189644243306,7.25408242103568e-06,4.46417546236599e-11,0.0184094822344862,2021-09-22
"306",152.5,0.036463429654881,7.15687725436087e-06,4.22663457660408e-11,0.0182317148485737,2021-09-22
"307",153,0.0362015949625133,7.04422093307035e-06,4.00177406816784e-11,0.0181007975012655,2021-09-23
"308",153.5,0.0359359311634626,6.93267189857746e-06,3.78891428814414e-11,0.0179679656006759,2021-09-23
"309",154,0.0356665994021001,6.82292621288233e-06,3.58741220046038e-11,0.0178332997189871,2021-09-24
"310",154.5,0.0353937603996492,6.71495416121854e-06,3.39665939717309e-11,0.0176968802168079,2021-09-24
"311",155,0.035117574303242,6.60934113301548e-06,3.21608022216821e-11,0.0175587871677014,2021-09-25
"312",155.5,0.03483820053987,6.50760482765651e-06,3.04512999729657e-11,0.0174191002851606,2021-09-25
"313",156,0.0345557976753338,6.40748341025535e-06,2.88329334530118e-11,0.0172778988520833,2021-09-26
"314",156.5,0.0342705232782804,6.30937867220873e-06,2.73008260420736e-11,0.0171352616527906,2021-09-26
"315",157,0.0339825337894044,6.22691079694171e-06,2.5850363281431e-11,0.0169912669076274,2021-09-27
"316",157.5,0.0336919843958725,6.14552178895422e-06,2.44771786983685e-11,0.0168459922101749,2021-09-27
"317",158,0.0333990289110173,6.06519752224927e-06,2.31771404030432e-11,0.0166995144670972,2021-09-28
"318",158.5,0.0331038196593341,5.98592405599607e-06,2.19463384148457e-11,0.0165519098406402,2021-09-28
"319",159,0.0328065073667993,5.90768763209543e-06,2.07810726782151e-11,0.0164032536937902,2021-09-29
"320",159.5,0.0325072410565177,5.83047467277744e-06,1.96778417300841e-11,0.0162536205380978,2021-09-29
"321",160,0.0322061679496947,5.75427177823118e-06,1.8633331983229e-11,0.016103083984164,2021-09-30
"322",160.5,0.0319034333719161,5.67906572426591e-06,1.76444075917764e-11,0.0159517166947803,2021-09-30
"323",161,0.0315991806647085,5.60484346000331e-06,1.67081008669869e-11,0.0157995903407083,2021-10-01
"324",161.5,0.0312935511023436,5.53159210560039e-06,1.58216032131953e-11,0.0156467755590826,2021-10-01
"325",162,0.0309866838138394,5.45929895000258e-06,1.49822565554575e-11,0.0154933419144108,2021-10-02
"326",162.5,0.0306787157101005,5.38795144872663e-06,1.41875452320181e-11,0.015339357862144,2021-10-02
"327",163,0.0303697814161349,5.3175372216729e-06,1.34350883262023e-11,0.015184890714785,2021-10-03
"328",163.5,0.0300600132082733,5.24804405096659e-06,1.27226324137328e-11,0.0150300066104979,2021-10-03
"329",164,0.0297495409563109,5.17945987882764e-06,1.20480447027966e-11,0.0148747704841795,2021-10-04
"330",164.5,0.0294384920704853,5.11177280546874e-06,1.14093065454349e-11,0.0147192460409473,2021-10-04
"331",165,0.029126991453196,5.04497108702115e-06,1.08045073000095e-11,0.0145634957320003,2021-10-05
"332",165.5,0.0288151614553687,4.97904313348804e-06,1.02318385256113e-11,0.0144075807328003,2021-10-05
"333",166,0.028503121837357,4.91397750672475e-06,9.68958849033094e-12,0.0142515609235233,2021-10-06
"334",166.5,0.0281909897342757,4.84976291844584e-06,9.17613697630255e-12,0.0140954948717259,2021-10-06
"335",167,0.0278788796256505,4.78638822825842e-06,8.68995036537083e-12,0.0139394398171702,2021-10-07
"336",167.5,0.0275669033092677,4.72384244172147e-06,8.22957699011904e-12,0.0137834516587486,2021-10-07
"337",168,0.0272551698791041,4.66211470843072e-06,7.79364273583077e-12,0.0136275849434489,2021-10-08
"338",168.5,0.0269437857072136,4.60119432012887e-06,7.38084687975037e-12,0.0134718928572972,2021-10-08
"339",169,0.026632854429446,4.54107070884072e-06,6.98995815475341e-12,0.013316427218218,2021-10-09
"340",169.5,0.0265131353364672,4.48173344503281e-06,6.61981102524443e-12,0.0132565676715435,2021-10-09
"341",170,0.0264092968055237,4.4231722357975e-06,6.26930216376574e-12,0.0132046484058965,2021-10-10
"342",170.5,0.026301950450256,4.36537692306075e-06,5.93738711743093e-12,0.0131509752280967,2021-10-10
"343",171,0.0261911640224346,4.30833748181371e-06,5.62307715389186e-12,0.0130955820140288,2021-10-11
"344",171.5,0.0260770065644906,4.25204401836753e-06,5.32543627710994e-12,0.013038503284908,2021-10-11
"345",172,0.0259595483295591,4.19648676863111e-06,5.04357840373407e-12,0.0129797741673013,2021-10-12
"346",172.5,0.0258388607014625,4.1416560964116e-06,4.77666469138916e-12,0.0129194303531196,2021-10-12
"347",173,0.025715016114764,4.08754249173721e-06,4.52390101065381e-12,0.0128575080596439,2021-10-13
"348",173.5,0.0255880879750193,4.03413656920216e-06,4.28453555295371e-12,0.0127940439896519,2021-10-13
"349",174,0.0254581505793513,3.98142906633333e-06,4.05785656702113e-12,0.0127290752917046,2021-10-14
"350",174.5,0.0253252790374656,3.9252753856942e-06,3.84319021697079e-12,0.0126626395206544,2021-10-14
"351",175,0.0251895491932249,3.86620198210783e-06,3.63989855542103e-12,0.0125947745984324,2021-10-15
"352",175.5,0.0250510375468919,3.80802664491082e-06,3.44737760544665e-12,0.0125255187751696,2021-10-15
"353",176,0.0249098211781502,3.7507355888121e-06,3.26505554548745e-12,0.0124549105907076,2021-10-16
"354",176.5,0.0249583395111999,3.69431524201766e-06,3.09239099165632e-12,0.0124791697571462,2021-10-16
"355",177,0.0251680414659409,3.63875224289785e-06,2.92887137219215e-12,0.0125840207344349,2021-10-17
"356",177.5,0.0253757759142773,3.58403343670711e-06,2.77401138908854e-12,0.0126878879585257,2021-10-17
"357",178,0.0255814432277282,3.53014587235521e-06,2.62735156219873e-12,0.0127907216151778,2021-10-18
"358",178.5,0.0257849438256986,3.47707679922919e-06,2.48845685137242e-12,0.0128924719140935,2021-10-18
"359",179,0.0259861782726853,3.4248136640653e-06,2.35691535242083e-12,0.0129930891375211,2021-10-19
"360",179.5,0.0261850473767615,3.37334410787001e-06,2.23233706293458e-12,0.0130925236894969,2021-10-19
"361",180,0.0263814522891809,3.3226559628894e-06,2.11435271419406e-12,0.0131907261456476,2021-10-20
"362",180.5,0.0265752946049361,3.27273724962616e-06,2.00261266561581e-12,0.0132876473034693,2021-10-20
"363",181,0.0267664764641022,3.22357617390346e-06,1.89678585837082e-12,0.0133832382329995,2021-10-21
"364",181.5,0.0269549006537923,3.17516112397484e-06,1.79655882499288e-12,0.0134774503277944,2021-10-21
"365",182,0.0271404707105438,3.12748066767957e-06,1.70163475196697e-12,0.0135702353561227,2021-10-22
"366",182.5,0.0273230910229576,3.08052354964264e-06,1.61173259245076e-12,0.0136615455122847,2021-10-22
"367",183,0.0275026669344019,3.03427868851865e-06,1.52658622643571e-12,0.0137513334679642,2021-10-23
"368",183.5,0.0276791048455945,2.9887351742791e-06,1.44594366580029e-12,0.0138395524235202,2021-10-23
"369",184,0.0278523123168737,2.94388226554209e-06,1.36956630184489e-12,0.0139261561591216,2021-10-24
"370",184.5,0.028022198169967,2.89970938694407e-06,1.29722819302863e-12,0.0140110990856321,2021-10-24
"371",185,0.0281886725890638,2.85620612655273e-06,1.22871539075084e-12,0.0140943362951462,2021-10-25
"372",185.5,0.0283516472210005,2.81336223332058e-06,1.16382530113657e-12,0.0141758236110822,2021-10-25
"373",186,0.0285110352743663,2.77116761457841e-06,1.10236608089562e-12,0.0142555176377343,2021-10-26
"374",186.5,0.0286667516173344,2.72961233356808e-06,1.04415606542837e-12,0.0143333758091893,2021-10-26
"375",187,0.0288187128740322,2.6886866070141e-06,9.89023227450273e-13,0.0144093564375106,2021-10-27
"376",187.5,0.0289668375192581,2.64838080273317e-06,9.36804664500056e-13,0.0144834187600974,2021-10-27
"377",188,0.0291110459713598,2.60868543728133e-06,8.87346113784404e-13,0.0145555229861236,2021-10-28
"378",188.5,0.0292512606830913,2.56959117363793e-06,8.40501492895505e-13,0.0146256303419659,2021-10-28
"379",189,0.0293874062302677,2.53108881892598e-06,7.96132465016357e-13,0.0146937031155319,2021-10-29
"380",189.5,0.0295194093980412,2.49316932216819e-06,7.54108027303353e-13,0.0147597046993977,2021-10-29
"381",190,0.0296471992646295,2.45582377207823e-06,7.14304121206075e-13,0.0148235996326719,2021-10-30
"382",190.5,0.029770707282328,2.41904339488663e-06,6.76603263550904e-13,0.0148853536415023,2021-10-30
"383",191,0.0298898673556473,2.38281955220069e-06,6.40894197278088e-13,0.0149449336781441,2021-10-31
"384",191.5,0.0300046159164201,2.34714373889803e-06,6.07071560781566e-13,0.0150023079585136,2021-10-31
"385",192,0.0301148919957321,2.3120075810531e-06,5.75035574857267e-13,0.0150574459981536,2021-11-01
"386",192.5,0.0302206372925343,2.27740283389617e-06,5.44691746318961e-13,0.0151103186465395,2021-11-01
"387",193,0.0303217962388049,2.24332137980435e-06,5.14577436981315e-13,0.0151608981196598,2021-11-02
"388",193.5,0.0304183160611361,2.20975522632407e-06,4.84766646365795e-13,0.0152091580308104,2021-11-02
"389",194,0.0305101468386275,2.17669650422451e-06,4.56682528517141e-13,0.0152550734195421,2021-11-03
"390",194.5,0.03059724155698,2.14413746558157e-06,4.30225096137434e-13,0.0152986207787051,2021-11-03
"391",195,0.0306795561586896,2.11207048189187e-06,4.0530015034122e-13,0.0153397780795475,2021-11-04
"392",195.5,0.0307570495892509,2.08048804221619e-06,3.81818945665282e-13,0.0153785247948163,2021-11-04
"393",196,0.0308296838392909,2.04938275135211e-06,3.59697874457653e-13,0.0154148419198253,2021-11-05
"394",196.5,0.0308974239825616,2.01874732803518e-06,3.38858169525309e-13,0.0154487119914502,2021-11-05
"395",197,0.0309602382097289,1.98857460316831e-06,3.19225623984698e-13,0.015480119105024,2021-11-06
"396",197.5,0.0310180978579094,1.95885751807882e-06,3.00730327320336e-13,0.0155090489291051,2021-11-06
"397",198,0.0310709774359113,1.92958912280286e-06,2.83306416714137e-13,0.0155354887180973,2021-11-07
"398",198.5,0.0311188546451494,1.90076257439663e-06,2.66891842762376e-13,0.0155594273227081,2021-11-07
"399",199,0.0311617103962132,1.87237113527403e-06,2.51428148748178e-13,0.0155808551982323,2021-11-08
"400",199.5,0.0311995288210774,1.84440817157036e-06,2.36860262685578e-13,0.0155997644106571,2021-11-08
"401",200,0.0312322972809535,1.81686715153159e-06,2.23136301396457e-13,0.0156161486405883,2021-11-09
"402",200.5,0.0312600063697919,1.78974164392888e-06,2.10207385924417e-13,0.0156300031850011,2021-11-09
"403",201,0.0312826499134537,1.76302531649787e-06,1.98027467629838e-13,0.0156413249568259,2021-11-10
"404",201.5,0.0313002249645805,1.73671193440239e-06,1.86553164348315e-13,0.0156501124823835,2021-11-10
