"","time","top","med","bottom","pseudo_med","date"
"1",0,0.00925158906257009,0.00152914181470814,7.75816337645482e-05,0.00466458534816732,2021-04-23
"2",0.5,0.00880111527922073,0.00149701833884024,0.000112517400065887,0.00445681633964331,2021-04-23
"3",1,0.00837304316565306,0.0014573324225229,0.000145046834755704,0.00425904500020438,2021-04-24
"4",1.5,0.00796624048526592,0.00140851771793053,0.000175301318454216,0.00407077090186007,2021-04-24
"5",2,0.00757963292553386,0.00135125385362912,0.000203405481065475,0.00389151920329967,2021-04-25
"6",2.5,0.00721220110818682,0.00132635589781757,0.000229477542211835,0.00372083932519933,2021-04-25
"7",3,0.00686297775471787,0.0012829528434027,0.000253629634600811,0.00355830369465934,2021-04-26
"8",3.5,0.00653104499911049,0.00126747292803789,0.000275968111178558,0.00340350655514452,2021-04-26
"9",4,0.00621553184010208,0.00123515132848357,0.000280256297201654,0.00324789406865187,2021-04-27
"10",4.5,0.00591561172570278,0.00119483271867264,0.000277157310532769,0.00309638451811777,2021-04-27
"11",5,0.00563050026306972,0.00116526825998613,0.000273727279164691,0.00295211377111721,2021-04-28
"12",5.5,0.00535945304719861,0.00113920630949171,0.000270004935894106,0.00281472899154636,2021-04-28
"13",6,0.00510176360223638,0.00110730106758653,0.000266026037683771,0.00268389481996008,2021-04-29
"14",6.5,0.00485676142954338,0.0010810093406134,0.000261823564441825,0.0025592924969926,2021-04-29
"15",7,0.00462381015694059,0.00106351617746122,0.000257427905397036,0.00244061903116881,2021-04-30
"16",7.5,0.00440230578386867,0.00104160758479684,0.000252867033814437,0.00232758640884155,2021-04-30
"17",8,0.00419167501746171,0.00102623001354289,0.000248166670752243,0.00221992084410697,2021-05-01
"18",8.5,0.00399137369479948,0.00100567496564864,0.000243350438519806,0.00211736206665964,2021-05-01
"19",9,0.00380088528685035,0.000993851368011726,0.000238440004457675,0.00201966264565401,2021-05-02
"20",9.5,0.00363518506763381,0.00098358988006671,0.000228646527574167,0.00193191579760399,2021-05-02
"21",10,0.00351839922537679,0.000970271591446123,0.000218870696403437,0.00186863496089012,2021-05-03
"22",10.5,0.00340679795872222,0.000953624245680323,0.000209574462909074,0.00180818621081565,2021-05-03
"23",11,0.0033001258092859,0.000939592251332175,0.000200731714512484,0.00175042876189919,2021-05-04
"24",11.5,0.00319814021188685,0.000912398663076706,0.000192317854771914,0.00169522903332938,2021-05-04
"25",12,0.00310061084087252,0.000894492431995567,0.000184309712246756,0.00164246027655964,2021-05-05
"26",12.5,0.00300731898960335,0.000877837056593358,0.000176685454935889,0.00159200222226962,2021-05-05
"27",13,0.00291805698141439,0.000852786030404552,0.000169424509946307,0.00154374074568035,2021-05-06
"28",13.5,0.00283262761045757,0.000820625512153541,0.000162507488069516,0.00149756754926354,2021-05-06
"29",14,0.00275084361090885,0.000802411281495155,0.000155916112963198,0.00145337986193602,2021-05-07
"30",14.5,0.00280722404087398,0.000780169596549979,0.000149633154654337,0.00147842859776416,2021-05-07
"31",15,0.00290490038667855,0.000761684478209891,0.000143642367097576,0.00152427137688806,2021-05-08
"32",15.5,0.00300632159942247,0.000750517524007239,0.000137928429539046,0.00157212501448076,2021-05-08
"33",16,0.00311159380979446,0.000732869991966931,0.000132476891451376,0.00162203535062292,2021-05-09
"34",16.5,0.00322082695040981,0.000717780177085093,0.000127274120820055,0.00167405053561493,2021-05-09
"35",17,0.00333413475006479,0.000695949912522885,0.000122307255574973,0.00172822100281988,2021-05-10
"36",17.5,0.00345163472585429,0.000682606364245021,0.000117564157973644,0.00178459944191397,2021-05-10
"37",18,0.00357344817252946,0.00067451657247915,0.000113033371754648,0.00184324077214206,2021-05-11
"38",18.5,0.00369970014844778,0.00066271992449152,0.000108704081891017,0.0019042021151694,2021-05-11
"39",19,0.00383051945744268,0.000649035859686539,0.000104566076783799,0.00196754276711324,2021-05-12
"40",19.5,0.00396603862591257,0.000642225865250632,0.000100609712745961,0.00203332416932927,2021-05-12
"41",20,0.00410639387440031,0.00063602136821252,9.6825880635993e-05,0.00210160987751815,2021-05-13
"42",20.5,0.00425172508290442,0.000627856454755632,9.32059745093062e-05,0.00217246552870686,2021-05-13
"43",21,0.00440217574913191,0.000615007415930168,8.97418621636425e-05,0.00224595880564778,2021-05-14
"44",21.5,0.0045578929388702,0.000606394616458996,8.64258574623747e-05,0.00232215939816629,2021-05-14
"45",22,0.0047190272276226,0.000593987768310851,8.32506943267313e-05,0.00240113896097467,2021-05-15
"46",22.5,0.00488573263261768,0.000584525450057577,8.0209502294718e-05,0.0024829710674562,2021-05-15
"47",23,0.00505816653426828,0.000576897224752355,7.72957835508106e-05,0.00256773115890955,2021-05-16
"48",23.5,0.0052364895861216,0.000568499028099356,7.45033913364172e-05,0.00265549648872901,2021-05-16
"49",24,0.0054208656123066,0.00055467803764235,7.18265096566575e-05,0.00274634606098163,2021-05-17
"50",24.5,0.00561146149145107,0.000546689995240448,6.92596342042165e-05,0.00284036056282765,2021-05-17
"51",25,0.00580844702600691,0.000537005890482415,6.6797554425916e-05,0.00293762229021642,2021-05-18
"52",25.5,0.00601199479588958,0.000523077523516846,6.44353366622293e-05,0.0030382150662759,2021-05-18
"53",26,0.00622227999530696,0.000515394891828108,6.21683082942671e-05,0.00314222415180061,2021-05-19
"54",26.5,0.00643948025162377,0.000504756605396288,5.99920428367941e-05,0.00324973614723028,2021-05-19
"55",27,0.00666377542508136,0.000492655210972929,5.7902345919619e-05,0.00336083888550049,2021-05-20
"56",27.5,0.00689534738816941,0.00048140200492148,5.50203222230586e-05,0.00347518385519623,2021-05-20
"57",28,0.00713437978342682,0.000470119962616025,5.20221057358515e-05,0.00359320094458134,2021-05-21
"58",28.5,0.00738105775843388,0.000458500757613536,4.91815264712128e-05,0.00371511964245255,2021-05-21
"59",29,0.00763556767674809,0.000452472206285632,4.64907407920229e-05,0.00384102920877006,2021-05-22
"60",29.5,0.00789809680353216,0.00044401842361522,4.39422597011159e-05,0.00397101953161664,2021-05-22
"61",30,0.00816883296462589,0.000436170582692015,4.15289358262583e-05,0.00410518095022608,2021-05-23
"62",30.5,0.00844796417782408,0.000427385820776316,3.92439506012613e-05,0.00424360406421267,2021-05-23
"63",31,0.0087356782551424,0.000418686962456885,3.70808016726015e-05,0.0043863795284075,2021-05-24
"64",31.5,0.00903216237488197,0.000409885791727349,3.50332905562805e-05,0.00453359783271912,2021-05-24
"65",32,0.0093376026223433,0.000404789664266901,3.30955105654918e-05,0.0046853490664544,2021-05-25
"66",32.5,0.00965218349809198,0.000397771839954228,3.12618350259367e-05,0.00484172266655896,2021-05-25
"67",33,0.00997608739274266,0.000394668105204456,2.95269057923016e-05,0.00500280714926748,2021-05-26
"68",33.5,0.0103094940273067,0.000388761113420932,2.78856220764428e-05,0.00516868982469157,2021-05-26
"69",34,0.0106525798582425,0.00037972329225422,2.63331295951824e-05,0.00533945649391884,2021-05-27
"70",34.5,0.0110055174464572,0.000376137688079618,2.4864810043283e-05,0.00551519112825025,2021-05-27
"71",35,0.0113684747896365,0.00037032778836205,2.34762708950937e-05,0.00569597553026581,2021-05-28
"72",35.5,0.0117416146174245,0.000369100002999697,2.21633355365394e-05,0.00588188897648054,2021-05-28
"73",36,0.0121250936491422,0.000363350568680191,2.09220337275209e-05,0.00607300784143484,2021-05-29
"74",36.5,0.0125190618139175,0.00035697221229722,1.97485923933929e-05,0.00626940520315544,2021-05-29
"75",37,0.0129236614333108,0.0003482587801086,1.86394267429664e-05,0.00647115043002688,2021-05-30
"76",37.5,0.0133390263667451,0.000341014038588483,1.75911317094292e-05,0.00667830874922725,2021-05-30
"77",38,0.0137652811203071,0.000332033778723751,1.66004737096666e-05,0.00689094079700839,2021-05-31
"78",38.5,0.0142025399197597,0.000322298266499151,1.5664382716695e-05,0.00710910215123819,2021-05-31
"79",39,0.0146509057489053,0.000313849348381258,1.47799446392606e-05,0.00733284284677228,2021-06-01
"80",39.5,0.0151104693547654,0.000309690947038974,1.39443940021131e-05,0.00756220687438374,2021-06-01
"81",40,0.0155813082213857,0.000306735596490811,1.315510692001e-05,0.00779723166415288,2021-06-02
"82",40.5,0.0160634855144488,0.000303858007222592,1.24095943581426e-05,0.00803794755440345,2021-06-02
"83",41,0.016557048999264,0.000304204278536121,1.17054956713858e-05,0.00828437724746768,2021-06-03
"84",41.5,0.0170620299351218,0.000304606280770062,1.10405724145558e-05,0.00853653525376818,2021-06-03
"85",42,0.0175784419494258,0.000303674872308381,1.04127024156959e-05,0.00879442732592076,2021-06-04
"86",42.5,0.0181062798954672,0.000298067497713284,9.81987410430952e-06,0.00905804988478575,2021-06-04
"87",43,0.0186455186981678,0.000292569629311029,9.26018108639726e-06,0.00932738943962709,2021-06-05
"88",43.5,0.0191961121925917,0.000288843354590462,8.73181695813975e-06,0.00960242200477494,2021-06-05
"89",44,0.0197579919605066,0.000285547020897745,8.2330703500877e-06,0.00988311251542837,2021-06-06
"90",44.5,0.0203310661707604,0.000283044678391359,7.76232019377127e-06,0.0101694142454771,2021-06-06
"91",45,0.0209152184297232,0.000280574831475159,7.3180312027206e-06,0.010461268230463,2021-06-07
"92",45.5,0.0215103066485216,0.000276908262000305,6.89874955999211e-06,0.0107586026990408,2021-06-07
"93",46,0.0221161619342558,0.000272489698547024,6.5030988044183e-06,0.0110613325165301,2021-06-08
"94",46.5,0.0227325875128399,0.000268102481387013,6.12977590793973e-06,0.0113693586443739,2021-06-08
"95",47,0.0233593576915241,0.000263058410000366,5.77754753653269e-06,0.0116825676195303,2021-06-09
"96",47.5,0.0239962168695496,0.000258114877384325,5.44524648741352e-06,0.0120008310580185,2021-06-09
"97",48,0.0246428786057358,0.00025516860573368,5.1317682953774e-06,0.0123240051870156,2021-06-10
"98",48.5,0.0252990247521025,0.000249692428206382,4.83606800131439e-06,0.0126519304100519,2021-06-10
"99",49,0.0259643046628768,0.000244930174138999,4.55715707613651e-06,0.0129844309099765,2021-06-11
"100",49.5,0.0266383344884202,0.000243441174885297,4.29410049354511e-06,0.0133213142944569,2021-06-11
"101",50,0.0273206965637218,0.000239548915140304,4.04601394526632e-06,0.0136623712888335,2021-06-12
"102",50.5,0.0280109389011402,0.00023571827578267,3.81206119258306e-06,0.0140073754811664,2021-06-12
"103",51,0.0287085747970229,0.000231273745185185,3.59145154819316e-06,0.0143560831242855,2021-06-13
"104",51.5,0.0294130825616871,0.000225954538811013,3.38343748262452e-06,0.0147082329995849,2021-06-13
"105",52,0.0301239053819997,0.000220710445688664,3.18731234963845e-06,0.0150635463471747,2021-06-14
"106",52.5,0.0308404513254435,0.000215340925637597,3.00240822525056e-06,0.0154217268668344,2021-06-14
"107",53,0.0315620934940983,0.000209868106216271,2.82809385519521e-06,0.0157824607939767,2021-06-15
"108",53.5,0.0322881703363883,0.000204531239777002,2.66377270585249e-06,0.0161454170545471,2021-06-15
"109",54,0.0330179861237631,0.000199327153580153,2.5088811138469e-06,0.0165102475024385,2021-06-16
"110",54.5,0.0337508115986705,0.000195233762256859,2.3628865297133e-06,0.0168765872426001,2021-06-16
"111",55,0.0344858847992648,0.000192122839879566,2.22528585120788e-06,0.017244055042558,2021-06-17
"112",55.5,0.0352224120652605,0.000189068364701829,2.09560384201998e-06,0.0176122538345513,2021-06-17
"113",56,0.035959569228203,0.000186069342543179,1.97339163181436e-06,0.0179807713099174,2021-06-18
"114",56.5,0.0366965029881928,0.00018328135782264,1.85822529370195e-06,0.0183491806067433,2021-06-18
"115",57,0.0374323324777631,0.000181114980033165,1.74970449540177e-06,0.0187170410911293,2021-06-19
"116",57.5,0.0381661510122028,0.000178761744329062,1.64745122051556e-06,0.0190838992317116,2021-06-19
"117",58,0.0388970280241309,0.000176411947887032,1.55110855649101e-06,0.0194492895663437,2021-06-20
"118",58.5,0.0396240111785921,0.000173774167555582,1.46033954599909e-06,0.0198127357590691,2021-06-20
"119",59,0.0403461286633643,0.000171394538172689,1.3748260985949e-06,0.0201737517447315,2021-06-21
"120",59.5,0.0410623916475666,0.000169439694067285,1.29426795967133e-06,0.0205318429577631,2021-06-21
"121",60,0.0417717969000546,0.000167861752755428,1.21838173384895e-06,0.0208865076408942,2021-06-22
"122",60.5,0.0424733295574958,0.000166488401442524,1.14689996007544e-06,0.0212372382287279,2021-06-22
"123",61,0.0431659660304651,0.000164774978432374,1.07957023583251e-06,0.0215835228003505,2021-06-23
"124",61.5,0.0438486770344001,0.000161555594040014,1.0161543879685e-06,0.021924846594394,2021-06-23
"125",62,0.0445204307308356,0.000158407933328852,9.56427687790241e-07,0.0222606935792617,2021-06-24
"126",62.5,0.0451801959630068,0.000155330278082471,9.00178108158658e-07,0.0225905480705575,2021-06-24
"127",63,0.0462596421301252,0.000152320952474296,8.47205620439204e-07,0.0231302446678728,2021-06-25
"128",63.5,0.0474073438012248,0.000150265645352887,7.97321529260244e-07,0.0237040705613771,2021-06-25
"129",64,0.0485571479853117,0.000148573634139843,7.5034784313052e-07,0.0242789491665774,2021-06-26
"130",64.5,0.0497073960446655,0.000146615449434517,7.0611667906067e-07,0.0248540510806723,2021-06-26
"131",65,0.0508563699364387,0.000144685122571484,6.6446969942362e-07,0.0254285172030691,2021-06-27
"132",65.5,0.0520022968318661,0.000142782257404307,6.25257579374715e-07,0.0260014610447227,2021-06-27
"133",66,0.0531433542355303,0.000140906462154223,5.88339503234692e-07,0.0265719712875168,2021-06-28
"134",66.5,0.0542776755863338,0.000139057349447197,5.53582688317294e-07,0.0271391145845111,2021-06-28
"135",67,0.05540335631614,0.000137234536344565,5.20861934758493e-07,0.0277019385890374,2021-06-29
"136",67.5,0.0565184603364247,0.000135437644367709,4.90059199976075e-07,0.0282594751978124,2021-06-29
"137",68,0.0576210269177872,0.000132410559075673,4.61063196456945e-07,0.0288107439904918,2021-06-30
"138",68.5,0.0587090779219274,0.000130104739616559,4.33769011634893e-07,0.0293547558454695,2021-06-30
"139",69,0.0597806253407739,0.000128368135185564,4.08077748684022e-07,0.0298905167092613,2021-07-01
"140",69.5,0.0608336790929512,0.000126877377752777,3.83896187112542e-07,0.0304170314945692,2021-07-01
"141",70,0.0618662550237827,0.000125587639307489,3.61136462098405e-07,0.0309333080801224,2021-07-02
"142",70.5,0.0628763830516123,0.000124671633522562,3.39715761562288e-07,0.0314383613836869,2021-07-02
"143",71,0.0638621154004759,0.000123762494406557,3.19556040024993e-07,0.031931217478258,2021-07-03
"144",71.5,0.0648215348570997,0.000122860166293636,3.00583748345326e-07,0.032410917720424,2021-07-03
"145",72,0.0657527629889138,0.00012196459423203,2.82729578481279e-07,0.0328765228592461,2021-07-04
"146",72.5,0.0666539682592608,0.000120807636342616,2.65928222461701e-07,0.0333271170937416,2021-07-04
"147",73,0.0675233739762761,0.000119571275623816,2.50118144797993e-07,0.0337618120472105,2021-07-05
"148",73.5,0.0683592660130205,0.000118214648706928,2.35241367605521e-07,0.0341797506271941,2021-07-05
"149",74,0.0691600002383357,0.000116483993472046,2.21243267742698e-07,0.0345801107408017,2021-07-06
"150",74.5,0.0699240096005522,0.000114782303019378,2.08072385312037e-07,0.0349621088364687,2021-07-06
"151",75,0.0706498108095548,0.000113027599682155,1.95680242901989e-07,0.0353250032448989,2021-07-07
"152",75.5,0.0713360105667503,0.000111123381657831,1.84021174981222e-07,0.0356680972939626,2021-07-07
"153",76,0.0719813112971184,0.000108759144206649,1.73052166888161e-07,0.0359907421746426,2021-07-08
"154",76.5,0.0725845163426834,0.00010644434971173,1.62732702888195e-07,0.0362923395376932,2021-07-08
"155",77,0.07314453458233,0.000104178003601304,1.53024622799084e-07,0.0365723438034764,2021-07-09
"156",77.5,0.0736603844488141,0.000101959129531734,1.43891986711751e-07,0.0368302641704004,2021-07-09
"157",78,0.0741311973199928,9.97867691355249e-05,1.35300947358974e-07,0.0370656663104701,2021-07-10
"158",78.5,0.0745562202676153,9.76599817686844e-05,1.27219629708508e-07,0.0372781737436225,2021-07-10
"159",79,0.0749348181533861,9.59305312465462e-05,1.19618017379954e-07,0.0374674688857017,2021-07-11
"160",79.5,0.075266475068333,9.43895654250896e-05,1.12467845506285e-07,0.0376332937680893,2021-07-11
"161",80,0.0755507951177022,9.28748388297589e-05,1.0574249968146e-07,0.0377754504301009,2021-07-12
"162",80.5,0.0757875025595693,9.1578420289558e-05,9.94169206549496e-08,0.037893800988245,2021-07-12
"163",81,0.0759764413110282,9.04253479998539e-05,9.34675144524323e-08,0.0379882673892713,2021-07-13
"164",81.5,0.076117573841125,8.9286755351879e-05,8.78720676193659e-08,0.0380588308565963,2021-07-13
"165",82,0.0762109794745929,8.81624632950029e-05,8.26096673006663e-08,0.0381055310421301,2021-07-14
"166",82.5,0.0762568521348533,8.67714146543073e-05,7.76606258854024e-08,0.0381284648977396,2021-07-14
"167",83,0.0762554975586608,8.53736332167949e-05,7.30064099602452e-08,0.0381277852825354,2021-07-15
"168",83.5,0.0762073300181354,8.39987115579685e-05,6.86295733294689e-08,0.0381036993238544,2021-07-15
"169",84,0.0761128685887507,8.26462775996058e-05,6.45136938726055e-08,0.0380564665512223,2021-07-16
"170",84.5,0.0759727330041045,8.13159649866441e-05,6.06433140234561e-08,0.0379863968237093,2021-07-16
"171",85,0.0757876391400107,8.00074130175825e-05,5.70038846660876e-08,0.0378938480719477,2021-07-17
"172",85.5,0.0755583941716113,7.88400177890481e-05,5.35817122547348e-08,0.0377792238766618,2021-07-17
"173",86,0.0752858914478513,7.74917357602835e-05,5.03639089752103e-08,0.0376429709058801,2021-07-18
"174",86.5,0.0749711051278014,7.61675325535625e-05,4.73383457755346e-08,0.0374855762330736,2021-07-18
"175",87,0.0746150846229882,7.48669785747774e-05,4.44936081030639e-08,0.0373075645582982,2021-07-19
"176",87.5,0.074218948889142,7.35896512317444e-05,4.18189541944417e-08,0.0371094953540481,2021-07-19
"177",88,0.0737838806096273,7.23351348574318e-05,3.93042757732587e-08,0.0368919599569515,2021-07-20
"178",88.5,0.0733111203113325,7.09559930461268e-05,3.69400610183994e-08,0.0366555786256968,2021-07-20
"179",89,0.0728019604520014,6.95280886328311e-05,3.47173596737089e-08,0.0364009975846805,2021-07-21
"180",89.5,0.0722577395159386,6.83016334246252e-05,3.26277501768507e-08,0.0361288860718444,2021-07-21
"181",90,0.0716798361527543,6.71789273417682e-05,3.06633086920677e-08,0.0358399334080315,2021-07-22
"182",90.5,0.0710696633913786,6.60763100769465e-05,2.88165799380285e-08,0.0355348461039792,2021-07-22
"183",91,0.0704286629590091,6.49934048136248e-05,2.70805497080525e-08,0.0352143450197794,2021-07-23
"184",91.5,0.0697582997320047,6.39298417650343e-05,2.54486189857875e-08,0.0348791625903118,2021-07-23
"185",92,0.0690600563430307,6.28852580548633e-05,2.39145795648721e-08,0.0345300401288051,2021-07-24
"186",92.5,0.0683354279660418,6.18592975993227e-05,2.2472591086275e-08,0.0341677252193165,2021-07-24
"187",93,0.06758591729798,6.08516109906038e-05,2.11171594118785e-08,0.0337929692075697,2021-07-25
"188",93.5,0.0668130297534022,5.98618553817438e-05,1.9843116257477e-08,0.0334065247982592,2021-07-25
"189",94,0.0660182688856548,5.88896943729144e-05,1.86456000127127e-08,0.0330091437656274,2021-07-26
"190",94.5,0.0652728606796963,5.79347978991426e-05,1.7520037679578e-08,0.032636439099867,2021-07-26
"191",95,0.0650216301641024,5.69968421194754e-05,1.64621278649959e-08,0.0325108233131151,2021-07-27
"192",95.5,0.0647389265112411,5.5998132647107e-05,1.54678247666512e-08,0.0323694709895329,2021-07-27
"193",96,0.0644255048986004,5.4857186081513e-05,1.45333230947093e-08,0.0322127597159617,2021-07-28
"194",96.5,0.0640821657556425,5.37391954863505e-05,1.36550438753216e-08,0.0320410897053432,2021-07-28
"195",97,0.063709751230187,5.26437126769906e-05,1.28296210849057e-08,0.031854882029904,2021-07-29
"196",97.5,0.0633091416084285,5.15702976416027e-05,1.20538890670948e-08,0.0316545768311588,2021-07-29
"197",98,0.0628812517095437,5.05185184160636e-05,1.13248706870034e-08,0.0314406315172072,2021-07-30
"198",98.5,0.0624270272749392,4.94879509597373e-05,1.0639766180048e-08,0.0312135189573527,2021-07-30
"199",99,0.0619474413711733,4.84781790321714e-05,9.99594265500941e-09,0.030973725683558,2021-07-31
"200",99.5,0.0619858216236302,4.74887940707555e-05,9.39092421333516e-09,0.0309929155072772,2021-07-31
"201",100,0.0628125992106076,4.65193950693832e-05,8.82238264885835e-09,0.0314063040164951,2021-08-01
"202",100.5,0.06362487904149,4.55695884581553e-05,8.28812869416822e-09,0.0318124436648094,2021-08-01
"203",101,0.0644216733343765,4.46834390499325e-05,7.78610378180685e-09,0.0322108405602401,2021-08-02
"204",101.5,0.0652020063435493,4.39901535552815e-05,7.31437229029804e-09,0.0326010068289608,2021-08-02
"205",102,0.0659649169931558,4.33093506412742e-05,6.87111424674129e-09,0.032982461932135,2021-08-03
"206",102.5,0.0667094614895035,4.26407910348625e-05,6.45461845933291e-09,0.033354733972061,2021-08-03
"207",103,0.0674347158990962,4.19842399708654e-05,6.063276054713e-09,0.0337173609811861,2021-08-04
"208",103.5,0.0681397786796515,4.1339467116062e-05,5.69557439648608e-09,0.0340698921876129,2021-08-04
"209",104,0.0688237731515518,4.07062464941601e-05,5.35009136263019e-09,0.0344118892508216,2021-08-05
"210",104.5,0.0694858498974959,4.00843564116473e-05,5.02548996079777e-09,0.0347429274614929,2021-08-05
"211",105,0.0701251890785287,3.9473579384532e-05,4.72051326172727e-09,0.035062596899521,2021-08-06
"212",105.5,0.0707410026551323,3.88737020659801e-05,4.4339796321303e-09,0.035370503544556,2021-08-06
"213",106,0.0713325365026528,3.82845151748511e-05,4.16477824949923e-09,0.0356662703337155,2021-08-07
"214",106.5,0.0718990724110128,3.770581342514e-05,3.91186488229935e-09,0.0359495381614388,2021-08-07
"215",107,0.0724399299594071,3.7137395456325e-05,3.67425791996929e-09,0.0362199668168325,2021-08-08
"216",107.5,0.0729544682574965,3.66428276600373e-05,3.45103463805901e-09,0.0364772358542656,2021-08-08
"217",108,0.0734420875454873,3.61140183765669e-05,3.24132768468772e-09,0.0367210453934075,2021-08-09
"218",108.5,0.0739022306464067,3.55883638544811e-05,3.04432177530828e-09,0.0369511168453642,2021-08-09
"219",109,0.0743343842648483,3.5070949836748e-05,2.85925058352266e-09,0.0371671935620495,2021-08-10
"220",109.5,0.074738080127452,3.4561639701777e-05,2.68539381640733e-09,0.0373690414064229,2021-08-10
"221",110,0.0751128959613952,3.40602991745637e-05,2.52207446348051e-09,0.0375564492417348,2021-08-11
"222",110.5,0.0754584563081958,3.35667962857551e-05,2.36865620907779e-09,0.037729229338426,2021-08-11
"223",111,0.0757744331711447,3.30810013314249e-05,2.22454099850023e-09,0.0378872176978429,2021-08-12
"224",111.5,0.0760605464957044,3.26027868335475e-05,2.08916674886213e-09,0.0380302742924356,2021-08-12
"225",112,0.0763165644831991,3.21320275011587e-05,1.9620051960967e-09,0.0381582832226022,2021-08-13
"226",112.5,0.0765423037390926,3.16686001921915e-05,1.8425598700773e-09,0.0382711527908262,2021-08-13
"227",113,0.0767376292580813,3.1212383875976e-05,1.73036419028336e-09,0.0383688154942228,2021-08-14
"228",113.5,0.0769024542491209,3.07632595963917e-05,1.62497967488355e-09,0.0384512279370503,2021-08-14
"229",114,0.0770367398043457,3.03211104356616e-05,1.52599425652667e-09,0.03851837066517,2021-08-15
"230",114.5,0.0771404944166293,2.98858214787765e-05,1.43302069852469e-09,0.038570247924825,2021-08-15
"231",115,0.0772137733512597,2.94572797785404e-05,1.34569510548294e-09,0.0386068873484774,2021-08-16
"232",115.5,0.0772566778778707,2.90353743212236e-05,1.26367552278174e-09,0.0386283395707731,2021-08-16
"233",116,0.0772693543693644,2.86199959928171e-05,1.18664061964293e-09,0.0386346777780025,2021-08-17
"234",116.5,0.0772519932750933,2.82110375458742e-05,1.11428845082423e-09,0.0386259971946909,2021-08-17
"235",117,0.0772048279760239,2.78083935669319e-05,1.04633529227633e-09,0.0386024145111796,2021-08-18
"236",117.5,0.0771281335299953,2.74119604445013e-05,9.82514546372267e-10,0.0385640672562549,2021-08-18
"237",118,0.0770222253154965,2.70216363376169e-05,9.22575712577208e-10,0.0385111131190361,2021-08-19
"238",118.5,0.0768874575826377,2.66373211449365e-05,8.6628341967066e-10,0.0384437292244606,2021-08-19
"239",119,0.0767242219201607,2.62589164743804e-05,8.13416515862119e-10,0.0383621113667886,2021-08-20
"240",119.5,0.0765329456474469,2.58863256133031e-05,7.63767213357378e-10,0.038266473205607,2021-08-20
"241",120,0.0763140901405249,2.55194534991858e-05,7.17140284135894e-10,0.0381570454288326,2021-08-21
"242",120.5,0.0760681491010624,2.51582066908426e-05,6.73352303891064e-10,0.0380340748872074,2021-08-21
"243",121,0.0757956467772536,2.47302123590996e-05,6.32230941265435e-10,0.0378978237047423,2021-08-22
"244",121.5,0.0754971361453848,2.42979111010241e-05,5.93614289682497e-10,0.0377485683694996,2021-08-22
"245",122,0.0751731970606823,2.3873181183425e-05,5.57350239236408e-10,0.0375865988090163,2021-08-23
"246",122.5,0.0748244343858226,2.34558898528643e-05,5.23295886251257e-10,0.0374122174545592,2021-08-23
"247",123,0.0744514761052209,2.30459066823575e-05,4.91316978262998e-10,0.037225738298269,2021-08-24
"248",123.5,0.0740549714329109,2.26431035307664e-05,4.612873923103e-10,0.0370274859470991,2021-08-24
"249",124,0.0736355889214947,2.22473545028925e-05,4.33088644545928e-10,0.0368177946772917,2021-08-25
"250",124.5,0.0731940145792839,2.18585359102595e-05,4.06609429298187e-10,0.0365970074929467,2021-08-25
"251",125,0.0727309500023624,2.1476526232572e-05,3.81745185823002e-10,0.0363654751920538,2021-08-26
"252",125.5,0.0722471105279046,2.11232452634332e-05,3.58397691091665e-10,0.0361235554431512,2021-08-26
"253",126,0.0717432234146607,2.07921836456835e-05,3.36474677057577e-10,0.0358716118755677,2021-08-27
"254",126.5,0.0712200260560937,2.04663283792759e-05,3.15889470937867e-10,0.0356100131859916,2021-08-27
"255",127,0.070678264231219,2.01455973752952e-05,2.9656065713278e-10,0.0353391322638898,2021-08-28
"256",127.5,0.0701186903977575,1.98299098404382e-05,2.78411759487679e-10,0.0350593453380846,2021-08-28
"257",128,0.0695420620317759,1.95191862566097e-05,2.61370942679559e-10,0.0347710311465734,2021-08-29
"258",128.5,0.068949140017553,1.92133483608368e-05,2.45370731582509e-10,0.0344745701314619,2021-08-29
"259",129,0.0683406870909824,1.89123191254968e-05,2.3034774753478e-10,0.0341703436606651,2021-08-30
"260",129.5,0.0677174663393999,1.8616022738854e-05,2.16242460494321e-10,0.0338587332778212,2021-08-30
"261",130,0.067080239760318,1.83243845859009e-05,2.02998956130029e-10,0.0335401199816585,2021-08-31
"262",130.5,0.0664297668811477,1.80373312294981e-05,1.90564716952804e-10,0.0332148835358562,2021-08-31
"263",131,0.0657668034416108,1.775479039181e-05,1.78890416643926e-10,0.0328834018102506,2021-09-01
"264",131.5,0.0650921001401763,1.74766909360303e-05,1.67929726788558e-10,0.032546050154053,2021-09-01
"265",132,0.0644064014455054,1.72029628483937e-05,1.57639135269513e-10,0.0322032008015723,2021-09-02
"266",132.5,0.0637104444735598,1.69335372204691e-05,1.47977775620865e-10,0.0318552223107688,2021-09-02
"267",133,0.0630049579307132,1.66849169511543e-05,1.38907266682888e-10,0.0315024790348102,2021-09-03
"268",133.5,0.0622906611229157,1.64562455164735e-05,1.30391561939136e-10,0.0311453306266536,2021-09-03
"269",134,0.0615682630306854,1.62308607338329e-05,1.22396807953539e-10,0.0307841315765411,2021-09-04
"270",134.5,0.0608384614494481,1.60087134360564e-05,1.14891211360181e-10,0.0304192307821697,2021-09-04
"271",135,0.0601019421945141,1.57897552146341e-05,1.07844913891216e-10,0.0300509711511795,2021-09-05
"272",135.5,0.0593593783697656,1.55739384077362e-05,1.01229874959164e-10,0.0296796892354978,2021-09-05
"273",136,0.0586114296989351,1.53612160884209e-05,9.5019761338803e-11,0.0293057148969774,2021-09-06
"274",136.5,0.0578587419181791,1.51515420530336e-05,8.91898435211346e-11,0.0289293710036845,2021-09-06
"275",137,0.0571019462284971,1.49448708097924e-05,8.37168983375042e-11,0.028550973156107,2021-09-07
"276",137.5,0.0563416588064032,1.47411575675589e-05,7.85791174760751e-11,0.0281708294424912,2021-09-07
"277",138,0.0555784803711422,1.45403582247899e-05,7.37560215354989e-11,0.0277892402224491,2021-09-08
"278",138.5,0.0548129958066322,1.43424293586662e-05,6.92283792819424e-11,0.0274064979379303,2021-09-08
"279",139,0.0540457738362323,1.41473282143984e-05,6.49781317956633e-11,0.0270228869506052,2021-09-09
"280",139.5,0.0532773667483565,1.39550126947029e-05,6.09883212121712e-11,0.0266386834046724,2021-09-09
"281",140,0.0525083101708985,1.37654413494484e-05,5.72430237807225e-11,0.0262541551140707,2021-09-10
"282",140.5,0.0517391228923858,1.35785733654684e-05,5.37272869795558e-11,0.0258695614730566,2021-09-10
"283",141,0.0509703067277494,1.33943685565377e-05,5.04270704429357e-11,0.0254851533890882,2021-09-11
"284",141.5,0.0502023464265712,1.32127873535092e-05,4.73291904697983e-11,0.0251011732369502,2021-09-11
"285",142,0.0494357096216665,1.30337907946099e-05,4.44212678976333e-11,0.0247178548330439,2021-09-12
"286",142.5,0.0486708468158515,1.28573405158915e-05,4.1691679138257e-11,0.0243354234287716,2021-09-12
"287",143,0.0479081914047627,1.26833987418353e-05,3.91295101843617e-11,0.0239540957219461,2021-09-13
"288",143.5,0.0471481597336036,1.25119282761064e-05,3.6724513407237e-11,0.023574079885164,2021-09-13
"289",144,0.0463911511857278,1.23428924924571e-05,3.44670669768669e-11,0.0231955756100974,2021-09-14
"290",144.5,0.0456375483009923,1.21762553257748e-05,3.23481367457777e-11,0.0228187741666702,2021-09-14
"291",145,0.0448877169218564,1.20148980786882e-05,3.0359240447565e-11,0.0224438584761078,2021-09-15
"292",145.5,0.0441420063652438,1.18936226206072e-05,2.84924140700165e-11,0.0220710031968681,2021-09-15
"293",146,0.043400749618234,1.17765461854731e-05,2.6740180271186e-11,0.0217003748224871,2021-09-16
"294",146.5,0.0426642635556998,1.16606282748501e-05,2.50955187147192e-11,0.0213321317903977,2021-09-16
"295",147,0.0419328491780648,1.15458573367841e-05,2.35518382081873e-11,0.0209664246008083,2021-09-17
"296",147.5,0.0412067918674129,1.14322219369896e-05,2.21029505352025e-11,0.0206033959447579,2021-09-17
"297",148,0.0404863616602418,1.13197107575452e-05,2.07430458786785e-11,0.0202431808404924,2021-09-18
"298",148.5,0.0397718135352172,1.12083125956083e-05,1.94666697387975e-11,0.0198859067773419,2021-09-18
"299",149,0.0390633877143474,1.10980163621484e-05,1.82687012550675e-11,0.0195316938663081,2021-09-19
"300",149.5,0.0384674963060496,1.09888110806995e-05,1.7144332847328e-11,0.019233748161597,2021-09-19
"301",150,0.0379833859592173,1.088068588613e-05,1.60890510957058e-11,0.0189916929876532,2021-09-20
"302",150.5,0.0374967608278776,1.07736300234298e-05,1.5098618784357e-11,0.0187483804214881,2021-09-20
"303",151,0.0370079908941516,1.06676328465156e-05,1.41690580383774e-11,0.0185039954541603,2021-09-21
"304",151.5,0.0365174377408781,1.05626838170512e-05,1.32966344875303e-11,0.0182587188770874,2021-09-21
"305",152,0.0360254542851819,1.04587725032858e-05,1.2477842394456e-11,0.0180127271488299,2021-09-22
"306",152.5,0.0355323845416179,1.03558885789067e-05,1.17093906887987e-11,0.0177661922766636,2021-09-22
"307",153,0.035038563414095,1.0237615746408e-05,1.09881898522283e-11,0.0175192817125416,2021-09-23
"308",153.5,0.0345443165157258,1.0088789717649e-05,1.03113396026688e-11,0.0172721582630186,2021-09-23
"309",154,0.0340499600157005,9.94241590677256e-06,9.67611732917012e-12,0.0170249800126883,2021-09-24
"310",154.5,0.0335558005122437,9.79845038357186e-06,9.07996723180444e-12,0.0167779002606618,2021-09-24
"311",155,0.0330621349306782,9.65685004125961e-06,8.52049012373068e-12,0.0165310674695993,2021-09-25
"312",155.5,0.0325692504455894,9.51757258075194e-06,7.99543385516636e-12,0.0162846252267924,2021-09-25
"313",156,0.0320774244260665,9.41227482135719e-06,7.50268432144729e-12,0.0160387122167846,2021-09-26
"314",156.5,0.0315869244029755,9.3222547861707e-06,7.04025701964759e-12,0.0157934622050079,2021-09-26
"315",157,0.0310980080572112,9.23310310558501e-06,6.60628912038667e-12,0.0155490040319087,2021-09-27
"316",157.5,0.0306109232278679,9.1448111594521e-06,6.19903202347391e-12,0.0153054616170335,2021-09-27
"317",158,0.0301259079392671,9.05737042232611e-06,5.81684436794351e-12,0.015062953972542,2021-09-28
"318",158.5,0.0296431904457839,8.97077246207851e-06,5.4581854688185e-12,0.0148215952256211,2021-09-28
"319",159,0.0291629892934206,8.88500893854523e-06,5.12160915462197e-12,0.0145814946492711,2021-09-29
"320",159.5,0.0288538225135552,8.7756035889079e-06,4.80575798123032e-12,0.0144269112591805,2021-09-29
"321",160,0.0287431455215961,8.66140405785343e-06,4.50935779914561e-12,0.0143715727630527,2021-09-30
"322",160.5,0.0286277442691512,8.54877130966494e-06,4.23121265265573e-12,0.0143138721366912,2021-09-30
"323",161,0.0285077087552185,8.4376827873851e-06,3.97019999065936e-12,0.0142538543795943,2021-10-01
"324",161.5,0.0283831312765435,8.32811627396438e-06,3.72526617016116e-12,0.0141915656401344,2021-10-01
"325",162,0.0282541062945707,8.22004988686286e-06,3.49542223459688e-12,0.0141270531490331,2021-10-02
"326",162.5,0.0281207303016279,8.11346207274482e-06,3.27973995023275e-12,0.0140603651524538,2021-10-02
"327",163,0.0279831016866215,8.00833160226425e-06,3.07734808490171e-12,0.0139915508448494,2021-10-03
"328",163.5,0.0278413206005161,7.90463756493948e-06,2.8874289142965e-12,0.0139206603017018,2021-10-03
"329",164,0.0276954888218644,7.80235936411537e-06,2.70921494193816e-12,0.0138477444122868,2021-10-04
"330",164.5,0.0275457096226446,7.70147671201111e-06,2.54198581978313e-12,0.0137728548125933,2021-10-04
"331",165,0.0273920876346585,7.60196962485218e-06,2.38506545722538e-12,0.0136960438185218,2021-10-05
"332",165.5,0.0273588245659563,7.5038184180848e-06,2.23781930699504e-12,0.0136794122840971,2021-10-05
"333",166,0.0273615397438841,7.40700370167126e-06,2.09965181715492e-12,0.0136807698729919,2021-10-06
"334",166.5,0.0273602893203708,7.31150637546462e-06,1.97000403905381e-12,0.0136801446611704,2021-10-06
"335",167,0.0273550816106113,7.20483744566611e-06,1.84835138171298e-12,0.0136775408062298,2021-10-07
"336",167.5,0.0273459271335418,7.0856586715393e-06,1.73420150370227e-12,0.013672963567638,2021-10-07
"337",168,0.0273328385915892,6.96845366086575e-06,1.62709233410694e-12,0.0136664192966081,2021-10-08
"338",168.5,0.0273158308479942,6.85318968347896e-06,1.5265902146985e-12,0.0136579154247604,2021-10-08
"339",169,0.0272949209017675,6.73983455281458e-06,1.43228815590287e-12,0.0136474604515999,2021-10-09
"340",169.5,0.0272701278603394,6.62835661686022e-06,1.34380419961112e-12,0.0136350639308416,2021-10-09
"341",170,0.0272414729099704,6.51872474925671e-06,1.26077988230175e-12,0.0136207364556156,2021-10-10
"342",170.5,0.0272089792839907,6.4109083405481e-06,1.18287879234186e-12,0.0136044896425868,2021-10-10
"343",171,0.0271726722289418,6.30487728957801e-06,1.10978521570836e-12,0.0135863361150258,2021-10-11
"344",171.5,0.0271325789686973,6.20060199502976e-06,1.04120286472203e-12,0.0135662894848692,2021-10-11
"345",172,0.0270887286666394,6.09805334710797e-06,9.76853684716556e-13,0.0135443643338081,2021-10-12
"346",172.5,0.0270411523859763,5.99720271935913e-06,9.16476733875121e-13,0.0135205761934464,2021-10-12
"347",173,0.0269898830482801,5.89802196062886e-06,8.59827131757599e-13,0.01349494152457,2021-10-13
"348",173.5,0.0269349553903356,5.80048338715355e-06,8.06675072314966e-13,0.0134674776955711,2021-10-13
"349",174,0.0268764059193854,5.71397301489248e-06,7.56804897444033e-13,0.0134382029600711,2021-10-14
"350",174.5,0.0268142728668622,5.63892420588264e-06,7.10014227376654e-13,0.0134071364337861,2021-10-14
"351",175,0.0267485961406998,5.56495610026992e-06,6.66113144423878e-13,0.0133742980706829,2021-10-15
"352",175.5,0.0266794172763143,5.49205200160494e-06,6.24923426808039e-13,0.0133397086384696,2021-10-15
"353",176,0.0266067793863504,5.42019548445602e-06,5.8627782951539e-13,0.0133033896934683,2021-10-16
"354",176.5,0.0265307271092852,5.34937038984104e-06,5.50019409289294e-13,0.0132653635549176,2021-10-16
"355",177,0.0264513065569859,5.27956082073944e-06,5.16000891060003e-13,0.0132256532787509,2021-10-17
"356",177.5,0.0263685652613145,5.21075113768285e-06,4.84084073272318e-13,0.0131842826308993,2021-10-17
"357",178,0.0262825521198759,5.14292595442303e-06,4.54139269727635e-13,0.013141276060165,2021-10-18
"358",178.5,0.0261933173410025,5.0760701336755e-06,4.260447857026e-13,0.0130966586707143,2021-10-18
"359",179,0.0261009123880708,5.01016878293759e-06,3.9968642624346e-13,0.0130504561942353,2021-10-19
"360",179.5,0.0260053899232424,4.94520725037943e-06,3.74957034663666e-13,0.0130026949618087,2021-10-19
"361",180,0.025906803750723,4.8811711208066e-06,3.51756059392986e-13,0.0129534018755374,2021-10-20
"362",180.5,0.0258052087596302,4.81804621169312e-06,3.29989147439612e-13,0.0129026043799801,2021-10-20
"363",181,0.0257006608665607,4.75581856928337e-06,3.09567762833207e-13,0.0128503304334351,2021-10-21
"364",181.5,0.0255932169579463,4.69447446476191e-06,2.90408828516643e-13,0.0127966084791183,2021-10-21
"365",182,0.0254829348322855,4.63400039048961e-06,2.7243439024802e-13,0.0127414674162789,2021-10-22
"366",182.5,0.025369873142336,4.57438305630527e-06,2.55571301162595e-13,0.0126849365712958,2021-10-22
"367",183,0.0252540913373533,4.51560938589116e-06,2.39750925726928e-13,0.0126270456687965,2021-10-23
"368",183.5,0.0251356496054551,4.45766651320159e-06,2.24908861895191e-13,0.01256782480284,2021-10-23
"369",184,0.0250146088161922,4.40054177895321e-06,2.1098468035046e-13,0.0125073044082016,2021-10-24
"370",184.5,0.0248910304634038,4.34422272717601e-06,1.97921679782253e-13,0.0124455152318009,2021-10-24
"371",185,0.0247649766084297,4.28869710182378e-06,1.85666657215818e-13,0.0123824883043077,2021-10-25
"372",185.5,0.0246365098237544,4.23395284344318e-06,1.74169692469011e-13,0.0123182549119643,2021-10-25
"373",186,0.0245056931371511,4.17997808590004e-06,1.63383945869221e-13,0.0122528465686572,2021-10-26
"374",186.5,0.0243725899763933,4.12676115316225e-06,1.53265468415971e-13,0.0121862949882733,2021-10-26
"375",187,0.0242372641145985,4.07429055613784e-06,1.43773023624769e-13,0.0121186320573711,2021-10-27
"376",187.5,0.024099779616265,4.02255498956748e-06,1.34867920334617e-13,0.0120498898081999,2021-10-27
"377",188,0.0239602007840612,3.97154332897039e-06,1.26513855805592e-13,0.0119801003920939,2021-10-28
"378",188.5,0.0238185921064229,3.92124462764267e-06,1.18676768474243e-13,0.0119092960532708,2021-10-28
"379",189,0.0236750182060111,3.86601774893162e-06,1.11324699773288e-13,0.0118375091030612,2021-10-29
"380",189.5,0.0235295437890808,3.80351183071999e-06,1.04427664458542e-13,0.0117647718945926,2021-10-29
"381",190,0.0233822335958081,3.74201921206052e-06,9.79575289201398e-14,0.011691116797953,2021-10-30
"382",190.5,0.0232331523516179,3.68152342203611e-06,9.18878969872438e-14,0.0116165761758549,2021-10-30
"383",191,0.0230823647195561,3.62200825818997e-06,8.61940027655158e-14,0.0115411823598211,2021-10-31
"384",191.5,0.0229299352537413,3.56345778213715e-06,8.08526100749225e-14,0.0114649676269111,2021-10-31
"385",192,0.0227759283539333,3.50585631524818e-06,7.58419180819812e-14,0.0113879641770046,2021-11-01
"386",192.5,0.0226204082212501,3.44918843440339e-06,7.11414727454726e-14,0.0113102041106606,2021-11-01
"387",193,0.0224634388150615,3.39343896781698e-06,6.67320837180364e-14,0.0112317194075641,2021-11-02
"388",193.5,0.0223050838110885,3.3385929909295e-06,6.25957463680217e-14,0.0111525419055755,2021-11-02
"389",194,0.0221454065607286,3.28463582236773e-06,5.87155686065786e-14,0.0110727032803937,2021-11-03
"390",194.5,0.0219844700516312,3.23285256556155e-06,5.5075702224322e-14,0.0109922350258432,2021-11-03
"391",195,0.0218223368695391,3.18618040955411e-06,5.16612784600635e-14,0.0109111684347954,2021-11-04
"392",195.5,0.0216590691614125,3.14018574591222e-06,4.84583475411535e-14,0.0108295345807305,2021-11-04
"393",196,0.0214947285998481,3.09485868903229e-06,4.54538219509805e-14,0.0107473642999468,2021-11-05
"394",196.5,0.0213293763488046,3.0501894982442e-06,4.26354231941941e-14,0.0106646881744236,2021-11-05
"395",197,0.0211630730306404,3.0061685756777e-06,3.99916318443213e-14,0.0105815365153402,2021-11-06
"396",197.5,0.0210303119676338,2.96278646416029e-06,3.75116406716769e-14,0.0105151559838356,2021-11-06
"397",198,0.021105139448919,2.92003384514613e-06,3.51853106618963e-14,0.0105525697244771,2021-11-07
"398",198.5,0.021177857739539,2.87790153667558e-06,3.30031297470766e-14,0.010588928869786,2021-11-07
"399",199,0.0212484389523565,2.83638049136479e-06,3.09561740824587e-14,0.0106242194761937,2021-11-08
"400",199.5,0.021316856040453,2.79546179442508e-06,2.90360717118566e-14,0.010658428020241,2021-11-08
"401",200,0.0213830828189917,2.75513666171146e-06,2.72349684746817e-14,0.0106915414095095,2021-11-09
"402",200.5,0.021447093986352,2.71539643780002e-06,2.55454960164621e-14,0.0107235469931888,2021-11-09
"403",201,0.0215088651445049,2.6762325940937e-06,2.39607417732523e-14,0.0107544325722644,2021-11-10
"404",201.5,0.0215683728186014,2.63763672695602e-06,2.24742208082992e-14,0.0107841864093119,2021-11-10
