,test_date,pcr_result,antibody_result,vaccinated,sector,sewer_zone,zip_code,round_name,record_type,time_point
0,2020-06-10 10:15:00,0,0,No,4,12,40220,1,ProbabilitySelected,0
1,2020-06-10 14:30:00,0,0,No,4,11,40222,1,ProbabilitySelected,0
2,2020-06-10 15:00:00,0,0,No,4,14,40299,1,ProbabilitySelected,0
3,2020-06-10 11:30:00,0,0,No,4,11,40222,1,ProbabilitySelected,0
4,2020-06-10 09:00:00,0,0,No,4,5,40059,1,ProbabilitySelected,0
5,2020-06-10 10:30:00,0,0,No,4,11,40242,1,ProbabilitySelected,0
6,2020-06-10 14:00:00,0,0,No,4,11,40242,1,ProbabilitySelected,0
7,2020-06-10 16:30:00,0,0,No,4,11,40242,1,ProbabilitySelected,0
8,2020-06-10 14:45:00,0,0,No,4,4,40245,1,ProbabilitySelected,0
9,2020-06-10 13:15:00,0,0,No,4,11,40220,1,ProbabilitySelected,0
10,2020-06-10 16:00:00,0,0,No,4,5,40059,1,ProbabilitySelected,0
11,2020-06-10 15:45:00,0,0,No,4,12,40220,1,ProbabilitySelected,0
12,2020-06-10 09:45:00,0,0,No,4,12,40218,1,ProbabilitySelected,0
13,2020-06-10 10:00:00,0,0,No,4,11,40220,1,ProbabilitySelected,0
14,2020-06-10 10:45:00,0,0,No,4,5,40059,1,ProbabilitySelected,0
15,2020-06-10 10:45:00,0,0,No,4,5,40059,1,ProbabilitySelected,0
16,2020-06-11 13:30:00,0,0,No,4,5,40059,1,ProbabilitySelected,1
17,2020-06-11 10:15:00,0,0,No,4,5,40241,1,ProbabilitySelected,1
18,2020-06-11 16:00:00,0,0,No,4,4,40245,1,ProbabilitySelected,1
19,2020-06-11 11:15:00,0,0,No,4,11,40222,1,ProbabilitySelected,1
20,2020-06-11 13:30:00,0,0,No,4,11,40242,1,ProbabilitySelected,1
21,2020-06-11 11:00:00,0,0,No,4,12,40218,1,ProbabilitySelected,1
22,2020-06-11 10:00:00,0,0,No,4,12,40218,1,ProbabilitySelected,1
23,2020-06-11 12:15:00,0,0,No,4,4,40245,1,ProbabilitySelected,1
24,2020-06-11 10:15:00,0,0,No,4,11,40222,1,ProbabilitySelected,1
25,2020-06-11 12:15:00,0,0,No,4,11,40222,1,ProbabilitySelected,1
26,2020-06-11 09:15:00,0,0,No,4,4,40245,1,ProbabilitySelected,1
27,2020-06-11 14:00:00,0,0,No,4,11,40222,1,ProbabilitySelected,1
28,2020-06-11 10:15:00,0,0,No,4,11,40220,1,ProbabilitySelected,1
29,2020-06-11 13:15:00,0,0,No,4,5,40245,1,ProbabilitySelected,1
30,2020-06-11 10:30:00,0,0,No,4,5,40241,1,ProbabilitySelected,1
31,2020-06-11 10:45:00,0,1,No,4,12,40218,1,ProbabilitySelected,1
32,2020-06-11 09:15:00,0,0,No,4,11,40220,1,ProbabilitySelected,1
33,2020-06-11 12:00:00,0,0,No,4,11,40222,1,ProbabilitySelected,1
34,2020-06-11 14:30:00,0,0,No,4,12,40218,1,ProbabilitySelected,1
35,2020-06-11 11:30:00,0,0,No,4,5,40222,1,ProbabilitySelected,1
36,2020-06-11 14:15:00,0,0,No,4,11,40242,1,ProbabilitySelected,1
37,2020-06-11 10:45:00,0,0,No,4,12,40218,1,ProbabilitySelected,1
38,2020-06-11 15:30:00,0,0,No,4,12,40220,1,ProbabilitySelected,1
39,2020-06-11 13:45:00,0,0,No,4,12,40220,1,ProbabilitySelected,1
40,2020-06-11 11:45:00,0,0,No,4,4,40245,1,ProbabilitySelected,1
41,2020-06-11 12:00:00,0,0,No,4,5,40059,1,ProbabilitySelected,1
42,2020-06-11 15:45:00,0,0,No,4,11,40241,1,ProbabilitySelected,1
43,2020-06-11 11:00:00,0,0,No,4,12,40220,1,ProbabilitySelected,1
44,2020-06-11 13:15:00,0,0,No,4,4,40245,1,ProbabilitySelected,1
45,2020-06-11 11:30:00,0,0,No,4,11,40242,1,ProbabilitySelected,1
46,2020-06-11 11:00:00,0,0,No,4,12,40218,1,ProbabilitySelected,1
47,2020-06-11 15:00:00,0,0,No,4,14,40299,1,ProbabilitySelected,1
48,2020-06-11 14:00:00,0,0,No,4,12,40220,1,ProbabilitySelected,1
49,2020-06-11 11:15:00,0,1,No,4,4,40299,1,ProbabilitySelected,1
50,2020-06-11 11:30:00,0,0,No,4,11,40223,1,ProbabilitySelected,1
51,2020-06-11 10:30:00,0,0,No,4,11,40222,1,ProbabilitySelected,1
52,2020-06-11 09:00:00,0,0,No,4,12,40218,1,ProbabilitySelected,1
53,2020-06-11 10:00:00,0,0,No,4,11,40241,1,ProbabilitySelected,1
54,2020-06-11 14:00:00,0,0,No,4,12,40218,1,ProbabilitySelected,1
55,2020-06-11 09:30:00,0,0,No,4,11,40241,1,ProbabilitySelected,1
56,2020-06-11 15:30:00,0,0,No,4,5,40059,1,ProbabilitySelected,1
57,2020-06-11 10:15:00,0,0,No,4,5,40245,1,ProbabilitySelected,1
58,2020-06-11 13:15:00,0,0,No,4,5,40245,1,ProbabilitySelected,1
59,2020-06-11 11:30:00,0,0,No,4,11,40220,1,ProbabilitySelected,1
60,2020-06-11 09:00:00,0,0,No,4,5,40059,1,ProbabilitySelected,1
61,2020-06-11 10:45:00,0,0,No,4,11,40241,1,ProbabilitySelected,1
62,2020-06-12 15:00:00,0,0,No,4,14,40299,1,ProbabilitySelected,2
63,2020-06-12 16:45:00,0,0,No,4,12,40220,1,ProbabilitySelected,2
64,2020-06-12 11:00:00,0,0,No,4,5,40245,1,ProbabilitySelected,2
65,2020-06-12 14:00:00,0,0,No,4,12,40218,1,ProbabilitySelected,2
66,2020-06-12 14:00:00,0,0,No,4,12,40218,1,ProbabilitySelected,2
67,2020-06-12 13:45:00,0,0,No,4,11,40222,1,ProbabilitySelected,2
68,2020-06-12 13:30:00,0,0,No,4,5,40059,1,ProbabilitySelected,2
69,2020-06-12 09:15:00,0,0,No,4,12,40220,1,ProbabilitySelected,2
70,2020-06-12 11:45:00,0,0,No,4,5,40059,1,ProbabilitySelected,2
71,2020-06-12 14:00:00,0,0,No,4,12,40220,1,ProbabilitySelected,2
72,2020-06-12 14:00:00,0,0,No,4,11,40223,1,ProbabilitySelected,2
73,2020-06-12 10:00:00,0,0,No,4,5,40059,1,ProbabilitySelected,2
74,2020-06-12 13:15:00,0,0,No,4,5,40245,1,ProbabilitySelected,2
75,2020-06-12 10:45:00,0,0,No,4,14,40299,1,ProbabilitySelected,2
76,2020-06-12 13:30:00,0,0,No,4,11,40223,1,ProbabilitySelected,2
77,2020-06-12 10:30:00,0,0,No,4,11,40242,1,ProbabilitySelected,2
78,2020-06-12 10:30:00,0,0,No,4,11,40242,1,ProbabilitySelected,2
79,2020-06-12 09:30:00,0,0,No,4,12,40299,1,ProbabilitySelected,2
80,2020-06-12 09:15:00,0,1,No,4,11,40223,1,ProbabilitySelected,2
81,2020-06-12 13:15:00,0,0,No,4,11,40242,1,ProbabilitySelected,2
82,2020-06-12 15:30:00,0,0,No,4,12,40220,1,ProbabilitySelected,2
83,2020-06-12 10:45:00,0,0,No,4,12,40220,1,ProbabilitySelected,2
84,2020-06-12 12:00:00,0,0,No,4,5,40241,1,ProbabilitySelected,2
85,2020-06-12 16:45:00,0,0,No,4,5,40241,1,ProbabilitySelected,2
86,2020-06-12 09:15:00,0,0,No,4,4,40299,1,ProbabilitySelected,2
87,2020-06-12 13:15:00,0,0,No,4,5,40245,1,ProbabilitySelected,2
88,2020-06-12 09:45:00,0,0,No,4,12,40220,1,ProbabilitySelected,2
89,2020-06-12 09:15:00,0,0,No,4,11,40242,1,ProbabilitySelected,2
90,2020-06-12 11:00:00,0,0,No,4,11,40241,1,ProbabilitySelected,2
91,2020-06-12 11:00:00,0,0,No,4,5,40059,1,ProbabilitySelected,2
92,2020-06-12 09:00:00,0,0,No,4,11,40223,1,ProbabilitySelected,2
93,2020-06-12 09:00:00,0,0,No,4,4,40245,1,ProbabilitySelected,2
94,2020-06-12 09:00:00,0,0,No,4,11,40223,1,ProbabilitySelected,2
95,2020-06-12 12:15:00,0,0,No,4,11,40222,1,ProbabilitySelected,2
96,2020-06-12 13:30:00,0,0,No,4,11,40223,1,ProbabilitySelected,2
97,2020-06-12 09:15:00,0,0,No,4,11,40222,1,ProbabilitySelected,2
98,2020-06-12 16:00:00,0,0,No,4,11,40220,1,ProbabilitySelected,2
99,2020-06-12 09:00:00,0,0,No,4,5,40241,1,ProbabilitySelected,2
100,2020-06-12 12:15:00,0,0,No,4,12,40299,1,ProbabilitySelected,2
101,2020-06-12 09:45:00,0,0,No,4,11,40242,1,ProbabilitySelected,2
102,2020-06-12 16:30:00,0,0,No,4,11,40241,1,ProbabilitySelected,2
103,2020-06-12 15:00:00,0,0,No,4,11,40220,1,ProbabilitySelected,2
104,2020-06-13 10:30:00,0,0,No,4,4,40245,1,ProbabilitySelected,3
105,2020-06-13 13:45:00,0,0,No,4,11,40242,1,ProbabilitySelected,3
106,2020-06-13 13:15:00,0,0,No,4,12,40220,1,ProbabilitySelected,3
107,2020-06-13 14:00:00,0,0,No,4,11,40242,1,ProbabilitySelected,3
108,2020-06-13 12:15:00,0,0,No,4,11,40220,1,ProbabilitySelected,3
109,2020-06-13 09:00:00,0,0,No,4,12,40220,1,ProbabilitySelected,3
110,2020-06-13 12:15:00,0,0,No,4,11,40242,1,ProbabilitySelected,3
111,2020-06-13 09:15:00,0,0,No,4,4,40245,1,ProbabilitySelected,3
112,2020-06-13 14:30:00,0,0,No,4,14,40291,1,ProbabilitySelected,3
113,2020-06-13 09:00:00,0,0,No,4,12,40220,1,ProbabilitySelected,3
114,2020-06-13 13:30:00,0,0,No,4,5,40059,1,ProbabilitySelected,3
115,2020-06-13 09:00:00,0,0,No,4,5,40059,1,ProbabilitySelected,3
116,2020-06-13 10:30:00,0,0,No,4,12,40220,1,ProbabilitySelected,3
117,2020-06-13 14:45:00,0,0,No,4,5,40059,1,ProbabilitySelected,3
118,2020-06-13 14:30:00,0,0,No,4,4,40299,1,ProbabilitySelected,3
119,2020-06-13 10:15:00,0,0,No,4,12,40299,1,ProbabilitySelected,3
120,2020-06-13 12:15:00,0,0,No,4,5,40245,1,ProbabilitySelected,3
121,2020-06-13 14:30:00,0,0,No,4,5,40241,1,ProbabilitySelected,3
122,2020-06-13 16:30:00,0,0,No,4,5,40241,1,ProbabilitySelected,3
123,2020-06-13 09:00:00,0,0,No,4,11,40222,1,ProbabilitySelected,3
124,2020-06-13 11:15:00,0,0,No,4,5,40059,1,ProbabilitySelected,3
125,2020-06-13 09:00:00,0,0,No,4,5,40245,1,ProbabilitySelected,3
126,2020-06-15 13:15:00,0,1,No,4,11,40222,1,ProbabilitySelected,5
127,2020-06-15 12:00:00,0,0,No,4,5,40245,1,ProbabilitySelected,5
128,2020-06-15 09:45:00,0,0,No,4,3,40299,1,ProbabilitySelected,5
129,2020-06-15 13:30:00,0,0,No,4,12,40218,1,ProbabilitySelected,5
130,2020-06-15 16:45:00,0,0,No,4,5,40245,1,ProbabilitySelected,5
131,2020-06-15 11:00:00,0,0,No,4,4,40245,1,ProbabilitySelected,5
132,2020-06-15 11:15:00,0,0,No,4,12,40220,1,ProbabilitySelected,5
133,2020-06-15 14:45:00,0,0,No,4,11,40241,1,ProbabilitySelected,5
134,2020-06-15 11:45:00,0,0,No,4,5,40241,1,ProbabilitySelected,5
135,2020-06-15 13:45:00,0,0,No,4,11,40241,1,ProbabilitySelected,5
136,2020-06-15 14:15:00,0,0,No,4,12,40220,1,ProbabilitySelected,5
137,2020-06-15 14:00:00,0,0,No,4,11,40223,1,ProbabilitySelected,5
138,2020-06-15 10:00:00,0,0,No,4,11,40223,1,ProbabilitySelected,5
139,2020-06-15 11:00:00,0,0,No,4,12,40299,1,ProbabilitySelected,5
140,2020-06-15 13:45:00,0,0,No,4,5,40059,1,ProbabilitySelected,5
141,2020-06-15 09:00:00,0,0,No,4,11,40242,1,ProbabilitySelected,5
142,2020-06-15 10:00:00,0,0,No,4,5,40245,1,ProbabilitySelected,5
143,2020-06-15 14:00:00,0,0,No,4,11,40241,1,ProbabilitySelected,5
144,2020-06-15 16:45:00,0,0,No,4,12,40299,1,ProbabilitySelected,5
145,2020-06-15 09:30:00,0,1,No,4,5,40059,1,ProbabilitySelected,5
146,2020-06-15 16:00:00,0,0,No,4,4,40245,1,ProbabilitySelected,5
147,2020-06-15 09:15:00,0,0,No,4,5,40241,1,ProbabilitySelected,5
148,2020-06-15 11:00:00,0,0,No,4,11,40222,1,ProbabilitySelected,5
149,2020-06-15 09:15:00,0,0,No,4,5,40059,1,ProbabilitySelected,5
150,2020-06-15 10:15:00,0,0,No,4,5,40059,1,ProbabilitySelected,5
151,2020-06-15 09:30:00,0,0,No,4,12,40220,1,ProbabilitySelected,5
152,2020-06-16 09:15:00,0,0,No,4,5,40059,1,ProbabilitySelected,6
153,2020-06-16 11:00:00,0,0,No,4,3,40299,1,ProbabilitySelected,6
154,2020-06-16 13:30:00,0,0,No,4,12,40299,1,ProbabilitySelected,6
155,2020-06-16 16:45:00,0,0,No,4,5,40241,1,ProbabilitySelected,6
156,2020-06-16 13:00:00,0,0,No,4,11,40243,1,ProbabilitySelected,6
157,2020-06-16 09:00:00,0,0,No,4,5,40059,1,ProbabilitySelected,6
158,2020-06-16 11:15:00,0,0,No,4,3,40299,1,ProbabilitySelected,6
159,2020-06-16 12:15:00,0,0,No,4,4,40243,1,ProbabilitySelected,6
160,2020-06-16 14:45:00,0,0,No,4,3,40291,1,ProbabilitySelected,6
161,2020-06-16 13:15:00,0,0,No,4,4,40243,1,ProbabilitySelected,6
162,2020-06-16 11:45:00,0,0,No,4,11,40220,1,ProbabilitySelected,6
163,2020-06-16 15:45:00,0,0,No,4,4,40245,1,ProbabilitySelected,6
164,2020-06-16 13:30:00,0,0,No,4,12,40299,1,ProbabilitySelected,6
165,2020-06-16 13:15:00,0,0,No,4,5,40241,1,ProbabilitySelected,6
166,2020-06-16 16:45:00,0,0,No,4,5,40245,1,ProbabilitySelected,6
167,2020-06-16 15:30:00,0,0,No,4,5,40245,1,ProbabilitySelected,6
168,2020-06-16 10:30:00,0,0,No,4,11,40222,1,ProbabilitySelected,6
169,2020-06-16 16:00:00,0,0,No,4,12,40220,1,ProbabilitySelected,6
170,2020-06-16 10:00:00,0,0,No,4,11,40242,1,ProbabilitySelected,6
171,2020-06-16 16:30:00,0,0,No,4,12,40220,1,ProbabilitySelected,6
172,2020-06-16 14:15:00,0,0,No,4,12,40220,1,ProbabilitySelected,6
173,2020-06-17 15:45:00,0,0,No,4,5,40241,1,ProbabilitySelected,7
174,2020-06-17 13:45:00,0,0,No,4,5,40241,1,ProbabilitySelected,7
175,2020-06-17 10:30:00,0,0,No,4,12,40299,1,ProbabilitySelected,7
176,2020-06-17 13:45:00,0,0,No,4,12,40218,1,ProbabilitySelected,7
177,2020-06-17 16:15:00,0,0,No,4,5,40222,1,ProbabilitySelected,7
178,2020-06-17 14:00:00,0,0,No,4,11,40222,1,ProbabilitySelected,7
179,2020-06-17 09:30:00,0,0,No,4,5,40245,1,ProbabilitySelected,7
180,2020-06-17 10:45:00,0,0,No,4,12,40220,1,ProbabilitySelected,7
181,2020-06-17 10:30:00,0,0,No,4,11,40242,1,ProbabilitySelected,7
182,2020-06-17 09:45:00,0,0,No,4,5,40059,1,ProbabilitySelected,7
183,2020-06-17 11:00:00,0,0,No,4,11,40241,1,ProbabilitySelected,7
184,2020-06-17 16:45:00,0,0,No,4,3,40299,1,ProbabilitySelected,7
185,2020-06-17 09:45:00,0,0,No,4,14,40299,1,ProbabilitySelected,7
186,2020-06-17 16:30:00,0,0,No,4,5,40245,1,ProbabilitySelected,7
187,2020-06-18 13:30:00,0,0,No,4,5,40241,1,ProbabilitySelected,8
188,2020-06-18 15:45:00,0,0,No,4,14,40299,1,ProbabilitySelected,8
189,2020-06-18 13:30:00,0,0,No,4,5,40059,1,ProbabilitySelected,8
190,2020-06-18 13:45:00,0,0,No,4,4,40245,1,ProbabilitySelected,8
191,2020-06-18 13:30:00,0,0,No,4,3,40291,1,ProbabilitySelected,8
192,2020-06-18 13:45:00,0,0,No,4,3,40291,1,ProbabilitySelected,8
193,2020-06-18 15:45:00,0,0,No,4,5,40241,1,ProbabilitySelected,8
194,2020-06-18 14:30:00,0,0,No,4,4,40243,1,ProbabilitySelected,8
195,2020-06-18 14:15:00,0,0,No,4,12,40218,1,ProbabilitySelected,8
196,2020-06-18 11:45:00,0,0,No,4,5,40241,1,ProbabilitySelected,8
197,2020-06-18 10:15:00,0,0,No,4,3,40299,1,ProbabilitySelected,8
198,2020-06-18 14:45:00,0,0,No,4,5,40241,1,ProbabilitySelected,8
199,2020-06-18 09:00:00,0,0,No,4,11,40222,1,ProbabilitySelected,8
200,2020-06-19 16:45:00,0,0,No,4,12,40218,1,ProbabilitySelected,9
201,2020-06-19 15:00:00,0,0,No,4,5,40059,1,ProbabilitySelected,9
202,2020-06-19 11:30:00,0,0,No,4,11,40241,1,ProbabilitySelected,9
203,2020-06-19 09:45:00,0,0,No,4,12,40299,1,ProbabilitySelected,9
204,2020-06-19 13:30:00,0,0,No,4,5,40241,1,ProbabilitySelected,9
205,2020-06-19 10:45:00,0,0,No,4,5,40241,1,ProbabilitySelected,9
206,2020-06-19 09:30:00,0,0,No,4,4,40223,1,ProbabilitySelected,9
207,2020-06-19 09:15:00,0,0,No,4,5,40241,1,ProbabilitySelected,9
208,2020-06-19 10:15:00,0,0,No,4,3,40299,1,ProbabilitySelected,9
209,2020-06-19 15:30:00,0,0,No,4,5,40241,1,ProbabilitySelected,9
210,2020-06-19 15:15:00,0,0,No,4,11,40257,1,ProbabilitySelected,9
211,2020-06-19 14:30:00,0,0,No,4,11,40242,1,ProbabilitySelected,9
212,2020-06-19 11:45:00,0,0,No,4,5,40241,1,ProbabilitySelected,9
213,2020-06-19 10:45:00,0,0,No,4,11,40241,1,ProbabilitySelected,9
214,2020-06-19 13:30:00,0,0,No,4,5,40241,1,ProbabilitySelected,9
215,2020-06-19 16:00:00,0,0,No,4,11,40223,1,ProbabilitySelected,9
216,2020-06-19 11:30:00,0,0,No,4,12,40220,1,ProbabilitySelected,9
217,2020-06-19 16:30:00,0,0,No,4,11,40222,1,ProbabilitySelected,9
218,2020-06-19 12:00:00,0,0,No,4,3,40299,1,ProbabilitySelected,9
219,2020-09-09 14:00:00,0,0,No,4,12,40220,2,ProbabilitySelected,91
220,2020-09-09 13:30:00,0,0,No,4,5,40059,2,ProbabilitySelected,91
221,2020-09-09 15:15:00,0,0,No,4,11,40222,2,ProbabilitySelected,91
222,2020-09-09 14:30:00,0,0,No,4,5,40059,2,ProbabilitySelected,91
223,2020-09-09 12:45:00,0,0,No,4,5,40241,2,ProbabilitySelected,91
224,2020-09-09 16:00:00,0,0,No,4,4,40299,2,ProbabilitySelected,91
225,2020-09-09 14:45:00,0,0,No,4,5,40241,2,ProbabilitySelected,91
226,2020-09-09 13:30:00,0,0,No,4,11,40222,2,ProbabilitySelected,91
227,2020-09-09 09:45:00,0,0,No,4,11,40242,2,ProbabilitySelected,91
228,2020-09-09 13:45:00,0,0,No,4,3,40291,2,ProbabilitySelected,91
229,2020-09-09 16:00:00,0,0,No,4,3,40291,2,ProbabilitySelected,91
230,2020-09-09 13:45:00,0,0,No,4,11,40222,2,ProbabilitySelected,91
231,2020-09-09 15:30:00,0,0,No,4,5,40059,2,ProbabilitySelected,91
232,2020-09-09 14:15:00,0,0,No,4,11,40223,2,ProbabilitySelected,91
233,2020-09-09 12:45:00,0,0,No,4,3,40291,2,ProbabilitySelected,91
234,2020-09-09 12:45:00,0,0,No,4,3,40291,2,ProbabilitySelected,91
235,2020-09-09 13:45:00,0,0,No,4,5,40241,2,ProbabilitySelected,91
236,2020-09-09 16:30:00,0,0,No,4,5,40245,2,ProbabilitySelected,91
237,2020-09-09 13:15:00,0,0,No,4,3,40291,2,ProbabilitySelected,91
238,2020-09-09 12:45:00,0,0,No,4,5,40245,2,ProbabilitySelected,91
239,2020-09-09 15:00:00,0,0,No,4,11,40242,2,ProbabilitySelected,91
240,2020-09-09 13:15:00,0,0,No,4,3,40291,2,ProbabilitySelected,91
241,2020-09-09 16:15:00,0,0,No,4,12,40218,2,ProbabilitySelected,91
242,2020-09-09 11:45:00,0,0,No,4,5,40245,2,ProbabilitySelected,91
243,2020-09-09 11:45:00,0,0,No,4,11,40222,2,ProbabilitySelected,91
244,2020-09-09 13:15:00,0,0,No,4,11,40242,2,ProbabilitySelected,91
245,2020-09-09 14:00:00,0,0,No,4,12,40220,2,ProbabilitySelected,91
246,2020-09-09 15:00:00,0,0,No,4,5,40059,2,ProbabilitySelected,91
247,2020-09-09 11:15:00,0,0,No,4,4,40299,2,ProbabilitySelected,91
248,2020-09-09 15:45:00,0,0,No,4,11,40222,2,ProbabilitySelected,91
249,2020-09-09 09:00:00,0,0,No,4,11,40222,2,ProbabilitySelected,91
250,2020-09-09 09:15:00,0,0,No,4,11,40243,2,ProbabilitySelected,91
251,2020-09-09 16:45:00,0,0,No,4,11,40223,2,ProbabilitySelected,91
252,2020-09-09 14:00:00,0,0,No,4,11,40222,2,ProbabilitySelected,91
253,2020-09-09 16:15:00,0,0,No,4,4,40223,2,ProbabilitySelected,91
254,2020-09-09 14:45:00,0,0,No,4,5,40245,2,ProbabilitySelected,91
255,2020-09-09 14:45:00,0,0,No,4,12,40218,2,ProbabilitySelected,91
256,2020-09-09 15:00:00,0,0,No,4,5,40241,2,ProbabilitySelected,91
257,2020-09-09 15:15:00,0,0,No,4,4,40245,2,ProbabilitySelected,91
258,2020-09-09 15:45:00,0,0,No,4,5,40241,2,ProbabilitySelected,91
259,2020-09-09 10:45:00,0,0,No,4,4,40245,2,ProbabilitySelected,91
260,2020-09-09 15:15:00,0,0,No,4,4,40245,2,ProbabilitySelected,91
261,2020-09-09 15:30:00,0,0,No,4,5,40241,2,ProbabilitySelected,91
262,2020-09-09 15:30:00,0,0,No,4,11,40242,2,ProbabilitySelected,91
263,2020-09-09 10:00:00,0,0,No,4,12,40218,2,ProbabilitySelected,91
264,2020-09-09 11:45:00,0,0,No,4,12,40220,2,ProbabilitySelected,91
265,2020-09-09 09:00:00,0,0,No,4,11,40242,2,ProbabilitySelected,91
266,2020-09-09 11:15:00,0,0,No,4,12,40218,2,ProbabilitySelected,91
267,2020-09-09 09:30:00,0,0,No,4,11,40243,2,ProbabilitySelected,91
268,2020-09-09 16:45:00,0,0,No,4,11,40241,2,ProbabilitySelected,91
269,2020-09-09 10:15:00,0,0,No,4,12,40299,2,ProbabilitySelected,91
270,2020-09-09 13:00:00,0,0,No,4,11,40241,2,ProbabilitySelected,91
271,2020-09-09 16:00:00,0,0,No,4,11,40241,2,ProbabilitySelected,91
272,2020-09-09 14:45:00,0,0,No,4,11,40223,2,ProbabilitySelected,91
273,2020-09-09 16:15:00,0,0,No,4,5,40059,2,ProbabilitySelected,91
274,2020-09-09 15:30:00,0,0,No,4,11,40220,2,ProbabilitySelected,91
275,2020-09-09 09:30:00,0,0,No,4,4,40245,2,ProbabilitySelected,91
276,2020-09-09 09:30:00,0,0,No,4,11,40222,2,ProbabilitySelected,91
277,2020-09-09 11:00:00,0,0,No,4,11,40241,2,ProbabilitySelected,91
278,2020-09-09 14:15:00,0,0,No,4,11,40222,2,ProbabilitySelected,91
279,2020-09-09 14:15:00,0,0,No,4,12,40299,2,ProbabilitySelected,91
280,2020-09-09 09:15:00,0,0,No,4,3,40299,2,ProbabilitySelected,91
281,2020-09-09 16:15:00,0,0,No,4,11,40242,2,ProbabilitySelected,91
282,2020-09-09 09:00:00,0,0,No,4,11,40220,2,ProbabilitySelected,91
283,2020-09-09 16:00:00,0,0,No,4,5,40059,2,ProbabilitySelected,91
284,2020-09-09 14:30:00,0,0,No,4,12,40220,2,ProbabilitySelected,91
285,2020-09-09 15:00:00,0,0,No,4,11,40223,2,ProbabilitySelected,91
286,2020-09-09 14:00:00,0,0,No,4,3,40291,2,ProbabilitySelected,91
287,2020-09-09 09:30:00,0,0,No,4,5,40241,2,ProbabilitySelected,91
288,2020-09-09 14:30:00,0,0,No,4,11,40222,2,ProbabilitySelected,91
289,2020-09-09 13:00:00,0,0,No,4,5,40059,2,ProbabilitySelected,91
290,2020-09-09 14:15:00,0,0,No,4,5,40241,2,ProbabilitySelected,91
291,2020-09-09 11:00:00,0,0,No,4,5,40059,2,ProbabilitySelected,91
292,2020-09-09 11:30:00,0,0,No,4,3,40291,2,ProbabilitySelected,91
293,2020-09-09 15:00:00,0,0,No,4,5,40059,2,ProbabilitySelected,91
294,2020-09-09 14:30:00,0,0,No,4,4,40245,2,ProbabilitySelected,91
295,2020-09-09 10:30:00,0,0,No,4,3,40299,2,ProbabilitySelected,91
296,2020-09-09 10:45:00,0,0,No,4,12,40218,2,ProbabilitySelected,91
297,2020-09-09 09:15:00,0,0,No,4,11,40223,2,ProbabilitySelected,91
298,2020-09-09 11:15:00,0,0,No,4,5,40241,2,ProbabilitySelected,91
299,2020-09-09 10:45:00,0,0,No,4,11,40223,2,ProbabilitySelected,91
300,2020-09-09 11:45:00,0,0,No,4,4,40245,2,ProbabilitySelected,91
301,2020-09-09 09:30:00,0,0,No,4,4,40223,2,ProbabilitySelected,91
302,2020-09-09 10:15:00,0,0,No,4,11,40222,2,ProbabilitySelected,91
303,2020-09-09 13:00:00,0,0,No,4,4,40245,2,ProbabilitySelected,91
304,2020-09-09 16:45:00,0,0,No,4,5,40241,2,ProbabilitySelected,91
305,2020-09-09 09:00:00,0,0,No,4,11,40223,2,ProbabilitySelected,91
306,2020-09-09 09:15:00,0,0,No,4,5,40059,2,ProbabilitySelected,91
307,2020-09-09 10:00:00,0,0,No,4,12,40299,2,ProbabilitySelected,91
308,2020-09-09 10:45:00,0,0,No,4,11,40222,2,ProbabilitySelected,91
309,2020-09-09 16:45:00,0,0,No,4,5,40241,2,ProbabilitySelected,91
310,2020-09-09 09:00:00,0,0,No,4,5,40241,2,ProbabilitySelected,91
311,2020-09-09 16:00:00,0,0,No,4,12,40218,2,ProbabilitySelected,91
312,2020-09-09 15:00:00,0,0,No,4,3,40299,2,ProbabilitySelected,91
313,2020-09-09 10:00:00,0,0,No,4,11,40220,2,ProbabilitySelected,91
314,2020-09-09 11:45:00,0,0,No,4,11,40223,2,ProbabilitySelected,91
315,2020-09-09 10:30:00,0,0,No,4,12,40220,2,ProbabilitySelected,91
316,2020-09-09 10:30:00,0,0,No,4,5,40241,2,ProbabilitySelected,91
317,2020-09-09 10:15:00,0,0,No,4,11,40220,2,ProbabilitySelected,91
318,2020-09-09 10:00:00,0,0,No,4,12,40218,2,ProbabilitySelected,91
319,2020-09-09 11:30:00,0,0,No,4,14,40291,2,ProbabilitySelected,91
320,2020-09-09 13:30:00,0,0,No,4,12,40218,2,ProbabilitySelected,91
321,2020-09-09 10:15:00,0,0,No,4,4,40243,2,ProbabilitySelected,91
322,2020-09-09 09:30:00,0,0,No,4,5,40241,2,ProbabilitySelected,91
323,2020-09-09 10:45:00,0,0,No,4,11,40242,2,ProbabilitySelected,91
324,2020-09-09 09:15:00,0,0,No,4,11,40222,2,ProbabilitySelected,91
325,2020-09-09 10:15:00,0,0,No,4,12,40220,2,ProbabilitySelected,91
326,2020-09-09 11:15:00,0,0,No,4,11,40223,2,ProbabilitySelected,91
327,2020-09-09 10:15:00,0,0,No,4,12,40220,2,ProbabilitySelected,91
328,2020-09-09 09:45:00,0,0,No,4,11,40242,2,ProbabilitySelected,91
329,2020-09-09 11:15:00,0,0,No,4,14,40291,2,ProbabilitySelected,91
330,2020-09-09 09:30:00,0,0,No,4,11,40223,2,ProbabilitySelected,91
331,2020-09-09 11:15:00,0,0,No,4,5,40245,2,ProbabilitySelected,91
332,2020-09-09 13:15:00,0,0,No,4,3,40291,2,ProbabilitySelected,91
333,2020-09-09 16:15:00,0,0,No,4,11,40222,2,ProbabilitySelected,91
334,2020-09-09 14:45:00,0,0,No,4,14,40291,2,ProbabilitySelected,91
335,2020-09-09 11:00:00,0,0,No,4,11,40223,2,ProbabilitySelected,91
336,2020-09-09 14:15:00,0,0,No,4,11,40243,2,ProbabilitySelected,91
337,2020-09-09 12:45:00,0,0,No,4,4,40245,2,ProbabilitySelected,91
338,2020-09-09 11:30:00,0,0,No,4,11,40220,2,ProbabilitySelected,91
339,2020-09-09 11:15:00,0,0,No,4,11,40223,2,ProbabilitySelected,91
340,2020-09-09 13:00:00,0,0,No,4,5,40241,2,ProbabilitySelected,91
341,2020-09-09 10:45:00,0,0,No,4,5,40241,2,ProbabilitySelected,91
342,2020-09-09 11:15:00,0,0,No,4,5,40241,2,ProbabilitySelected,91
343,2020-09-09 13:00:00,0,0,No,4,11,40243,2,ProbabilitySelected,91
344,2020-09-09 10:15:00,0,0,No,4,4,40245,2,ProbabilitySelected,91
345,2020-09-09 09:45:00,0,0,No,4,5,40241,2,ProbabilitySelected,91
346,2020-09-09 10:00:00,0,0,No,4,11,40242,2,ProbabilitySelected,91
347,2020-09-09 16:00:00,0,0,No,4,12,40220,2,ProbabilitySelected,91
348,2020-09-09 13:30:00,0,0,No,4,5,40059,2,ProbabilitySelected,91
349,2020-09-10 10:00:00,0,0,No,4,11,40242,2,ProbabilitySelected,92
350,2020-09-10 13:45:00,0,0,No,4,5,40241,2,ProbabilitySelected,92
351,2020-09-10 15:15:00,0,0,No,4,5,40241,2,ProbabilitySelected,92
352,2020-09-10 16:00:00,0,0,No,4,12,40220,2,ProbabilitySelected,92
353,2020-09-10 14:15:00,0,0,No,4,4,40245,2,ProbabilitySelected,92
354,2020-09-10 14:15:00,0,0,No,4,4,40245,2,ProbabilitySelected,92
355,2020-09-10 13:45:00,0,0,No,4,5,40245,2,ProbabilitySelected,92
356,2020-09-10 15:30:00,0,0,No,4,3,40299,2,ProbabilitySelected,92
357,2020-09-10 15:30:00,0,0,No,4,14,40299,2,ProbabilitySelected,92
358,2020-09-10 16:45:00,0,0,No,4,12,40220,2,ProbabilitySelected,92
359,2020-09-10 09:00:00,0,0,No,4,11,40223,2,ProbabilitySelected,92
360,2020-09-10 14:30:00,0,0,No,4,4,40299,2,ProbabilitySelected,92
361,2020-09-10 12:45:00,0,0,No,4,11,40223,2,ProbabilitySelected,92
362,2020-09-10 11:45:00,0,0,No,4,3,40023,2,ProbabilitySelected,92
363,2020-09-10 16:00:00,0,0,No,4,4,40223,2,ProbabilitySelected,92
364,2020-09-10 11:30:00,0,0,No,4,12,40218,2,ProbabilitySelected,92
365,2020-09-10 16:45:00,0,0,No,4,4,40243,2,ProbabilitySelected,92
366,2020-09-10 14:30:00,0,0,No,4,5,40241,2,ProbabilitySelected,92
367,2020-09-10 11:15:00,0,0,No,4,4,40245,2,ProbabilitySelected,92
368,2020-09-10 14:00:00,0,0,No,4,11,40222,2,ProbabilitySelected,92
369,2020-09-10 09:15:00,0,0,No,4,11,40222,2,ProbabilitySelected,92
370,2020-09-10 12:45:00,1,0,No,4,11,40222,2,ProbabilitySelected,92
371,2020-09-10 14:15:00,0,0,No,4,5,40241,2,ProbabilitySelected,92
372,2020-09-10 16:30:00,0,0,No,4,11,40223,2,ProbabilitySelected,92
373,2020-09-10 13:30:00,0,0,No,4,3,40299,2,ProbabilitySelected,92
374,2020-09-10 14:45:00,0,0,No,4,11,40241,2,ProbabilitySelected,92
375,2020-09-10 09:45:00,0,0,No,4,4,40245,2,ProbabilitySelected,92
376,2020-09-10 14:45:00,0,0,No,4,12,40218,2,ProbabilitySelected,92
377,2020-09-10 13:15:00,0,0,No,4,12,40220,2,ProbabilitySelected,92
378,2020-09-10 09:15:00,0,0,No,4,4,40245,2,ProbabilitySelected,92
379,2020-09-10 14:15:00,0,0,No,4,11,40222,2,ProbabilitySelected,92
380,2020-09-10 13:00:00,0,0,No,4,11,40243,2,ProbabilitySelected,92
381,2020-09-10 09:15:00,0,1,No,4,11,40222,2,ProbabilitySelected,92
382,2020-09-10 10:00:00,0,0,No,4,12,40220,2,ProbabilitySelected,92
383,2020-09-10 10:30:00,0,0,No,4,12,40220,2,ProbabilitySelected,92
384,2020-09-10 09:00:00,0,1,No,4,3,40291,2,ProbabilitySelected,92
385,2020-09-10 16:30:00,0,0,No,4,11,40242,2,ProbabilitySelected,92
386,2020-09-10 10:15:00,0,0,No,4,11,40223,2,ProbabilitySelected,92
387,2020-09-10 15:00:00,0,0,No,4,5,40241,2,ProbabilitySelected,92
388,2020-09-10 16:15:00,0,0,No,4,11,40243,2,ProbabilitySelected,92
389,2020-09-10 09:30:00,0,0,No,4,3,40299,2,ProbabilitySelected,92
390,2020-09-10 15:45:00,0,0,No,4,11,40223,2,ProbabilitySelected,92
391,2020-09-10 15:45:00,0,0,No,4,5,40245,2,ProbabilitySelected,92
392,2020-09-10 15:15:00,0,0,No,4,11,40241,2,ProbabilitySelected,92
393,2020-09-10 15:30:00,0,0,No,4,5,40241,2,ProbabilitySelected,92
394,2020-09-10 09:15:00,0,0,No,4,11,40222,2,ProbabilitySelected,92
395,2020-09-10 11:15:00,0,0,No,4,4,40245,2,ProbabilitySelected,92
396,2020-09-10 15:15:00,0,0,No,4,4,40245,2,ProbabilitySelected,92
397,2020-09-10 15:15:00,0,0,No,4,11,40223,2,ProbabilitySelected,92
398,2020-09-10 15:45:00,0,0,No,4,4,40245,2,ProbabilitySelected,92
399,2020-09-10 16:15:00,0,0,No,4,5,40059,2,ProbabilitySelected,92
400,2020-09-10 14:45:00,0,0,No,4,3,40299,2,ProbabilitySelected,92
401,2020-09-10 15:45:00,0,0,No,4,11,40222,2,ProbabilitySelected,92
402,2020-09-10 16:15:00,0,0,No,4,5,40245,2,ProbabilitySelected,92
403,2020-09-10 14:00:00,0,0,No,4,11,40241,2,ProbabilitySelected,92
404,2020-09-10 14:30:00,0,0,No,4,5,40222,2,ProbabilitySelected,92
405,2020-09-10 10:30:00,0,0,No,4,5,40241,2,ProbabilitySelected,92
406,2020-09-10 11:30:00,0,0,No,4,11,40243,2,ProbabilitySelected,92
407,2020-09-10 09:30:00,0,0,No,4,5,40241,2,ProbabilitySelected,92
408,2020-09-10 13:15:00,0,0,No,4,11,40222,2,ProbabilitySelected,92
409,2020-09-10 11:15:00,0,0,No,4,5,40241,2,ProbabilitySelected,92
410,2020-09-10 09:15:00,0,0,No,4,11,40242,2,ProbabilitySelected,92
411,2020-09-10 11:45:00,0,0,No,4,5,40059,2,ProbabilitySelected,92
412,2020-09-10 15:00:00,0,0,No,4,5,40245,2,ProbabilitySelected,92
413,2020-09-10 16:00:00,0,0,No,4,12,40220,2,ProbabilitySelected,92
414,2020-09-10 11:00:00,0,0,No,4,11,40223,2,ProbabilitySelected,92
415,2020-09-10 11:00:00,0,0,No,4,11,40223,2,ProbabilitySelected,92
416,2020-09-10 09:30:00,0,0,No,4,11,40222,2,ProbabilitySelected,92
417,2020-09-10 16:15:00,0,0,No,4,12,40220,2,ProbabilitySelected,92
418,2020-09-10 10:30:00,0,0,No,4,11,40241,2,ProbabilitySelected,92
419,2020-09-10 10:30:00,0,0,No,4,11,40242,2,ProbabilitySelected,92
420,2020-09-10 13:30:00,0,0,No,4,5,40241,2,ProbabilitySelected,92
421,2020-09-10 15:15:00,0,0,No,4,3,40299,2,ProbabilitySelected,92
422,2020-09-10 09:15:00,0,0,No,4,5,40245,2,ProbabilitySelected,92
423,2020-09-10 09:30:00,0,0,No,4,12,40299,2,ProbabilitySelected,92
424,2020-09-10 16:45:00,0,0,No,4,3,40299,2,ProbabilitySelected,92
425,2020-09-10 09:00:00,0,0,No,4,11,40220,2,ProbabilitySelected,92
426,2020-09-10 11:00:00,0,0,No,4,5,40059,2,ProbabilitySelected,92
427,2020-09-10 10:30:00,0,0,No,4,12,40299,2,ProbabilitySelected,92
428,2020-09-10 11:15:00,0,0,No,4,11,40241,2,ProbabilitySelected,92
429,2020-09-10 10:00:00,0,0,No,4,4,40245,2,ProbabilitySelected,92
430,2020-09-10 16:45:00,0,0,No,4,5,40245,2,ProbabilitySelected,92
431,2020-09-10 13:00:00,0,0,No,4,12,40218,2,ProbabilitySelected,92
432,2020-09-10 15:30:00,0,0,No,4,14,40291,2,ProbabilitySelected,92
433,2020-09-10 09:00:00,0,0,No,4,11,40241,2,ProbabilitySelected,92
434,2020-09-10 11:45:00,0,0,No,4,12,40220,2,ProbabilitySelected,92
435,2020-09-10 11:15:00,0,0,No,4,5,40241,2,ProbabilitySelected,92
436,2020-09-10 10:45:00,0,0,No,4,5,40059,2,ProbabilitySelected,92
437,2020-09-10 15:00:00,0,0,No,4,3,40291,2,ProbabilitySelected,92
438,2020-09-10 09:45:00,0,0,No,4,3,40299,2,ProbabilitySelected,92
439,2020-09-10 16:45:00,0,0,No,4,4,40243,2,ProbabilitySelected,92
440,2020-09-10 11:45:00,0,0,No,4,5,40245,2,ProbabilitySelected,92
441,2020-09-10 16:30:00,0,0,No,4,3,40291,2,ProbabilitySelected,92
442,2020-09-10 09:00:00,0,0,No,4,4,40223,2,ProbabilitySelected,92
443,2020-09-10 09:45:00,0,0,No,4,3,40299,2,ProbabilitySelected,92
444,2020-09-10 12:45:00,0,0,No,4,5,40241,2,ProbabilitySelected,92
445,2020-09-10 13:00:00,0,0,No,4,11,40222,2,ProbabilitySelected,92
446,2020-09-10 11:30:00,0,0,No,4,5,40241,2,ProbabilitySelected,92
447,2020-09-10 12:45:00,0,0,No,4,11,40223,2,ProbabilitySelected,92
448,2020-09-10 16:45:00,0,0,No,4,5,40245,2,ProbabilitySelected,92
449,2020-09-10 09:45:00,0,0,No,4,11,40241,2,ProbabilitySelected,92
450,2020-09-10 10:00:00,0,0,No,4,5,40241,2,ProbabilitySelected,92
451,2020-09-11 10:45:00,0,0,No,4,3,40299,2,ProbabilitySelected,93
452,2020-09-11 13:15:00,0,0,No,4,11,40241,2,ProbabilitySelected,93
453,2020-09-11 13:15:00,0,0,No,4,5,40245,2,ProbabilitySelected,93
454,2020-09-11 13:45:00,0,0,No,4,14,40291,2,ProbabilitySelected,93
455,2020-09-11 12:45:00,0,0,No,4,12,40299,2,ProbabilitySelected,93
456,2020-09-11 11:15:00,0,0,No,4,14,40299,2,ProbabilitySelected,93
457,2020-09-11 13:30:00,0,0,No,4,12,40220,2,ProbabilitySelected,93
458,2020-09-11 15:30:00,0,0,No,4,3,40299,2,ProbabilitySelected,93
459,2020-09-11 13:30:00,0,0,No,4,4,40243,2,ProbabilitySelected,93
460,2020-09-11 11:45:00,0,0,No,4,5,40245,2,ProbabilitySelected,93
461,2020-09-11 12:45:00,0,0,No,4,11,40242,2,ProbabilitySelected,93
462,2020-09-11 16:15:00,0,0,No,4,4,40245,2,ProbabilitySelected,93
463,2020-09-11 13:00:00,0,0,No,4,5,40059,2,ProbabilitySelected,93
464,2020-09-11 15:00:00,0,0,No,4,5,40241,2,ProbabilitySelected,93
465,2020-09-11 14:30:00,0,0,No,4,11,40243,2,ProbabilitySelected,93
466,2020-09-11 11:00:00,0,0,No,4,3,40299,2,ProbabilitySelected,93
467,2020-09-11 13:15:00,0,0,No,4,11,40223,2,ProbabilitySelected,93
468,2020-09-11 12:45:00,0,0,No,4,11,40222,2,ProbabilitySelected,93
469,2020-09-11 14:15:00,0,0,No,4,4,40245,2,ProbabilitySelected,93
470,2020-09-11 16:45:00,0,0,No,4,12,40299,2,ProbabilitySelected,93
471,2020-09-11 15:30:00,0,0,No,4,11,40242,2,ProbabilitySelected,93
472,2020-09-11 16:00:00,0,0,No,4,11,40223,2,ProbabilitySelected,93
473,2020-09-11 14:30:00,0,0,No,4,3,40299,2,ProbabilitySelected,93
474,2020-09-11 14:45:00,0,0,No,4,11,40242,2,ProbabilitySelected,93
475,2020-09-11 14:45:00,0,0,No,4,3,40023,2,ProbabilitySelected,93
476,2020-09-11 16:30:00,0,0,No,4,12,40220,2,ProbabilitySelected,93
477,2020-09-11 09:15:00,0,0,No,4,11,40220,2,ProbabilitySelected,93
478,2020-09-11 14:45:00,0,0,No,4,5,40222,2,ProbabilitySelected,93
479,2020-09-11 10:00:00,0,0,No,4,11,40223,2,ProbabilitySelected,93
480,2020-09-11 15:15:00,0,0,No,4,5,40241,2,ProbabilitySelected,93
481,2020-09-11 15:15:00,0,0,No,4,3,40023,2,ProbabilitySelected,93
482,2020-09-11 15:15:00,0,0,No,4,5,40241,2,ProbabilitySelected,93
483,2020-09-11 15:45:00,0,0,No,4,3,40299,2,ProbabilitySelected,93
484,2020-09-11 15:45:00,0,0,No,4,5,40245,2,ProbabilitySelected,93
485,2020-09-11 15:45:00,0,0,No,4,11,40241,2,ProbabilitySelected,93
486,2020-09-11 11:30:00,0,0,No,4,4,40243,2,ProbabilitySelected,93
487,2020-09-11 16:15:00,0,1,No,4,11,40241,2,ProbabilitySelected,93
488,2020-09-11 10:15:00,0,1,No,4,12,40299,2,ProbabilitySelected,93
489,2020-09-11 15:00:00,0,0,No,4,4,40245,2,ProbabilitySelected,93
490,2020-09-11 13:45:00,0,0,No,4,11,40242,2,ProbabilitySelected,93
491,2020-09-11 13:45:00,0,0,No,4,12,40299,2,ProbabilitySelected,93
492,2020-09-11 15:15:00,0,0,No,4,11,40241,2,ProbabilitySelected,93
493,2020-09-11 15:30:00,0,0,No,4,12,40241,2,ProbabilitySelected,93
494,2020-09-11 14:15:00,0,0,No,4,11,40222,2,ProbabilitySelected,93
495,2020-09-11 10:00:00,0,0,No,4,11,40222,2,ProbabilitySelected,93
496,2020-09-11 16:30:00,0,0,No,4,12,40218,2,ProbabilitySelected,93
497,2020-09-11 14:15:00,0,0,No,4,11,40242,2,ProbabilitySelected,93
498,2020-09-11 16:00:00,0,0,No,4,11,40223,2,ProbabilitySelected,93
499,2020-09-11 09:30:00,0,0,No,4,5,40241,2,ProbabilitySelected,93
500,2020-09-11 11:45:00,0,0,No,4,12,40220,2,ProbabilitySelected,93
501,2020-09-11 14:30:00,0,0,No,4,5,40241,2,ProbabilitySelected,93
502,2020-09-11 14:30:00,0,0,No,4,4,40243,2,ProbabilitySelected,93
503,2020-09-11 09:00:00,0,0,No,4,4,40243,2,ProbabilitySelected,93
504,2020-09-11 12:45:00,0,0,No,4,11,40223,2,ProbabilitySelected,93
505,2020-09-11 15:30:00,0,0,No,4,5,40059,2,ProbabilitySelected,93
506,2020-09-11 12:45:00,0,0,No,4,5,40241,2,ProbabilitySelected,93
507,2020-09-11 10:30:00,0,0,No,4,5,40241,2,ProbabilitySelected,93
508,2020-09-11 10:00:00,0,0,No,4,5,40241,2,ProbabilitySelected,93
509,2020-09-11 15:00:00,0,0,No,4,4,40245,2,ProbabilitySelected,93
510,2020-09-11 11:15:00,0,0,No,4,4,40245,2,ProbabilitySelected,93
511,2020-09-11 11:45:00,0,0,No,4,5,40245,2,ProbabilitySelected,93
512,2020-09-11 10:15:00,0,0,No,4,12,40220,2,ProbabilitySelected,93
513,2020-09-11 11:30:00,0,0,No,4,12,40299,2,ProbabilitySelected,93
514,2020-09-11 11:30:00,0,0,No,4,12,40220,2,ProbabilitySelected,93
515,2020-09-11 09:00:00,0,0,No,4,5,40245,2,ProbabilitySelected,93
516,2020-09-11 15:00:00,0,0,No,4,5,40059,2,ProbabilitySelected,93
517,2020-09-11 13:30:00,0,0,No,4,5,40241,2,ProbabilitySelected,93
518,2020-09-11 09:15:00,0,0,No,4,4,40023,2,ProbabilitySelected,93
519,2020-09-11 09:00:00,0,0,No,4,4,40245,2,ProbabilitySelected,93
520,2020-09-11 13:30:00,0,0,No,4,5,40241,2,ProbabilitySelected,93
521,2020-09-11 16:00:00,0,0,No,4,4,40245,2,ProbabilitySelected,93
522,2020-09-11 15:15:00,0,0,No,4,12,40220,2,ProbabilitySelected,93
523,2020-09-11 09:30:00,0,0,No,4,5,40241,2,ProbabilitySelected,93
524,2020-09-11 12:45:00,0,0,No,4,5,40241,2,ProbabilitySelected,93
525,2020-09-11 16:30:00,0,0,No,4,11,40222,2,ProbabilitySelected,93
526,2020-09-11 09:15:00,0,0,No,4,5,40241,2,ProbabilitySelected,93
527,2020-09-11 13:00:00,0,0,No,4,12,40220,2,ProbabilitySelected,93
528,2020-09-11 11:15:00,0,0,No,4,11,40242,2,ProbabilitySelected,93
529,2020-09-11 13:00:00,0,0,No,4,4,40023,2,ProbabilitySelected,93
530,2020-09-11 11:30:00,0,0,No,4,11,40223,2,ProbabilitySelected,93
531,2020-09-11 13:15:00,0,0,No,4,11,40223,2,ProbabilitySelected,93
532,2020-09-11 13:00:00,0,0,No,4,5,40059,2,ProbabilitySelected,93
533,2020-09-11 14:00:00,0,0,No,4,5,40059,2,ProbabilitySelected,93
534,2020-09-11 10:30:00,0,0,No,4,5,40245,2,ProbabilitySelected,93
535,2020-09-11 09:00:00,0,0,No,4,12,40220,2,ProbabilitySelected,93
536,2020-09-11 09:00:00,0,1,No,4,4,40245,2,ProbabilitySelected,93
537,2020-09-11 14:30:00,0,0,No,4,11,40223,2,ProbabilitySelected,93
538,2020-09-11 10:45:00,0,0,No,4,12,40218,2,ProbabilitySelected,93
539,2020-09-11 15:00:00,0,0,No,4,5,40059,2,ProbabilitySelected,93
540,2020-09-11 10:15:00,0,0,No,4,11,40242,2,ProbabilitySelected,93
541,2020-09-11 09:30:00,0,0,No,4,4,40245,2,ProbabilitySelected,93
542,2020-09-11 09:45:00,0,0,No,4,11,40223,2,ProbabilitySelected,93
543,2020-09-11 16:00:00,0,0,No,4,11,40242,2,ProbabilitySelected,93
544,2020-09-11 10:45:00,0,0,No,4,4,40023,2,ProbabilitySelected,93
545,2020-09-11 11:45:00,0,0,No,4,12,40299,2,ProbabilitySelected,93
546,2020-09-11 15:15:00,0,0,No,4,11,40222,2,ProbabilitySelected,93
547,2020-09-11 13:00:00,0,0,No,4,5,40059,2,ProbabilitySelected,93
548,2020-09-11 16:30:00,0,0,No,4,4,40245,2,ProbabilitySelected,93
549,2020-09-11 11:00:00,1,0,No,4,11,40243,2,ProbabilitySelected,93
550,2020-09-11 09:00:00,0,0,No,4,12,40220,2,ProbabilitySelected,93
551,2020-09-11 09:30:00,0,0,No,4,11,40222,2,ProbabilitySelected,93
552,2020-09-11 10:15:00,0,0,No,4,11,40223,2,ProbabilitySelected,93
553,2020-09-11 10:00:00,0,0,No,4,12,40299,2,ProbabilitySelected,93
554,2020-09-11 09:15:00,0,1,No,4,11,40242,2,ProbabilitySelected,93
555,2020-09-11 16:15:00,0,0,No,4,12,40220,2,ProbabilitySelected,93
556,2020-09-12 13:45:00,0,0,No,4,11,40223,2,ProbabilitySelected,94
557,2020-09-12 16:30:00,0,0,No,4,5,40245,2,ProbabilitySelected,94
558,2020-09-12 14:00:00,0,0,No,4,12,40220,2,ProbabilitySelected,94
559,2020-09-12 13:45:00,0,0,No,4,11,40223,2,ProbabilitySelected,94
560,2020-09-12 16:45:00,0,0,No,4,12,40220,2,ProbabilitySelected,94
561,2020-09-12 14:15:00,0,0,No,4,5,40223,2,ProbabilitySelected,94
562,2020-09-12 15:45:00,0,0,No,4,11,40223,2,ProbabilitySelected,94
563,2020-09-12 13:15:00,0,0,No,4,11,40223,2,ProbabilitySelected,94
564,2020-09-12 16:45:00,0,0,No,4,3,40291,2,ProbabilitySelected,94
565,2020-09-12 15:15:00,0,0,No,4,5,40241,2,ProbabilitySelected,94
566,2020-09-12 09:45:00,0,0,No,4,11,40222,2,ProbabilitySelected,94
567,2020-09-12 16:30:00,0,0,No,4,12,40220,2,ProbabilitySelected,94
568,2020-09-12 09:45:00,0,0,No,4,11,40223,2,ProbabilitySelected,94
569,2020-09-12 15:00:00,0,0,No,4,12,40220,2,ProbabilitySelected,94
570,2020-09-12 15:30:00,0,0,No,4,5,40241,2,ProbabilitySelected,94
571,2020-09-12 09:00:00,0,0,No,4,5,40245,2,ProbabilitySelected,94
572,2020-09-12 13:30:00,0,0,No,4,14,40291,2,ProbabilitySelected,94
573,2020-09-12 09:15:00,0,0,No,4,5,40245,2,ProbabilitySelected,94
574,2020-09-12 10:30:00,0,0,No,4,12,40218,2,ProbabilitySelected,94
575,2020-09-12 14:45:00,0,0,No,4,11,40241,2,ProbabilitySelected,94
576,2020-09-12 14:30:00,0,0,No,4,3,40291,2,ProbabilitySelected,94
577,2020-09-12 15:00:00,0,0,No,4,12,40218,2,ProbabilitySelected,94
578,2020-09-12 14:45:00,0,0,No,4,11,40242,2,ProbabilitySelected,94
579,2020-09-12 15:45:00,0,0,No,4,11,40223,2,ProbabilitySelected,94
580,2020-09-12 16:00:00,0,0,No,4,5,40059,2,ProbabilitySelected,94
581,2020-09-12 14:45:00,0,0,No,4,11,40223,2,ProbabilitySelected,94
582,2020-09-12 10:15:00,0,0,No,4,11,40223,2,ProbabilitySelected,94
583,2020-09-12 16:00:00,0,0,No,4,12,40220,2,ProbabilitySelected,94
584,2020-09-12 15:15:00,0,0,No,4,12,40299,2,ProbabilitySelected,94
585,2020-09-12 10:00:00,0,0,No,4,11,40220,2,ProbabilitySelected,94
586,2020-09-12 13:45:00,0,0,No,4,5,40241,2,ProbabilitySelected,94
587,2020-09-12 14:30:00,0,0,No,4,5,40059,2,ProbabilitySelected,94
588,2020-09-12 15:30:00,0,0,No,4,14,40299,2,ProbabilitySelected,94
589,2020-09-12 14:30:00,0,0,No,4,4,40245,2,ProbabilitySelected,94
590,2020-09-12 16:30:00,0,0,No,4,5,40222,2,ProbabilitySelected,94
591,2020-09-12 16:45:00,0,0,No,4,4,40245,2,ProbabilitySelected,94
592,2020-09-12 10:00:00,0,0,No,4,11,40242,2,ProbabilitySelected,94
593,2020-09-12 16:15:00,0,0,No,4,11,40242,2,ProbabilitySelected,94
594,2020-09-12 13:15:00,0,0,No,4,11,40241,2,ProbabilitySelected,94
595,2020-09-12 11:00:00,0,0,No,4,3,40299,2,ProbabilitySelected,94
596,2020-09-12 14:15:00,0,0,No,4,5,40241,2,ProbabilitySelected,94
597,2020-09-12 09:15:00,0,0,No,4,12,40218,2,ProbabilitySelected,94
598,2020-09-12 09:15:00,0,0,No,4,11,40241,2,ProbabilitySelected,94
599,2020-09-12 10:15:00,0,0,No,4,5,40059,2,ProbabilitySelected,94
600,2020-09-12 10:30:00,0,0,No,4,12,40220,2,ProbabilitySelected,94
601,2020-09-12 14:00:00,0,0,No,4,12,40299,2,ProbabilitySelected,94
602,2020-09-12 10:00:00,0,0,No,4,11,40223,2,ProbabilitySelected,94
603,2020-09-12 13:00:00,0,0,No,4,11,40243,2,ProbabilitySelected,94
604,2020-09-12 10:45:00,0,0,No,4,4,40243,2,ProbabilitySelected,94
605,2020-09-12 09:30:00,0,0,No,4,11,40242,2,ProbabilitySelected,94
606,2020-09-12 13:15:00,0,0,No,4,11,40223,2,ProbabilitySelected,94
607,2020-09-12 12:45:00,0,1,No,4,12,40299,2,ProbabilitySelected,94
608,2020-09-12 09:45:00,0,0,No,4,12,40220,2,ProbabilitySelected,94
609,2020-09-12 10:15:00,0,0,No,4,4,40245,2,ProbabilitySelected,94
610,2020-09-12 10:15:00,0,0,No,4,11,40223,2,ProbabilitySelected,94
611,2020-09-12 10:30:00,0,0,No,4,11,40223,2,ProbabilitySelected,94
612,2020-09-12 16:45:00,0,0,No,4,5,40241,2,ProbabilitySelected,94
613,2020-09-12 09:15:00,0,0,No,4,3,40299,2,ProbabilitySelected,94
614,2020-09-12 09:30:00,0,0,No,4,5,40245,2,ProbabilitySelected,94
615,2020-09-12 16:30:00,0,0,No,4,12,40220,2,ProbabilitySelected,94
616,2020-09-12 09:30:00,0,0,No,4,4,40245,2,ProbabilitySelected,94
617,2020-09-12 14:30:00,0,0,No,4,11,40223,2,ProbabilitySelected,94
618,2020-09-12 10:00:00,0,0,No,4,12,40218,2,ProbabilitySelected,94
619,2020-09-12 13:00:00,0,1,No,4,3,40299,2,ProbabilitySelected,94
620,2020-09-12 11:30:00,0,0,No,4,11,40223,2,ProbabilitySelected,94
621,2020-09-12 15:45:00,0,0,No,4,12,40220,2,ProbabilitySelected,94
622,2020-09-12 09:15:00,0,0,No,4,4,40245,2,ProbabilitySelected,94
623,2020-09-12 11:15:00,0,0,No,4,11,40220,2,ProbabilitySelected,94
624,2020-09-12 11:00:00,0,0,No,4,11,40242,2,ProbabilitySelected,94
625,2020-09-12 09:00:00,0,0,No,4,12,40220,2,ProbabilitySelected,94
626,2020-09-12 13:30:00,0,0,No,4,5,40241,2,ProbabilitySelected,94
627,2020-09-12 09:30:00,0,0,No,4,12,40218,2,ProbabilitySelected,94
628,2020-09-12 11:00:00,0,0,No,4,4,40245,2,ProbabilitySelected,94
629,2020-09-12 11:30:00,0,0,No,4,5,40241,2,ProbabilitySelected,94
630,2020-09-12 10:45:00,0,0,No,4,12,40299,2,ProbabilitySelected,94
631,2020-09-12 09:45:00,0,0,No,4,5,40245,2,ProbabilitySelected,94
632,2020-09-12 13:45:00,0,0,No,4,11,40222,2,ProbabilitySelected,94
633,2020-09-12 11:45:00,0,0,No,4,5,40241,2,ProbabilitySelected,94
634,2020-09-12 10:15:00,0,0,No,4,11,40242,2,ProbabilitySelected,94
635,2020-09-12 10:30:00,0,0,No,4,4,40245,2,ProbabilitySelected,94
636,2020-09-12 11:30:00,0,0,No,4,4,40245,2,ProbabilitySelected,94
637,2020-09-12 11:15:00,0,0,No,4,12,40218,2,ProbabilitySelected,94
638,2020-09-12 09:30:00,0,0,No,4,12,40220,2,ProbabilitySelected,94
639,2020-09-12 16:00:00,0,0,No,4,12,40220,2,ProbabilitySelected,94
640,2020-09-12 11:45:00,0,0,No,4,3,40291,2,ProbabilitySelected,94
641,2020-09-12 11:30:00,0,0,No,4,12,40299,2,ProbabilitySelected,94
642,2020-09-12 13:00:00,0,0,No,4,3,40291,2,ProbabilitySelected,94
643,2020-09-12 11:15:00,0,0,No,4,12,40299,2,ProbabilitySelected,94
644,2020-09-12 13:15:00,0,0,No,4,11,40241,2,ProbabilitySelected,94
645,2020-09-12 14:00:00,0,0,No,4,12,40299,2,ProbabilitySelected,94
646,2020-09-12 10:15:00,0,0,No,4,12,40220,2,ProbabilitySelected,94
647,2020-09-12 15:00:00,0,0,No,4,11,40242,2,ProbabilitySelected,94
648,2020-09-12 15:00:00,0,0,No,4,11,40222,2,ProbabilitySelected,94
649,2020-09-13 10:45:00,0,0,No,4,5,40059,2,ProbabilitySelected,95
650,2020-09-13 14:15:00,0,0,No,4,4,40299,2,ProbabilitySelected,95
651,2020-09-13 10:15:00,0,0,No,4,3,40299,2,ProbabilitySelected,95
652,2020-09-13 13:00:00,0,0,No,4,5,40059,2,ProbabilitySelected,95
653,2020-09-13 09:45:00,0,0,No,4,11,40242,2,ProbabilitySelected,95
654,2020-09-13 14:15:00,0,1,No,4,11,40241,2,ProbabilitySelected,95
655,2020-09-13 14:30:00,0,1,No,4,5,40245,2,ProbabilitySelected,95
656,2020-09-13 14:30:00,0,0,No,4,11,40241,2,ProbabilitySelected,95
657,2020-09-13 15:30:00,0,0,No,4,11,40222,2,ProbabilitySelected,95
658,2020-09-13 12:45:00,0,0,No,4,12,40220,2,ProbabilitySelected,95
659,2020-09-13 15:30:00,0,0,No,4,12,40218,2,ProbabilitySelected,95
660,2020-09-13 09:45:00,0,0,No,4,11,40222,2,ProbabilitySelected,95
661,2020-09-13 14:45:00,0,0,No,4,11,40242,2,ProbabilitySelected,95
662,2020-09-13 10:45:00,0,0,No,4,4,40245,2,ProbabilitySelected,95
663,2020-09-13 14:30:00,0,0,No,4,5,40241,2,ProbabilitySelected,95
664,2020-09-13 13:15:00,0,0,No,4,12,40220,2,ProbabilitySelected,95
665,2020-09-13 13:30:00,0,0,No,4,11,40223,2,ProbabilitySelected,95
666,2020-09-13 14:00:00,0,0,No,4,4,40245,2,ProbabilitySelected,95
667,2020-09-13 16:15:00,0,0,No,4,12,40220,2,ProbabilitySelected,95
668,2020-09-13 10:15:00,0,0,No,4,12,40220,2,ProbabilitySelected,95
669,2020-09-13 11:00:00,0,0,No,4,5,40245,2,ProbabilitySelected,95
670,2020-09-13 16:15:00,0,1,No,4,11,40222,2,ProbabilitySelected,95
671,2020-09-13 13:45:00,0,0,No,4,12,40218,2,ProbabilitySelected,95
672,2020-09-13 16:30:00,0,0,No,4,11,40222,2,ProbabilitySelected,95
673,2020-09-13 09:00:00,0,0,No,4,12,40220,2,ProbabilitySelected,95
674,2020-09-13 16:30:00,0,0,No,4,12,40220,2,ProbabilitySelected,95
675,2020-09-13 10:15:00,0,0,No,4,11,40242,2,ProbabilitySelected,95
676,2020-09-13 16:30:00,0,0,No,4,5,40241,2,ProbabilitySelected,95
677,2020-09-13 15:45:00,0,0,No,4,11,40222,2,ProbabilitySelected,95
678,2020-09-13 09:30:00,0,0,No,4,11,40223,2,ProbabilitySelected,95
679,2020-09-13 10:00:00,0,0,No,4,3,40299,2,ProbabilitySelected,95
680,2020-09-13 14:45:00,0,0,No,4,11,40220,2,ProbabilitySelected,95
681,2020-09-13 15:00:00,0,0,No,4,11,40243,2,ProbabilitySelected,95
682,2020-09-13 13:00:00,0,0,No,4,12,40220,2,ProbabilitySelected,95
683,2020-09-13 13:30:00,0,0,No,4,5,40245,2,ProbabilitySelected,95
684,2020-09-13 14:15:00,0,0,No,4,4,40245,2,ProbabilitySelected,95
685,2020-09-13 14:45:00,0,0,No,4,3,40299,2,ProbabilitySelected,95
686,2020-09-13 15:15:00,0,0,No,4,5,40241,2,ProbabilitySelected,95
687,2020-09-13 13:15:00,0,0,No,4,5,40245,2,ProbabilitySelected,95
688,2020-09-13 09:15:00,0,0,No,4,4,40299,2,ProbabilitySelected,95
689,2020-09-13 15:15:00,0,0,No,4,3,40299,2,ProbabilitySelected,95
690,2020-09-13 15:15:00,0,0,No,4,4,40245,2,ProbabilitySelected,95
691,2020-09-13 14:30:00,0,0,No,4,5,40245,2,ProbabilitySelected,95
692,2020-09-13 09:15:00,0,0,No,4,3,40299,2,ProbabilitySelected,95
693,2020-09-13 15:45:00,0,0,No,4,3,40299,2,ProbabilitySelected,95
694,2020-09-13 13:30:00,0,0,No,4,3,40299,2,ProbabilitySelected,95
695,2020-09-13 14:00:00,0,0,No,4,5,40241,2,ProbabilitySelected,95
696,2020-09-13 09:30:00,0,0,No,4,11,40242,2,ProbabilitySelected,95
697,2020-09-13 10:15:00,0,0,No,4,5,40059,2,ProbabilitySelected,95
698,2020-09-13 09:30:00,0,0,No,4,11,40222,2,ProbabilitySelected,95
699,2020-09-13 13:00:00,0,0,No,4,4,40243,2,ProbabilitySelected,95
700,2020-09-13 09:30:00,0,0,No,4,11,40223,2,ProbabilitySelected,95
701,2020-09-13 11:30:00,0,0,No,4,11,40242,2,ProbabilitySelected,95
702,2020-09-13 09:30:00,0,1,No,4,12,40218,2,ProbabilitySelected,95
703,2020-09-13 10:00:00,0,0,No,4,11,40243,2,ProbabilitySelected,95
704,2020-09-13 10:15:00,0,0,No,4,11,40223,2,ProbabilitySelected,95
705,2020-09-13 11:15:00,0,0,No,4,14,40291,2,ProbabilitySelected,95
706,2020-09-13 14:00:00,0,0,No,4,12,40218,2,ProbabilitySelected,95
707,2020-09-13 12:45:00,0,0,No,4,11,40223,2,ProbabilitySelected,95
708,2020-09-13 11:15:00,0,0,No,4,11,40241,2,ProbabilitySelected,95
709,2020-09-13 09:15:00,0,0,No,4,4,40299,2,ProbabilitySelected,95
710,2020-09-13 11:00:00,0,0,No,4,3,40299,2,ProbabilitySelected,95
711,2020-09-13 13:00:00,0,0,No,4,4,40223,2,ProbabilitySelected,95
712,2020-09-13 09:15:00,0,0,No,4,11,40242,2,ProbabilitySelected,95
713,2020-09-13 10:00:00,0,0,No,4,5,40241,2,ProbabilitySelected,95
714,2020-09-13 13:00:00,0,0,No,4,4,40223,2,ProbabilitySelected,95
715,2020-09-13 09:00:00,0,1,No,4,4,40299,2,ProbabilitySelected,95
716,2020-09-13 10:30:00,0,0,No,4,11,40241,2,ProbabilitySelected,95
717,2020-09-13 09:15:00,0,0,No,4,5,40245,2,ProbabilitySelected,95
718,2020-09-13 11:30:00,0,0,No,4,4,40245,2,ProbabilitySelected,95
719,2020-09-13 16:30:00,0,0,No,4,11,40243,2,ProbabilitySelected,95
720,2020-09-13 15:00:00,0,0,No,4,11,40223,2,ProbabilitySelected,95
721,2020-09-13 11:00:00,0,0,No,4,5,40241,2,ProbabilitySelected,95
722,2020-09-13 12:45:00,0,0,No,4,4,40245,2,ProbabilitySelected,95
723,2020-09-13 11:30:00,0,0,No,4,14,40299,2,ProbabilitySelected,95
724,2020-09-13 11:30:00,0,0,No,4,4,40223,2,ProbabilitySelected,95
725,2020-09-13 11:00:00,0,0,No,4,5,40241,2,ProbabilitySelected,95
726,2020-09-13 10:30:00,0,0,No,4,3,40299,2,ProbabilitySelected,95
727,2020-09-13 10:15:00,0,0,No,4,11,40241,2,ProbabilitySelected,95
728,2020-09-13 14:00:00,0,0,No,4,3,40299,2,ProbabilitySelected,95
729,2020-09-13 14:30:00,0,0,No,4,12,40220,2,ProbabilitySelected,95
730,2020-09-13 10:30:00,0,0,No,4,11,40242,2,ProbabilitySelected,95
731,2020-09-13 11:45:00,0,0,No,4,3,40291,2,ProbabilitySelected,95
732,2020-09-13 10:30:00,0,0,No,4,3,40291,2,ProbabilitySelected,95
733,2020-09-13 12:45:00,0,0,No,4,4,40223,2,ProbabilitySelected,95
734,2020-09-13 09:45:00,0,0,No,4,11,40241,2,ProbabilitySelected,95
735,2020-09-13 11:15:00,0,0,No,4,11,40223,2,ProbabilitySelected,95
736,2020-09-14 16:15:00,0,0,No,4,11,40222,2,ProbabilitySelected,96
737,2020-09-14 16:45:00,0,0,No,4,12,40220,2,ProbabilitySelected,96
738,2020-09-14 11:45:00,0,0,No,4,11,40223,2,ProbabilitySelected,96
739,2020-09-14 15:00:00,0,0,No,4,14,40299,2,ProbabilitySelected,96
740,2020-09-14 15:15:00,0,0,No,4,3,40299,2,ProbabilitySelected,96
741,2020-09-14 13:15:00,0,0,No,4,5,40245,2,ProbabilitySelected,96
742,2020-09-14 10:15:00,0,0,No,4,11,40220,2,ProbabilitySelected,96
743,2020-09-14 14:00:00,0,0,No,4,5,40059,2,ProbabilitySelected,96
744,2020-09-14 13:15:00,0,0,No,4,12,40299,2,ProbabilitySelected,96
745,2020-09-14 09:15:00,0,0,No,4,12,40218,2,ProbabilitySelected,96
746,2020-09-14 13:15:00,0,0,No,4,12,40220,2,ProbabilitySelected,96
747,2020-09-14 16:30:00,1,1,No,4,12,40220,2,ProbabilitySelected,96
748,2020-09-14 10:45:00,0,0,No,4,5,40059,2,ProbabilitySelected,96
749,2020-09-14 15:30:00,0,0,No,4,11,40222,2,ProbabilitySelected,96
750,2020-09-14 16:00:00,0,0,No,4,11,40222,2,ProbabilitySelected,96
751,2020-09-14 16:30:00,0,0,No,4,4,40023,2,ProbabilitySelected,96
752,2020-09-14 11:15:00,0,0,No,4,3,40299,2,ProbabilitySelected,96
753,2020-09-14 15:15:00,0,0,No,4,5,40241,2,ProbabilitySelected,96
754,2020-09-14 12:45:00,0,0,No,4,11,40222,2,ProbabilitySelected,96
755,2020-09-14 14:45:00,0,0,No,4,12,40220,2,ProbabilitySelected,96
756,2020-09-14 11:15:00,0,0,No,4,11,40222,2,ProbabilitySelected,96
757,2020-09-14 13:30:00,0,0,No,4,11,40220,2,ProbabilitySelected,96
758,2020-09-14 16:30:00,0,0,No,4,12,40220,2,ProbabilitySelected,96
759,2020-09-14 09:00:00,0,0,No,4,11,40222,2,ProbabilitySelected,96
760,2020-09-14 10:30:00,0,0,No,4,14,40291,2,ProbabilitySelected,96
761,2020-09-14 15:30:00,0,0,No,4,3,40299,2,ProbabilitySelected,96
762,2020-09-14 15:45:00,0,0,No,4,14,40291,2,ProbabilitySelected,96
763,2020-09-14 11:30:00,0,0,No,4,4,40245,2,ProbabilitySelected,96
764,2020-09-14 11:00:00,0,0,No,4,11,40243,2,ProbabilitySelected,96
765,2020-09-14 14:15:00,0,0,No,4,5,40241,2,ProbabilitySelected,96
766,2020-09-14 14:30:00,0,0,No,4,5,40245,2,ProbabilitySelected,96
767,2020-09-14 16:30:00,0,0,No,4,11,40220,2,ProbabilitySelected,96
768,2020-09-14 13:45:00,0,0,No,4,4,40245,2,ProbabilitySelected,96
769,2020-09-14 09:15:00,0,0,No,4,4,40245,2,ProbabilitySelected,96
770,2020-09-14 14:45:00,0,0,No,4,4,40245,2,ProbabilitySelected,96
771,2020-09-14 13:30:00,0,0,No,4,11,40241,2,ProbabilitySelected,96
772,2020-09-14 09:15:00,0,0,No,4,12,40220,2,ProbabilitySelected,96
773,2020-09-14 11:00:00,0,0,No,4,11,40241,2,ProbabilitySelected,96
774,2020-09-14 09:30:00,0,0,No,4,12,40218,2,ProbabilitySelected,96
775,2020-09-14 10:15:00,0,0,No,4,12,40299,2,ProbabilitySelected,96
776,2020-09-14 16:15:00,0,0,No,4,12,40220,2,ProbabilitySelected,96
777,2020-09-14 11:15:00,0,0,No,4,14,40291,2,ProbabilitySelected,96
778,2020-09-14 11:45:00,0,0,No,4,5,40059,2,ProbabilitySelected,96
779,2020-09-14 14:15:00,0,0,No,4,11,40242,2,ProbabilitySelected,96
780,2020-09-14 11:15:00,0,0,No,4,5,40241,2,ProbabilitySelected,96
781,2020-09-14 09:00:00,0,0,No,4,11,40242,2,ProbabilitySelected,96
782,2020-09-14 10:00:00,0,0,No,4,3,40299,2,ProbabilitySelected,96
783,2020-09-14 16:15:00,0,0,No,4,12,40220,2,ProbabilitySelected,96
784,2020-09-14 15:30:00,0,0,No,4,5,40241,2,ProbabilitySelected,96
785,2020-09-14 13:30:00,0,0,No,4,11,40222,2,ProbabilitySelected,96
786,2020-09-14 14:00:00,0,0,No,4,4,40299,2,ProbabilitySelected,96
787,2020-09-14 10:30:00,0,0,No,4,11,40223,2,ProbabilitySelected,96
788,2020-09-14 16:15:00,0,0,No,4,12,40218,2,ProbabilitySelected,96
789,2020-09-14 09:15:00,0,0,No,4,11,40223,2,ProbabilitySelected,96
790,2020-09-14 11:30:00,0,0,No,4,3,40299,2,ProbabilitySelected,96
791,2020-09-14 09:30:00,0,0,No,4,11,40223,2,ProbabilitySelected,96
792,2020-09-14 13:30:00,0,0,No,4,12,40299,2,ProbabilitySelected,96
793,2020-09-14 10:45:00,0,0,No,4,5,40059,2,ProbabilitySelected,96
794,2020-09-14 16:00:00,0,0,No,4,11,40242,2,ProbabilitySelected,96
795,2020-09-14 14:30:00,0,0,No,4,14,40299,2,ProbabilitySelected,96
796,2020-09-14 15:30:00,0,0,No,4,11,40242,2,ProbabilitySelected,96
797,2020-09-14 11:30:00,0,0,No,4,11,40222,2,ProbabilitySelected,96
798,2020-09-14 13:30:00,0,0,No,4,14,40299,2,ProbabilitySelected,96
799,2020-09-14 14:45:00,0,0,No,4,5,40241,2,ProbabilitySelected,96
800,2020-09-14 14:00:00,0,0,No,4,4,40245,2,ProbabilitySelected,96
801,2020-09-14 12:45:00,0,0,No,4,3,40299,2,ProbabilitySelected,96
802,2020-09-14 11:45:00,0,0,No,4,14,40291,2,ProbabilitySelected,96
803,2020-09-14 09:45:00,0,0,No,4,5,40241,2,ProbabilitySelected,96
804,2020-09-14 13:00:00,0,0,No,4,4,40245,2,ProbabilitySelected,96
805,2020-09-14 11:15:00,0,0,No,4,11,40241,2,ProbabilitySelected,96
806,2020-09-14 13:00:00,0,0,No,4,11,40243,2,ProbabilitySelected,96
807,2020-09-14 10:30:00,0,0,No,4,5,40241,2,ProbabilitySelected,96
808,2020-09-14 11:15:00,0,0,No,4,14,40299,2,ProbabilitySelected,96
809,2020-09-14 11:45:00,0,0,No,4,5,40059,2,ProbabilitySelected,96
810,2020-09-14 09:00:00,0,0,No,4,12,40299,2,ProbabilitySelected,96
811,2020-09-14 16:15:00,0,0,No,4,11,40242,2,ProbabilitySelected,96
812,2020-09-14 14:45:00,0,0,No,4,11,40242,2,ProbabilitySelected,96
813,2020-09-14 16:45:00,0,0,No,4,11,40242,2,ProbabilitySelected,96
814,2020-09-14 09:00:00,0,0,No,4,5,40241,2,ProbabilitySelected,96
815,2020-09-14 11:15:00,0,0,No,4,11,40223,2,ProbabilitySelected,96
816,2020-09-14 11:45:00,0,0,No,4,11,40220,2,ProbabilitySelected,96
817,2020-09-14 13:30:00,0,0,No,4,12,40218,2,ProbabilitySelected,96
818,2020-09-14 16:00:00,0,0,No,4,5,40059,2,ProbabilitySelected,96
819,2020-09-14 09:00:00,0,0,No,4,3,40299,2,ProbabilitySelected,96
820,2020-09-14 15:00:00,0,0,No,4,4,40245,2,ProbabilitySelected,96
821,2020-09-14 10:30:00,0,0,No,4,3,40291,2,ProbabilitySelected,96
822,2020-09-14 10:00:00,0,0,No,4,11,40223,2,ProbabilitySelected,96
823,2020-09-14 15:45:00,0,0,No,4,11,40222,2,ProbabilitySelected,96
824,2020-09-14 10:45:00,0,0,No,4,4,40245,2,ProbabilitySelected,96
825,2020-09-15 09:30:00,0,0,No,4,11,40223,2,ProbabilitySelected,97
826,2020-09-15 16:45:00,0,0,No,4,14,40299,2,ProbabilitySelected,97
827,2020-09-15 10:45:00,0,0,No,4,12,40218,2,ProbabilitySelected,97
828,2020-09-15 16:00:00,0,0,No,4,4,40243,2,ProbabilitySelected,97
829,2020-09-15 09:15:00,0,0,No,4,12,40220,2,ProbabilitySelected,97
830,2020-09-15 15:00:00,0,0,No,4,12,40220,2,ProbabilitySelected,97
831,2020-09-15 13:30:00,0,0,No,4,11,40222,2,ProbabilitySelected,97
832,2020-09-15 16:00:00,0,0,No,4,12,40220,2,ProbabilitySelected,97
833,2020-09-15 15:00:00,0,0,No,4,11,40242,2,ProbabilitySelected,97
834,2020-09-15 12:45:00,0,0,No,4,12,40220,2,ProbabilitySelected,97
835,2020-09-15 09:00:00,0,0,No,4,11,40242,2,ProbabilitySelected,97
836,2020-09-15 16:45:00,0,0,No,4,4,40245,2,ProbabilitySelected,97
837,2020-09-15 09:15:00,0,0,No,4,11,40223,2,ProbabilitySelected,97
838,2020-09-15 10:00:00,0,0,No,4,11,40243,2,ProbabilitySelected,97
839,2020-09-15 16:45:00,0,0,No,4,5,40245,2,ProbabilitySelected,97
840,2020-09-15 09:00:00,0,0,No,4,4,40299,2,ProbabilitySelected,97
841,2020-09-15 11:45:00,0,0,No,4,11,40222,2,ProbabilitySelected,97
842,2020-09-15 15:00:00,0,0,No,4,11,40222,2,ProbabilitySelected,97
843,2020-09-15 11:15:00,0,0,No,4,4,40245,2,ProbabilitySelected,97
844,2020-09-15 11:15:00,0,0,No,4,11,40222,2,ProbabilitySelected,97
845,2020-09-15 11:00:00,0,0,No,4,12,40299,2,ProbabilitySelected,97
846,2020-09-15 11:30:00,0,0,No,4,11,40223,2,ProbabilitySelected,97
847,2020-09-15 10:15:00,0,0,No,4,12,40220,2,ProbabilitySelected,97
848,2020-09-15 15:00:00,0,0,No,4,3,40299,2,ProbabilitySelected,97
849,2020-09-15 09:00:00,0,0,No,4,5,40059,2,ProbabilitySelected,97
850,2020-09-15 11:30:00,0,0,No,4,12,40218,2,ProbabilitySelected,97
851,2020-09-15 10:00:00,0,0,No,4,11,40241,2,ProbabilitySelected,97
852,2020-09-15 09:15:00,0,0,No,4,11,40223,2,ProbabilitySelected,97
853,2020-09-15 16:30:00,0,0,No,4,12,40299,2,ProbabilitySelected,97
854,2020-09-15 11:00:00,0,0,No,4,3,40299,2,ProbabilitySelected,97
855,2020-09-15 16:45:00,0,0,No,4,14,40291,2,ProbabilitySelected,97
856,2020-09-15 11:15:00,0,0,No,4,12,40218,2,ProbabilitySelected,97
857,2020-09-15 09:15:00,0,0,No,4,5,40241,2,ProbabilitySelected,97
858,2020-09-15 12:45:00,0,0,No,4,11,40222,2,ProbabilitySelected,97
859,2020-09-15 16:15:00,0,0,No,4,11,40222,2,ProbabilitySelected,97
860,2020-09-15 16:45:00,0,0,No,4,12,40220,2,ProbabilitySelected,97
861,2020-09-15 13:00:00,0,0,No,4,11,40223,2,ProbabilitySelected,97
862,2020-09-15 09:15:00,0,0,No,4,5,40241,2,ProbabilitySelected,97
863,2020-09-15 13:15:00,0,0,No,4,5,40059,2,ProbabilitySelected,97
864,2020-09-15 10:30:00,0,0,No,4,12,40220,2,ProbabilitySelected,97
865,2020-09-15 14:00:00,0,0,No,4,12,40220,2,ProbabilitySelected,97
866,2020-09-15 09:45:00,0,0,No,4,5,40241,2,ProbabilitySelected,97
867,2020-09-15 11:00:00,0,0,No,4,12,40220,2,ProbabilitySelected,97
868,2020-09-15 09:00:00,0,0,No,4,11,40222,2,ProbabilitySelected,97
869,2020-09-15 09:30:00,0,0,No,4,5,40241,2,ProbabilitySelected,97
870,2020-09-16 11:00:00,0,0,No,4,5,40241,2,ProbabilitySelected,98
871,2020-09-16 11:15:00,0,0,No,4,5,40059,2,ProbabilitySelected,98
872,2020-09-16 16:00:00,0,0,No,4,11,40241,2,ProbabilitySelected,98
873,2020-09-16 14:30:00,0,0,No,4,11,40223,2,ProbabilitySelected,98
874,2020-09-16 14:00:00,0,0,No,4,11,40242,2,ProbabilitySelected,98
875,2020-09-16 09:30:00,0,0,No,4,11,40223,2,ProbabilitySelected,98
876,2020-09-16 10:45:00,0,0,No,4,11,40223,2,ProbabilitySelected,98
877,2020-09-16 13:00:00,0,0,No,4,11,40220,2,ProbabilitySelected,98
878,2020-09-16 10:00:00,0,0,No,4,11,40241,2,ProbabilitySelected,98
879,2020-09-16 09:00:00,0,0,No,4,5,40245,2,ProbabilitySelected,98
880,2020-09-16 12:45:00,0,1,No,4,12,40218,2,ProbabilitySelected,98
881,2020-09-16 09:30:00,0,0,No,4,12,40220,2,ProbabilitySelected,98
882,2020-09-16 10:45:00,0,0,No,4,3,40299,2,ProbabilitySelected,98
883,2020-09-16 09:00:00,0,0,No,4,4,40245,2,ProbabilitySelected,98
884,2020-09-16 13:00:00,0,0,No,4,5,40241,2,ProbabilitySelected,98
885,2020-09-16 10:00:00,0,0,No,4,4,40299,2,ProbabilitySelected,98
886,2020-09-16 09:00:00,0,0,No,4,5,40245,2,ProbabilitySelected,98
887,2020-09-16 16:45:00,0,0,No,4,5,40241,2,ProbabilitySelected,98
888,2020-09-16 16:30:00,0,0,No,4,5,40241,2,ProbabilitySelected,98
889,2020-09-16 10:00:00,0,0,No,4,12,40220,2,ProbabilitySelected,98
890,2020-09-16 14:30:00,0,0,No,4,11,40223,2,ProbabilitySelected,98
891,2020-09-16 12:45:00,0,0,No,4,11,40222,2,ProbabilitySelected,98
892,2020-09-16 16:45:00,0,0,No,4,5,40245,2,ProbabilitySelected,98
893,2020-09-16 09:15:00,0,0,No,4,5,40241,2,ProbabilitySelected,98
894,2020-09-17 15:30:00,0,0,No,4,12,40220,2,ProbabilitySelected,99
895,2020-09-17 10:00:00,0,0,No,4,11,40222,2,ProbabilitySelected,99
896,2020-09-17 10:30:00,0,0,No,4,11,40222,2,ProbabilitySelected,99
897,2020-09-17 14:45:00,0,0,No,4,11,40223,2,ProbabilitySelected,99
898,2020-09-17 16:45:00,0,0,No,4,11,40222,2,ProbabilitySelected,99
899,2020-09-17 09:00:00,0,0,No,4,5,40241,2,ProbabilitySelected,99
900,2020-09-17 09:00:00,0,0,No,4,5,40241,2,ProbabilitySelected,99
901,2020-09-17 10:15:00,0,1,No,4,14,40299,2,ProbabilitySelected,99
902,2020-09-18 16:45:00,0,0,No,4,12,40220,2,ProbabilitySelected,100
903,2020-09-18 13:15:00,0,0,No,4,3,40299,2,ProbabilitySelected,100
904,2020-09-18 11:45:00,0,0,No,4,4,40245,2,ProbabilitySelected,100
905,2020-09-18 15:00:00,0,0,No,4,5,40245,2,ProbabilitySelected,100
906,2020-09-18 10:00:00,0,0,No,4,5,40241,2,ProbabilitySelected,100
907,2020-09-18 16:30:00,0,0,No,4,5,40245,2,ProbabilitySelected,100
908,2020-09-18 13:30:00,0,0,No,4,11,40223,2,ProbabilitySelected,100
909,2020-09-18 10:15:00,0,0,No,4,5,40241,2,ProbabilitySelected,100
910,2020-09-18 16:00:00,0,0,No,4,5,40241,2,ProbabilitySelected,100
911,2020-09-18 11:45:00,0,0,No,4,11,40222,2,ProbabilitySelected,100
912,2020-09-18 16:00:00,0,0,No,4,12,40220,2,ProbabilitySelected,100
913,2020-09-18 16:15:00,0,0,No,4,5,40222,2,ProbabilitySelected,100
914,2020-09-18 09:00:00,0,0,No,4,5,40241,2,ProbabilitySelected,100
915,2020-09-19 10:00:00,0,0,No,4,5,40245,2,ProbabilitySelected,101
916,2020-09-19 16:00:00,0,0,No,4,12,40218,2,ProbabilitySelected,101
917,2020-11-06 15:45:00,0,0,No,4,11,40223,3,ProbabilitySelected,149
918,2020-11-06 09:45:00,0,0,No,4,11,40223,3,ProbabilitySelected,149
919,2020-11-06 10:45:00,0,0,No,4,12,40220,3,ProbabilitySelected,149
920,2020-11-06 11:30:00,0,0,No,4,11,40223,3,ProbabilitySelected,149
921,2020-11-06 11:00:00,0,0,No,4,12,40220,3,ProbabilitySelected,149
922,2020-11-06 09:30:00,0,0,No,4,11,40223,3,ProbabilitySelected,149
923,2020-11-06 10:15:00,0,0,No,4,12,40220,3,ProbabilitySelected,149
924,2020-11-06 14:00:00,0,0,No,4,5,40241,3,ProbabilitySelected,149
925,2020-11-06 16:15:00,0,0,No,4,12,40220,3,ProbabilitySelected,149
926,2020-11-06 13:30:00,0,0,No,4,12,40218,3,ProbabilitySelected,149
927,2020-11-06 11:00:00,0,0,No,4,12,40220,3,ProbabilitySelected,149
928,2020-11-06 11:30:00,0,0,No,4,12,40220,3,ProbabilitySelected,149
929,2020-11-06 16:45:00,0,0,No,4,12,40220,3,ProbabilitySelected,149
930,2020-11-06 15:15:00,0,0,No,4,12,40220,3,ProbabilitySelected,149
931,2020-11-06 10:30:00,0,0,No,4,12,40220,3,ProbabilitySelected,149
932,2020-11-06 10:00:00,0,0,No,4,12,40220,3,ProbabilitySelected,149
933,2020-11-06 09:00:00,0,0,No,4,12,40220,3,ProbabilitySelected,149
934,2020-11-06 10:45:00,0,0,No,4,11,40241,3,ProbabilitySelected,149
935,2020-11-06 14:45:00,0,0,No,4,11,40223,3,ProbabilitySelected,149
936,2020-11-06 11:00:00,0,0,No,4,12,40218,3,ProbabilitySelected,149
937,2020-11-06 11:00:00,0,0,No,4,5,40241,3,ProbabilitySelected,149
938,2020-11-06 15:00:00,0,0,No,4,5,40241,3,ProbabilitySelected,149
939,2020-11-06 14:30:00,0,0,No,4,5,40241,3,ProbabilitySelected,149
940,2020-11-06 13:15:00,0,0,No,4,11,40241,3,ProbabilitySelected,149
941,2020-11-06 14:45:00,1,0,No,4,11,40241,3,ProbabilitySelected,149
942,2020-11-06 13:45:00,0,0,No,4,11,40241,3,ProbabilitySelected,149
943,2020-11-06 15:30:00,0,0,No,4,11,40241,3,ProbabilitySelected,149
944,2020-11-06 09:45:00,0,0,No,4,5,40241,3,ProbabilitySelected,149
945,2020-11-06 09:00:00,0,0,No,4,5,40241,3,ProbabilitySelected,149
946,2020-11-06 15:15:00,0,0,No,4,4,40243,3,ProbabilitySelected,149
947,2020-11-06 09:15:00,0,0,No,4,4,40243,3,ProbabilitySelected,149
948,2020-11-06 10:30:00,0,0,No,4,5,40223,3,ProbabilitySelected,149
949,2020-11-06 10:00:00,0,0,No,4,11,40223,3,ProbabilitySelected,149
950,2020-11-06 13:00:00,0,0,No,4,11,40223,3,ProbabilitySelected,149
951,2020-11-06 09:30:00,0,0,No,4,11,40222,3,ProbabilitySelected,149
952,2020-11-06 15:45:00,0,0,No,4,4,40299,3,ProbabilitySelected,149
953,2020-11-06 10:15:00,0,0,No,4,12,40220,3,ProbabilitySelected,149
954,2020-11-06 10:15:00,0,0,No,4,12,40299,3,ProbabilitySelected,149
955,2020-11-06 09:15:00,0,0,No,4,3,40291,3,ProbabilitySelected,149
956,2020-11-06 11:00:00,0,0,No,4,3,40299,3,ProbabilitySelected,149
957,2020-11-06 15:45:00,0,0,No,4,3,40299,3,ProbabilitySelected,149
958,2020-11-06 10:15:00,0,0,No,4,3,40299,3,ProbabilitySelected,149
959,2020-11-06 11:15:00,0,0,No,4,3,40299,3,ProbabilitySelected,149
960,2020-11-06 10:00:00,0,1,No,4,3,40299,3,ProbabilitySelected,149
961,2020-11-06 10:15:00,0,0,No,4,3,40299,3,ProbabilitySelected,149
962,2020-11-06 13:45:00,0,0,No,4,3,40299,3,ProbabilitySelected,149
963,2020-11-06 14:00:00,0,0,No,4,4,40299,3,ProbabilitySelected,149
964,2020-11-06 09:15:00,0,0,No,4,4,40245,3,ProbabilitySelected,149
965,2020-11-06 09:30:00,0,0,No,4,4,40245,3,ProbabilitySelected,149
966,2020-11-06 14:30:00,0,0,No,4,4,40245,3,ProbabilitySelected,149
967,2020-11-06 09:45:00,0,0,No,4,3,40291,3,ProbabilitySelected,149
968,2020-11-06 13:15:00,0,0,No,4,3,40291,3,ProbabilitySelected,149
969,2020-11-06 16:00:00,0,0,No,4,3,40023,3,ProbabilitySelected,149
970,2020-11-06 10:30:00,0,0,No,4,12,40299,3,ProbabilitySelected,149
971,2020-11-06 14:15:00,0,0,No,4,4,40299,3,ProbabilitySelected,149
972,2020-11-06 10:15:00,0,0,No,4,12,40220,3,ProbabilitySelected,149
973,2020-11-06 10:45:00,0,0,No,4,4,40245,3,ProbabilitySelected,149
974,2020-11-06 15:15:00,0,0,No,4,12,40299,3,ProbabilitySelected,149
975,2020-11-06 09:30:00,0,0,No,4,14,40299,3,ProbabilitySelected,149
976,2020-11-06 10:45:00,0,0,No,4,14,40299,3,ProbabilitySelected,149
977,2020-11-06 11:00:00,0,0,No,4,12,40299,3,ProbabilitySelected,149
978,2020-11-06 11:00:00,0,0,No,4,14,40291,3,ProbabilitySelected,149
979,2020-11-06 10:00:00,0,1,No,4,12,40299,3,ProbabilitySelected,149
980,2020-11-06 10:30:00,0,0,No,4,12,40299,3,ProbabilitySelected,149
981,2020-11-06 11:30:00,0,0,No,4,12,40299,3,ProbabilitySelected,149
982,2020-11-06 15:15:00,0,0,No,4,12,40299,3,ProbabilitySelected,149
983,2020-11-06 10:00:00,0,0,No,4,12,40220,3,ProbabilitySelected,149
984,2020-11-06 13:15:00,0,0,No,4,12,40220,3,ProbabilitySelected,149
985,2020-11-06 11:00:00,0,0,No,4,12,40220,3,ProbabilitySelected,149
986,2020-11-06 09:45:00,0,0,No,4,12,40220,3,ProbabilitySelected,149
987,2020-11-06 16:00:00,1,1,No,4,12,40220,3,ProbabilitySelected,149
988,2020-11-06 10:30:00,0,0,No,4,12,40220,3,ProbabilitySelected,149
989,2020-11-06 11:30:00,0,0,No,4,12,40220,3,ProbabilitySelected,149
990,2020-11-06 09:30:00,0,0,No,4,4,40245,3,ProbabilitySelected,149
991,2020-11-06 15:15:00,0,0,No,4,11,40242,3,ProbabilitySelected,149
992,2020-11-06 10:45:00,0,0,No,4,11,40242,3,ProbabilitySelected,149
993,2020-11-06 10:45:00,0,0,No,4,5,40059,3,ProbabilitySelected,149
994,2020-11-06 10:00:00,0,0,No,4,5,40059,3,ProbabilitySelected,149
995,2020-11-06 09:00:00,0,0,No,4,11,40223,3,ProbabilitySelected,149
996,2020-11-06 09:30:00,0,0,No,4,5,40059,3,ProbabilitySelected,149
997,2020-11-06 13:30:00,0,0,No,4,11,40222,3,ProbabilitySelected,149
998,2020-11-06 10:45:00,0,0,No,4,5,40241,3,ProbabilitySelected,149
999,2020-11-06 14:30:00,0,0,No,4,5,40059,3,ProbabilitySelected,149
1000,2020-11-06 16:45:00,0,0,No,4,5,40059,3,ProbabilitySelected,149
1001,2020-11-06 16:00:00,0,0,No,4,5,40059,3,ProbabilitySelected,149
1002,2020-11-06 13:00:00,0,0,No,4,11,40242,3,ProbabilitySelected,149
1003,2020-11-06 16:00:00,0,1,No,4,11,40242,3,ProbabilitySelected,149
1004,2020-11-06 15:00:00,0,0,No,4,11,40223,3,ProbabilitySelected,149
1005,2020-11-06 13:30:00,0,0,No,4,11,40223,3,ProbabilitySelected,149
1006,2020-11-06 10:00:00,0,0,No,4,5,40245,3,ProbabilitySelected,149
1007,2020-11-06 14:30:00,0,0,No,4,5,40245,3,ProbabilitySelected,149
1008,2020-11-06 16:15:00,0,0,No,4,5,40245,3,ProbabilitySelected,149
1009,2020-11-06 10:30:00,0,0,No,4,11,40242,3,ProbabilitySelected,149
1010,2020-11-06 10:00:00,0,0,No,4,11,40242,3,ProbabilitySelected,149
1011,2020-11-06 11:15:00,0,0,No,4,11,40242,3,ProbabilitySelected,149
1012,2020-11-06 09:00:00,0,0,No,4,11,40222,3,ProbabilitySelected,149
1013,2020-11-06 11:15:00,0,0,No,4,11,40242,3,ProbabilitySelected,149
1014,2020-11-06 11:30:00,0,0,No,4,11,40222,3,ProbabilitySelected,149
1015,2020-11-06 14:00:00,0,0,No,4,5,40245,3,ProbabilitySelected,149
1016,2020-11-06 09:15:00,0,0,No,4,11,40241,3,ProbabilitySelected,149
1017,2020-11-06 09:30:00,0,0,No,4,4,40245,3,ProbabilitySelected,149
1018,2020-11-06 11:15:00,0,0,No,4,11,40241,3,ProbabilitySelected,149
1019,2020-11-06 09:15:00,0,0,No,4,11,40242,3,ProbabilitySelected,149
1020,2020-11-06 10:45:00,0,0,No,4,5,40059,3,ProbabilitySelected,149
1021,2020-11-06 11:00:00,0,0,No,4,11,40241,3,ProbabilitySelected,149
1022,2020-11-06 09:30:00,0,0,No,4,5,40245,3,ProbabilitySelected,149
1023,2020-11-06 11:00:00,0,0,No,4,11,40223,3,ProbabilitySelected,149
1024,2020-11-06 13:30:00,0,0,No,4,5,40245,3,ProbabilitySelected,149
1025,2020-11-06 13:15:00,0,0,No,4,11,40223,3,ProbabilitySelected,149
1026,2020-11-06 11:30:00,0,0,No,4,11,40242,3,ProbabilitySelected,149
1027,2020-11-06 10:00:00,0,0,No,4,5,40245,3,ProbabilitySelected,149
1028,2020-11-06 10:30:00,0,0,No,4,5,40059,3,ProbabilitySelected,149
1029,2020-11-06 15:45:00,0,0,No,4,5,40059,3,ProbabilitySelected,149
1030,2020-11-06 13:00:00,0,0,No,4,11,40222,3,ProbabilitySelected,149
1031,2020-11-06 11:00:00,0,0,No,4,5,40059,3,ProbabilitySelected,149
1032,2020-11-06 13:45:00,0,0,No,4,11,40242,3,ProbabilitySelected,149
1033,2020-11-06 09:00:00,0,0,No,4,11,40222,3,ProbabilitySelected,149
1034,2020-11-06 15:30:00,0,0,No,4,11,40223,3,ProbabilitySelected,149
1035,2020-11-06 15:15:00,0,0,No,4,11,40222,3,ProbabilitySelected,149
1036,2020-11-06 09:00:00,0,0,No,4,11,40223,3,ProbabilitySelected,149
1037,2020-11-07 09:15:00,0,0,No,4,4,40245,3,ProbabilitySelected,150
1038,2020-11-07 14:00:00,0,0,No,4,12,40220,3,ProbabilitySelected,150
1039,2020-11-07 11:00:00,0,0,No,4,5,40245,3,ProbabilitySelected,150
1040,2020-11-07 14:00:00,0,0,No,4,11,40223,3,ProbabilitySelected,150
1041,2020-11-07 13:15:00,0,0,No,4,3,40291,3,ProbabilitySelected,150
1042,2020-11-07 11:00:00,0,1,No,4,11,40243,3,ProbabilitySelected,150
1043,2020-11-07 13:30:00,0,0,No,4,11,40222,3,ProbabilitySelected,150
1044,2020-11-07 14:00:00,0,0,No,4,11,40220,3,ProbabilitySelected,150
1045,2020-11-07 10:30:00,0,0,No,4,12,40220,3,ProbabilitySelected,150
1046,2020-11-07 11:30:00,0,0,No,4,12,40220,3,ProbabilitySelected,150
1047,2020-11-07 13:15:00,0,0,No,4,12,40220,3,ProbabilitySelected,150
1048,2020-11-07 11:30:00,0,0,No,4,5,40059,3,ProbabilitySelected,150
1049,2020-11-07 11:30:00,0,0,No,4,5,40245,3,ProbabilitySelected,150
1050,2020-11-07 16:00:00,0,0,No,4,5,40245,3,ProbabilitySelected,150
1051,2020-11-07 09:00:00,0,0,No,4,3,40291,3,ProbabilitySelected,150
1052,2020-11-07 13:45:00,0,0,No,4,12,40220,3,ProbabilitySelected,150
1053,2020-11-07 14:30:00,0,0,No,4,12,40218,3,ProbabilitySelected,150
1054,2020-11-07 11:00:00,0,0,No,4,5,40059,3,ProbabilitySelected,150
1055,2020-11-07 11:30:00,0,1,No,4,5,40241,3,ProbabilitySelected,150
1056,2020-11-07 13:00:00,0,0,No,4,4,40243,3,ProbabilitySelected,150
1057,2020-11-07 09:30:00,0,0,No,4,4,40245,3,ProbabilitySelected,150
1058,2020-11-07 10:15:00,0,0,No,4,4,40299,3,ProbabilitySelected,150
1059,2020-11-07 09:30:00,0,0,No,4,5,40241,3,ProbabilitySelected,150
1060,2020-11-07 09:00:00,0,0,No,4,11,40223,3,ProbabilitySelected,150
1061,2020-11-07 09:45:00,0,0,No,4,11,40241,3,ProbabilitySelected,150
1062,2020-11-07 11:00:00,1,0,No,4,12,40299,3,ProbabilitySelected,150
1063,2020-11-07 13:00:00,0,1,No,4,11,40223,3,ProbabilitySelected,150
1064,2020-11-07 09:00:00,0,0,No,4,5,40241,3,ProbabilitySelected,150
1065,2020-11-07 09:00:00,0,0,No,4,11,40223,3,ProbabilitySelected,150
1066,2020-11-07 09:30:00,0,0,No,4,11,40222,3,ProbabilitySelected,150
1067,2020-11-07 10:15:00,0,0,No,4,4,40299,3,ProbabilitySelected,150
1068,2020-11-07 09:15:00,0,0,No,4,11,40222,3,ProbabilitySelected,150
1069,2020-11-07 09:00:00,0,0,No,4,11,40222,3,ProbabilitySelected,150
1070,2020-11-07 13:00:00,0,0,No,4,4,40245,3,ProbabilitySelected,150
1071,2020-11-07 11:30:00,0,1,No,4,11,40241,3,ProbabilitySelected,150
1072,2020-11-07 13:00:00,0,0,No,4,12,40299,3,ProbabilitySelected,150
1073,2020-11-07 11:15:00,0,0,No,4,5,40241,3,ProbabilitySelected,150
1074,2020-11-07 11:15:00,0,0,No,4,5,40059,3,ProbabilitySelected,150
1075,2020-11-08 11:45:00,0,0,No,4,12,40218,3,ProbabilitySelected,151
1076,2020-11-08 10:00:00,0,0,No,4,4,40245,3,ProbabilitySelected,151
1077,2020-11-08 11:45:00,0,0,No,4,11,40222,3,ProbabilitySelected,151
1078,2020-11-08 10:00:00,0,0,No,4,5,40241,3,ProbabilitySelected,151
1079,2020-11-08 09:00:00,0,0,No,4,12,40220,3,ProbabilitySelected,151
1080,2020-11-09 13:00:00,0,0,No,4,14,40291,3,ProbabilitySelected,152
1081,2020-11-09 10:30:00,0,0,No,4,14,40291,3,ProbabilitySelected,152
1082,2020-11-09 10:45:00,0,0,No,4,14,40299,3,ProbabilitySelected,152
1083,2020-11-09 14:30:00,0,0,No,4,12,40299,3,ProbabilitySelected,152
1084,2020-11-09 09:15:00,0,0,No,4,12,40299,3,ProbabilitySelected,152
1085,2020-11-09 09:45:00,0,0,No,4,11,40223,3,ProbabilitySelected,152
1086,2020-11-09 10:45:00,0,0,No,4,12,40218,3,ProbabilitySelected,152
1087,2020-11-09 11:15:00,0,0,No,4,5,40059,3,ProbabilitySelected,152
1088,2020-11-09 11:00:00,0,0,No,4,4,40245,3,ProbabilitySelected,152
1089,2020-11-09 13:15:00,0,0,No,4,4,40245,3,ProbabilitySelected,152
1090,2020-11-09 10:00:00,0,0,No,4,4,40245,3,ProbabilitySelected,152
1091,2020-11-09 10:15:00,0,0,No,4,5,40245,3,ProbabilitySelected,152
1092,2020-11-09 16:15:00,0,0,No,4,5,40245,3,ProbabilitySelected,152
1093,2020-11-09 09:45:00,0,0,No,4,5,40241,3,ProbabilitySelected,152
1094,2020-11-09 11:30:00,0,1,No,4,5,40241,3,ProbabilitySelected,152
1095,2020-11-09 09:00:00,0,0,No,4,5,40059,3,ProbabilitySelected,152
1096,2020-11-09 11:00:00,0,0,No,4,5,40241,3,ProbabilitySelected,152
1097,2020-11-09 15:45:00,0,0,No,4,5,40241,3,ProbabilitySelected,152
1098,2020-11-09 10:00:00,0,0,No,4,4,40245,3,ProbabilitySelected,152
1099,2020-11-09 13:30:00,0,0,No,4,5,40241,3,ProbabilitySelected,152
1100,2020-11-09 09:00:00,0,0,No,4,5,40241,3,ProbabilitySelected,152
1101,2020-11-09 13:30:00,0,0,No,4,4,40223,3,ProbabilitySelected,152
1102,2020-11-09 15:30:00,0,0,No,4,11,40222,3,ProbabilitySelected,152
1103,2020-11-09 09:45:00,0,0,No,4,11,40222,3,ProbabilitySelected,152
1104,2020-11-09 10:15:00,0,0,No,4,11,40222,3,ProbabilitySelected,152
1105,2020-11-09 09:15:00,0,0,No,4,12,40220,3,ProbabilitySelected,152
1106,2020-11-09 10:00:00,0,0,No,4,11,40242,3,ProbabilitySelected,152
1107,2020-11-09 13:15:00,0,0,No,4,5,40245,3,ProbabilitySelected,152
1108,2020-11-09 09:00:00,0,0,No,4,12,40218,3,ProbabilitySelected,152
1109,2020-11-09 13:45:00,0,0,No,4,5,40241,3,ProbabilitySelected,152
1110,2020-11-09 09:30:00,0,0,No,4,12,40299,3,ProbabilitySelected,152
1111,2020-11-10 15:00:00,0,0,No,4,12,40220,3,ProbabilitySelected,153
1112,2020-11-10 14:00:00,0,0,No,4,12,40299,3,ProbabilitySelected,153
1113,2020-11-10 09:00:00,0,0,No,4,12,40220,3,ProbabilitySelected,153
1114,2020-11-10 10:15:00,0,0,No,4,11,40222,3,ProbabilitySelected,153
1115,2020-11-10 09:00:00,0,0,No,4,4,40245,3,ProbabilitySelected,153
1116,2020-11-10 16:00:00,0,0,No,4,5,40245,3,ProbabilitySelected,153
1117,2020-11-10 10:00:00,0,0,No,4,5,40241,3,ProbabilitySelected,153
1118,2020-11-10 16:45:00,0,0,No,4,5,40059,3,ProbabilitySelected,153
1119,2020-11-10 16:45:00,0,0,No,4,12,40218,3,ProbabilitySelected,153
1120,2020-11-10 16:45:00,0,0,No,4,4,40245,3,ProbabilitySelected,153
1121,2020-11-10 09:00:00,0,1,No,4,11,40241,3,ProbabilitySelected,153
1122,2020-11-10 11:15:00,0,0,No,4,5,40245,3,ProbabilitySelected,153
1123,2020-11-10 11:00:00,0,1,No,4,11,40243,3,ProbabilitySelected,153
1124,2020-11-10 11:30:00,0,0,No,4,4,40245,3,ProbabilitySelected,153
1125,2020-11-10 09:15:00,0,0,No,4,11,40223,3,ProbabilitySelected,153
1126,2020-11-10 09:00:00,0,0,No,4,12,40220,3,ProbabilitySelected,153
1127,2020-11-11 09:00:00,0,0,No,4,12,40220,3,ProbabilitySelected,154
1128,2020-11-11 14:15:00,0,0,No,4,12,40220,3,ProbabilitySelected,154
1129,2020-11-11 13:00:00,0,0,No,4,12,40218,3,ProbabilitySelected,154
1130,2020-11-11 11:15:00,0,0,No,4,12,40220,3,ProbabilitySelected,154
1131,2020-11-11 13:00:00,0,0,No,4,5,40241,3,ProbabilitySelected,154
1132,2020-11-12 13:15:00,0,0,No,4,12,40218,3,ProbabilitySelected,155
1133,2020-11-12 11:00:00,0,0,No,4,12,40220,3,ProbabilitySelected,155
1134,2020-11-13 14:15:00,0,0,No,4,3,40291,3,ProbabilitySelected,156
1135,2020-11-13 09:00:00,1,0,No,4,11,40243,3,ProbabilitySelected,156
1136,2020-11-13 10:45:00,0,0,No,4,3,40299,3,ProbabilitySelected,156
1137,2020-11-13 14:45:00,0,0,No,4,11,40222,3,ProbabilitySelected,156
1138,2020-11-13 11:30:00,0,0,No,4,4,40245,3,ProbabilitySelected,156
1139,2020-11-13 09:00:00,0,0,No,4,4,40245,3,ProbabilitySelected,156
1140,2020-11-13 10:00:00,0,0,No,4,4,40245,3,ProbabilitySelected,156
1141,2020-11-13 10:00:00,0,1,No,4,4,40245,3,ProbabilitySelected,156
1142,2020-11-13 14:30:00,0,0,No,4,3,40291,3,ProbabilitySelected,156
1143,2020-11-13 15:15:00,0,0,No,4,5,40245,3,ProbabilitySelected,156
1144,2020-11-13 13:30:00,0,0,No,4,4,40243,3,ProbabilitySelected,156
1145,2020-11-13 15:45:00,0,0,No,4,11,40220,3,ProbabilitySelected,156
1146,2020-11-13 09:15:00,0,0,No,4,11,40223,3,ProbabilitySelected,156
1147,2020-11-13 13:45:00,0,0,No,4,12,40218,3,ProbabilitySelected,156
1148,2020-11-13 11:30:00,0,0,No,4,12,40218,3,ProbabilitySelected,156
1149,2020-11-13 14:00:00,0,0,No,4,12,40220,3,ProbabilitySelected,156
1150,2020-11-13 15:30:00,0,0,No,4,14,40299,3,ProbabilitySelected,156
1151,2020-11-13 10:00:00,0,0,No,4,12,40220,3,ProbabilitySelected,156
1152,2020-11-13 14:00:00,0,0,No,4,12,40299,3,ProbabilitySelected,156
1153,2020-11-13 10:30:00,0,0,No,4,14,40299,3,ProbabilitySelected,156
1154,2020-11-13 13:15:00,0,0,No,4,5,40241,3,ProbabilitySelected,156
1155,2020-11-13 09:15:00,0,0,No,4,12,40299,3,ProbabilitySelected,156
1156,2020-11-13 14:45:00,0,0,No,4,12,40220,3,ProbabilitySelected,156
1157,2020-11-13 09:30:00,0,0,No,4,12,40299,3,ProbabilitySelected,156
1158,2020-11-13 14:30:00,0,0,No,4,12,40299,3,ProbabilitySelected,156
1159,2020-11-13 11:30:00,0,0,No,4,12,40220,3,ProbabilitySelected,156
1160,2020-11-13 16:15:00,0,0,No,4,3,40291,3,ProbabilitySelected,156
1161,2020-11-13 11:00:00,1,0,No,4,3,40291,3,ProbabilitySelected,156
1162,2020-11-13 11:00:00,0,0,No,4,12,40218,3,ProbabilitySelected,156
1163,2020-11-13 09:00:00,0,0,No,4,12,40220,3,ProbabilitySelected,156
1164,2020-11-14 14:00:00,0,0,No,4,3,40299,3,ProbabilitySelected,157
1165,2020-11-14 11:30:00,0,0,No,4,11,40222,3,ProbabilitySelected,157
1166,2020-11-14 09:15:00,0,0,No,4,5,40241,3,ProbabilitySelected,157
1167,2020-11-15 11:45:00,0,0,No,4,12,40218,3,ProbabilitySelected,158
1168,2020-11-15 10:00:00,0,0,No,4,11,40223,3,ProbabilitySelected,158
1169,2020-11-15 10:30:00,0,0,No,4,11,40242,3,ProbabilitySelected,158
1170,2021-02-05 09:15:00,0,0,No,4,12,40220,4,ProbabilitySelected,240
1171,2021-02-05 12:00:00,0,0,No,4,12,40299,4,ProbabilitySelected,240
1172,2021-02-05 09:30:00,0,0,No,4,5,40245,4,ProbabilitySelected,240
1173,2021-02-05 10:45:00,0,0,No,4,4,40245,4,ProbabilitySelected,240
1174,2021-02-05 10:45:00,0,0,No,4,11,40223,4,ProbabilitySelected,240
1175,2021-02-05 11:30:00,0,0,No,4,5,40059,4,ProbabilitySelected,240
1176,2021-02-05 14:00:00,0,0,No,4,12,40299,4,ProbabilitySelected,240
1177,2021-02-05 09:30:00,0,0,No,4,4,40245,4,ProbabilitySelected,240
1178,2021-02-05 12:00:00,0,0,No,4,12,40299,4,ProbabilitySelected,240
1179,2021-02-05 10:15:00,0,0,No,4,4,40245,4,ProbabilitySelected,240
1180,2021-02-05 14:00:00,0,0,No,4,5,40245,4,ProbabilitySelected,240
1181,2021-02-05 09:15:00,0,1,No,4,12,40220,4,ProbabilitySelected,240
1182,2021-02-05 09:30:00,0,0,No,4,5,40241,4,ProbabilitySelected,240
1183,2021-02-05 09:15:00,0,0,No,4,11,40223,4,ProbabilitySelected,240
1184,2021-02-05 11:00:00,0,0,No,4,5,40059,4,ProbabilitySelected,240
1185,2021-02-05 11:15:00,0,1,No,4,3,40299,4,ProbabilitySelected,240
1186,2021-02-05 11:30:00,0,0,No,4,5,40245,4,ProbabilitySelected,240
1187,2021-02-05 10:00:00,0,0,No,4,11,40222,4,ProbabilitySelected,240
1188,2021-02-05 10:00:00,0,0,No,4,12,40218,4,ProbabilitySelected,240
1189,2021-02-05 10:00:00,0,0,No,4,11,40243,4,ProbabilitySelected,240
1190,2021-02-05 12:00:00,0,0,No,4,4,40023,4,ProbabilitySelected,240
1191,2021-02-05 09:15:00,0,0,No,4,11,40242,4,ProbabilitySelected,240
1192,2021-02-05 10:30:00,0,0,No,4,4,40245,4,ProbabilitySelected,240
1193,2021-02-05 13:00:00,0,0,No,4,4,40243,4,ProbabilitySelected,240
1194,2021-02-05 11:00:00,0,0,No,4,12,40220,4,ProbabilitySelected,240
1195,2021-02-05 09:15:00,0,1,No,4,3,40299,4,ProbabilitySelected,240
1196,2021-02-05 09:15:00,0,0,No,4,5,40241,4,ProbabilitySelected,240
1197,2021-02-05 11:00:00,0,0,No,4,5,40241,4,ProbabilitySelected,240
1198,2021-02-05 09:30:00,0,0,No,4,11,40220,4,ProbabilitySelected,240
1199,2021-02-05 10:30:00,0,0,No,4,12,40220,4,ProbabilitySelected,240
1200,2021-02-05 09:45:00,0,0,No,4,11,40223,4,ProbabilitySelected,240
1201,2021-02-05 13:30:00,0,0,No,4,12,40218,4,ProbabilitySelected,240
1202,2021-02-05 10:45:00,0,0,No,4,11,40223,4,ProbabilitySelected,240
1203,2021-02-05 12:45:00,0,0,No,4,12,40218,4,ProbabilitySelected,240
1204,2021-02-05 11:45:00,0,0,No,4,5,40241,4,ProbabilitySelected,240
1205,2021-02-05 10:00:00,0,0,No,4,11,40241,4,ProbabilitySelected,240
1206,2021-02-05 14:15:00,0,0,No,4,4,40299,4,ProbabilitySelected,240
1207,2021-02-05 12:45:00,0,0,No,4,5,40059,4,ProbabilitySelected,240
1208,2021-02-05 12:45:00,0,0,No,4,5,40241,4,ProbabilitySelected,240
1209,2021-02-05 12:30:00,0,0,No,4,11,40222,4,ProbabilitySelected,240
1210,2021-02-05 12:15:00,0,0,No,4,4,40243,4,ProbabilitySelected,240
1211,2021-02-05 14:30:00,0,0,No,4,11,40242,4,ProbabilitySelected,240
1212,2021-02-05 12:15:00,0,0,No,4,11,40222,4,ProbabilitySelected,240
1213,2021-02-05 13:45:00,0,0,No,4,3,40299,4,ProbabilitySelected,240
1214,2021-02-05 13:45:00,0,0,No,4,12,40220,4,ProbabilitySelected,240
1215,2021-02-05 13:45:00,0,0,No,4,11,40220,4,ProbabilitySelected,240
1216,2021-02-05 13:45:00,0,0,No,4,4,40245,4,ProbabilitySelected,240
1217,2021-02-05 13:30:00,0,0,No,4,12,41783,4,ProbabilitySelected,240
1218,2021-02-05 13:30:00,0,0,No,4,4,40245,4,ProbabilitySelected,240
1219,2021-02-05 13:15:00,0,0,No,4,5,40059,4,ProbabilitySelected,240
1220,2021-02-05 13:30:00,0,0,No,4,12,40220,4,ProbabilitySelected,240
1221,2021-02-05 13:15:00,0,0,No,4,12,40218,4,ProbabilitySelected,240
1222,2021-02-05 13:15:00,0,0,No,4,12,40299,4,ProbabilitySelected,240
1223,2021-02-05 13:15:00,0,0,No,4,4,40245,4,ProbabilitySelected,240
1224,2021-02-05 11:45:00,0,0,No,4,12,40218,4,ProbabilitySelected,240
1225,2021-02-05 09:45:00,0,0,No,4,12,40299,4,ProbabilitySelected,240
1226,2021-02-05 09:45:00,0,0,No,4,12,40220,4,ProbabilitySelected,240
1227,2021-02-05 09:45:00,0,0,No,4,4,45982,4,ProbabilitySelected,240
1228,2021-02-05 14:00:00,0,0,No,4,11,42883,4,ProbabilitySelected,240
1229,2021-02-05 09:30:00,0,0,No,4,11,40241,4,ProbabilitySelected,240
1230,2021-02-05 11:30:00,0,0,No,4,3,40299,4,ProbabilitySelected,240
1231,2021-02-05 11:00:00,0,0,No,4,3,40291,4,ProbabilitySelected,240
1232,2021-02-05 13:15:00,0,0,No,4,3,40299,4,ProbabilitySelected,240
1233,2021-02-05 12:30:00,0,0,No,4,5,40059,4,ProbabilitySelected,240
1234,2021-02-05 13:00:00,0,0,No,4,12,40220,4,ProbabilitySelected,240
1235,2021-02-05 11:30:00,0,0,No,4,11,40243,4,ProbabilitySelected,240
1236,2021-02-05 11:30:00,0,0,No,4,4,40223,4,ProbabilitySelected,240
1237,2021-02-05 09:00:00,0,0,No,4,11,40241,4,ProbabilitySelected,240
1238,2021-02-05 10:00:00,0,1,No,4,4,40299,4,ProbabilitySelected,240
1239,2021-02-05 09:15:00,0,0,No,4,4,40245,4,ProbabilitySelected,240
1240,2021-02-05 12:00:00,0,0,No,4,11,40242,4,ProbabilitySelected,240
1241,2021-02-05 11:30:00,0,1,No,4,12,40220,4,ProbabilitySelected,240
1242,2021-02-05 14:30:00,0,0,No,4,5,40059,4,ProbabilitySelected,240
1243,2021-02-05 14:00:00,0,0,No,4,5,40241,4,ProbabilitySelected,240
1244,2021-02-05 13:00:00,0,0,No,4,12,40220,4,ProbabilitySelected,240
1245,2021-02-05 09:00:00,0,0,No,4,3,40299,4,ProbabilitySelected,240
1246,2021-02-05 09:00:00,0,0,No,4,5,40203,4,ProbabilitySelected,240
1247,2021-02-05 09:00:00,0,0,No,4,3,40299,4,ProbabilitySelected,240
1248,2021-02-05 09:00:00,0,0,No,4,3,40299,4,ProbabilitySelected,240
1249,2021-02-05 10:00:00,0,0,No,4,11,40243,4,ProbabilitySelected,240
1250,2021-02-05 12:00:00,0,0,No,4,11,43270,4,ProbabilitySelected,240
1251,2021-02-05 11:00:00,0,0,No,4,3,40299,4,ProbabilitySelected,240
1252,2021-02-05 14:00:00,0,0,No,4,14,40291,4,ProbabilitySelected,240
1253,2021-02-05 11:00:00,0,0,No,4,14,40299,4,ProbabilitySelected,240
1254,2021-02-05 14:45:00,0,0,No,4,4,40223,4,ProbabilitySelected,240
1255,2021-02-05 14:45:00,0,0,No,4,3,40299,4,ProbabilitySelected,240
1256,2021-02-05 09:00:00,0,0,No,4,11,40222,4,ProbabilitySelected,240
1257,2021-02-05 11:00:00,0,0,No,4,12,40220,4,ProbabilitySelected,240
1258,2021-02-06 09:15:00,0,0,No,4,4,40299,4,ProbabilitySelected,241
1259,2021-02-06 10:30:00,0,0,No,4,5,40241,4,ProbabilitySelected,241
1260,2021-02-06 09:30:00,0,0,No,4,3,40299,4,ProbabilitySelected,241
1261,2021-02-06 09:15:00,0,0,No,4,11,40220,4,ProbabilitySelected,241
1262,2021-02-06 10:30:00,0,0,No,4,4,40245,4,ProbabilitySelected,241
1263,2021-02-06 09:15:00,0,0,No,4,12,40299,4,ProbabilitySelected,241
1264,2021-02-06 10:15:00,0,0,No,4,11,40223,4,ProbabilitySelected,241
1265,2021-02-06 14:45:00,0,0,No,4,5,40245,4,ProbabilitySelected,241
1266,2021-02-06 11:30:00,0,0,No,4,3,40299,4,ProbabilitySelected,241
1267,2021-02-06 14:00:00,0,0,No,4,12,40299,4,ProbabilitySelected,241
1268,2021-02-06 12:00:00,0,0,No,4,3,40299,4,ProbabilitySelected,241
1269,2021-02-06 09:15:00,0,0,No,4,11,40243,4,ProbabilitySelected,241
1270,2021-02-06 11:00:00,0,0,No,4,5,40241,4,ProbabilitySelected,241
1271,2021-02-06 11:30:00,0,0,No,4,5,40059,4,ProbabilitySelected,241
1272,2021-02-06 09:00:00,0,1,No,4,12,40220,4,ProbabilitySelected,241
1273,2021-02-06 11:15:00,0,0,No,4,12,40220,4,ProbabilitySelected,241
1274,2021-02-06 09:00:00,0,0,No,4,5,40241,4,ProbabilitySelected,241
1275,2021-02-06 12:00:00,0,0,No,4,4,40299,4,ProbabilitySelected,241
1276,2021-02-06 13:00:00,0,0,No,4,5,40241,4,ProbabilitySelected,241
1277,2021-02-06 10:30:00,0,0,No,4,11,40223,4,ProbabilitySelected,241
1278,2021-02-06 11:30:00,0,0,No,4,12,40220,4,ProbabilitySelected,241
1279,2021-02-06 09:00:00,0,1,No,4,4,40245,4,ProbabilitySelected,241
1280,2021-02-06 10:00:00,0,0,No,4,12,40220,4,ProbabilitySelected,241
1281,2021-02-06 10:30:00,0,0,No,4,12,40218,4,ProbabilitySelected,241
1282,2021-02-06 09:00:00,0,0,No,4,4,40299,4,ProbabilitySelected,241
1283,2021-02-06 09:45:00,0,0,No,4,12,40299,4,ProbabilitySelected,241
1284,2021-02-06 09:00:00,0,0,No,4,4,40245,4,ProbabilitySelected,241
1285,2021-02-06 13:00:00,0,0,No,4,4,40243,4,ProbabilitySelected,241
1286,2021-02-06 09:30:00,0,0,No,4,11,40222,4,ProbabilitySelected,241
1287,2021-02-06 10:45:00,0,0,No,4,11,40223,4,ProbabilitySelected,241
1288,2021-02-06 14:45:00,0,0,No,4,4,40245,4,ProbabilitySelected,241
1289,2021-02-06 14:15:00,0,0,No,4,11,40220,4,ProbabilitySelected,241
1290,2021-02-06 13:45:00,0,0,No,4,3,40299,4,ProbabilitySelected,241
1291,2021-02-06 13:45:00,0,0,No,4,11,40241,4,ProbabilitySelected,241
1292,2021-02-06 13:30:00,0,0,No,4,14,40291,4,ProbabilitySelected,241
1293,2021-02-06 13:15:00,0,0,No,4,12,40220,4,ProbabilitySelected,241
1294,2021-02-06 12:45:00,0,0,No,4,11,40243,4,ProbabilitySelected,241
1295,2021-02-06 13:30:00,0,0,No,4,4,40243,4,ProbabilitySelected,241
1296,2021-02-06 12:45:00,0,1,No,4,3,40299,4,ProbabilitySelected,241
1297,2021-02-06 13:15:00,0,0,No,4,4,40245,4,ProbabilitySelected,241
1298,2021-02-06 14:00:00,0,0,No,4,4,40245,4,ProbabilitySelected,241
1299,2021-02-06 14:45:00,0,0,No,4,14,40299,4,ProbabilitySelected,241
1300,2021-02-06 12:30:00,0,0,No,4,5,40059,4,ProbabilitySelected,241
1301,2021-02-06 09:30:00,0,0,No,4,3,40299,4,ProbabilitySelected,241
1302,2021-02-06 12:15:00,0,0,No,4,11,40242,4,ProbabilitySelected,241
1303,2021-02-06 14:00:00,0,1,No,4,4,40223,4,ProbabilitySelected,241
1304,2021-02-06 11:45:00,0,0,No,4,4,40223,4,ProbabilitySelected,241
1305,2021-02-06 10:45:00,0,0,No,4,5,40241,4,ProbabilitySelected,241
1306,2021-02-06 09:45:00,0,1,No,4,3,40291,4,ProbabilitySelected,241
1307,2021-02-06 10:00:00,0,0,No,4,11,40223,4,ProbabilitySelected,241
1308,2021-02-06 14:45:00,0,0,No,4,12,40220,4,ProbabilitySelected,241
1309,2021-02-06 09:45:00,0,1,No,4,4,40245,4,ProbabilitySelected,241
1310,2021-02-06 12:30:00,0,0,No,4,5,40059,4,ProbabilitySelected,241
1311,2021-02-06 13:15:00,0,0,No,4,5,40059,4,ProbabilitySelected,241
1312,2021-02-06 09:45:00,0,0,No,4,11,40222,4,ProbabilitySelected,241
1313,2021-02-06 10:30:00,0,0,No,4,14,40299,4,ProbabilitySelected,241
1314,2021-02-06 11:30:00,0,0,No,4,3,40299,4,ProbabilitySelected,241
1315,2021-02-06 12:00:00,0,0,No,4,11,40223,4,ProbabilitySelected,241
1316,2021-02-06 11:45:00,0,1,No,4,3,40291,4,ProbabilitySelected,241
1317,2021-02-06 14:00:00,0,0,No,4,3,40299,4,ProbabilitySelected,241
1318,2021-02-06 09:00:00,0,0,No,4,12,40218,4,ProbabilitySelected,241
1319,2021-02-06 09:15:00,0,0,No,4,12,40220,4,ProbabilitySelected,241
1320,2021-02-06 09:00:00,0,0,No,4,3,40291,4,ProbabilitySelected,241
1321,2021-02-06 14:30:00,0,0,No,4,12,40218,4,ProbabilitySelected,241
1322,2021-02-06 09:00:00,0,0,No,4,12,40220,4,ProbabilitySelected,241
1323,2021-02-06 10:45:00,0,1,No,4,3,40291,4,ProbabilitySelected,241
1324,2021-02-06 09:30:00,0,0,No,4,12,40220,4,ProbabilitySelected,241
1325,2021-02-06 11:00:00,0,0,No,4,12,40220,4,ProbabilitySelected,241
1326,2021-02-07 10:00:00,0,1,No,4,11,40222,4,ProbabilitySelected,242
1327,2021-02-07 14:00:00,0,0,No,4,14,40291,4,ProbabilitySelected,242
1328,2021-02-07 09:00:00,0,1,No,4,11,40241,4,ProbabilitySelected,242
1329,2021-02-07 10:00:00,0,1,No,4,12,40220,4,ProbabilitySelected,242
1330,2021-02-07 13:00:00,1,1,No,4,4,40245,4,ProbabilitySelected,242
1331,2021-02-07 09:15:00,0,0,No,4,12,40220,4,ProbabilitySelected,242
1332,2021-02-07 11:30:00,0,0,No,4,12,40220,4,ProbabilitySelected,242
1333,2021-02-08 09:00:00,0,0,No,4,12,40220,4,ProbabilitySelected,243
1334,2021-02-08 10:30:00,0,0,No,4,5,40223,4,ProbabilitySelected,243
1335,2021-02-08 10:15:00,0,1,No,4,3,40299,4,ProbabilitySelected,243
1336,2021-02-08 14:30:00,0,0,No,4,12,40218,4,ProbabilitySelected,243
1337,2021-02-08 09:30:00,0,0,No,4,5,40241,4,ProbabilitySelected,243
1338,2021-02-08 14:30:00,0,0,No,4,5,40059,4,ProbabilitySelected,243
1339,2021-02-08 09:45:00,0,0,No,4,5,40241,4,ProbabilitySelected,243
1340,2021-02-08 09:00:00,0,0,No,4,3,40299,4,ProbabilitySelected,243
1341,2021-02-08 14:00:00,0,0,No,4,11,40220,4,ProbabilitySelected,243
1342,2021-02-08 14:30:00,0,0,No,4,14,40299,4,ProbabilitySelected,243
1343,2021-02-08 14:45:00,0,0,No,4,12,40220,4,ProbabilitySelected,243
1344,2021-02-08 09:45:00,0,0,No,4,5,40241,4,ProbabilitySelected,243
1345,2021-02-08 13:00:00,0,0,No,4,11,40222,4,ProbabilitySelected,243
1346,2021-02-08 11:30:00,0,0,No,4,12,40218,4,ProbabilitySelected,243
1347,2021-02-08 11:00:00,0,0,No,4,4,40245,4,ProbabilitySelected,243
1348,2021-02-08 10:30:00,0,0,No,4,11,40223,4,ProbabilitySelected,243
1349,2021-02-08 09:15:00,0,0,No,4,12,40220,4,ProbabilitySelected,243
1350,2021-02-08 09:15:00,0,0,No,4,11,40222,4,ProbabilitySelected,243
1351,2021-02-08 14:00:00,0,1,No,4,5,40222,4,ProbabilitySelected,243
1352,2021-02-08 14:00:00,0,1,No,4,3,40291,4,ProbabilitySelected,243
1353,2021-02-08 11:00:00,0,0,No,4,4,40243,4,ProbabilitySelected,243
1354,2021-02-08 09:15:00,0,0,No,4,3,40291,4,ProbabilitySelected,243
1355,2021-02-08 12:00:00,0,0,No,4,12,40220,4,ProbabilitySelected,243
1356,2021-02-08 12:00:00,0,0,No,4,12,40299,4,ProbabilitySelected,243
1357,2021-02-08 13:15:00,0,0,No,4,14,40291,4,ProbabilitySelected,243
1358,2021-02-08 13:30:00,0,0,No,4,14,40299,4,ProbabilitySelected,243
1359,2021-02-08 09:15:00,0,0,No,4,11,40241,4,ProbabilitySelected,243
1360,2021-02-08 11:00:00,0,0,No,4,5,40241,4,ProbabilitySelected,243
1361,2021-02-08 11:30:00,0,0,No,4,3,40299,4,ProbabilitySelected,243
1362,2021-02-08 10:30:00,0,0,No,4,3,40023,4,ProbabilitySelected,243
1363,2021-02-08 12:15:00,1,0,No,4,11,40243,4,ProbabilitySelected,243
1364,2021-02-08 14:45:00,0,0,No,4,3,40291,4,ProbabilitySelected,243
1365,2021-02-08 09:00:00,0,0,No,4,11,40241,4,ProbabilitySelected,243
1366,2021-02-08 10:00:00,0,0,No,4,11,40223,4,ProbabilitySelected,243
1367,2021-02-08 09:00:00,0,0,No,4,11,40223,4,ProbabilitySelected,243
1368,2021-02-08 14:45:00,0,0,No,4,12,40220,4,ProbabilitySelected,243
1369,2021-02-09 09:00:00,0,0,No,4,11,40222,4,ProbabilitySelected,244
1370,2021-02-09 10:30:00,1,1,No,4,14,40299,4,ProbabilitySelected,244
1371,2021-02-09 13:00:00,0,0,No,4,12,40218,4,ProbabilitySelected,244
1372,2021-02-09 09:45:00,0,0,No,4,3,40291,4,ProbabilitySelected,244
1373,2021-02-09 11:30:00,0,0,No,4,14,40299,4,ProbabilitySelected,244
1374,2021-02-09 09:00:00,0,0,No,4,5,40241,4,ProbabilitySelected,244
1375,2021-02-09 11:00:00,0,0,No,4,12,40220,4,ProbabilitySelected,244
1376,2021-02-09 12:00:00,0,0,No,4,11,40243,4,ProbabilitySelected,244
1377,2021-02-09 09:00:00,0,0,No,4,11,40223,4,ProbabilitySelected,244
1378,2021-02-09 09:30:00,0,0,No,4,5,40059,4,ProbabilitySelected,244
1379,2021-02-09 11:30:00,0,0,No,4,12,40218,4,ProbabilitySelected,244
1380,2021-02-09 14:45:00,0,0,No,4,14,40299,4,ProbabilitySelected,244
1381,2021-02-09 14:30:00,0,0,No,4,12,40220,4,ProbabilitySelected,244
1382,2021-02-09 09:30:00,0,0,No,4,5,40245,4,ProbabilitySelected,244
1383,2021-02-09 10:15:00,0,0,No,4,5,40241,4,ProbabilitySelected,244
1384,2021-02-09 12:30:00,0,0,No,4,12,40220,4,ProbabilitySelected,244
1385,2021-02-09 09:45:00,0,0,No,4,11,40222,4,ProbabilitySelected,244
1386,2021-02-09 09:15:00,0,0,No,4,11,40223,4,ProbabilitySelected,244
1387,2021-02-09 10:00:00,0,0,No,4,4,40023,4,ProbabilitySelected,244
1388,2021-02-10 09:30:00,0,0,No,4,11,40223,4,ProbabilitySelected,245
1389,2021-02-10 12:30:00,0,1,No,4,14,40299,4,ProbabilitySelected,245
1390,2021-02-10 11:00:00,0,0,No,4,11,40222,4,ProbabilitySelected,245
1391,2021-02-10 10:00:00,0,0,No,4,11,40222,4,ProbabilitySelected,245
1392,2021-02-10 09:00:00,0,0,No,4,11,40223,4,ProbabilitySelected,245
1393,2021-02-10 09:30:00,0,0,No,4,12,40205,4,ProbabilitySelected,245
1394,2021-02-11 12:00:00,0,0,No,4,11,40243,4,ProbabilitySelected,246
1395,2021-02-11 10:30:00,0,0,No,4,11,43846,4,ProbabilitySelected,246
1396,2021-02-11 10:00:00,0,0,No,4,4,40245,4,ProbabilitySelected,246
1397,2021-02-11 12:15:00,0,1,No,4,12,40220,4,ProbabilitySelected,246
1398,2021-02-11 13:00:00,0,0,No,4,3,40299,4,ProbabilitySelected,246
1399,2021-04-23 09:00:00,0,0,No,4,11,40222,5,ProbabilitySelected,317
1400,2021-04-23 12:30:00,0,0,No,4,12,40220,5,ProbabilitySelected,317
1401,2021-04-23 11:00:00,0,1,No,4,5,40241,5,ProbabilitySelected,317
1402,2021-04-24 17:00:00,0,0,No,4,5,40059,5,ProbabilitySelected,318
1403,2021-04-24 13:00:00,0,0,No,4,12,40218,5,ProbabilitySelected,318
1404,2021-04-26 17:45:00,0,1,No,4,4,40299,5,ProbabilitySelected,320
1405,2021-04-26 16:15:00,0,0,No,4,5,40241,5,ProbabilitySelected,320
1406,2021-04-26 17:45:00,0,0,No,4,11,40223,5,ProbabilitySelected,320
1407,2021-04-26 18:30:00,0,1,No,4,11,40223,5,ProbabilitySelected,320
1408,2021-04-26 14:00:00,0,0,No,4,11,40242,5,ProbabilitySelected,320
1409,2021-04-26 18:00:00,0,1,No,4,4,40245,5,ProbabilitySelected,320
1410,2021-04-26 16:15:00,0,0,No,4,11,40243,5,ProbabilitySelected,320
1411,2021-04-26 13:00:00,0,1,No,4,4,40245,5,ProbabilitySelected,320
1412,2021-04-26 16:45:00,0,0,No,4,4,40245,5,ProbabilitySelected,320
1413,2021-04-26 16:15:00,0,1,No,4,3,40299,5,ProbabilitySelected,320
1414,2021-04-26 17:15:00,0,1,No,4,12,40220,5,ProbabilitySelected,320
1415,2021-04-26 18:00:00,0,0,No,4,12,40299,5,ProbabilitySelected,320
1416,2021-04-26 18:30:00,0,1,No,4,12,40299,5,ProbabilitySelected,320
1417,2021-04-27 10:00:00,0,1,No,4,11,40222,5,ProbabilitySelected,321
1418,2021-04-27 15:30:00,0,1,No,4,11,40220,5,ProbabilitySelected,321
1419,2021-04-27 08:00:00,0,1,No,4,12,40299,5,ProbabilitySelected,321
1420,2021-04-27 14:15:00,0,1,No,4,5,40241,5,ProbabilitySelected,321
1421,2021-04-27 11:15:00,0,0,No,4,3,40291,5,ProbabilitySelected,321
1422,2021-04-27 08:15:00,0,0,No,4,14,40291,5,ProbabilitySelected,321
1423,2021-04-27 13:00:00,0,0,No,4,11,40242,5,ProbabilitySelected,321
1424,2021-04-27 12:00:00,0,0,No,4,14,40299,5,ProbabilitySelected,321
1425,2021-04-27 09:45:00,0,0,No,4,12,40299,5,ProbabilitySelected,321
1426,2021-04-27 12:00:00,0,1,No,4,12,40220,5,ProbabilitySelected,321
1427,2021-04-28 08:45:00,0,1,No,4,11,40222,5,ProbabilitySelected,322
1428,2021-04-28 11:00:00,0,1,No,4,5,40059,5,ProbabilitySelected,322
1429,2021-04-28 09:00:00,0,1,No,4,12,40299,5,ProbabilitySelected,322
1430,2021-04-29 08:45:00,0,1,No,4,11,40242,5,ProbabilitySelected,323
1431,2021-04-29 08:30:00,0,1,No,4,12,40220,5,ProbabilitySelected,323
1432,2021-05-17 11:00:00,0,1,No,4,3,40291,6,ProbabilitySelected,341
1433,2021-05-17 11:45:00,0,1,No,4,4,40245,6,ProbabilitySelected,341
1434,2021-05-17 08:30:00,0,0,No,4,5,40245,6,ProbabilitySelected,341
1435,2021-05-17 08:15:00,0,1,No,4,3,40299,6,ProbabilitySelected,341
1436,2021-05-17 12:30:00,0,1,No,4,4,40245,6,ProbabilitySelected,341
1437,2021-05-17 10:00:00,0,1,No,4,4,40245,6,ProbabilitySelected,341
1438,2021-05-17 10:00:00,0,1,No,4,3,40299,6,ProbabilitySelected,341
1439,2021-05-17 11:00:00,0,1,No,4,11,40299,6,ProbabilitySelected,341
1440,2021-05-17 09:00:00,0,0,No,4,12,40299,6,ProbabilitySelected,341
1441,2021-05-17 10:45:00,0,1,No,4,4,40299,6,ProbabilitySelected,341
1442,2021-05-17 08:45:00,0,0,No,4,11,40222,6,ProbabilitySelected,341
1443,2021-05-17 10:00:00,0,1,No,4,12,40220,6,ProbabilitySelected,341
1444,2021-05-18 13:30:00,0,1,No,4,4,40243,6,ProbabilitySelected,342
1445,2021-05-18 09:00:00,0,0,No,4,12,40220,6,ProbabilitySelected,342
1446,2021-05-18 09:15:00,0,0,No,4,3,40299,6,ProbabilitySelected,342
1447,2021-05-18 13:30:00,0,0,No,4,11,40223,6,ProbabilitySelected,342
1448,2021-05-18 13:00:00,0,0,No,4,3,40291,6,ProbabilitySelected,342
1449,2021-05-19 12:30:00,0,1,No,4,12,40220,6,ProbabilitySelected,343
1450,2021-05-19 08:00:00,0,1,No,4,4,40243,6,ProbabilitySelected,343
1451,2021-05-19 15:00:00,0,0,No,4,11,40223,6,ProbabilitySelected,343
1452,2021-05-19 08:30:00,0,0,No,4,4,40299,6,ProbabilitySelected,343
1453,2021-05-20 11:30:00,0,1,No,4,11,40241,6,ProbabilitySelected,344
1454,2021-05-20 11:45:00,0,1,No,4,12,40218,6,ProbabilitySelected,344
1455,2021-05-20 15:15:00,0,1,No,4,5,40059,6,ProbabilitySelected,344
1456,2021-05-21 11:30:00,0,1,No,4,5,40241,6,ProbabilitySelected,345
1457,2021-05-21 16:30:00,0,0,No,4,5,40245,6,ProbabilitySelected,345
1458,2021-05-21 14:45:00,0,0,No,4,11,40222,6,ProbabilitySelected,345
1459,2021-05-21 15:45:00,0,1,No,4,4,40245,6,ProbabilitySelected,345
1460,2021-05-21 14:30:00,0,0,No,4,4,40245,6,ProbabilitySelected,345
1461,2021-05-22 11:00:00,1,1,No,4,5,40059,6,ProbabilitySelected,346
1462,2021-05-22 09:00:00,0,0,No,4,5,40241,6,ProbabilitySelected,346
1463,2021-05-22 12:00:00,0,0,No,4,12,40218,6,ProbabilitySelected,346
1464,2021-05-23 11:45:00,0,1,No,4,4,40245,6,ProbabilitySelected,347
1465,2021-05-23 09:00:00,0,1,No,4,5,40059,6,ProbabilitySelected,347
