,test_date,pcr_result,antibody_result,vaccinated,sector,sewer_zone,zip_code,round_name,record_type,time_point
0,2020-06-10 14:00:00,0,0,No,2,17,40217,1,ProbabilitySelected,0
1,2020-06-10 15:15:00,0,0,No,2,11,40205,1,ProbabilitySelected,0
2,2020-06-10 11:00:00,0,0,No,2,11,40204,1,ProbabilitySelected,0
3,2020-06-10 13:30:00,0,0,No,2,11,40206,1,ProbabilitySelected,0
4,2020-06-10 15:00:00,0,0,No,2,11,40207,1,ProbabilitySelected,0
5,2020-06-10 09:15:00,0,0,No,2,11,40205,1,ProbabilitySelected,0
6,2020-06-10 11:45:00,0,0,No,2,12,40205,1,ProbabilitySelected,0
7,2020-06-10 16:45:00,0,0,No,2,17,40203,1,ProbabilitySelected,0
8,2020-06-10 16:45:00,0,0,No,2,11,40205,1,ProbabilitySelected,0
9,2020-06-10 11:30:00,0,0,No,2,11,40217,1,ProbabilitySelected,0
10,2020-06-10 13:30:00,0,0,No,2,12,40205,1,ProbabilitySelected,0
11,2020-06-10 11:30:00,0,0,No,2,12,40205,1,ProbabilitySelected,0
12,2020-06-10 09:45:00,0,0,No,2,17,40217,1,ProbabilitySelected,0
13,2020-06-10 11:15:00,0,0,No,2,11,40204,1,ProbabilitySelected,0
14,2020-06-10 11:30:00,0,0,No,2,8,40207,1,ProbabilitySelected,0
15,2020-06-10 10:45:00,0,0,No,2,11,40204,1,ProbabilitySelected,0
16,2020-06-10 09:45:00,0,0,No,2,11,40217,1,ProbabilitySelected,0
17,2020-06-10 11:00:00,0,0,No,2,17,40203,1,ProbabilitySelected,0
18,2020-06-10 13:15:00,0,0,No,2,11,40204,1,ProbabilitySelected,0
19,2020-06-10 15:30:00,0,0,No,2,11,40207,1,ProbabilitySelected,0
20,2020-06-10 12:00:00,0,0,No,2,11,40207,1,ProbabilitySelected,0
21,2020-06-10 09:00:00,0,0,No,2,12,40205,1,ProbabilitySelected,0
22,2020-06-10 10:00:00,0,0,No,2,12,40205,1,ProbabilitySelected,0
23,2020-06-10 16:00:00,0,0,No,2,11,40204,1,ProbabilitySelected,0
24,2020-06-10 14:00:00,0,0,No,2,11,40205,1,ProbabilitySelected,0
25,2020-06-10 12:00:00,0,0,No,2,17,40217,1,ProbabilitySelected,0
26,2020-06-10 16:00:00,0,0,No,2,11,40204,1,ProbabilitySelected,0
27,2020-06-10 15:00:00,0,0,No,2,17,40203,1,ProbabilitySelected,0
28,2020-06-10 15:00:00,0,0,No,2,11,40206,1,ProbabilitySelected,0
29,2020-06-11 09:30:00,0,0,No,2,17,40203,1,ProbabilitySelected,1
30,2020-06-11 09:15:00,0,0,No,2,17,40217,1,ProbabilitySelected,1
31,2020-06-11 11:30:00,0,0,No,2,17,40217,1,ProbabilitySelected,1
32,2020-06-11 13:30:00,0,0,No,2,8,40207,1,ProbabilitySelected,1
33,2020-06-11 14:30:00,0,0,No,2,11,40204,1,ProbabilitySelected,1
34,2020-06-11 15:45:00,0,0,No,2,12,40205,1,ProbabilitySelected,1
35,2020-06-11 11:30:00,0,0,No,2,11,40205,1,ProbabilitySelected,1
36,2020-06-11 15:00:00,0,0,No,2,11,40204,1,ProbabilitySelected,1
37,2020-06-11 12:15:00,0,0,No,2,11,40204,1,ProbabilitySelected,1
38,2020-06-11 12:15:00,0,0,No,2,11,40204,1,ProbabilitySelected,1
39,2020-06-11 11:15:00,0,0,No,2,12,40205,1,ProbabilitySelected,1
40,2020-06-11 10:30:00,0,0,No,2,11,40217,1,ProbabilitySelected,1
41,2020-06-11 16:00:00,0,0,No,2,17,40208,1,ProbabilitySelected,1
42,2020-06-11 14:00:00,0,0,No,2,11,40204,1,ProbabilitySelected,1
43,2020-06-11 13:30:00,0,0,No,2,11,40206,1,ProbabilitySelected,1
44,2020-06-11 09:30:00,0,0,No,2,17,40217,1,ProbabilitySelected,1
45,2020-06-11 09:30:00,0,0,No,2,17,40217,1,ProbabilitySelected,1
46,2020-06-11 11:45:00,0,0,No,2,11,40206,1,ProbabilitySelected,1
47,2020-06-11 10:00:00,0,0,No,2,11,40206,1,ProbabilitySelected,1
48,2020-06-11 16:45:00,0,0,No,2,11,40206,1,ProbabilitySelected,1
49,2020-06-11 13:15:00,0,0,No,2,11,40205,1,ProbabilitySelected,1
50,2020-06-11 15:30:00,0,0,No,2,8,40207,1,ProbabilitySelected,1
51,2020-06-11 10:00:00,0,0,No,2,11,40206,1,ProbabilitySelected,1
52,2020-06-11 09:00:00,0,0,No,2,12,40213,1,ProbabilitySelected,1
53,2020-06-11 10:00:00,0,0,No,2,8,40207,1,ProbabilitySelected,1
54,2020-06-11 11:00:00,0,0,No,2,17,40203,1,ProbabilitySelected,1
55,2020-06-12 09:30:00,0,0,No,2,17,40217,1,ProbabilitySelected,2
56,2020-06-12 11:00:00,0,0,No,2,11,40206,1,ProbabilitySelected,2
57,2020-06-12 10:00:00,0,0,No,2,11,40206,1,ProbabilitySelected,2
58,2020-06-12 10:30:00,0,0,No,2,12,40205,1,ProbabilitySelected,2
59,2020-06-12 15:15:00,0,0,No,2,11,40205,1,ProbabilitySelected,2
60,2020-06-12 10:30:00,0,0,No,2,12,40205,1,ProbabilitySelected,2
61,2020-06-12 10:00:00,0,0,No,2,11,40204,1,ProbabilitySelected,2
62,2020-06-12 09:00:00,0,0,No,2,17,40213,1,ProbabilitySelected,2
63,2020-06-12 13:45:00,0,0,No,2,11,40204,1,ProbabilitySelected,2
64,2020-06-12 11:00:00,0,0,No,2,11,40207,1,ProbabilitySelected,2
65,2020-06-12 14:30:00,0,0,No,2,11,40204,1,ProbabilitySelected,2
66,2020-06-12 09:30:00,0,0,No,2,11,40204,1,ProbabilitySelected,2
67,2020-06-12 14:00:00,0,0,No,2,11,40207,1,ProbabilitySelected,2
68,2020-06-12 14:30:00,0,0,No,2,17,40217,1,ProbabilitySelected,2
69,2020-06-12 16:45:00,0,0,No,2,17,40217,1,ProbabilitySelected,2
70,2020-06-12 15:45:00,0,0,No,2,8,40207,1,ProbabilitySelected,2
71,2020-06-12 09:00:00,0,0,No,2,11,40204,1,ProbabilitySelected,2
72,2020-06-12 10:30:00,0,0,No,2,11,40217,1,ProbabilitySelected,2
73,2020-06-12 10:30:00,0,0,No,2,17,40203,1,ProbabilitySelected,2
74,2020-06-12 09:00:00,0,0,No,2,11,40206,1,ProbabilitySelected,2
75,2020-06-12 11:00:00,0,0,No,2,11,40206,1,ProbabilitySelected,2
76,2020-06-12 16:30:00,0,0,No,2,17,40217,1,ProbabilitySelected,2
77,2020-06-12 10:00:00,0,0,No,2,11,40206,1,ProbabilitySelected,2
78,2020-06-12 09:00:00,0,0,No,2,12,40205,1,ProbabilitySelected,2
79,2020-06-12 15:00:00,0,0,No,2,17,40217,1,ProbabilitySelected,2
80,2020-06-12 10:00:00,0,0,No,2,11,40205,1,ProbabilitySelected,2
81,2020-06-13 15:30:00,0,0,No,2,8,40207,1,ProbabilitySelected,3
82,2020-06-13 11:00:00,0,0,No,2,12,40205,1,ProbabilitySelected,3
83,2020-06-13 12:00:00,0,0,No,2,11,40204,1,ProbabilitySelected,3
84,2020-06-13 15:45:00,0,0,No,2,8,40207,1,ProbabilitySelected,3
85,2020-06-13 15:45:00,0,0,No,2,17,40217,1,ProbabilitySelected,3
86,2020-06-13 09:00:00,0,0,No,2,12,40205,1,ProbabilitySelected,3
87,2020-06-13 09:00:00,0,0,No,2,11,40204,1,ProbabilitySelected,3
88,2020-06-13 10:30:00,0,0,No,2,8,40207,1,ProbabilitySelected,3
89,2020-06-13 15:00:00,0,1,No,2,11,40207,1,ProbabilitySelected,3
90,2020-06-13 11:00:00,0,0,No,2,11,40217,1,ProbabilitySelected,3
91,2020-06-13 15:00:00,0,1,No,2,17,40217,1,ProbabilitySelected,3
92,2020-06-13 16:45:00,0,0,No,2,17,40217,1,ProbabilitySelected,3
93,2020-06-13 10:00:00,0,0,No,2,17,40213,1,ProbabilitySelected,3
94,2020-06-13 14:00:00,0,0,No,2,17,40217,1,ProbabilitySelected,3
95,2020-06-15 11:00:00,0,0,No,2,11,40205,1,ProbabilitySelected,5
96,2020-06-15 12:15:00,0,0,No,2,11,40206,1,ProbabilitySelected,5
97,2020-06-15 11:00:00,0,0,No,2,8,40207,1,ProbabilitySelected,5
98,2020-06-15 14:45:00,0,0,No,2,8,40207,1,ProbabilitySelected,5
99,2020-06-15 11:00:00,0,0,No,2,11,40205,1,ProbabilitySelected,5
100,2020-06-15 10:30:00,0,0,No,2,11,40206,1,ProbabilitySelected,5
101,2020-06-15 10:30:00,0,0,No,2,11,40204,1,ProbabilitySelected,5
102,2020-06-15 16:15:00,0,0,No,2,11,40206,1,ProbabilitySelected,5
103,2020-06-15 10:00:00,0,0,No,2,8,40207,1,ProbabilitySelected,5
104,2020-06-15 09:00:00,0,0,No,2,11,40217,1,ProbabilitySelected,5
105,2020-06-15 10:30:00,0,0,No,2,11,40206,1,ProbabilitySelected,5
106,2020-06-15 13:30:00,0,0,No,2,11,40204,1,ProbabilitySelected,5
107,2020-06-15 16:00:00,0,0,No,2,11,40204,1,ProbabilitySelected,5
108,2020-06-15 10:30:00,0,0,No,2,12,40205,1,ProbabilitySelected,5
109,2020-06-15 12:00:00,0,0,No,2,11,40204,1,ProbabilitySelected,5
110,2020-06-16 12:00:00,0,0,No,2,12,40205,1,ProbabilitySelected,6
111,2020-06-16 15:00:00,0,0,No,2,8,40207,1,ProbabilitySelected,6
112,2020-06-16 14:45:00,0,0,No,2,8,40207,1,ProbabilitySelected,6
113,2020-06-16 16:15:00,0,0,No,2,11,40206,1,ProbabilitySelected,6
114,2020-06-16 09:15:00,0,0,No,2,11,40207,1,ProbabilitySelected,6
115,2020-06-16 16:00:00,0,0,No,2,11,40206,1,ProbabilitySelected,6
116,2020-06-16 15:00:00,0,0,No,2,11,40207,1,ProbabilitySelected,6
117,2020-06-16 16:00:00,0,0,No,2,11,40207,1,ProbabilitySelected,6
118,2020-06-17 10:30:00,0,0,No,2,8,40207,1,ProbabilitySelected,7
119,2020-06-17 12:15:00,0,0,No,2,11,40207,1,ProbabilitySelected,7
120,2020-06-17 13:15:00,0,0,No,2,11,40204,1,ProbabilitySelected,7
121,2020-06-17 11:45:00,0,0,No,2,11,40207,1,ProbabilitySelected,7
122,2020-06-17 13:30:00,0,0,No,2,8,40207,1,ProbabilitySelected,7
123,2020-06-17 14:30:00,0,0,No,2,8,40207,1,ProbabilitySelected,7
124,2020-06-17 14:00:00,0,0,No,2,8,40207,1,ProbabilitySelected,7
125,2020-06-17 11:30:00,0,0,No,2,8,40207,1,ProbabilitySelected,7
126,2020-06-17 15:45:00,0,0,No,2,17,40203,1,ProbabilitySelected,7
127,2020-06-17 09:45:00,0,0,No,2,12,40205,1,ProbabilitySelected,7
128,2020-06-18 10:15:00,0,1,No,2,8,40207,1,ProbabilitySelected,8
129,2020-06-18 15:15:00,0,0,No,2,17,40217,1,ProbabilitySelected,8
130,2020-06-18 09:15:00,0,0,No,2,17,40208,1,ProbabilitySelected,8
131,2020-06-18 14:45:00,0,0,No,2,8,40207,1,ProbabilitySelected,8
132,2020-06-18 15:00:00,0,0,No,2,11,40206,1,ProbabilitySelected,8
133,2020-06-18 10:45:00,0,0,No,2,8,40207,1,ProbabilitySelected,8
134,2020-06-18 14:30:00,0,0,No,2,11,40204,1,ProbabilitySelected,8
135,2020-06-18 13:30:00,0,0,No,2,17,40208,1,ProbabilitySelected,8
136,2020-06-18 09:15:00,0,0,No,2,8,40207,1,ProbabilitySelected,8
137,2020-06-18 16:15:00,0,0,No,2,17,40217,1,ProbabilitySelected,8
138,2020-06-18 11:00:00,0,0,No,2,11,40207,1,ProbabilitySelected,8
139,2020-06-18 09:45:00,0,0,No,2,12,40205,1,ProbabilitySelected,8
140,2020-06-18 09:30:00,0,0,No,2,8,40207,1,ProbabilitySelected,8
141,2020-06-18 09:00:00,0,0,No,2,11,40207,1,ProbabilitySelected,8
142,2020-06-18 10:45:00,0,0,No,2,11,40207,1,ProbabilitySelected,8
143,2020-06-18 16:00:00,0,0,No,2,11,40206,1,ProbabilitySelected,8
144,2020-06-19 09:30:00,0,0,No,2,11,40204,1,ProbabilitySelected,9
145,2020-06-19 09:45:00,0,0,No,2,11,40204,1,ProbabilitySelected,9
146,2020-06-19 14:45:00,0,0,No,2,17,40217,1,ProbabilitySelected,9
147,2020-06-19 10:00:00,0,0,No,2,8,40207,1,ProbabilitySelected,9
148,2020-06-19 13:15:00,0,0,No,2,11,40204,1,ProbabilitySelected,9
149,2020-06-19 14:30:00,0,0,No,2,8,40207,1,ProbabilitySelected,9
150,2020-06-19 11:45:00,0,0,No,2,11,40206,1,ProbabilitySelected,9
151,2020-06-19 15:45:00,0,0,No,2,11,40206,1,ProbabilitySelected,9
152,2020-06-19 09:00:00,0,0,No,2,17,40203,1,ProbabilitySelected,9
153,2020-06-19 15:45:00,0,0,No,2,11,40204,1,ProbabilitySelected,9
154,2020-06-19 16:00:00,0,0,No,2,11,40207,1,ProbabilitySelected,9
155,2020-06-19 13:30:00,0,1,No,2,12,40205,1,ProbabilitySelected,9
156,2020-06-19 12:15:00,0,0,No,2,11,40207,1,ProbabilitySelected,9
157,2020-06-19 15:15:00,0,0,No,2,11,40207,1,ProbabilitySelected,9
158,2020-09-09 14:15:00,0,0,No,2,11,40205,2,ProbabilitySelected,91
159,2020-09-09 14:15:00,0,0,No,2,17,40217,2,ProbabilitySelected,91
160,2020-09-09 10:45:00,0,0,No,2,8,40207,2,ProbabilitySelected,91
161,2020-09-09 16:30:00,0,0,No,2,11,40204,2,ProbabilitySelected,91
162,2020-09-09 11:45:00,0,0,No,2,8,40207,2,ProbabilitySelected,91
163,2020-09-09 16:45:00,0,0,No,2,11,40205,2,ProbabilitySelected,91
164,2020-09-09 16:15:00,0,0,No,2,11,40205,2,ProbabilitySelected,91
165,2020-09-09 14:30:00,0,0,No,2,12,40205,2,ProbabilitySelected,91
166,2020-09-09 14:45:00,0,0,No,2,11,40206,2,ProbabilitySelected,91
167,2020-09-09 16:45:00,0,0,No,2,11,40206,2,ProbabilitySelected,91
168,2020-09-09 13:45:00,0,0,No,2,11,40206,2,ProbabilitySelected,91
169,2020-09-09 12:45:00,0,0,No,2,11,40207,2,ProbabilitySelected,91
170,2020-09-09 13:45:00,0,0,No,2,8,40207,2,ProbabilitySelected,91
171,2020-09-09 13:45:00,0,0,No,2,11,40206,2,ProbabilitySelected,91
172,2020-09-09 14:45:00,0,0,No,2,17,40217,2,ProbabilitySelected,91
173,2020-09-09 13:15:00,0,0,No,2,11,40207,2,ProbabilitySelected,91
174,2020-09-09 16:45:00,0,0,No,2,11,40205,2,ProbabilitySelected,91
175,2020-09-09 11:45:00,0,0,No,2,8,40207,2,ProbabilitySelected,91
176,2020-09-09 12:45:00,0,0,No,2,11,40206,2,ProbabilitySelected,91
177,2020-09-09 10:45:00,0,0,No,2,11,40204,2,ProbabilitySelected,91
178,2020-09-09 10:00:00,0,0,No,2,11,40205,2,ProbabilitySelected,91
179,2020-09-09 14:45:00,0,0,No,2,11,40205,2,ProbabilitySelected,91
180,2020-09-09 11:30:00,0,0,No,2,12,40205,2,ProbabilitySelected,91
181,2020-09-09 13:30:00,0,0,No,2,8,40207,2,ProbabilitySelected,91
182,2020-09-09 15:15:00,0,0,No,2,11,40206,2,ProbabilitySelected,91
183,2020-09-09 11:00:00,0,0,No,2,11,40207,2,ProbabilitySelected,91
184,2020-09-09 16:15:00,0,0,No,2,11,40206,2,ProbabilitySelected,91
185,2020-09-09 09:15:00,0,0,No,2,11,40205,2,ProbabilitySelected,91
186,2020-09-09 15:45:00,0,0,No,2,11,40207,2,ProbabilitySelected,91
187,2020-09-09 16:30:00,0,0,No,2,11,40207,2,ProbabilitySelected,91
188,2020-09-09 13:30:00,0,0,No,2,11,40205,2,ProbabilitySelected,91
189,2020-09-09 15:30:00,0,0,No,2,17,40213,2,ProbabilitySelected,91
190,2020-09-09 11:45:00,0,0,No,2,11,40204,2,ProbabilitySelected,91
191,2020-09-09 13:15:00,0,0,No,2,11,40204,2,ProbabilitySelected,91
192,2020-09-09 10:45:00,0,0,No,2,17,40217,2,ProbabilitySelected,91
193,2020-09-09 15:45:00,0,0,No,2,11,40207,2,ProbabilitySelected,91
194,2020-09-09 10:30:00,0,0,No,2,12,40205,2,ProbabilitySelected,91
195,2020-09-09 16:15:00,0,0,No,2,11,40217,2,ProbabilitySelected,91
196,2020-09-09 14:45:00,0,0,No,2,11,40204,2,ProbabilitySelected,91
197,2020-09-09 13:45:00,0,0,No,2,8,40207,2,ProbabilitySelected,91
198,2020-09-09 16:30:00,0,0,No,2,11,40217,2,ProbabilitySelected,91
199,2020-09-09 15:30:00,0,0,No,2,11,40205,2,ProbabilitySelected,91
200,2020-09-09 16:15:00,0,0,No,2,17,40217,2,ProbabilitySelected,91
201,2020-09-09 14:30:00,0,0,No,2,8,40207,2,ProbabilitySelected,91
202,2020-09-09 15:30:00,0,0,No,2,11,40205,2,ProbabilitySelected,91
203,2020-09-09 15:45:00,0,0,No,2,11,40206,2,ProbabilitySelected,91
204,2020-09-09 16:15:00,0,0,No,2,17,40217,2,ProbabilitySelected,91
205,2020-09-09 15:15:00,0,0,No,2,17,40217,2,ProbabilitySelected,91
206,2020-09-09 15:30:00,0,0,No,2,8,40207,2,ProbabilitySelected,91
207,2020-09-09 10:00:00,0,0,No,2,8,40207,2,ProbabilitySelected,91
208,2020-09-09 11:30:00,0,0,No,2,17,40213,2,ProbabilitySelected,91
209,2020-09-09 15:45:00,0,0,No,2,11,40206,2,ProbabilitySelected,91
210,2020-09-09 09:15:00,0,0,No,2,12,40205,2,ProbabilitySelected,91
211,2020-09-09 16:45:00,0,0,No,2,12,40205,2,ProbabilitySelected,91
212,2020-09-09 11:45:00,0,0,No,2,11,40207,2,ProbabilitySelected,91
213,2020-09-09 10:30:00,0,0,No,2,11,40204,2,ProbabilitySelected,91
214,2020-09-09 11:30:00,0,0,No,2,11,40204,2,ProbabilitySelected,91
215,2020-09-09 09:30:00,0,0,No,2,12,40205,2,ProbabilitySelected,91
216,2020-09-09 14:00:00,0,0,No,2,11,40204,2,ProbabilitySelected,91
217,2020-09-09 09:45:00,0,0,No,2,11,40206,2,ProbabilitySelected,91
218,2020-09-09 11:00:00,0,0,No,2,11,40205,2,ProbabilitySelected,91
219,2020-09-09 09:15:00,0,0,No,2,11,40206,2,ProbabilitySelected,91
220,2020-09-09 09:45:00,0,0,No,2,12,40205,2,ProbabilitySelected,91
221,2020-09-09 09:30:00,0,0,No,2,17,40217,2,ProbabilitySelected,91
222,2020-09-09 09:15:00,0,0,No,2,11,40207,2,ProbabilitySelected,91
223,2020-09-09 16:45:00,0,0,No,2,11,40204,2,ProbabilitySelected,91
224,2020-09-09 09:00:00,0,0,No,2,11,40204,2,ProbabilitySelected,91
225,2020-09-09 11:00:00,0,0,No,2,12,40205,2,ProbabilitySelected,91
226,2020-09-09 10:30:00,0,0,No,2,17,40217,2,ProbabilitySelected,91
227,2020-09-09 10:30:00,0,0,No,2,8,40207,2,ProbabilitySelected,91
228,2020-09-09 11:00:00,0,0,No,2,11,40206,2,ProbabilitySelected,91
229,2020-09-09 10:00:00,0,0,No,2,11,40207,2,ProbabilitySelected,91
230,2020-09-09 09:15:00,0,0,No,2,17,40217,2,ProbabilitySelected,91
231,2020-09-09 09:00:00,0,0,No,2,12,40205,2,ProbabilitySelected,91
232,2020-09-09 10:00:00,0,0,No,2,12,40205,2,ProbabilitySelected,91
233,2020-09-09 16:30:00,0,0,No,2,11,40204,2,ProbabilitySelected,91
234,2020-09-09 13:30:00,0,0,No,2,11,40204,2,ProbabilitySelected,91
235,2020-09-09 10:00:00,0,0,No,2,11,40206,2,ProbabilitySelected,91
236,2020-09-09 15:00:00,0,0,No,2,11,40204,2,ProbabilitySelected,91
237,2020-09-09 16:30:00,0,0,No,2,8,40207,2,ProbabilitySelected,91
238,2020-09-09 13:00:00,0,0,No,2,17,40217,2,ProbabilitySelected,91
239,2020-09-09 09:30:00,0,0,No,2,11,40205,2,ProbabilitySelected,91
240,2020-09-09 11:45:00,0,0,No,2,11,40206,2,ProbabilitySelected,91
241,2020-09-09 09:00:00,0,0,No,2,11,40207,2,ProbabilitySelected,91
242,2020-09-09 11:15:00,0,0,No,2,11,40206,2,ProbabilitySelected,91
243,2020-09-09 14:30:00,0,0,No,2,12,40205,2,ProbabilitySelected,91
244,2020-09-09 16:45:00,0,0,No,2,12,40205,2,ProbabilitySelected,91
245,2020-09-09 15:45:00,0,0,No,2,11,40207,2,ProbabilitySelected,91
246,2020-09-09 11:30:00,0,0,No,2,11,40206,2,ProbabilitySelected,91
247,2020-09-09 10:45:00,0,0,No,2,11,40206,2,ProbabilitySelected,91
248,2020-09-09 10:15:00,0,0,No,2,11,40207,2,ProbabilitySelected,91
249,2020-09-09 14:45:00,0,0,No,2,11,40207,2,ProbabilitySelected,91
250,2020-09-09 11:15:00,0,0,No,2,11,40206,2,ProbabilitySelected,91
251,2020-09-09 10:30:00,0,0,No,2,11,40207,2,ProbabilitySelected,91
252,2020-09-09 13:30:00,0,0,No,2,11,40217,2,ProbabilitySelected,91
253,2020-09-09 10:30:00,0,0,No,2,11,40204,2,ProbabilitySelected,91
254,2020-09-09 10:30:00,0,0,No,2,11,40205,2,ProbabilitySelected,91
255,2020-09-09 12:45:00,0,0,No,2,11,40204,2,ProbabilitySelected,91
256,2020-09-09 10:45:00,0,0,No,2,17,40217,2,ProbabilitySelected,91
257,2020-09-09 16:30:00,0,0,No,2,11,40206,2,ProbabilitySelected,91
258,2020-09-09 13:00:00,0,0,No,2,11,40204,2,ProbabilitySelected,91
259,2020-09-09 13:15:00,0,0,No,2,11,40206,2,ProbabilitySelected,91
260,2020-09-09 14:15:00,0,0,No,2,8,40207,2,ProbabilitySelected,91
261,2020-09-09 11:30:00,0,0,No,2,8,40207,2,ProbabilitySelected,91
262,2020-09-10 11:30:00,0,0,No,2,11,40207,2,ProbabilitySelected,92
263,2020-09-10 14:00:00,0,0,No,2,8,40207,2,ProbabilitySelected,92
264,2020-09-10 13:45:00,0,0,No,2,11,40206,2,ProbabilitySelected,92
265,2020-09-10 09:30:00,0,0,No,2,11,40206,2,ProbabilitySelected,92
266,2020-09-10 14:15:00,0,0,No,2,11,40206,2,ProbabilitySelected,92
267,2020-09-10 15:15:00,0,0,No,2,8,40207,2,ProbabilitySelected,92
268,2020-09-10 10:00:00,0,0,No,2,11,40205,2,ProbabilitySelected,92
269,2020-09-10 14:15:00,0,0,No,2,11,40207,2,ProbabilitySelected,92
270,2020-09-10 14:30:00,0,0,No,2,11,40205,2,ProbabilitySelected,92
271,2020-09-10 13:00:00,0,0,No,2,12,40205,2,ProbabilitySelected,92
272,2020-09-10 13:45:00,0,0,No,2,11,40204,2,ProbabilitySelected,92
273,2020-09-10 13:30:00,0,0,No,2,12,40205,2,ProbabilitySelected,92
274,2020-09-10 16:30:00,0,0,No,2,17,40217,2,ProbabilitySelected,92
275,2020-09-10 13:30:00,0,0,No,2,12,40205,2,ProbabilitySelected,92
276,2020-09-10 16:00:00,0,0,No,2,8,40207,2,ProbabilitySelected,92
277,2020-09-10 15:15:00,0,0,No,2,17,40217,2,ProbabilitySelected,92
278,2020-09-10 13:15:00,0,0,No,2,12,40205,2,ProbabilitySelected,92
279,2020-09-10 14:00:00,0,0,No,2,8,40207,2,ProbabilitySelected,92
280,2020-09-10 09:00:00,0,0,No,2,11,40207,2,ProbabilitySelected,92
281,2020-09-10 13:15:00,0,0,No,2,11,40204,2,ProbabilitySelected,92
282,2020-09-10 09:00:00,0,0,No,2,8,40207,2,ProbabilitySelected,92
283,2020-09-10 16:15:00,0,0,No,2,8,40207,2,ProbabilitySelected,92
284,2020-09-10 14:45:00,0,0,No,2,11,40204,2,ProbabilitySelected,92
285,2020-09-10 13:30:00,0,0,No,2,17,40213,2,ProbabilitySelected,92
286,2020-09-10 10:30:00,0,0,No,2,11,40204,2,ProbabilitySelected,92
287,2020-09-10 16:00:00,0,0,No,2,8,40207,2,ProbabilitySelected,92
288,2020-09-10 10:30:00,0,0,No,2,11,40205,2,ProbabilitySelected,92
289,2020-09-10 14:45:00,0,0,No,2,11,40205,2,ProbabilitySelected,92
290,2020-09-10 15:30:00,0,0,No,2,11,40206,2,ProbabilitySelected,92
291,2020-09-10 10:15:00,0,0,No,2,11,40204,2,ProbabilitySelected,92
292,2020-09-10 16:00:00,0,0,No,2,11,40204,2,ProbabilitySelected,92
293,2020-09-10 13:45:00,0,0,No,2,8,40207,2,ProbabilitySelected,92
294,2020-09-10 15:15:00,0,0,No,2,8,40207,2,ProbabilitySelected,92
295,2020-09-10 14:45:00,0,0,No,2,11,40204,2,ProbabilitySelected,92
296,2020-09-10 14:30:00,0,0,No,2,8,40207,2,ProbabilitySelected,92
297,2020-09-10 14:00:00,0,0,No,2,8,40207,2,ProbabilitySelected,92
298,2020-09-10 15:45:00,0,0,No,2,11,40202,2,ProbabilitySelected,92
299,2020-09-10 16:30:00,0,0,No,2,11,40217,2,ProbabilitySelected,92
300,2020-09-10 14:00:00,0,0,No,2,12,40205,2,ProbabilitySelected,92
301,2020-09-10 15:00:00,0,0,No,2,8,40207,2,ProbabilitySelected,92
302,2020-09-10 10:00:00,0,0,No,2,11,40207,2,ProbabilitySelected,92
303,2020-09-10 10:15:00,0,1,No,2,11,40204,2,ProbabilitySelected,92
304,2020-09-10 12:45:00,0,0,No,2,11,40206,2,ProbabilitySelected,92
305,2020-09-10 10:15:00,0,0,No,2,11,40207,2,ProbabilitySelected,92
306,2020-09-10 11:30:00,0,0,No,2,12,40205,2,ProbabilitySelected,92
307,2020-09-10 10:45:00,0,0,No,2,8,40207,2,ProbabilitySelected,92
308,2020-09-10 12:45:00,0,0,No,2,17,40217,2,ProbabilitySelected,92
309,2020-09-10 11:00:00,0,0,No,2,17,40217,2,ProbabilitySelected,92
310,2020-09-10 09:45:00,0,0,No,2,11,40206,2,ProbabilitySelected,92
311,2020-09-10 09:30:00,0,0,No,2,11,40204,2,ProbabilitySelected,92
312,2020-09-10 10:15:00,0,0,No,2,11,40204,2,ProbabilitySelected,92
313,2020-09-10 11:30:00,0,0,No,2,8,40207,2,ProbabilitySelected,92
314,2020-09-10 11:45:00,0,0,No,2,17,40217,2,ProbabilitySelected,92
315,2020-09-10 10:30:00,0,0,No,2,11,40204,2,ProbabilitySelected,92
316,2020-09-10 10:30:00,0,0,No,2,11,40207,2,ProbabilitySelected,92
317,2020-09-10 10:15:00,0,0,No,2,11,40207,2,ProbabilitySelected,92
318,2020-09-10 09:30:00,0,1,No,2,11,40206,2,ProbabilitySelected,92
319,2020-09-10 15:00:00,0,0,No,2,11,40206,2,ProbabilitySelected,92
320,2020-09-10 09:30:00,0,0,No,2,11,40204,2,ProbabilitySelected,92
321,2020-09-10 16:00:00,0,0,No,2,11,40204,2,ProbabilitySelected,92
322,2020-09-10 10:15:00,0,0,No,2,11,40204,2,ProbabilitySelected,92
323,2020-09-10 13:00:00,0,0,No,2,11,40207,2,ProbabilitySelected,92
324,2020-09-10 10:45:00,0,0,No,2,11,40207,2,ProbabilitySelected,92
325,2020-09-10 13:15:00,0,0,No,2,11,40207,2,ProbabilitySelected,92
326,2020-09-10 09:15:00,0,0,No,2,11,40206,2,ProbabilitySelected,92
327,2020-09-10 09:45:00,0,0,No,2,11,40204,2,ProbabilitySelected,92
328,2020-09-10 16:45:00,0,0,No,2,11,40206,2,ProbabilitySelected,92
329,2020-09-10 10:15:00,0,0,No,2,8,40207,2,ProbabilitySelected,92
330,2020-09-10 16:45:00,0,0,No,2,12,40205,2,ProbabilitySelected,92
331,2020-09-10 13:00:00,0,0,No,2,17,40217,2,ProbabilitySelected,92
332,2020-09-10 15:00:00,0,0,No,2,12,40205,2,ProbabilitySelected,92
333,2020-09-10 11:45:00,0,0,No,2,11,40207,2,ProbabilitySelected,92
334,2020-09-11 14:15:00,0,0,No,2,8,40207,2,ProbabilitySelected,93
335,2020-09-11 10:15:00,0,0,No,2,8,40207,2,ProbabilitySelected,93
336,2020-09-11 13:15:00,0,0,No,2,11,40207,2,ProbabilitySelected,93
337,2020-09-11 10:30:00,0,0,No,2,11,40206,2,ProbabilitySelected,93
338,2020-09-11 10:00:00,0,0,No,2,11,40207,2,ProbabilitySelected,93
339,2020-09-11 10:15:00,0,0,No,2,12,40205,2,ProbabilitySelected,93
340,2020-09-11 10:45:00,0,0,No,2,11,40206,2,ProbabilitySelected,93
341,2020-09-11 14:30:00,0,0,No,2,11,40207,2,ProbabilitySelected,93
342,2020-09-11 13:30:00,0,0,No,2,11,40206,2,ProbabilitySelected,93
343,2020-09-11 13:45:00,0,0,No,2,17,40217,2,ProbabilitySelected,93
344,2020-09-11 14:30:00,0,0,No,2,17,40203,2,ProbabilitySelected,93
345,2020-09-11 09:15:00,0,0,No,2,12,40205,2,ProbabilitySelected,93
346,2020-09-11 11:00:00,0,0,No,2,11,40207,2,ProbabilitySelected,93
347,2020-09-11 16:00:00,0,0,No,2,11,40206,2,ProbabilitySelected,93
348,2020-09-11 15:45:00,0,0,No,2,17,40217,2,ProbabilitySelected,93
349,2020-09-11 15:45:00,0,0,No,2,17,40213,2,ProbabilitySelected,93
350,2020-09-11 15:30:00,0,0,No,2,17,40217,2,ProbabilitySelected,93
351,2020-09-11 14:45:00,0,0,No,2,11,40207,2,ProbabilitySelected,93
352,2020-09-11 09:00:00,0,0,No,2,17,40217,2,ProbabilitySelected,93
353,2020-09-11 10:45:00,0,0,No,2,12,40205,2,ProbabilitySelected,93
354,2020-09-11 16:15:00,0,0,No,2,12,40205,2,ProbabilitySelected,93
355,2020-09-11 14:00:00,0,0,No,2,8,40207,2,ProbabilitySelected,93
356,2020-09-11 11:30:00,0,0,No,2,12,40205,2,ProbabilitySelected,93
357,2020-09-11 10:00:00,0,0,No,2,12,40205,2,ProbabilitySelected,93
358,2020-09-11 16:45:00,0,0,No,2,17,40208,2,ProbabilitySelected,93
359,2020-09-11 13:45:00,0,0,No,2,11,40204,2,ProbabilitySelected,93
360,2020-09-11 13:00:00,0,0,No,2,12,40205,2,ProbabilitySelected,93
361,2020-09-11 14:45:00,0,0,No,2,11,40204,2,ProbabilitySelected,93
362,2020-09-11 16:45:00,0,0,No,2,8,40207,2,ProbabilitySelected,93
363,2020-09-11 14:00:00,0,0,No,2,17,40217,2,ProbabilitySelected,93
364,2020-09-11 09:30:00,0,0,No,2,11,40206,2,ProbabilitySelected,93
365,2020-09-11 09:15:00,0,0,No,2,11,40205,2,ProbabilitySelected,93
366,2020-09-11 09:30:00,0,0,No,2,11,40206,2,ProbabilitySelected,93
367,2020-09-11 16:15:00,0,0,No,2,11,40206,2,ProbabilitySelected,93
368,2020-09-11 09:45:00,0,0,No,2,11,40206,2,ProbabilitySelected,93
369,2020-09-11 11:45:00,0,0,No,2,8,40207,2,ProbabilitySelected,93
370,2020-09-11 10:00:00,0,0,No,2,11,40205,2,ProbabilitySelected,93
371,2020-09-11 14:00:00,0,0,No,2,11,40217,2,ProbabilitySelected,93
372,2020-09-11 16:15:00,0,0,No,2,11,40204,2,ProbabilitySelected,93
373,2020-09-11 09:45:00,0,0,No,2,11,40205,2,ProbabilitySelected,93
374,2020-09-11 10:30:00,0,0,No,2,11,40204,2,ProbabilitySelected,93
375,2020-09-11 09:30:00,0,0,No,2,11,40204,2,ProbabilitySelected,93
376,2020-09-11 15:00:00,0,0,No,2,12,40205,2,ProbabilitySelected,93
377,2020-09-11 13:00:00,0,0,No,2,8,40207,2,ProbabilitySelected,93
378,2020-09-11 10:00:00,0,0,No,2,11,40205,2,ProbabilitySelected,93
379,2020-09-11 09:00:00,0,0,No,2,11,40206,2,ProbabilitySelected,93
380,2020-09-11 16:00:00,0,0,No,2,11,40206,2,ProbabilitySelected,93
381,2020-09-11 16:30:00,0,0,No,2,11,40206,2,ProbabilitySelected,93
382,2020-09-11 10:15:00,0,0,No,2,8,40207,2,ProbabilitySelected,93
383,2020-09-11 10:45:00,0,0,No,2,8,40207,2,ProbabilitySelected,93
384,2020-09-11 09:45:00,0,0,No,2,8,40207,2,ProbabilitySelected,93
385,2020-09-11 10:00:00,0,0,No,2,8,40207,2,ProbabilitySelected,93
386,2020-09-11 12:45:00,0,0,No,2,12,40205,2,ProbabilitySelected,93
387,2020-09-11 09:00:00,0,0,No,2,11,40207,2,ProbabilitySelected,93
388,2020-09-11 11:30:00,0,0,No,2,11,40204,2,ProbabilitySelected,93
389,2020-09-11 15:00:00,0,0,No,2,11,40207,2,ProbabilitySelected,93
390,2020-09-11 15:45:00,0,0,No,2,11,40206,2,ProbabilitySelected,93
391,2020-09-11 09:15:00,0,0,No,2,11,40207,2,ProbabilitySelected,93
392,2020-09-11 10:15:00,0,0,No,2,17,40213,2,ProbabilitySelected,93
393,2020-09-11 13:30:00,0,0,No,2,11,40205,2,ProbabilitySelected,93
394,2020-09-11 11:15:00,0,0,No,2,11,40207,2,ProbabilitySelected,93
395,2020-09-11 11:00:00,0,0,No,2,12,40205,2,ProbabilitySelected,93
396,2020-09-11 09:45:00,0,0,No,2,11,40204,2,ProbabilitySelected,93
397,2020-09-11 10:30:00,0,0,No,2,11,40205,2,ProbabilitySelected,93
398,2020-09-11 10:15:00,0,0,No,2,11,40204,2,ProbabilitySelected,93
399,2020-09-12 09:30:00,0,0,No,2,11,40207,2,ProbabilitySelected,94
400,2020-09-12 15:00:00,0,0,No,2,11,40205,2,ProbabilitySelected,94
401,2020-09-12 14:45:00,0,0,No,2,11,40205,2,ProbabilitySelected,94
402,2020-09-12 14:15:00,0,0,No,2,8,40207,2,ProbabilitySelected,94
403,2020-09-12 11:00:00,0,0,No,2,12,40205,2,ProbabilitySelected,94
404,2020-09-12 12:45:00,0,0,No,2,11,40207,2,ProbabilitySelected,94
405,2020-09-12 14:15:00,0,0,No,2,11,40205,2,ProbabilitySelected,94
406,2020-09-12 14:15:00,0,0,No,2,12,40205,2,ProbabilitySelected,94
407,2020-09-12 14:30:00,0,0,No,2,8,40206,2,ProbabilitySelected,94
408,2020-09-12 16:00:00,0,1,No,2,12,40205,2,ProbabilitySelected,94
409,2020-09-12 09:30:00,0,0,No,2,12,40205,2,ProbabilitySelected,94
410,2020-09-12 15:15:00,0,0,No,2,17,40217,2,ProbabilitySelected,94
411,2020-09-12 15:30:00,0,0,No,2,12,40205,2,ProbabilitySelected,94
412,2020-09-12 15:30:00,0,0,No,2,11,40204,2,ProbabilitySelected,94
413,2020-09-12 09:00:00,0,0,No,2,17,40217,2,ProbabilitySelected,94
414,2020-09-12 16:15:00,0,0,No,2,11,40204,2,ProbabilitySelected,94
415,2020-09-12 16:15:00,0,0,No,2,17,40213,2,ProbabilitySelected,94
416,2020-09-12 09:00:00,0,0,No,2,8,40207,2,ProbabilitySelected,94
417,2020-09-12 15:45:00,0,0,No,2,11,40206,2,ProbabilitySelected,94
418,2020-09-12 13:45:00,0,0,No,2,11,40206,2,ProbabilitySelected,94
419,2020-09-12 16:00:00,0,0,No,2,11,40205,2,ProbabilitySelected,94
420,2020-09-12 10:15:00,0,0,No,2,17,40217,2,ProbabilitySelected,94
421,2020-09-12 16:15:00,0,0,No,2,11,40206,2,ProbabilitySelected,94
422,2020-09-12 16:30:00,0,0,No,2,13,40213,2,ProbabilitySelected,94
423,2020-09-12 16:15:00,0,0,No,2,12,40205,2,ProbabilitySelected,94
424,2020-09-12 16:15:00,0,0,No,2,11,40204,2,ProbabilitySelected,94
425,2020-09-12 15:45:00,0,0,No,2,11,40206,2,ProbabilitySelected,94
426,2020-09-12 15:45:00,0,0,No,2,11,40207,2,ProbabilitySelected,94
427,2020-09-12 16:30:00,0,0,No,2,11,40204,2,ProbabilitySelected,94
428,2020-09-12 13:15:00,0,0,No,2,8,40207,2,ProbabilitySelected,94
429,2020-09-12 16:15:00,0,0,No,2,11,40207,2,ProbabilitySelected,94
430,2020-09-12 13:45:00,0,0,No,2,11,40206,2,ProbabilitySelected,94
431,2020-09-12 09:30:00,0,0,No,2,11,40204,2,ProbabilitySelected,94
432,2020-09-12 09:45:00,0,0,No,2,11,40207,2,ProbabilitySelected,94
433,2020-09-12 10:00:00,0,0,No,2,17,40217,2,ProbabilitySelected,94
434,2020-09-12 11:30:00,0,0,No,2,12,40205,2,ProbabilitySelected,94
435,2020-09-12 10:15:00,0,0,No,2,11,40204,2,ProbabilitySelected,94
436,2020-09-12 09:00:00,0,0,No,2,11,40204,2,ProbabilitySelected,94
437,2020-09-12 15:00:00,0,0,No,2,11,40207,2,ProbabilitySelected,94
438,2020-09-12 13:30:00,0,0,No,2,11,40204,2,ProbabilitySelected,94
439,2020-09-12 11:00:00,0,0,No,2,11,40207,2,ProbabilitySelected,94
440,2020-09-12 10:00:00,0,0,No,2,11,40207,2,ProbabilitySelected,94
441,2020-09-12 09:30:00,0,0,No,2,11,40205,2,ProbabilitySelected,94
442,2020-09-12 14:00:00,0,0,No,2,11,40207,2,ProbabilitySelected,94
443,2020-09-12 14:00:00,0,0,No,2,11,40204,2,ProbabilitySelected,94
444,2020-09-12 10:15:00,0,0,No,2,11,40206,2,ProbabilitySelected,94
445,2020-09-12 10:30:00,0,0,No,2,11,40205,2,ProbabilitySelected,94
446,2020-09-12 10:30:00,0,0,No,2,8,40207,2,ProbabilitySelected,94
447,2020-09-12 09:30:00,0,0,No,2,11,40204,2,ProbabilitySelected,94
448,2020-09-12 11:30:00,0,0,No,2,11,40206,2,ProbabilitySelected,94
449,2020-09-12 10:30:00,0,0,No,2,11,40204,2,ProbabilitySelected,94
450,2020-09-12 11:15:00,0,1,No,2,12,40205,2,ProbabilitySelected,94
451,2020-09-12 13:30:00,0,0,No,2,11,40207,2,ProbabilitySelected,94
452,2020-09-12 13:15:00,0,0,No,2,17,40213,2,ProbabilitySelected,94
453,2020-09-12 13:45:00,0,0,No,2,11,40205,2,ProbabilitySelected,94
454,2020-09-12 13:00:00,0,0,No,2,11,40206,2,ProbabilitySelected,94
455,2020-09-12 14:30:00,0,0,No,2,17,40217,2,ProbabilitySelected,94
456,2020-09-12 10:45:00,0,0,No,2,11,40207,2,ProbabilitySelected,94
457,2020-09-12 09:00:00,0,0,No,2,12,40205,2,ProbabilitySelected,94
458,2020-09-12 11:00:00,0,0,No,2,17,40217,2,ProbabilitySelected,94
459,2020-09-12 09:15:00,0,0,No,2,11,40204,2,ProbabilitySelected,94
460,2020-09-12 11:45:00,0,0,No,2,11,40206,2,ProbabilitySelected,94
461,2020-09-12 14:30:00,0,0,No,2,11,40206,2,ProbabilitySelected,94
462,2020-09-12 10:00:00,0,0,No,2,8,40207,2,ProbabilitySelected,94
463,2020-09-12 13:00:00,0,0,No,2,11,40207,2,ProbabilitySelected,94
464,2020-09-12 10:00:00,0,0,No,2,11,40206,2,ProbabilitySelected,94
465,2020-09-13 09:00:00,0,0,No,2,11,40207,2,ProbabilitySelected,95
466,2020-09-13 16:45:00,0,0,No,2,11,40207,2,ProbabilitySelected,95
467,2020-09-13 15:00:00,0,0,No,2,12,40213,2,ProbabilitySelected,95
468,2020-09-13 11:45:00,0,0,No,2,11,40207,2,ProbabilitySelected,95
469,2020-09-13 10:15:00,0,0,No,2,17,40213,2,ProbabilitySelected,95
470,2020-09-13 13:45:00,0,0,No,2,11,40207,2,ProbabilitySelected,95
471,2020-09-13 11:00:00,0,0,No,2,11,40204,2,ProbabilitySelected,95
472,2020-09-13 10:45:00,0,0,No,2,12,40205,2,ProbabilitySelected,95
473,2020-09-13 12:45:00,0,0,No,2,11,40205,2,ProbabilitySelected,95
474,2020-09-13 13:30:00,0,0,No,2,11,40206,2,ProbabilitySelected,95
475,2020-09-13 13:00:00,0,0,No,2,11,40204,2,ProbabilitySelected,95
476,2020-09-13 10:45:00,0,0,No,2,8,40207,2,ProbabilitySelected,95
477,2020-09-13 09:00:00,0,0,No,2,12,40205,2,ProbabilitySelected,95
478,2020-09-13 09:00:00,0,0,No,2,11,40204,2,ProbabilitySelected,95
479,2020-09-13 09:00:00,0,0,No,2,12,40205,2,ProbabilitySelected,95
480,2020-09-13 09:15:00,0,0,No,2,11,40206,2,ProbabilitySelected,95
481,2020-09-13 14:15:00,0,0,No,2,11,40241,2,ProbabilitySelected,95
482,2020-09-13 10:30:00,0,0,No,2,11,40206,2,ProbabilitySelected,95
483,2020-09-13 13:00:00,0,0,No,2,17,40203,2,ProbabilitySelected,95
484,2020-09-13 16:45:00,0,0,No,2,8,40207,2,ProbabilitySelected,95
485,2020-09-13 15:15:00,0,0,No,2,11,40207,2,ProbabilitySelected,95
486,2020-09-13 11:30:00,0,0,No,2,17,40203,2,ProbabilitySelected,95
487,2020-09-13 11:45:00,0,0,No,2,17,40213,2,ProbabilitySelected,95
488,2020-09-13 10:15:00,0,0,No,2,12,40205,2,ProbabilitySelected,95
489,2020-09-13 16:45:00,0,0,No,2,17,40208,2,ProbabilitySelected,95
490,2020-09-13 09:00:00,0,0,No,2,8,40207,2,ProbabilitySelected,95
491,2020-09-13 13:15:00,0,0,No,2,11,40207,2,ProbabilitySelected,95
492,2020-09-13 09:00:00,0,0,No,2,8,40207,2,ProbabilitySelected,95
493,2020-09-13 12:45:00,0,0,No,2,12,40205,2,ProbabilitySelected,95
494,2020-09-13 16:15:00,0,0,No,2,11,40222,2,ProbabilitySelected,95
495,2020-09-13 09:45:00,0,0,No,2,8,40207,2,ProbabilitySelected,95
496,2020-09-13 13:15:00,0,0,No,2,11,40204,2,ProbabilitySelected,95
497,2020-09-13 10:30:00,0,0,No,2,11,40207,2,ProbabilitySelected,95
498,2020-09-13 13:00:00,0,0,No,2,11,40205,2,ProbabilitySelected,95
499,2020-09-13 14:00:00,0,0,No,2,11,40204,2,ProbabilitySelected,95
500,2020-09-13 10:00:00,0,0,No,2,8,40207,2,ProbabilitySelected,95
501,2020-09-13 10:00:00,0,1,No,2,12,40205,2,ProbabilitySelected,95
502,2020-09-13 12:45:00,0,0,No,2,11,40206,2,ProbabilitySelected,95
503,2020-09-13 09:30:00,0,0,No,2,11,40204,2,ProbabilitySelected,95
504,2020-09-13 13:30:00,0,0,No,2,11,40205,2,ProbabilitySelected,95
505,2020-09-13 11:00:00,0,0,No,2,12,40205,2,ProbabilitySelected,95
506,2020-09-13 15:30:00,0,0,No,2,11,40207,2,ProbabilitySelected,95
507,2020-09-13 15:00:00,0,0,No,2,11,40207,2,ProbabilitySelected,95
508,2020-09-13 14:15:00,0,0,No,2,11,40217,2,ProbabilitySelected,95
509,2020-09-13 12:45:00,0,0,No,2,11,40207,2,ProbabilitySelected,95
510,2020-09-13 10:00:00,0,0,No,2,11,40204,2,ProbabilitySelected,95
511,2020-09-13 10:15:00,0,1,No,2,11,40204,2,ProbabilitySelected,95
512,2020-09-13 09:00:00,0,0,No,2,12,40205,2,ProbabilitySelected,95
513,2020-09-13 11:15:00,0,0,No,2,11,40204,2,ProbabilitySelected,95
514,2020-09-14 13:30:00,0,0,No,2,11,40207,2,ProbabilitySelected,96
515,2020-09-14 16:15:00,0,0,No,2,12,40205,2,ProbabilitySelected,96
516,2020-09-14 10:15:00,0,0,No,2,11,40204,2,ProbabilitySelected,96
517,2020-09-14 13:45:00,0,0,No,2,8,40207,2,ProbabilitySelected,96
518,2020-09-14 16:00:00,0,0,No,2,11,40206,2,ProbabilitySelected,96
519,2020-09-14 11:30:00,0,0,No,2,8,40207,2,ProbabilitySelected,96
520,2020-09-14 10:00:00,0,0,No,2,17,40203,2,ProbabilitySelected,96
521,2020-09-14 15:30:00,0,0,No,2,11,40206,2,ProbabilitySelected,96
522,2020-09-14 10:30:00,0,0,No,2,8,40207,2,ProbabilitySelected,96
523,2020-09-14 16:30:00,0,0,No,2,12,40205,2,ProbabilitySelected,96
524,2020-09-14 10:00:00,0,0,No,2,11,40205,2,ProbabilitySelected,96
525,2020-09-14 09:15:00,0,0,No,2,12,40205,2,ProbabilitySelected,96
526,2020-09-14 09:45:00,0,0,No,2,12,40205,2,ProbabilitySelected,96
527,2020-09-14 09:45:00,0,0,No,2,11,40207,2,ProbabilitySelected,96
528,2020-09-14 14:00:00,0,0,No,2,11,40206,2,ProbabilitySelected,96
529,2020-09-14 14:30:00,0,0,No,2,11,40205,2,ProbabilitySelected,96
530,2020-09-14 11:15:00,0,0,No,2,17,40217,2,ProbabilitySelected,96
531,2020-09-14 14:15:00,0,0,No,2,11,40207,2,ProbabilitySelected,96
532,2020-09-14 16:00:00,0,0,No,2,8,40207,2,ProbabilitySelected,96
533,2020-09-14 09:15:00,0,0,No,2,11,40207,2,ProbabilitySelected,96
534,2020-09-14 16:00:00,0,0,No,2,17,40217,2,ProbabilitySelected,96
535,2020-09-14 10:15:00,0,0,No,2,8,40207,2,ProbabilitySelected,96
536,2020-09-14 14:30:00,0,0,No,2,11,40207,2,ProbabilitySelected,96
537,2020-09-14 14:00:00,0,0,No,2,8,40207,2,ProbabilitySelected,96
538,2020-09-14 09:00:00,0,0,No,2,11,40204,2,ProbabilitySelected,96
539,2020-09-14 14:45:00,0,0,No,2,8,40207,2,ProbabilitySelected,96
540,2020-09-14 10:15:00,0,0,No,2,8,40207,2,ProbabilitySelected,96
541,2020-09-14 11:00:00,0,0,No,2,11,40217,2,ProbabilitySelected,96
542,2020-09-14 09:30:00,0,0,No,2,11,40204,2,ProbabilitySelected,96
543,2020-09-14 09:15:00,0,0,No,2,17,40213,2,ProbabilitySelected,96
544,2020-09-14 11:15:00,0,0,No,2,11,40206,2,ProbabilitySelected,96
545,2020-09-14 10:15:00,0,0,No,2,8,40207,2,ProbabilitySelected,96
546,2020-09-14 10:30:00,0,0,No,2,11,40206,2,ProbabilitySelected,96
547,2020-09-14 16:45:00,0,0,No,2,11,40206,2,ProbabilitySelected,96
548,2020-09-14 10:00:00,0,0,No,2,11,40206,2,ProbabilitySelected,96
549,2020-09-14 12:45:00,0,0,No,2,11,40207,2,ProbabilitySelected,96
550,2020-09-14 11:45:00,0,0,No,2,11,40204,2,ProbabilitySelected,96
551,2020-09-14 16:30:00,0,0,No,2,11,40207,2,ProbabilitySelected,96
552,2020-09-14 11:00:00,0,0,No,2,11,40204,2,ProbabilitySelected,96
553,2020-09-14 13:15:00,0,0,No,2,11,40207,2,ProbabilitySelected,96
554,2020-09-14 13:00:00,0,0,No,2,8,40207,2,ProbabilitySelected,96
555,2020-09-14 15:45:00,0,0,No,2,17,40217,2,ProbabilitySelected,96
556,2020-09-14 15:00:00,0,0,No,2,11,40207,2,ProbabilitySelected,96
557,2020-09-14 15:00:00,0,0,No,2,8,40207,2,ProbabilitySelected,96
558,2020-09-14 10:30:00,0,0,No,2,11,40206,2,ProbabilitySelected,96
559,2020-09-14 10:15:00,0,0,No,2,17,40213,2,ProbabilitySelected,96
560,2020-09-14 15:00:00,0,0,No,2,8,40207,2,ProbabilitySelected,96
561,2020-09-14 10:30:00,0,0,No,2,11,40207,2,ProbabilitySelected,96
562,2020-09-14 13:00:00,0,0,No,2,12,40205,2,ProbabilitySelected,96
563,2020-09-14 11:00:00,0,0,No,2,11,40206,2,ProbabilitySelected,96
564,2020-09-14 10:15:00,0,0,No,2,11,40205,2,ProbabilitySelected,96
565,2020-09-14 09:00:00,0,0,No,2,11,40207,2,ProbabilitySelected,96
566,2020-09-14 13:15:00,0,0,No,2,11,40205,2,ProbabilitySelected,96
567,2020-09-14 12:45:00,0,0,No,2,11,40204,2,ProbabilitySelected,96
568,2020-09-14 09:30:00,0,0,No,2,17,40217,2,ProbabilitySelected,96
569,2020-09-14 09:30:00,0,0,No,2,11,40205,2,ProbabilitySelected,96
570,2020-09-14 16:30:00,0,0,No,2,11,40206,2,ProbabilitySelected,96
571,2020-09-14 10:30:00,0,0,No,2,11,40207,2,ProbabilitySelected,96
572,2020-09-14 13:00:00,0,0,No,2,17,40217,2,ProbabilitySelected,96
573,2020-09-14 15:00:00,0,0,No,2,11,40207,2,ProbabilitySelected,96
574,2020-09-14 15:30:00,0,0,No,2,17,40217,2,ProbabilitySelected,96
575,2020-09-14 09:15:00,0,0,No,2,11,40206,2,ProbabilitySelected,96
576,2020-09-14 09:30:00,0,0,No,2,11,40205,2,ProbabilitySelected,96
577,2020-09-15 15:45:00,0,0,No,2,11,40206,2,ProbabilitySelected,97
578,2020-09-15 10:45:00,0,0,No,2,11,40204,2,ProbabilitySelected,97
579,2020-09-15 11:15:00,0,0,No,2,17,40217,2,ProbabilitySelected,97
580,2020-09-15 09:45:00,0,0,No,2,11,40205,2,ProbabilitySelected,97
581,2020-09-15 09:15:00,0,0,No,2,11,40207,2,ProbabilitySelected,97
582,2020-09-15 15:00:00,0,0,No,2,11,40204,2,ProbabilitySelected,97
583,2020-09-15 10:00:00,0,0,No,2,8,40207,2,ProbabilitySelected,97
584,2020-09-15 11:45:00,0,0,No,2,11,40205,2,ProbabilitySelected,97
585,2020-09-15 14:00:00,0,0,No,2,8,40207,2,ProbabilitySelected,97
586,2020-09-15 16:45:00,0,0,No,2,11,40207,2,ProbabilitySelected,97
587,2020-09-15 11:00:00,0,0,No,2,8,40207,2,ProbabilitySelected,97
588,2020-09-15 09:00:00,0,0,No,2,17,40203,2,ProbabilitySelected,97
589,2020-09-15 14:15:00,0,1,No,2,11,40207,2,ProbabilitySelected,97
590,2020-09-15 11:30:00,0,0,No,2,11,40204,2,ProbabilitySelected,97
591,2020-09-15 14:45:00,0,0,No,2,13,40213,2,ProbabilitySelected,97
592,2020-09-15 11:15:00,0,0,No,2,8,40207,2,ProbabilitySelected,97
593,2020-09-15 14:15:00,0,0,No,2,12,40205,2,ProbabilitySelected,97
594,2020-09-15 16:30:00,0,0,No,2,11,40206,2,ProbabilitySelected,97
595,2020-09-15 09:00:00,0,0,No,2,11,40205,2,ProbabilitySelected,97
596,2020-09-15 10:15:00,0,0,No,2,11,40207,2,ProbabilitySelected,97
597,2020-09-15 14:00:00,0,0,No,2,12,40205,2,ProbabilitySelected,97
598,2020-09-15 14:00:00,0,0,No,2,11,40207,2,ProbabilitySelected,97
599,2020-09-15 09:00:00,0,0,No,2,11,40207,2,ProbabilitySelected,97
600,2020-09-15 11:30:00,0,0,No,2,11,40204,2,ProbabilitySelected,97
601,2020-09-15 11:00:00,0,0,No,2,11,40206,2,ProbabilitySelected,97
602,2020-09-15 13:30:00,0,0,No,2,8,40207,2,ProbabilitySelected,97
603,2020-09-15 11:30:00,0,0,No,2,8,40207,2,ProbabilitySelected,97
604,2020-09-16 10:15:00,0,0,No,2,11,40205,2,ProbabilitySelected,98
605,2020-09-16 15:00:00,0,0,No,2,11,40207,2,ProbabilitySelected,98
606,2020-09-16 10:00:00,0,0,No,2,11,40205,2,ProbabilitySelected,98
607,2020-09-16 09:00:00,0,0,No,2,17,40217,2,ProbabilitySelected,98
608,2020-09-16 09:00:00,0,0,No,2,11,40204,2,ProbabilitySelected,98
609,2020-09-16 14:00:00,0,0,No,2,17,40217,2,ProbabilitySelected,98
610,2020-09-16 09:00:00,0,0,No,2,8,40207,2,ProbabilitySelected,98
611,2020-09-17 10:00:00,0,0,No,2,11,40207,2,ProbabilitySelected,99
612,2020-09-17 09:00:00,0,0,No,2,11,40206,2,ProbabilitySelected,99
613,2020-09-17 13:00:00,0,0,No,2,12,40205,2,ProbabilitySelected,99
614,2020-09-17 09:15:00,0,0,No,2,17,40213,2,ProbabilitySelected,99
615,2020-09-17 09:00:00,0,0,No,2,11,40206,2,ProbabilitySelected,99
616,2020-09-17 11:00:00,0,0,No,2,11,40205,2,ProbabilitySelected,99
617,2020-09-17 14:30:00,0,0,No,2,11,40205,2,ProbabilitySelected,99
618,2020-09-17 10:45:00,0,0,No,2,11,40206,2,ProbabilitySelected,99
619,2020-09-17 10:30:00,0,0,No,2,17,40203,2,ProbabilitySelected,99
620,2020-09-17 11:00:00,0,0,No,2,8,40207,2,ProbabilitySelected,99
621,2020-09-17 14:00:00,0,0,No,2,11,40205,2,ProbabilitySelected,99
622,2020-09-17 16:00:00,0,0,No,2,11,40204,2,ProbabilitySelected,99
623,2020-09-17 09:00:00,0,0,No,2,11,40204,2,ProbabilitySelected,99
624,2020-09-18 10:30:00,0,0,No,2,17,40217,2,ProbabilitySelected,100
625,2020-09-18 16:45:00,0,0,No,2,11,40205,2,ProbabilitySelected,100
626,2020-09-18 13:00:00,0,0,No,2,8,40207,2,ProbabilitySelected,100
627,2020-09-18 09:00:00,0,0,No,2,11,40206,2,ProbabilitySelected,100
628,2020-09-18 14:45:00,0,0,No,2,11,40205,2,ProbabilitySelected,100
629,2020-09-18 16:15:00,0,0,No,2,11,40206,2,ProbabilitySelected,100
630,2020-09-18 15:30:00,0,0,No,2,11,40207,2,ProbabilitySelected,100
631,2020-09-18 09:45:00,0,0,No,2,11,40204,2,ProbabilitySelected,100
632,2020-09-18 10:00:00,0,1,No,2,8,40207,2,ProbabilitySelected,100
633,2020-09-18 09:00:00,0,0,No,2,17,40217,2,ProbabilitySelected,100
634,2020-09-18 09:15:00,0,0,No,2,8,40207,2,ProbabilitySelected,100
635,2020-09-18 09:00:00,0,0,No,2,17,40217,2,ProbabilitySelected,100
636,2020-09-18 09:15:00,0,0,No,2,11,40205,2,ProbabilitySelected,100
637,2020-09-19 15:15:00,0,0,No,2,12,40205,2,ProbabilitySelected,101
638,2020-09-19 11:00:00,0,0,No,2,11,40204,2,ProbabilitySelected,101
639,2020-09-19 10:30:00,1,0,No,2,11,40207,2,ProbabilitySelected,101
640,2020-09-19 09:30:00,0,0,No,2,11,40204,2,ProbabilitySelected,101
641,2020-11-06 10:15:00,0,0,No,2,8,40207,3,ProbabilitySelected,149
642,2020-11-06 09:30:00,0,0,No,2,11,40206,3,ProbabilitySelected,149
643,2020-11-06 11:15:00,0,0,No,2,11,40206,3,ProbabilitySelected,149
644,2020-11-06 11:30:00,0,1,No,2,11,40206,3,ProbabilitySelected,149
645,2020-11-06 11:15:00,0,0,No,2,11,40206,3,ProbabilitySelected,149
646,2020-11-06 13:30:00,0,0,No,2,11,40204,3,ProbabilitySelected,149
647,2020-11-06 16:30:00,0,0,No,2,11,40206,3,ProbabilitySelected,149
648,2020-11-06 14:15:00,0,0,No,2,12,40213,3,ProbabilitySelected,149
649,2020-11-06 16:30:00,0,0,No,2,11,40206,3,ProbabilitySelected,149
650,2020-11-06 16:30:00,0,0,No,2,11,40206,3,ProbabilitySelected,149
651,2020-11-06 13:15:00,0,0,No,2,11,40205,3,ProbabilitySelected,149
652,2020-11-06 11:15:00,0,0,No,2,11,40205,3,ProbabilitySelected,149
653,2020-11-06 16:15:00,0,0,No,2,11,40206,3,ProbabilitySelected,149
654,2020-11-06 10:00:00,0,0,No,2,8,40207,3,ProbabilitySelected,149
655,2020-11-06 09:30:00,0,0,No,2,11,40205,3,ProbabilitySelected,149
656,2020-11-06 10:30:00,0,0,No,2,11,40205,3,ProbabilitySelected,149
657,2020-11-06 13:00:00,0,0,No,2,11,40205,3,ProbabilitySelected,149
658,2020-11-06 09:45:00,0,0,No,2,11,40205,3,ProbabilitySelected,149
659,2020-11-06 14:45:00,0,1,No,2,11,40206,3,ProbabilitySelected,149
660,2020-11-06 09:45:00,0,0,No,2,11,40205,3,ProbabilitySelected,149
661,2020-11-06 10:30:00,0,0,No,2,11,40204,3,ProbabilitySelected,149
662,2020-11-06 13:30:00,0,0,No,2,11,40204,3,ProbabilitySelected,149
663,2020-11-06 09:15:00,0,0,No,2,11,40204,3,ProbabilitySelected,149
664,2020-11-06 14:00:00,0,0,No,2,11,40204,3,ProbabilitySelected,149
665,2020-11-06 11:15:00,0,0,No,2,11,40204,3,ProbabilitySelected,149
666,2020-11-06 13:45:00,0,0,No,2,11,40204,3,ProbabilitySelected,149
667,2020-11-06 09:15:00,0,0,No,2,11,40204,3,ProbabilitySelected,149
668,2020-11-06 11:30:00,0,0,No,2,11,40207,3,ProbabilitySelected,149
669,2020-11-06 15:30:00,0,0,No,2,8,40207,3,ProbabilitySelected,149
670,2020-11-06 10:45:00,0,0,No,2,17,40217,3,ProbabilitySelected,149
671,2020-11-06 13:30:00,0,0,No,2,17,40217,3,ProbabilitySelected,149
672,2020-11-06 15:00:00,0,0,No,2,11,40207,3,ProbabilitySelected,149
673,2020-11-06 16:30:00,0,0,No,2,11,40204,3,ProbabilitySelected,149
674,2020-11-06 14:00:00,0,0,No,2,11,40207,3,ProbabilitySelected,149
675,2020-11-06 09:15:00,0,0,No,2,11,40204,3,ProbabilitySelected,149
676,2020-11-06 09:45:00,0,0,No,2,8,40207,3,ProbabilitySelected,149
677,2020-11-06 11:00:00,0,0,No,2,8,40207,3,ProbabilitySelected,149
678,2020-11-06 13:30:00,0,1,No,2,11,40207,3,ProbabilitySelected,149
679,2020-11-06 14:15:00,0,0,No,2,17,40202,3,ProbabilitySelected,149
680,2020-11-06 16:00:00,0,0,No,2,8,40207,3,ProbabilitySelected,149
681,2020-11-06 10:15:00,0,0,No,2,11,40204,3,ProbabilitySelected,149
682,2020-11-06 14:45:00,0,0,No,2,17,40217,3,ProbabilitySelected,149
683,2020-11-06 13:00:00,0,0,No,2,17,40203,3,ProbabilitySelected,149
684,2020-11-06 10:15:00,0,0,No,2,17,40208,3,ProbabilitySelected,149
685,2020-11-06 15:45:00,0,0,No,2,11,40207,3,ProbabilitySelected,149
686,2020-11-06 15:45:00,1,0,No,2,12,40205,3,ProbabilitySelected,149
687,2020-11-06 09:45:00,0,0,No,2,17,40208,3,ProbabilitySelected,149
688,2020-11-07 13:15:00,0,0,No,2,11,40204,3,ProbabilitySelected,150
689,2020-11-07 09:30:00,0,0,No,2,11,40206,3,ProbabilitySelected,150
690,2020-11-07 10:30:00,0,0,No,2,11,40206,3,ProbabilitySelected,150
691,2020-11-07 10:00:00,0,0,No,2,11,40206,3,ProbabilitySelected,150
692,2020-11-07 13:45:00,0,1,No,2,11,40206,3,ProbabilitySelected,150
693,2020-11-07 11:15:00,0,0,No,2,11,40207,3,ProbabilitySelected,150
694,2020-11-07 09:00:00,0,0,No,2,11,40204,3,ProbabilitySelected,150
695,2020-11-07 09:15:00,0,0,No,2,17,40217,3,ProbabilitySelected,150
696,2020-11-07 10:45:00,0,0,No,2,11,40206,3,ProbabilitySelected,150
697,2020-11-07 10:00:00,0,0,No,2,17,40203,3,ProbabilitySelected,150
698,2020-11-07 13:00:00,0,0,No,2,12,40205,3,ProbabilitySelected,150
699,2020-11-07 10:30:00,0,0,No,2,8,40207,3,ProbabilitySelected,150
700,2020-11-07 14:30:00,0,0,No,2,11,40206,3,ProbabilitySelected,150
701,2020-11-07 14:00:00,0,0,No,2,8,40207,3,ProbabilitySelected,150
702,2020-11-07 14:30:00,0,0,No,2,13,40213,3,ProbabilitySelected,150
703,2020-11-07 11:15:00,0,0,No,2,12,40213,3,ProbabilitySelected,150
704,2020-11-07 09:00:00,0,0,No,2,11,40206,3,ProbabilitySelected,150
705,2020-11-07 14:45:00,0,0,No,2,12,40205,3,ProbabilitySelected,150
706,2020-11-07 14:30:00,0,0,No,2,12,40205,3,ProbabilitySelected,150
707,2020-11-07 13:00:00,0,0,No,2,11,40207,3,ProbabilitySelected,150
708,2020-11-07 09:45:00,0,0,No,2,17,40203,3,ProbabilitySelected,150
709,2020-11-07 10:30:00,0,0,No,2,11,40206,3,ProbabilitySelected,150
710,2020-11-07 09:00:00,0,0,No,2,11,40204,3,ProbabilitySelected,150
711,2020-11-07 09:45:00,0,0,No,2,11,40206,3,ProbabilitySelected,150
712,2020-11-07 10:45:00,0,0,No,2,11,40206,3,ProbabilitySelected,150
713,2020-11-07 14:15:00,0,0,No,2,11,40206,3,ProbabilitySelected,150
714,2020-11-07 09:45:00,0,0,No,2,11,40205,3,ProbabilitySelected,150
715,2020-11-07 14:15:00,0,0,No,2,11,40204,3,ProbabilitySelected,150
716,2020-11-07 09:00:00,0,0,No,2,11,40205,3,ProbabilitySelected,150
717,2020-11-07 11:00:00,0,0,No,2,11,40207,3,ProbabilitySelected,150
718,2020-11-08 11:30:00,0,0,No,2,8,40207,3,ProbabilitySelected,151
719,2020-11-08 09:00:00,0,0,No,2,11,40204,3,ProbabilitySelected,151
720,2020-11-08 09:00:00,0,0,No,2,11,40205,3,ProbabilitySelected,151
721,2020-11-08 09:00:00,0,0,No,2,11,40205,3,ProbabilitySelected,151
722,2020-11-08 11:15:00,0,0,No,2,11,40207,3,ProbabilitySelected,151
723,2020-11-08 09:45:00,0,1,No,2,12,40213,3,ProbabilitySelected,151
724,2020-11-08 09:15:00,0,0,No,2,12,40205,3,ProbabilitySelected,151
725,2020-11-08 10:30:00,0,0,No,2,11,40204,3,ProbabilitySelected,151
726,2020-11-08 11:45:00,0,0,No,2,11,40204,3,ProbabilitySelected,151
727,2020-11-08 10:00:00,0,0,No,2,11,40206,3,ProbabilitySelected,151
728,2020-11-08 09:00:00,0,0,No,2,17,40217,3,ProbabilitySelected,151
729,2020-11-08 10:00:00,0,0,No,2,11,40206,3,ProbabilitySelected,151
730,2020-11-08 09:15:00,0,0,No,2,11,40206,3,ProbabilitySelected,151
731,2020-11-08 11:30:00,0,0,No,2,17,40203,3,ProbabilitySelected,151
732,2020-11-08 09:30:00,0,0,No,2,11,40206,3,ProbabilitySelected,151
733,2020-11-08 11:15:00,0,0,No,2,11,40206,3,ProbabilitySelected,151
734,2020-11-08 09:45:00,0,0,No,2,17,40202,3,ProbabilitySelected,151
735,2020-11-09 09:45:00,0,0,No,2,17,40217,3,ProbabilitySelected,152
736,2020-11-09 13:00:00,0,0,No,2,11,40206,3,ProbabilitySelected,152
737,2020-11-09 11:30:00,0,0,No,2,17,40203,3,ProbabilitySelected,152
738,2020-11-09 16:15:00,0,0,No,2,11,40205,3,ProbabilitySelected,152
739,2020-11-09 11:30:00,0,0,No,2,11,40206,3,ProbabilitySelected,152
740,2020-11-09 16:00:00,0,0,No,2,11,40206,3,ProbabilitySelected,152
741,2020-11-09 11:00:00,0,0,No,2,13,40213,3,ProbabilitySelected,152
742,2020-11-09 16:45:00,0,0,No,2,11,40206,3,ProbabilitySelected,152
743,2020-11-09 09:30:00,0,0,No,2,8,40207,3,ProbabilitySelected,152
744,2020-11-09 09:15:00,0,0,No,2,11,40206,3,ProbabilitySelected,152
745,2020-11-09 11:00:00,0,0,No,2,11,40205,3,ProbabilitySelected,152
746,2020-11-09 13:00:00,0,0,No,2,11,40207,3,ProbabilitySelected,152
747,2020-11-09 15:00:00,0,1,No,2,11,40204,3,ProbabilitySelected,152
748,2020-11-09 10:30:00,0,0,No,2,11,40206,3,ProbabilitySelected,152
749,2020-11-09 09:30:00,0,0,No,2,17,40202,3,ProbabilitySelected,152
750,2020-11-09 11:00:00,0,0,No,2,11,40207,3,ProbabilitySelected,152
751,2020-11-09 09:00:00,0,0,No,2,11,40206,3,ProbabilitySelected,152
752,2020-11-09 11:30:00,0,0,No,2,11,40206,3,ProbabilitySelected,152
753,2020-11-09 13:00:00,0,0,No,2,8,40207,3,ProbabilitySelected,152
754,2020-11-09 10:30:00,0,0,No,2,8,40207,3,ProbabilitySelected,152
755,2020-11-09 14:15:00,0,0,No,2,17,40217,3,ProbabilitySelected,152
756,2020-11-09 10:00:00,0,1,No,2,17,40217,3,ProbabilitySelected,152
757,2020-11-09 14:00:00,0,0,No,2,11,40206,3,ProbabilitySelected,152
758,2020-11-09 09:15:00,0,0,No,2,11,40205,3,ProbabilitySelected,152
759,2020-11-10 13:30:00,0,0,No,2,17,40217,3,ProbabilitySelected,153
760,2020-11-10 09:00:00,0,0,No,2,12,40205,3,ProbabilitySelected,153
761,2020-11-10 14:00:00,0,0,No,2,8,40207,3,ProbabilitySelected,153
762,2020-11-10 13:15:00,0,0,No,2,8,40207,3,ProbabilitySelected,153
763,2020-11-10 14:00:00,0,0,No,2,13,40213,3,ProbabilitySelected,153
764,2020-11-10 14:15:00,0,0,No,2,11,40205,3,ProbabilitySelected,153
765,2020-11-10 13:30:00,0,0,No,2,17,40217,3,ProbabilitySelected,153
766,2020-11-10 14:00:00,0,0,No,2,12,40205,3,ProbabilitySelected,153
767,2020-11-10 13:30:00,0,0,No,2,11,40205,3,ProbabilitySelected,153
768,2020-11-10 13:00:00,0,0,No,2,11,40207,3,ProbabilitySelected,153
769,2020-11-10 10:45:00,0,0,No,2,11,40206,3,ProbabilitySelected,153
770,2020-11-10 09:45:00,0,0,No,2,12,40205,3,ProbabilitySelected,153
771,2020-11-10 11:00:00,0,0,No,2,11,40206,3,ProbabilitySelected,153
772,2020-11-11 09:00:00,0,0,No,2,11,40204,3,ProbabilitySelected,154
773,2020-11-11 15:15:00,0,0,No,2,11,40206,3,ProbabilitySelected,154
774,2020-11-11 11:00:00,0,0,No,2,8,40207,3,ProbabilitySelected,154
775,2020-11-11 09:45:00,0,0,No,2,11,40205,3,ProbabilitySelected,154
776,2020-11-11 13:45:00,0,1,No,2,17,40217,3,ProbabilitySelected,154
777,2020-11-11 13:00:00,0,1,No,2,11,40205,3,ProbabilitySelected,154
778,2020-11-11 15:15:00,0,0,No,2,11,40207,3,ProbabilitySelected,154
779,2020-11-11 09:00:00,0,0,No,2,11,40206,3,ProbabilitySelected,154
780,2020-11-11 11:15:00,0,0,No,2,11,40206,3,ProbabilitySelected,154
781,2020-11-11 15:00:00,0,0,No,2,11,40206,3,ProbabilitySelected,154
782,2020-11-12 16:00:00,0,0,No,2,11,40204,3,ProbabilitySelected,155
783,2020-11-12 09:00:00,0,0,No,2,11,40204,3,ProbabilitySelected,155
784,2020-11-12 16:45:00,0,0,No,2,11,40206,3,ProbabilitySelected,155
785,2020-11-12 15:45:00,0,0,No,2,11,40206,3,ProbabilitySelected,155
786,2020-11-12 13:00:00,0,0,No,2,12,40205,3,ProbabilitySelected,155
787,2020-11-12 10:30:00,0,0,No,2,17,40217,3,ProbabilitySelected,155
788,2020-11-12 13:30:00,0,0,No,2,12,40205,3,ProbabilitySelected,155
789,2020-11-13 14:00:00,0,0,No,2,11,40204,3,ProbabilitySelected,156
790,2020-11-13 10:45:00,0,0,No,2,11,40206,3,ProbabilitySelected,156
791,2020-11-13 11:30:00,0,1,No,2,11,40206,3,ProbabilitySelected,156
792,2020-11-13 16:30:00,0,0,No,2,17,40217,3,ProbabilitySelected,156
793,2020-11-13 15:45:00,0,0,No,2,17,40217,3,ProbabilitySelected,156
794,2020-11-13 09:00:00,0,0,No,2,11,40207,3,ProbabilitySelected,156
795,2020-11-13 16:30:00,0,0,No,2,11,40207,3,ProbabilitySelected,156
796,2020-11-13 10:00:00,0,0,No,2,11,40206,3,ProbabilitySelected,156
797,2020-11-13 14:00:00,0,0,No,2,11,40205,3,ProbabilitySelected,156
798,2020-11-13 15:00:00,0,0,No,2,11,40206,3,ProbabilitySelected,156
799,2020-11-13 14:00:00,0,0,No,2,11,40207,3,ProbabilitySelected,156
800,2020-11-13 09:15:00,0,0,No,2,11,40205,3,ProbabilitySelected,156
801,2020-11-13 13:30:00,0,0,No,2,11,40205,3,ProbabilitySelected,156
802,2020-11-13 11:00:00,0,0,No,2,11,40206,3,ProbabilitySelected,156
803,2020-11-13 15:45:00,0,0,No,2,11,40207,3,ProbabilitySelected,156
804,2020-11-14 09:00:00,0,0,No,2,11,40206,3,ProbabilitySelected,157
805,2020-11-14 16:45:00,0,0,No,2,17,40217,3,ProbabilitySelected,157
806,2020-11-14 13:45:00,0,0,No,2,11,40205,3,ProbabilitySelected,157
807,2020-11-14 10:15:00,0,0,No,2,11,40206,3,ProbabilitySelected,157
808,2020-11-14 14:00:00,0,0,No,2,11,40206,3,ProbabilitySelected,157
809,2020-11-15 11:15:00,0,0,No,2,17,40217,3,ProbabilitySelected,158
810,2020-11-15 10:30:00,0,0,No,2,11,40206,3,ProbabilitySelected,158
811,2020-11-15 11:30:00,0,0,No,2,11,40206,3,ProbabilitySelected,158
812,2021-02-05 14:30:00,0,0,No,2,11,40207,4,ProbabilitySelected,240
813,2021-02-05 09:30:00,0,0,No,2,11,40205,4,ProbabilitySelected,240
814,2021-02-05 10:00:00,0,0,No,2,11,40204,4,ProbabilitySelected,240
815,2021-02-05 13:00:00,0,0,No,2,8,40207,4,ProbabilitySelected,240
816,2021-02-05 11:00:00,0,0,No,2,17,40213,4,ProbabilitySelected,240
817,2021-02-05 13:00:00,0,0,No,2,11,40202,4,ProbabilitySelected,240
818,2021-02-05 09:00:00,0,0,No,2,11,40204,4,ProbabilitySelected,240
819,2021-02-05 13:15:00,0,0,No,2,11,40205,4,ProbabilitySelected,240
820,2021-02-05 13:15:00,0,0,No,2,11,40204,4,ProbabilitySelected,240
821,2021-02-05 11:15:00,0,0,No,2,11,40206,4,ProbabilitySelected,240
822,2021-02-05 09:15:00,0,0,No,2,11,40205,4,ProbabilitySelected,240
823,2021-02-05 09:15:00,0,0,No,2,17,40217,4,ProbabilitySelected,240
824,2021-02-05 11:00:00,0,0,No,2,12,40213,4,ProbabilitySelected,240
825,2021-02-05 11:45:00,0,0,No,2,17,40213,4,ProbabilitySelected,240
826,2021-02-05 10:30:00,0,0,No,2,17,40217,4,ProbabilitySelected,240
827,2021-02-05 14:30:00,0,1,No,2,11,40204,4,ProbabilitySelected,240
828,2021-02-05 11:30:00,0,1,No,2,13,40213,4,ProbabilitySelected,240
829,2021-02-05 14:45:00,0,0,No,2,11,40204,4,ProbabilitySelected,240
830,2021-02-05 10:30:00,0,0,No,2,11,40204,4,ProbabilitySelected,240
831,2021-02-05 13:15:00,0,0,No,2,11,40206,4,ProbabilitySelected,240
832,2021-02-05 10:15:00,0,0,No,2,17,40217,4,ProbabilitySelected,240
833,2021-02-05 13:30:00,0,0,No,2,11,40204,4,ProbabilitySelected,240
834,2021-02-05 11:15:00,0,0,No,2,8,40207,4,ProbabilitySelected,240
835,2021-02-05 11:15:00,0,0,No,2,12,40205,4,ProbabilitySelected,240
836,2021-02-05 11:00:00,0,0,No,2,11,40207,4,ProbabilitySelected,240
837,2021-02-05 10:00:00,0,0,No,2,11,40204,4,ProbabilitySelected,240
838,2021-02-05 13:00:00,0,0,No,2,8,40207,4,ProbabilitySelected,240
839,2021-02-05 09:00:00,0,0,No,2,11,40206,4,ProbabilitySelected,240
840,2021-02-05 09:15:00,0,0,No,2,11,40206,4,ProbabilitySelected,240
841,2021-02-05 09:00:00,0,0,No,2,11,40204,4,ProbabilitySelected,240
842,2021-02-05 11:00:00,0,0,No,2,11,40205,4,ProbabilitySelected,240
843,2021-02-05 12:45:00,0,0,No,2,11,41723,4,ProbabilitySelected,240
844,2021-02-06 09:15:00,1,0,No,2,12,40205,4,ProbabilitySelected,241
845,2021-02-06 14:30:00,0,0,No,2,11,40207,4,ProbabilitySelected,241
846,2021-02-06 11:00:00,0,0,No,2,11,40205,4,ProbabilitySelected,241
847,2021-02-06 09:30:00,0,0,No,2,17,40217,4,ProbabilitySelected,241
848,2021-02-06 10:00:00,0,0,No,2,11,40207,4,ProbabilitySelected,241
849,2021-02-06 09:00:00,0,0,No,2,11,40206,4,ProbabilitySelected,241
850,2021-02-06 09:15:00,0,0,No,2,12,40205,4,ProbabilitySelected,241
851,2021-02-06 11:15:00,0,0,No,2,8,40207,4,ProbabilitySelected,241
852,2021-02-06 12:00:00,0,0,No,2,11,40206,4,ProbabilitySelected,241
853,2021-02-06 12:00:00,0,0,No,2,11,40206,4,ProbabilitySelected,241
854,2021-02-06 13:00:00,0,0,No,2,8,40207,4,ProbabilitySelected,241
855,2021-02-06 10:15:00,0,0,No,2,12,40205,4,ProbabilitySelected,241
856,2021-02-06 11:00:00,0,0,No,2,11,40204,4,ProbabilitySelected,241
857,2021-02-06 11:00:00,0,0,No,2,12,40205,4,ProbabilitySelected,241
858,2021-02-06 10:00:00,0,0,No,2,17,40217,4,ProbabilitySelected,241
859,2021-02-06 13:00:00,0,0,No,2,12,40205,4,ProbabilitySelected,241
860,2021-02-06 12:30:00,0,0,No,2,11,40206,4,ProbabilitySelected,241
861,2021-02-06 09:45:00,0,1,No,2,11,40207,4,ProbabilitySelected,241
862,2021-02-06 12:45:00,0,0,No,2,13,40213,4,ProbabilitySelected,241
863,2021-02-06 11:00:00,0,0,No,2,17,40217,4,ProbabilitySelected,241
864,2021-02-06 11:00:00,0,0,No,2,8,40207,4,ProbabilitySelected,241
865,2021-02-06 09:15:00,0,0,No,2,11,40206,4,ProbabilitySelected,241
866,2021-02-06 09:30:00,0,1,No,2,11,40206,4,ProbabilitySelected,241
867,2021-02-06 13:15:00,0,0,No,2,11,40206,4,ProbabilitySelected,241
868,2021-02-06 14:45:00,0,0,No,2,11,40206,4,ProbabilitySelected,241
869,2021-02-06 13:15:00,0,1,No,2,11,40206,4,ProbabilitySelected,241
870,2021-02-06 14:00:00,0,0,No,2,11,40204,4,ProbabilitySelected,241
871,2021-02-06 11:30:00,0,0,No,2,11,42014,4,ProbabilitySelected,241
872,2021-02-06 13:15:00,0,0,No,2,12,40205,4,ProbabilitySelected,241
873,2021-02-06 13:30:00,0,0,No,2,17,40217,4,ProbabilitySelected,241
874,2021-02-06 10:15:00,0,0,No,2,17,41331,4,ProbabilitySelected,241
875,2021-02-06 14:45:00,0,0,No,2,12,40205,4,ProbabilitySelected,241
876,2021-02-06 10:30:00,0,0,No,2,11,40204,4,ProbabilitySelected,241
877,2021-02-06 09:15:00,0,0,No,2,11,40206,4,ProbabilitySelected,241
878,2021-02-06 09:45:00,0,0,No,2,17,42059,4,ProbabilitySelected,241
879,2021-02-06 09:30:00,0,1,No,2,11,42177,4,ProbabilitySelected,241
880,2021-02-06 14:00:00,0,0,No,2,17,40213,4,ProbabilitySelected,241
881,2021-02-06 13:00:00,0,0,No,2,11,40204,4,ProbabilitySelected,241
882,2021-02-07 10:15:00,0,0,No,2,11,40206,4,ProbabilitySelected,242
883,2021-02-07 11:00:00,0,0,No,2,17,40217,4,ProbabilitySelected,242
884,2021-02-07 12:30:00,0,0,No,2,17,40208,4,ProbabilitySelected,242
885,2021-02-07 14:45:00,0,0,No,2,17,40203,4,ProbabilitySelected,242
886,2021-02-07 11:00:00,0,1,No,2,17,40217,4,ProbabilitySelected,242
887,2021-02-07 13:15:00,0,0,No,2,11,40204,4,ProbabilitySelected,242
888,2021-02-07 11:00:00,0,0,No,2,11,40206,4,ProbabilitySelected,242
889,2021-02-07 10:30:00,0,0,No,2,11,40206,4,ProbabilitySelected,242
890,2021-02-07 13:45:00,0,0,No,2,11,40206,4,ProbabilitySelected,242
891,2021-02-07 10:00:00,0,0,No,2,11,40205,4,ProbabilitySelected,242
892,2021-02-08 11:00:00,0,1,No,2,17,40217,4,ProbabilitySelected,243
893,2021-02-08 13:15:00,0,0,No,2,11,40206,4,ProbabilitySelected,243
894,2021-02-08 09:00:00,0,0,No,2,11,40206,4,ProbabilitySelected,243
895,2021-02-08 14:30:00,0,0,No,2,11,40206,4,ProbabilitySelected,243
896,2021-02-08 13:30:00,0,1,No,2,11,40206,4,ProbabilitySelected,243
897,2021-02-08 10:15:00,0,0,No,2,11,40206,4,ProbabilitySelected,243
898,2021-02-08 13:30:00,0,0,No,2,12,40205,4,ProbabilitySelected,243
899,2021-02-08 14:00:00,0,0,No,2,11,40205,4,ProbabilitySelected,243
900,2021-02-08 10:00:00,0,0,No,2,11,40205,4,ProbabilitySelected,243
901,2021-02-08 12:00:00,1,1,No,2,11,45226,4,ProbabilitySelected,243
902,2021-02-08 09:00:00,0,0,No,2,11,40206,4,ProbabilitySelected,243
903,2021-02-08 09:30:00,0,0,No,2,11,40206,4,ProbabilitySelected,243
904,2021-02-08 09:00:00,0,0,No,2,8,42010,4,ProbabilitySelected,243
905,2021-02-08 13:00:00,0,0,No,2,8,40207,4,ProbabilitySelected,243
906,2021-02-08 11:00:00,0,0,No,2,17,40208,4,ProbabilitySelected,243
907,2021-02-08 14:00:00,0,0,No,2,11,40204,4,ProbabilitySelected,243
908,2021-02-08 09:15:00,0,0,No,2,11,40206,4,ProbabilitySelected,243
909,2021-02-09 09:00:00,0,0,No,2,11,40204,4,ProbabilitySelected,244
910,2021-02-09 14:30:00,0,0,No,2,11,40204,4,ProbabilitySelected,244
911,2021-02-09 11:30:00,0,0,No,2,11,40204,4,ProbabilitySelected,244
912,2021-02-10 09:00:00,0,0,No,2,11,40206,4,ProbabilitySelected,245
913,2021-02-10 13:30:00,0,0,No,2,11,40204,4,ProbabilitySelected,245
914,2021-04-23 08:15:00,0,0,No,2,11,40217,5,ProbabilitySelected,317
915,2021-04-23 11:30:00,0,0,No,2,11,40205,5,ProbabilitySelected,317
916,2021-04-23 09:30:00,0,1,No,2,11,40204,5,ProbabilitySelected,317
917,2021-04-23 08:45:00,0,1,No,2,11,40206,5,ProbabilitySelected,317
918,2021-04-24 10:00:00,0,1,No,2,11,40205,5,ProbabilitySelected,318
919,2021-04-24 11:30:00,0,0,No,2,12,40205,5,ProbabilitySelected,318
920,2021-04-27 09:30:00,0,1,No,2,11,40206,5,ProbabilitySelected,321
921,2021-04-27 08:15:00,0,0,No,2,11,40207,5,ProbabilitySelected,321
922,2021-04-27 12:00:00,0,0,No,2,11,40207,5,ProbabilitySelected,321
923,2021-05-17 12:15:00,0,0,No,2,12,40205,6,ProbabilitySelected,341
924,2021-05-17 09:15:00,0,1,No,2,13,40213,6,ProbabilitySelected,341
925,2021-05-17 10:00:00,0,0,No,2,12,40205,6,ProbabilitySelected,341
926,2021-05-17 08:45:00,0,0,No,2,8,40207,6,ProbabilitySelected,341
927,2021-05-17 15:45:00,0,0,No,2,17,40217,6,ProbabilitySelected,341
928,2021-05-18 08:45:00,0,1,No,2,11,40207,6,ProbabilitySelected,342
929,2021-05-20 17:15:00,0,0,No,2,11,40207,6,ProbabilitySelected,344
930,2021-05-20 16:00:00,0,1,No,2,8,40207,6,ProbabilitySelected,344
931,2021-05-20 11:45:00,0,1,No,2,8,40207,6,ProbabilitySelected,344
932,2021-05-20 14:00:00,0,1,No,2,8,40207,6,ProbabilitySelected,344
933,2021-05-21 12:30:00,0,0,No,2,8,40207,6,ProbabilitySelected,345
934,2021-05-22 13:30:00,0,0,No,2,17,40208,6,ProbabilitySelected,346
935,2021-05-23 14:00:00,0,1,No,2,8,40207,6,ProbabilitySelected,347
936,2021-05-23 10:15:00,0,1,No,2,11,40204,6,ProbabilitySelected,347
