,test_date,pcr_result,antibody_result,vaccinated,sector,sewer_zone,zip_code,round_name,record_type,time_point
0,2020-06-10 09:00:00,0,0,No,4,5,40059,1,ProbabilitySelected,0
1,2020-06-10 16:00:00,0,0,No,4,5,40059,1,ProbabilitySelected,0
2,2020-06-10 10:45:00,0,0,No,4,5,40059,1,ProbabilitySelected,0
3,2020-06-10 10:45:00,0,0,No,4,5,40059,1,ProbabilitySelected,0
4,2020-06-11 09:00:00,0,0,No,4,5,40059,1,ProbabilitySelected,1
5,2020-06-11 15:30:00,0,0,No,4,5,40059,1,ProbabilitySelected,1
6,2020-06-11 13:15:00,0,0,No,4,5,40245,1,ProbabilitySelected,1
7,2020-06-11 10:15:00,0,0,No,4,5,40245,1,ProbabilitySelected,1
8,2020-06-11 12:00:00,0,0,No,4,5,40059,1,ProbabilitySelected,1
9,2020-06-11 11:30:00,0,0,No,4,5,40222,1,ProbabilitySelected,1
10,2020-06-11 13:30:00,0,0,No,4,5,40059,1,ProbabilitySelected,1
11,2020-06-11 10:15:00,0,0,No,4,5,40241,1,ProbabilitySelected,1
12,2020-06-11 10:30:00,0,0,No,4,5,40241,1,ProbabilitySelected,1
13,2020-06-11 13:15:00,0,0,No,4,5,40245,1,ProbabilitySelected,1
14,2020-06-12 10:00:00,0,0,No,4,5,40059,1,ProbabilitySelected,2
15,2020-06-12 13:30:00,0,0,No,4,5,40059,1,ProbabilitySelected,2
16,2020-06-12 12:00:00,0,0,No,4,5,40241,1,ProbabilitySelected,2
17,2020-06-12 11:00:00,0,0,No,4,5,40245,1,ProbabilitySelected,2
18,2020-06-12 13:15:00,0,0,No,4,5,40245,1,ProbabilitySelected,2
19,2020-06-12 11:45:00,0,0,No,4,5,40059,1,ProbabilitySelected,2
20,2020-06-12 16:45:00,0,0,No,4,5,40241,1,ProbabilitySelected,2
21,2020-06-12 09:00:00,0,0,No,4,5,40241,1,ProbabilitySelected,2
22,2020-06-12 13:15:00,0,0,No,4,5,40245,1,ProbabilitySelected,2
23,2020-06-12 11:00:00,0,0,No,4,5,40059,1,ProbabilitySelected,2
24,2020-06-13 12:15:00,0,0,No,4,5,40245,1,ProbabilitySelected,3
25,2020-06-13 14:45:00,0,0,No,4,5,40059,1,ProbabilitySelected,3
26,2020-06-13 09:00:00,0,0,No,4,5,40245,1,ProbabilitySelected,3
27,2020-06-13 11:15:00,0,0,No,4,5,40059,1,ProbabilitySelected,3
28,2020-06-13 16:30:00,0,0,No,4,5,40241,1,ProbabilitySelected,3
29,2020-06-13 09:00:00,0,0,No,4,5,40059,1,ProbabilitySelected,3
30,2020-06-13 14:30:00,0,0,No,4,5,40241,1,ProbabilitySelected,3
31,2020-06-13 13:30:00,0,0,No,4,5,40059,1,ProbabilitySelected,3
32,2020-06-15 09:15:00,0,0,No,4,5,40241,1,ProbabilitySelected,5
33,2020-06-15 10:15:00,0,0,No,4,5,40059,1,ProbabilitySelected,5
34,2020-06-15 11:45:00,0,0,No,4,5,40241,1,ProbabilitySelected,5
35,2020-06-15 12:00:00,0,0,No,4,5,40245,1,ProbabilitySelected,5
36,2020-06-15 16:45:00,0,0,No,4,5,40245,1,ProbabilitySelected,5
37,2020-06-15 09:15:00,0,0,No,4,5,40059,1,ProbabilitySelected,5
38,2020-06-15 10:00:00,0,0,No,4,5,40245,1,ProbabilitySelected,5
39,2020-06-15 13:45:00,0,0,No,4,5,40059,1,ProbabilitySelected,5
40,2020-06-15 09:30:00,0,1,No,4,5,40059,1,ProbabilitySelected,5
41,2020-06-16 09:15:00,0,0,No,4,5,40059,1,ProbabilitySelected,6
42,2020-06-16 16:45:00,0,0,No,4,5,40241,1,ProbabilitySelected,6
43,2020-06-16 15:30:00,0,0,No,4,5,40245,1,ProbabilitySelected,6
44,2020-06-16 16:45:00,0,0,No,4,5,40245,1,ProbabilitySelected,6
45,2020-06-16 09:00:00,0,0,No,4,5,40059,1,ProbabilitySelected,6
46,2020-06-16 13:15:00,0,0,No,4,5,40241,1,ProbabilitySelected,6
47,2020-06-17 09:30:00,0,0,No,4,5,40245,1,ProbabilitySelected,7
48,2020-06-17 09:45:00,0,0,No,4,5,40059,1,ProbabilitySelected,7
49,2020-06-17 16:15:00,0,0,No,4,5,40222,1,ProbabilitySelected,7
50,2020-06-17 13:45:00,0,0,No,4,5,40241,1,ProbabilitySelected,7
51,2020-06-17 15:45:00,0,0,No,4,5,40241,1,ProbabilitySelected,7
52,2020-06-17 16:30:00,0,0,No,4,5,40245,1,ProbabilitySelected,7
53,2020-06-18 14:45:00,0,0,No,4,5,40241,1,ProbabilitySelected,8
54,2020-06-18 13:30:00,0,0,No,4,5,40241,1,ProbabilitySelected,8
55,2020-06-18 13:30:00,0,0,No,4,5,40059,1,ProbabilitySelected,8
56,2020-06-18 15:45:00,0,0,No,4,5,40241,1,ProbabilitySelected,8
57,2020-06-18 11:45:00,0,0,No,4,5,40241,1,ProbabilitySelected,8
58,2020-06-19 13:30:00,0,0,No,4,5,40241,1,ProbabilitySelected,9
59,2020-06-19 15:00:00,0,0,No,4,5,40059,1,ProbabilitySelected,9
60,2020-06-19 11:45:00,0,0,No,4,5,40241,1,ProbabilitySelected,9
61,2020-06-19 13:30:00,0,0,No,4,5,40241,1,ProbabilitySelected,9
62,2020-06-19 09:15:00,0,0,No,4,5,40241,1,ProbabilitySelected,9
63,2020-06-19 10:45:00,0,0,No,4,5,40241,1,ProbabilitySelected,9
64,2020-06-19 15:30:00,0,0,No,4,5,40241,1,ProbabilitySelected,9
65,2020-09-09 09:15:00,0,0,No,4,5,40059,2,ProbabilitySelected,91
66,2020-09-09 11:45:00,0,0,No,4,5,40245,2,ProbabilitySelected,91
67,2020-09-09 16:30:00,0,0,No,4,5,40245,2,ProbabilitySelected,91
68,2020-09-09 09:30:00,0,0,No,4,5,40241,2,ProbabilitySelected,91
69,2020-09-09 13:30:00,0,0,No,4,5,40059,2,ProbabilitySelected,91
70,2020-09-09 12:45:00,0,0,No,4,5,40241,2,ProbabilitySelected,91
71,2020-09-09 14:45:00,0,0,No,4,5,40241,2,ProbabilitySelected,91
72,2020-09-09 13:00:00,0,0,No,4,5,40241,2,ProbabilitySelected,91
73,2020-09-09 15:00:00,0,0,No,4,5,40059,2,ProbabilitySelected,91
74,2020-09-09 13:30:00,0,0,No,4,5,40059,2,ProbabilitySelected,91
75,2020-09-09 11:15:00,0,0,No,4,5,40241,2,ProbabilitySelected,91
76,2020-09-09 14:45:00,0,0,No,4,5,40245,2,ProbabilitySelected,91
77,2020-09-09 15:00:00,0,0,No,4,5,40241,2,ProbabilitySelected,91
78,2020-09-09 15:45:00,0,0,No,4,5,40241,2,ProbabilitySelected,91
79,2020-09-09 15:30:00,0,0,No,4,5,40241,2,ProbabilitySelected,91
80,2020-09-09 16:45:00,0,0,No,4,5,40241,2,ProbabilitySelected,91
81,2020-09-09 10:45:00,0,0,No,4,5,40241,2,ProbabilitySelected,91
82,2020-09-09 16:00:00,0,0,No,4,5,40059,2,ProbabilitySelected,91
83,2020-09-09 14:30:00,0,0,No,4,5,40059,2,ProbabilitySelected,91
84,2020-09-09 11:15:00,0,0,No,4,5,40245,2,ProbabilitySelected,91
85,2020-09-09 10:30:00,0,0,No,4,5,40241,2,ProbabilitySelected,91
86,2020-09-09 09:30:00,0,0,No,4,5,40241,2,ProbabilitySelected,91
87,2020-09-09 16:45:00,0,0,No,4,5,40241,2,ProbabilitySelected,91
88,2020-09-09 15:30:00,0,0,No,4,5,40059,2,ProbabilitySelected,91
89,2020-09-09 09:00:00,0,0,No,4,5,40241,2,ProbabilitySelected,91
90,2020-09-09 15:00:00,0,0,No,4,5,40059,2,ProbabilitySelected,91
91,2020-09-09 14:15:00,0,0,No,4,5,40241,2,ProbabilitySelected,91
92,2020-09-09 13:00:00,0,0,No,4,5,40059,2,ProbabilitySelected,91
93,2020-09-09 12:45:00,0,0,No,4,5,40245,2,ProbabilitySelected,91
94,2020-09-09 09:45:00,0,0,No,4,5,40241,2,ProbabilitySelected,91
95,2020-09-09 11:15:00,0,0,No,4,5,40241,2,ProbabilitySelected,91
96,2020-09-09 16:15:00,0,0,No,4,5,40059,2,ProbabilitySelected,91
97,2020-09-09 11:00:00,0,0,No,4,5,40059,2,ProbabilitySelected,91
98,2020-09-09 13:45:00,0,0,No,4,5,40241,2,ProbabilitySelected,91
99,2020-09-10 14:15:00,0,0,No,4,5,40241,2,ProbabilitySelected,92
100,2020-09-10 14:30:00,0,0,No,4,5,40222,2,ProbabilitySelected,92
101,2020-09-10 11:15:00,0,0,No,4,5,40241,2,ProbabilitySelected,92
102,2020-09-10 14:30:00,0,0,No,4,5,40241,2,ProbabilitySelected,92
103,2020-09-10 10:45:00,0,0,No,4,5,40059,2,ProbabilitySelected,92
104,2020-09-10 13:45:00,0,0,No,4,5,40241,2,ProbabilitySelected,92
105,2020-09-10 15:30:00,0,0,No,4,5,40241,2,ProbabilitySelected,92
106,2020-09-10 16:15:00,0,0,No,4,5,40059,2,ProbabilitySelected,92
107,2020-09-10 15:15:00,0,0,No,4,5,40241,2,ProbabilitySelected,92
108,2020-09-10 16:15:00,0,0,No,4,5,40245,2,ProbabilitySelected,92
109,2020-09-10 15:45:00,0,0,No,4,5,40245,2,ProbabilitySelected,92
110,2020-09-10 15:00:00,0,0,No,4,5,40241,2,ProbabilitySelected,92
111,2020-09-10 13:45:00,0,0,No,4,5,40245,2,ProbabilitySelected,92
112,2020-09-10 12:45:00,0,0,No,4,5,40241,2,ProbabilitySelected,92
113,2020-09-10 09:15:00,0,0,No,4,5,40245,2,ProbabilitySelected,92
114,2020-09-10 11:45:00,0,0,No,4,5,40245,2,ProbabilitySelected,92
115,2020-09-10 11:30:00,0,0,No,4,5,40241,2,ProbabilitySelected,92
116,2020-09-10 11:00:00,0,0,No,4,5,40059,2,ProbabilitySelected,92
117,2020-09-10 09:30:00,0,0,No,4,5,40241,2,ProbabilitySelected,92
118,2020-09-10 15:00:00,0,0,No,4,5,40245,2,ProbabilitySelected,92
119,2020-09-10 11:45:00,0,0,No,4,5,40059,2,ProbabilitySelected,92
120,2020-09-10 16:45:00,0,0,No,4,5,40245,2,ProbabilitySelected,92
121,2020-09-10 13:30:00,0,0,No,4,5,40241,2,ProbabilitySelected,92
122,2020-09-10 10:30:00,0,0,No,4,5,40241,2,ProbabilitySelected,92
123,2020-09-10 11:15:00,0,0,No,4,5,40241,2,ProbabilitySelected,92
124,2020-09-10 10:00:00,0,0,No,4,5,40241,2,ProbabilitySelected,92
125,2020-09-10 16:45:00,0,0,No,4,5,40245,2,ProbabilitySelected,92
126,2020-09-11 09:30:00,0,0,No,4,5,40241,2,ProbabilitySelected,93
127,2020-09-11 13:00:00,0,0,No,4,5,40059,2,ProbabilitySelected,93
128,2020-09-11 15:00:00,0,0,No,4,5,40241,2,ProbabilitySelected,93
129,2020-09-11 15:00:00,0,0,No,4,5,40059,2,ProbabilitySelected,93
130,2020-09-11 13:15:00,0,0,No,4,5,40245,2,ProbabilitySelected,93
131,2020-09-11 14:30:00,0,0,No,4,5,40241,2,ProbabilitySelected,93
132,2020-09-11 12:45:00,0,0,No,4,5,40241,2,ProbabilitySelected,93
133,2020-09-11 15:15:00,0,0,No,4,5,40241,2,ProbabilitySelected,93
134,2020-09-11 11:45:00,0,0,No,4,5,40245,2,ProbabilitySelected,93
135,2020-09-11 15:45:00,0,0,No,4,5,40245,2,ProbabilitySelected,93
136,2020-09-11 11:45:00,0,0,No,4,5,40245,2,ProbabilitySelected,93
137,2020-09-11 09:15:00,0,0,No,4,5,40241,2,ProbabilitySelected,93
138,2020-09-11 10:00:00,0,0,No,4,5,40241,2,ProbabilitySelected,93
139,2020-09-11 09:00:00,0,0,No,4,5,40245,2,ProbabilitySelected,93
140,2020-09-11 15:15:00,0,0,No,4,5,40241,2,ProbabilitySelected,93
141,2020-09-11 14:45:00,0,0,No,4,5,40222,2,ProbabilitySelected,93
142,2020-09-11 13:30:00,0,0,No,4,5,40241,2,ProbabilitySelected,93
143,2020-09-11 12:45:00,0,0,No,4,5,40241,2,ProbabilitySelected,93
144,2020-09-11 15:00:00,0,0,No,4,5,40059,2,ProbabilitySelected,93
145,2020-09-11 09:30:00,0,0,No,4,5,40241,2,ProbabilitySelected,93
146,2020-09-11 14:00:00,0,0,No,4,5,40059,2,ProbabilitySelected,93
147,2020-09-11 10:30:00,0,0,No,4,5,40241,2,ProbabilitySelected,93
148,2020-09-11 13:00:00,0,0,No,4,5,40059,2,ProbabilitySelected,93
149,2020-09-11 10:30:00,0,0,No,4,5,40245,2,ProbabilitySelected,93
150,2020-09-11 13:00:00,0,0,No,4,5,40059,2,ProbabilitySelected,93
151,2020-09-11 13:30:00,0,0,No,4,5,40241,2,ProbabilitySelected,93
152,2020-09-11 15:30:00,0,0,No,4,5,40059,2,ProbabilitySelected,93
153,2020-09-12 09:00:00,0,0,No,4,5,40245,2,ProbabilitySelected,94
154,2020-09-12 16:30:00,0,0,No,4,5,40222,2,ProbabilitySelected,94
155,2020-09-12 16:00:00,0,0,No,4,5,40059,2,ProbabilitySelected,94
156,2020-09-12 16:30:00,0,0,No,4,5,40245,2,ProbabilitySelected,94
157,2020-09-12 14:30:00,0,0,No,4,5,40059,2,ProbabilitySelected,94
158,2020-09-12 15:15:00,0,0,No,4,5,40241,2,ProbabilitySelected,94
159,2020-09-12 14:15:00,0,0,No,4,5,40223,2,ProbabilitySelected,94
160,2020-09-12 09:15:00,0,0,No,4,5,40245,2,ProbabilitySelected,94
161,2020-09-12 13:45:00,0,0,No,4,5,40241,2,ProbabilitySelected,94
162,2020-09-12 11:30:00,0,0,No,4,5,40241,2,ProbabilitySelected,94
163,2020-09-12 16:45:00,0,0,No,4,5,40241,2,ProbabilitySelected,94
164,2020-09-12 15:30:00,0,0,No,4,5,40241,2,ProbabilitySelected,94
165,2020-09-12 10:15:00,0,0,No,4,5,40059,2,ProbabilitySelected,94
166,2020-09-12 11:45:00,0,0,No,4,5,40241,2,ProbabilitySelected,94
167,2020-09-12 09:30:00,0,0,No,4,5,40245,2,ProbabilitySelected,94
168,2020-09-12 09:45:00,0,0,No,4,5,40245,2,ProbabilitySelected,94
169,2020-09-12 13:30:00,0,0,No,4,5,40241,2,ProbabilitySelected,94
170,2020-09-12 14:15:00,0,0,No,4,5,40241,2,ProbabilitySelected,94
171,2020-09-13 14:00:00,0,0,No,4,5,40241,2,ProbabilitySelected,95
172,2020-09-13 13:00:00,0,0,No,4,5,40059,2,ProbabilitySelected,95
173,2020-09-13 10:45:00,0,0,No,4,5,40059,2,ProbabilitySelected,95
174,2020-09-13 16:30:00,0,0,No,4,5,40241,2,ProbabilitySelected,95
175,2020-09-13 13:15:00,0,0,No,4,5,40245,2,ProbabilitySelected,95
176,2020-09-13 11:00:00,0,0,No,4,5,40245,2,ProbabilitySelected,95
177,2020-09-13 15:15:00,0,0,No,4,5,40241,2,ProbabilitySelected,95
178,2020-09-13 10:15:00,0,0,No,4,5,40059,2,ProbabilitySelected,95
179,2020-09-13 14:30:00,0,0,No,4,5,40245,2,ProbabilitySelected,95
180,2020-09-13 14:30:00,0,1,No,4,5,40245,2,ProbabilitySelected,95
181,2020-09-13 10:00:00,0,0,No,4,5,40241,2,ProbabilitySelected,95
182,2020-09-13 14:30:00,0,0,No,4,5,40241,2,ProbabilitySelected,95
183,2020-09-13 11:00:00,0,0,No,4,5,40241,2,ProbabilitySelected,95
184,2020-09-13 09:15:00,0,0,No,4,5,40245,2,ProbabilitySelected,95
185,2020-09-13 11:00:00,0,0,No,4,5,40241,2,ProbabilitySelected,95
186,2020-09-13 13:30:00,0,0,No,4,5,40245,2,ProbabilitySelected,95
187,2020-09-14 15:15:00,0,0,No,4,5,40241,2,ProbabilitySelected,96
188,2020-09-14 13:15:00,0,0,No,4,5,40245,2,ProbabilitySelected,96
189,2020-09-14 14:30:00,0,0,No,4,5,40245,2,ProbabilitySelected,96
190,2020-09-14 16:00:00,0,0,No,4,5,40059,2,ProbabilitySelected,96
191,2020-09-14 11:45:00,0,0,No,4,5,40059,2,ProbabilitySelected,96
192,2020-09-14 14:15:00,0,0,No,4,5,40241,2,ProbabilitySelected,96
193,2020-09-14 11:15:00,0,0,No,4,5,40241,2,ProbabilitySelected,96
194,2020-09-14 15:30:00,0,0,No,4,5,40241,2,ProbabilitySelected,96
195,2020-09-14 10:30:00,0,0,No,4,5,40241,2,ProbabilitySelected,96
196,2020-09-14 10:45:00,0,0,No,4,5,40059,2,ProbabilitySelected,96
197,2020-09-14 09:45:00,0,0,No,4,5,40241,2,ProbabilitySelected,96
198,2020-09-14 14:45:00,0,0,No,4,5,40241,2,ProbabilitySelected,96
199,2020-09-14 11:45:00,0,0,No,4,5,40059,2,ProbabilitySelected,96
200,2020-09-14 10:45:00,0,0,No,4,5,40059,2,ProbabilitySelected,96
201,2020-09-14 14:00:00,0,0,No,4,5,40059,2,ProbabilitySelected,96
202,2020-09-14 09:00:00,0,0,No,4,5,40241,2,ProbabilitySelected,96
203,2020-09-15 09:15:00,0,0,No,4,5,40241,2,ProbabilitySelected,97
204,2020-09-15 13:15:00,0,0,No,4,5,40059,2,ProbabilitySelected,97
205,2020-09-15 09:00:00,0,0,No,4,5,40059,2,ProbabilitySelected,97
206,2020-09-15 16:45:00,0,0,No,4,5,40245,2,ProbabilitySelected,97
207,2020-09-15 09:15:00,0,0,No,4,5,40241,2,ProbabilitySelected,97
208,2020-09-15 09:30:00,0,0,No,4,5,40241,2,ProbabilitySelected,97
209,2020-09-15 09:45:00,0,0,No,4,5,40241,2,ProbabilitySelected,97
210,2020-09-16 09:00:00,0,0,No,4,5,40245,2,ProbabilitySelected,98
211,2020-09-16 16:30:00,0,0,No,4,5,40241,2,ProbabilitySelected,98
212,2020-09-16 09:15:00,0,0,No,4,5,40241,2,ProbabilitySelected,98
213,2020-09-16 16:45:00,0,0,No,4,5,40241,2,ProbabilitySelected,98
214,2020-09-16 09:00:00,0,0,No,4,5,40245,2,ProbabilitySelected,98
215,2020-09-16 13:00:00,0,0,No,4,5,40241,2,ProbabilitySelected,98
216,2020-09-16 16:45:00,0,0,No,4,5,40245,2,ProbabilitySelected,98
217,2020-09-16 11:15:00,0,0,No,4,5,40059,2,ProbabilitySelected,98
218,2020-09-16 11:00:00,0,0,No,4,5,40241,2,ProbabilitySelected,98
219,2020-09-17 09:00:00,0,0,No,4,5,40241,2,ProbabilitySelected,99
220,2020-09-17 09:00:00,0,0,No,4,5,40241,2,ProbabilitySelected,99
221,2020-09-18 16:00:00,0,0,No,4,5,40241,2,ProbabilitySelected,100
222,2020-09-18 16:30:00,0,0,No,4,5,40245,2,ProbabilitySelected,100
223,2020-09-18 09:00:00,0,0,No,4,5,40241,2,ProbabilitySelected,100
224,2020-09-18 16:15:00,0,0,No,4,5,40222,2,ProbabilitySelected,100
225,2020-09-18 10:00:00,0,0,No,4,5,40241,2,ProbabilitySelected,100
226,2020-09-18 10:15:00,0,0,No,4,5,40241,2,ProbabilitySelected,100
227,2020-09-18 15:00:00,0,0,No,4,5,40245,2,ProbabilitySelected,100
228,2020-09-19 10:00:00,0,0,No,4,5,40245,2,ProbabilitySelected,101
229,2020-11-06 10:00:00,0,0,No,4,5,40059,3,ProbabilitySelected,149
230,2020-11-06 10:45:00,0,0,No,4,5,40059,3,ProbabilitySelected,149
231,2020-11-06 10:45:00,0,0,No,4,5,40059,3,ProbabilitySelected,149
232,2020-11-06 09:30:00,0,0,No,4,5,40059,3,ProbabilitySelected,149
233,2020-11-06 11:00:00,0,0,No,4,5,40059,3,ProbabilitySelected,149
234,2020-11-06 15:45:00,0,0,No,4,5,40059,3,ProbabilitySelected,149
235,2020-11-06 10:30:00,0,0,No,4,5,40059,3,ProbabilitySelected,149
236,2020-11-06 11:00:00,0,0,No,4,5,40241,3,ProbabilitySelected,149
237,2020-11-06 13:30:00,0,0,No,4,5,40245,3,ProbabilitySelected,149
238,2020-11-06 09:30:00,0,0,No,4,5,40245,3,ProbabilitySelected,149
239,2020-11-06 09:45:00,0,0,No,4,5,40241,3,ProbabilitySelected,149
240,2020-11-06 14:00:00,0,0,No,4,5,40241,3,ProbabilitySelected,149
241,2020-11-06 14:30:00,0,0,No,4,5,40059,3,ProbabilitySelected,149
242,2020-11-06 14:30:00,0,0,No,4,5,40241,3,ProbabilitySelected,149
243,2020-11-06 10:00:00,0,0,No,4,5,40245,3,ProbabilitySelected,149
244,2020-11-06 16:45:00,0,0,No,4,5,40059,3,ProbabilitySelected,149
245,2020-11-06 14:30:00,0,0,No,4,5,40245,3,ProbabilitySelected,149
246,2020-11-06 09:00:00,0,0,No,4,5,40241,3,ProbabilitySelected,149
247,2020-11-06 10:00:00,0,0,No,4,5,40245,3,ProbabilitySelected,149
248,2020-11-06 15:00:00,0,0,No,4,5,40241,3,ProbabilitySelected,149
249,2020-11-06 10:30:00,0,0,No,4,5,40223,3,ProbabilitySelected,149
250,2020-11-06 10:45:00,0,0,No,4,5,40241,3,ProbabilitySelected,149
251,2020-11-06 16:15:00,0,0,No,4,5,40245,3,ProbabilitySelected,149
252,2020-11-06 14:00:00,0,0,No,4,5,40245,3,ProbabilitySelected,149
253,2020-11-06 16:00:00,0,0,No,4,5,40059,3,ProbabilitySelected,149
254,2020-11-07 09:30:00,0,0,No,4,5,40241,3,ProbabilitySelected,150
255,2020-11-07 11:30:00,0,0,No,4,5,40059,3,ProbabilitySelected,150
256,2020-11-07 09:00:00,0,0,No,4,5,40241,3,ProbabilitySelected,150
257,2020-11-07 11:15:00,0,0,No,4,5,40241,3,ProbabilitySelected,150
258,2020-11-07 11:30:00,0,0,No,4,5,40245,3,ProbabilitySelected,150
259,2020-11-07 11:15:00,0,0,No,4,5,40059,3,ProbabilitySelected,150
260,2020-11-07 11:00:00,0,0,No,4,5,40245,3,ProbabilitySelected,150
261,2020-11-07 11:00:00,0,0,No,4,5,40059,3,ProbabilitySelected,150
262,2020-11-07 16:00:00,0,0,No,4,5,40245,3,ProbabilitySelected,150
263,2020-11-07 11:30:00,0,1,No,4,5,40241,3,ProbabilitySelected,150
264,2020-11-08 10:00:00,0,0,No,4,5,40241,3,ProbabilitySelected,151
265,2020-11-09 13:45:00,0,0,No,4,5,40241,3,ProbabilitySelected,152
266,2020-11-09 15:45:00,0,0,No,4,5,40241,3,ProbabilitySelected,152
267,2020-11-09 09:00:00,0,0,No,4,5,40241,3,ProbabilitySelected,152
268,2020-11-09 13:30:00,0,0,No,4,5,40241,3,ProbabilitySelected,152
269,2020-11-09 11:00:00,0,0,No,4,5,40241,3,ProbabilitySelected,152
270,2020-11-09 09:45:00,0,0,No,4,5,40241,3,ProbabilitySelected,152
271,2020-11-09 11:30:00,0,1,No,4,5,40241,3,ProbabilitySelected,152
272,2020-11-09 10:15:00,0,0,No,4,5,40245,3,ProbabilitySelected,152
273,2020-11-09 16:15:00,0,0,No,4,5,40245,3,ProbabilitySelected,152
274,2020-11-09 09:00:00,0,0,No,4,5,40059,3,ProbabilitySelected,152
275,2020-11-09 11:15:00,0,0,No,4,5,40059,3,ProbabilitySelected,152
276,2020-11-09 13:15:00,0,0,No,4,5,40245,3,ProbabilitySelected,152
277,2020-11-10 11:15:00,0,0,No,4,5,40245,3,ProbabilitySelected,153
278,2020-11-10 16:45:00,0,0,No,4,5,40059,3,ProbabilitySelected,153
279,2020-11-10 16:00:00,0,0,No,4,5,40245,3,ProbabilitySelected,153
280,2020-11-10 10:00:00,0,0,No,4,5,40241,3,ProbabilitySelected,153
281,2020-11-11 13:00:00,0,0,No,4,5,40241,3,ProbabilitySelected,154
282,2020-11-13 13:15:00,0,0,No,4,5,40241,3,ProbabilitySelected,156
283,2020-11-13 15:15:00,0,0,No,4,5,40245,3,ProbabilitySelected,156
284,2020-11-14 09:15:00,0,0,No,4,5,40241,3,ProbabilitySelected,157
285,2021-02-05 11:45:00,0,0,No,4,5,40241,4,ProbabilitySelected,240
286,2021-02-05 12:45:00,0,0,No,4,5,40059,4,ProbabilitySelected,240
287,2021-02-05 12:45:00,0,0,No,4,5,40241,4,ProbabilitySelected,240
288,2021-02-05 13:15:00,0,0,No,4,5,40059,4,ProbabilitySelected,240
289,2021-02-05 09:30:00,0,0,No,4,5,40245,4,ProbabilitySelected,240
290,2021-02-05 11:30:00,0,0,No,4,5,40059,4,ProbabilitySelected,240
291,2021-02-05 14:00:00,0,0,No,4,5,40245,4,ProbabilitySelected,240
292,2021-02-05 11:00:00,0,0,No,4,5,40059,4,ProbabilitySelected,240
293,2021-02-05 11:00:00,0,0,No,4,5,40241,4,ProbabilitySelected,240
294,2021-02-05 11:30:00,0,0,No,4,5,40245,4,ProbabilitySelected,240
295,2021-02-05 09:15:00,0,0,No,4,5,40241,4,ProbabilitySelected,240
296,2021-02-05 09:30:00,0,0,No,4,5,40241,4,ProbabilitySelected,240
297,2021-02-05 14:30:00,0,0,No,4,5,40059,4,ProbabilitySelected,240
298,2021-02-05 14:00:00,0,0,No,4,5,40241,4,ProbabilitySelected,240
299,2021-02-05 12:30:00,0,0,No,4,5,40059,4,ProbabilitySelected,240
300,2021-02-05 09:00:00,0,0,No,4,5,40203,4,ProbabilitySelected,240
301,2021-02-06 14:45:00,0,0,No,4,5,40245,4,ProbabilitySelected,241
302,2021-02-06 13:00:00,0,0,No,4,5,40241,4,ProbabilitySelected,241
303,2021-02-06 09:00:00,0,0,No,4,5,40241,4,ProbabilitySelected,241
304,2021-02-06 11:30:00,0,0,No,4,5,40059,4,ProbabilitySelected,241
305,2021-02-06 11:00:00,0,0,No,4,5,40241,4,ProbabilitySelected,241
306,2021-02-06 12:30:00,0,0,No,4,5,40059,4,ProbabilitySelected,241
307,2021-02-06 13:15:00,0,0,No,4,5,40059,4,ProbabilitySelected,241
308,2021-02-06 10:45:00,0,0,No,4,5,40241,4,ProbabilitySelected,241
309,2021-02-06 12:30:00,0,0,No,4,5,40059,4,ProbabilitySelected,241
310,2021-02-06 10:30:00,0,0,No,4,5,40241,4,ProbabilitySelected,241
311,2021-02-08 09:30:00,0,0,No,4,5,40241,4,ProbabilitySelected,243
312,2021-02-08 11:00:00,0,0,No,4,5,40241,4,ProbabilitySelected,243
313,2021-02-08 14:00:00,0,1,No,4,5,40222,4,ProbabilitySelected,243
314,2021-02-08 14:30:00,0,0,No,4,5,40059,4,ProbabilitySelected,243
315,2021-02-08 10:30:00,0,0,No,4,5,40223,4,ProbabilitySelected,243
316,2021-02-08 09:45:00,0,0,No,4,5,40241,4,ProbabilitySelected,243
317,2021-02-08 09:45:00,0,0,No,4,5,40241,4,ProbabilitySelected,243
318,2021-02-09 09:00:00,0,0,No,4,5,40241,4,ProbabilitySelected,244
319,2021-02-09 09:30:00,0,0,No,4,5,40059,4,ProbabilitySelected,244
320,2021-02-09 09:30:00,0,0,No,4,5,40245,4,ProbabilitySelected,244
321,2021-02-09 10:15:00,0,0,No,4,5,40241,4,ProbabilitySelected,244
322,2021-04-23 11:00:00,0,1,No,4,5,40241,5,ProbabilitySelected,317
323,2021-04-24 17:00:00,0,0,No,4,5,40059,5,ProbabilitySelected,318
324,2021-04-26 16:15:00,0,0,No,4,5,40241,5,ProbabilitySelected,320
325,2021-04-27 14:15:00,0,1,No,4,5,40241,5,ProbabilitySelected,321
326,2021-04-28 11:00:00,0,1,No,4,5,40059,5,ProbabilitySelected,322
327,2021-05-17 08:30:00,0,0,No,4,5,40245,6,ProbabilitySelected,341
328,2021-05-20 15:15:00,0,1,No,4,5,40059,6,ProbabilitySelected,344
329,2021-05-21 16:30:00,0,0,No,4,5,40245,6,ProbabilitySelected,345
330,2021-05-21 11:30:00,0,1,No,4,5,40241,6,ProbabilitySelected,345
331,2021-05-22 11:00:00,1,1,No,4,5,40059,6,ProbabilitySelected,346
332,2021-05-22 09:00:00,0,0,No,4,5,40241,6,ProbabilitySelected,346
333,2021-05-23 09:00:00,0,1,No,4,5,40059,6,ProbabilitySelected,347
