,test_date,pcr_result,antibody_result,vaccinated,sector,sewer_zone,zip_code,round_name,record_type,time_point
0,2020-06-15 10:30:00,0,0,No,3,3,40228,1,ProbabilitySelected,5
1,2020-06-15 12:15:00,0,0,No,3,3,40291,1,ProbabilitySelected,5
2,2020-06-15 14:30:00,0,0,No,3,3,40291,1,ProbabilitySelected,5
3,2020-06-15 09:45:00,0,0,No,4,3,40299,1,ProbabilitySelected,5
4,2020-06-16 14:45:00,0,0,No,4,3,40291,1,ProbabilitySelected,6
5,2020-06-16 11:15:00,0,0,No,4,3,40299,1,ProbabilitySelected,6
6,2020-06-16 11:00:00,0,0,No,4,3,40299,1,ProbabilitySelected,6
7,2020-06-17 13:30:00,0,0,No,3,3,40291,1,ProbabilitySelected,7
8,2020-06-17 12:15:00,0,0,No,3,3,40291,1,ProbabilitySelected,7
9,2020-06-17 16:45:00,0,0,No,4,3,40299,1,ProbabilitySelected,7
10,2020-06-18 10:15:00,0,0,No,4,3,40299,1,ProbabilitySelected,8
11,2020-06-18 13:45:00,0,0,No,4,3,40291,1,ProbabilitySelected,8
12,2020-06-18 13:30:00,0,0,No,4,3,40291,1,ProbabilitySelected,8
13,2020-06-19 11:00:00,0,0,No,3,3,40291,1,ProbabilitySelected,9
14,2020-06-19 10:15:00,0,0,No,4,3,40299,1,ProbabilitySelected,9
15,2020-06-19 12:00:00,0,0,No,4,3,40299,1,ProbabilitySelected,9
16,2020-09-09 13:15:00,0,0,No,4,3,40291,2,ProbabilitySelected,91
17,2020-09-09 12:45:00,0,0,No,4,3,40291,2,ProbabilitySelected,91
18,2020-09-09 09:15:00,0,0,No,4,3,40299,2,ProbabilitySelected,91
19,2020-09-09 13:45:00,0,0,No,4,3,40291,2,ProbabilitySelected,91
20,2020-09-09 12:45:00,0,0,No,4,3,40291,2,ProbabilitySelected,91
21,2020-09-09 13:15:00,0,0,No,4,3,40291,2,ProbabilitySelected,91
22,2020-09-09 14:00:00,0,0,No,4,3,40291,2,ProbabilitySelected,91
23,2020-09-09 13:15:00,0,0,No,3,3,40291,2,ProbabilitySelected,91
24,2020-09-09 11:30:00,0,0,No,4,3,40291,2,ProbabilitySelected,91
25,2020-09-09 09:15:00,0,0,No,3,3,40228,2,ProbabilitySelected,91
26,2020-09-09 13:15:00,0,0,No,4,3,40291,2,ProbabilitySelected,91
27,2020-09-09 10:00:00,0,0,No,3,3,40291,2,ProbabilitySelected,91
28,2020-09-09 10:30:00,0,0,No,4,3,40299,2,ProbabilitySelected,91
29,2020-09-09 11:00:00,0,0,No,3,3,40228,2,ProbabilitySelected,91
30,2020-09-09 15:00:00,0,0,No,4,3,40299,2,ProbabilitySelected,91
31,2020-09-09 16:00:00,0,0,No,4,3,40291,2,ProbabilitySelected,91
32,2020-09-10 09:30:00,0,0,No,4,3,40299,2,ProbabilitySelected,92
33,2020-09-10 14:45:00,0,0,No,4,3,40299,2,ProbabilitySelected,92
34,2020-09-10 15:30:00,0,0,No,4,3,40299,2,ProbabilitySelected,92
35,2020-09-10 14:30:00,0,0,No,3,3,40291,2,ProbabilitySelected,92
36,2020-09-10 13:30:00,0,0,No,4,3,40299,2,ProbabilitySelected,92
37,2020-09-10 11:45:00,0,0,No,4,3,40023,2,ProbabilitySelected,92
38,2020-09-10 16:30:00,0,0,No,4,3,40291,2,ProbabilitySelected,92
39,2020-09-10 09:45:00,0,0,No,4,3,40299,2,ProbabilitySelected,92
40,2020-09-10 14:00:00,0,0,No,3,3,40291,2,ProbabilitySelected,92
41,2020-09-10 12:45:00,0,0,No,3,3,40291,2,ProbabilitySelected,92
42,2020-09-10 16:45:00,0,0,No,4,3,40299,2,ProbabilitySelected,92
43,2020-09-10 15:15:00,0,0,No,4,3,40299,2,ProbabilitySelected,92
44,2020-09-10 15:00:00,0,0,No,4,3,40291,2,ProbabilitySelected,92
45,2020-09-10 09:45:00,0,0,No,4,3,40299,2,ProbabilitySelected,92
46,2020-09-10 09:00:00,0,1,No,4,3,40291,2,ProbabilitySelected,92
47,2020-09-11 15:15:00,0,0,No,4,3,40023,2,ProbabilitySelected,93
48,2020-09-11 15:30:00,0,0,No,4,3,40299,2,ProbabilitySelected,93
49,2020-09-11 15:45:00,0,0,No,4,3,40299,2,ProbabilitySelected,93
50,2020-09-11 10:30:00,0,0,No,3,3,40291,2,ProbabilitySelected,93
51,2020-09-11 11:00:00,0,0,No,4,3,40299,2,ProbabilitySelected,93
52,2020-09-11 14:30:00,0,0,No,4,3,40299,2,ProbabilitySelected,93
53,2020-09-11 10:45:00,0,0,No,4,3,40299,2,ProbabilitySelected,93
54,2020-09-11 12:45:00,0,0,No,3,3,40229,2,ProbabilitySelected,93
55,2020-09-11 14:45:00,0,0,No,4,3,40023,2,ProbabilitySelected,93
56,2020-09-11 10:15:00,0,0,No,3,3,40291,2,ProbabilitySelected,93
57,2020-09-12 14:15:00,0,0,No,3,3,40229,2,ProbabilitySelected,94
58,2020-09-12 11:45:00,0,0,No,4,3,40291,2,ProbabilitySelected,94
59,2020-09-12 16:45:00,0,0,No,4,3,40291,2,ProbabilitySelected,94
60,2020-09-12 16:00:00,0,0,No,3,3,40228,2,ProbabilitySelected,94
61,2020-09-12 14:30:00,0,0,No,4,3,40291,2,ProbabilitySelected,94
62,2020-09-12 13:00:00,0,1,No,4,3,40299,2,ProbabilitySelected,94
63,2020-09-12 12:45:00,0,0,No,3,3,40291,2,ProbabilitySelected,94
64,2020-09-12 09:00:00,0,0,No,3,3,40291,2,ProbabilitySelected,94
65,2020-09-12 13:00:00,0,0,No,4,3,40291,2,ProbabilitySelected,94
66,2020-09-12 09:15:00,0,0,No,4,3,40299,2,ProbabilitySelected,94
67,2020-09-12 11:00:00,0,0,No,4,3,40299,2,ProbabilitySelected,94
68,2020-09-12 10:30:00,0,0,No,3,3,40291,2,ProbabilitySelected,94
69,2020-09-13 10:30:00,0,0,No,4,3,40291,2,ProbabilitySelected,95
70,2020-09-13 10:15:00,0,0,No,4,3,40299,2,ProbabilitySelected,95
71,2020-09-13 10:00:00,0,0,No,4,3,40299,2,ProbabilitySelected,95
72,2020-09-13 10:30:00,0,0,No,4,3,40299,2,ProbabilitySelected,95
73,2020-09-13 13:45:00,0,0,No,3,3,40291,2,ProbabilitySelected,95
74,2020-09-13 14:00:00,0,0,No,4,3,40299,2,ProbabilitySelected,95
75,2020-09-13 11:45:00,0,0,No,4,3,40291,2,ProbabilitySelected,95
76,2020-09-13 09:15:00,0,0,No,4,3,40299,2,ProbabilitySelected,95
77,2020-09-13 15:45:00,0,0,No,4,3,40299,2,ProbabilitySelected,95
78,2020-09-13 14:45:00,0,0,No,4,3,40299,2,ProbabilitySelected,95
79,2020-09-13 11:00:00,0,0,No,4,3,40299,2,ProbabilitySelected,95
80,2020-09-13 15:15:00,0,0,No,4,3,40299,2,ProbabilitySelected,95
81,2020-09-13 13:30:00,0,0,No,4,3,40299,2,ProbabilitySelected,95
82,2020-09-14 15:15:00,0,0,No,4,3,40299,2,ProbabilitySelected,96
83,2020-09-14 11:15:00,0,0,No,4,3,40299,2,ProbabilitySelected,96
84,2020-09-14 12:45:00,0,0,No,4,3,40299,2,ProbabilitySelected,96
85,2020-09-14 15:45:00,0,0,No,3,3,40228,2,ProbabilitySelected,96
86,2020-09-14 11:30:00,0,0,No,4,3,40299,2,ProbabilitySelected,96
87,2020-09-14 10:30:00,0,0,No,4,3,40291,2,ProbabilitySelected,96
88,2020-09-14 15:30:00,0,0,No,3,3,40228,2,ProbabilitySelected,96
89,2020-09-14 11:45:00,0,0,No,3,3,40228,2,ProbabilitySelected,96
90,2020-09-14 10:00:00,0,0,No,3,3,40291,2,ProbabilitySelected,96
91,2020-09-14 10:00:00,0,0,No,4,3,40299,2,ProbabilitySelected,96
92,2020-09-14 09:00:00,0,0,No,4,3,40299,2,ProbabilitySelected,96
93,2020-09-14 15:30:00,0,0,No,4,3,40299,2,ProbabilitySelected,96
94,2020-09-15 13:00:00,0,0,No,3,3,40291,2,ProbabilitySelected,97
95,2020-09-15 15:00:00,0,0,No,4,3,40299,2,ProbabilitySelected,97
96,2020-09-15 13:15:00,0,0,No,3,3,40291,2,ProbabilitySelected,97
97,2020-09-15 11:00:00,0,0,No,4,3,40299,2,ProbabilitySelected,97
98,2020-09-15 10:15:00,0,0,No,3,3,40291,2,ProbabilitySelected,97
99,2020-09-16 10:45:00,0,0,No,4,3,40299,2,ProbabilitySelected,98
100,2020-09-17 11:30:00,0,0,No,3,3,40228,2,ProbabilitySelected,99
101,2020-09-18 13:15:00,0,0,No,4,3,40299,2,ProbabilitySelected,100
102,2020-09-18 14:45:00,0,0,No,3,3,40291,2,ProbabilitySelected,100
103,2020-11-06 15:45:00,0,0,No,4,3,40299,3,ProbabilitySelected,149
104,2020-11-06 10:15:00,0,0,No,4,3,40299,3,ProbabilitySelected,149
105,2020-11-06 11:15:00,0,0,No,4,3,40299,3,ProbabilitySelected,149
106,2020-11-06 10:00:00,0,1,No,4,3,40299,3,ProbabilitySelected,149
107,2020-11-06 10:15:00,0,0,No,4,3,40299,3,ProbabilitySelected,149
108,2020-11-06 13:45:00,0,0,No,4,3,40299,3,ProbabilitySelected,149
109,2020-11-06 09:45:00,0,0,No,4,3,40291,3,ProbabilitySelected,149
110,2020-11-06 13:15:00,0,0,No,4,3,40291,3,ProbabilitySelected,149
111,2020-11-06 11:15:00,0,0,No,3,3,40228,3,ProbabilitySelected,149
112,2020-11-06 16:00:00,0,0,No,4,3,40023,3,ProbabilitySelected,149
113,2020-11-06 09:15:00,0,0,No,3,3,40291,3,ProbabilitySelected,149
114,2020-11-06 11:15:00,0,0,No,3,3,40291,3,ProbabilitySelected,149
115,2020-11-06 13:30:00,0,0,No,3,3,40228,3,ProbabilitySelected,149
116,2020-11-06 15:30:00,0,0,No,3,3,40228,3,ProbabilitySelected,149
117,2020-11-06 10:15:00,0,0,No,3,3,40229,3,ProbabilitySelected,149
118,2020-11-06 11:00:00,0,0,No,4,3,40299,3,ProbabilitySelected,149
119,2020-11-06 09:15:00,0,0,No,3,3,40291,3,ProbabilitySelected,149
120,2020-11-06 13:00:00,0,0,No,3,3,40228,3,ProbabilitySelected,149
121,2020-11-06 09:15:00,0,0,No,4,3,40291,3,ProbabilitySelected,149
122,2020-11-06 09:00:00,0,0,No,3,3,40291,3,ProbabilitySelected,149
123,2020-11-06 10:00:00,0,0,No,3,3,40228,3,ProbabilitySelected,149
124,2020-11-06 09:45:00,0,0,No,3,3,40291,3,ProbabilitySelected,149
125,2020-11-06 13:00:00,0,0,No,3,3,40291,3,ProbabilitySelected,149
126,2020-11-06 16:00:00,0,0,No,3,3,40228,3,ProbabilitySelected,149
127,2020-11-06 10:15:00,0,0,No,3,3,40291,3,ProbabilitySelected,149
128,2020-11-06 14:45:00,0,0,No,3,3,40291,3,ProbabilitySelected,149
129,2020-11-07 11:15:00,0,0,No,3,3,40291,3,ProbabilitySelected,150
130,2020-11-07 09:00:00,0,0,No,4,3,40291,3,ProbabilitySelected,150
131,2020-11-07 10:45:00,0,0,No,3,3,40291,3,ProbabilitySelected,150
132,2020-11-07 10:45:00,0,0,No,3,3,40229,3,ProbabilitySelected,150
133,2020-11-07 13:15:00,0,0,No,4,3,40291,3,ProbabilitySelected,150
134,2020-11-08 11:00:00,0,1,No,3,3,40229,3,ProbabilitySelected,151
135,2020-11-09 10:30:00,0,0,No,3,3,40291,3,ProbabilitySelected,152
136,2020-11-09 11:30:00,0,0,No,3,3,40291,3,ProbabilitySelected,152
137,2020-11-09 14:15:00,0,0,No,3,3,40291,3,ProbabilitySelected,152
138,2020-11-10 09:30:00,0,0,No,3,3,40229,3,ProbabilitySelected,153
139,2020-11-10 11:30:00,0,0,No,3,3,40291,3,ProbabilitySelected,153
140,2020-11-10 09:15:00,0,0,No,3,3,40291,3,ProbabilitySelected,153
141,2020-11-13 11:30:00,0,0,No,3,3,40228,3,ProbabilitySelected,156
142,2020-11-13 10:45:00,0,0,No,3,3,40291,3,ProbabilitySelected,156
143,2020-11-13 15:00:00,0,0,No,3,3,40291,3,ProbabilitySelected,156
144,2020-11-13 11:15:00,0,0,No,3,3,40291,3,ProbabilitySelected,156
145,2020-11-13 14:30:00,0,0,No,4,3,40291,3,ProbabilitySelected,156
146,2020-11-13 14:15:00,0,0,No,4,3,40291,3,ProbabilitySelected,156
147,2020-11-13 10:45:00,0,0,No,4,3,40299,3,ProbabilitySelected,156
148,2020-11-13 10:45:00,0,0,No,3,3,40291,3,ProbabilitySelected,156
149,2020-11-13 11:00:00,0,0,No,3,3,40291,3,ProbabilitySelected,156
150,2020-11-13 16:30:00,0,0,No,3,3,40291,3,ProbabilitySelected,156
151,2020-11-13 16:45:00,0,0,No,3,3,40291,3,ProbabilitySelected,156
152,2020-11-13 09:00:00,0,0,No,3,3,40291,3,ProbabilitySelected,156
153,2020-11-13 16:15:00,0,0,No,4,3,40291,3,ProbabilitySelected,156
154,2020-11-13 11:00:00,1,0,No,4,3,40291,3,ProbabilitySelected,156
155,2020-11-14 14:00:00,0,0,No,4,3,40299,3,ProbabilitySelected,157
156,2021-02-05 14:45:00,0,0,No,4,3,40299,4,ProbabilitySelected,240
157,2021-02-05 11:30:00,0,0,No,4,3,40299,4,ProbabilitySelected,240
158,2021-02-05 09:15:00,0,1,No,4,3,40299,4,ProbabilitySelected,240
159,2021-02-05 11:00:00,0,0,No,3,3,43008,4,ProbabilitySelected,240
160,2021-02-05 09:15:00,0,0,No,3,3,40228,4,ProbabilitySelected,240
161,2021-02-05 10:45:00,0,0,No,3,3,44066,4,ProbabilitySelected,240
162,2021-02-05 11:15:00,0,1,No,4,3,40299,4,ProbabilitySelected,240
163,2021-02-05 12:45:00,0,0,No,3,3,40229,4,ProbabilitySelected,240
164,2021-02-05 11:30:00,0,1,No,3,3,40228,4,ProbabilitySelected,240
165,2021-02-05 09:30:00,0,0,No,3,3,40291,4,ProbabilitySelected,240
166,2021-02-05 13:45:00,0,0,No,4,3,40299,4,ProbabilitySelected,240
167,2021-02-05 14:45:00,0,0,No,3,3,42857,4,ProbabilitySelected,240
168,2021-02-05 11:00:00,0,1,No,3,3,40291,4,ProbabilitySelected,240
169,2021-02-05 14:30:00,0,0,No,3,3,40291,4,ProbabilitySelected,240
170,2021-02-05 14:30:00,0,0,No,3,3,40291,4,ProbabilitySelected,240
171,2021-02-05 11:30:00,0,0,No,3,3,40229,4,ProbabilitySelected,240
172,2021-02-05 11:30:00,0,0,No,3,3,40291,4,ProbabilitySelected,240
173,2021-02-05 11:00:00,0,0,No,4,3,40299,4,ProbabilitySelected,240
174,2021-02-05 13:30:00,0,0,No,3,3,40291,4,ProbabilitySelected,240
175,2021-02-05 11:00:00,0,0,No,3,3,40291,4,ProbabilitySelected,240
176,2021-02-05 10:00:00,0,1,No,3,3,40291,4,ProbabilitySelected,240
177,2021-02-05 10:00:00,0,0,No,3,3,40291,4,ProbabilitySelected,240
178,2021-02-05 09:00:00,0,0,No,4,3,40299,4,ProbabilitySelected,240
179,2021-02-05 11:00:00,0,0,No,4,3,40291,4,ProbabilitySelected,240
180,2021-02-05 09:00:00,0,0,No,3,3,40291,4,ProbabilitySelected,240
181,2021-02-05 12:30:00,0,0,No,3,3,40291,4,ProbabilitySelected,240
182,2021-02-05 13:15:00,0,0,No,4,3,40299,4,ProbabilitySelected,240
183,2021-02-05 09:00:00,0,0,No,4,3,40299,4,ProbabilitySelected,240
184,2021-02-05 10:00:00,0,0,No,3,3,40291,4,ProbabilitySelected,240
185,2021-02-05 10:00:00,0,0,No,3,3,40291,4,ProbabilitySelected,240
186,2021-02-05 09:00:00,0,0,No,4,3,40299,4,ProbabilitySelected,240
187,2021-02-06 11:30:00,0,0,No,4,3,40299,4,ProbabilitySelected,241
188,2021-02-06 13:00:00,1,0,No,3,3,40291,4,ProbabilitySelected,241
189,2021-02-06 11:30:00,0,0,No,3,3,40291,4,ProbabilitySelected,241
190,2021-02-06 09:30:00,0,0,No,4,3,40299,4,ProbabilitySelected,241
191,2021-02-06 09:30:00,0,0,No,4,3,40299,4,ProbabilitySelected,241
192,2021-02-06 12:45:00,0,1,No,4,3,40299,4,ProbabilitySelected,241
193,2021-02-06 13:45:00,0,0,No,4,3,40299,4,ProbabilitySelected,241
194,2021-02-06 14:15:00,0,0,No,3,3,40291,4,ProbabilitySelected,241
195,2021-02-06 11:15:00,0,0,No,3,3,40291,4,ProbabilitySelected,241
196,2021-02-06 09:45:00,0,1,No,4,3,40291,4,ProbabilitySelected,241
197,2021-02-06 11:45:00,0,1,No,4,3,40291,4,ProbabilitySelected,241
198,2021-02-06 11:30:00,0,0,No,4,3,40299,4,ProbabilitySelected,241
199,2021-02-06 14:00:00,0,0,No,4,3,40299,4,ProbabilitySelected,241
200,2021-02-06 12:00:00,0,0,No,4,3,40299,4,ProbabilitySelected,241
201,2021-02-06 10:45:00,0,1,No,4,3,40291,4,ProbabilitySelected,241
202,2021-02-06 09:00:00,0,0,No,4,3,40291,4,ProbabilitySelected,241
203,2021-02-06 14:15:00,0,0,No,3,3,40291,4,ProbabilitySelected,241
204,2021-02-06 14:30:00,0,0,No,3,3,40291,4,ProbabilitySelected,241
205,2021-02-06 13:00:00,0,0,No,3,3,40291,4,ProbabilitySelected,241
206,2021-02-06 09:00:00,0,0,No,3,3,40228,4,ProbabilitySelected,241
207,2021-02-07 11:00:00,0,1,No,3,3,40291,4,ProbabilitySelected,242
208,2021-02-08 10:30:00,0,0,No,4,3,40023,4,ProbabilitySelected,243
209,2021-02-08 11:30:00,0,0,No,4,3,40299,4,ProbabilitySelected,243
210,2021-02-08 10:30:00,0,0,No,3,3,40228,4,ProbabilitySelected,243
211,2021-02-08 09:15:00,0,0,No,4,3,40291,4,ProbabilitySelected,243
212,2021-02-08 10:15:00,0,0,No,3,3,40291,4,ProbabilitySelected,243
213,2021-02-08 10:15:00,0,1,No,4,3,40299,4,ProbabilitySelected,243
214,2021-02-08 09:00:00,0,0,No,4,3,40299,4,ProbabilitySelected,243
215,2021-02-08 09:00:00,0,1,No,3,3,43318,4,ProbabilitySelected,243
216,2021-02-08 14:45:00,0,0,No,4,3,40291,4,ProbabilitySelected,243
217,2021-02-08 13:30:00,0,0,No,3,3,40291,4,ProbabilitySelected,243
218,2021-02-08 14:00:00,0,1,No,4,3,40291,4,ProbabilitySelected,243
219,2021-02-09 10:30:00,0,0,No,3,3,40291,4,ProbabilitySelected,244
220,2021-02-09 09:45:00,0,0,No,4,3,40291,4,ProbabilitySelected,244
221,2021-02-09 10:15:00,0,0,No,3,3,40291,4,ProbabilitySelected,244
222,2021-02-09 09:30:00,0,1,No,3,3,40291,4,ProbabilitySelected,244
223,2021-02-09 11:45:00,0,0,No,3,3,40291,4,ProbabilitySelected,244
224,2021-02-09 11:00:00,0,0,No,3,3,40229,4,ProbabilitySelected,244
225,2021-02-09 14:30:00,0,1,No,3,3,40291,4,ProbabilitySelected,244
226,2021-02-10 09:45:00,0,0,No,3,3,40291,4,ProbabilitySelected,245
227,2021-02-11 14:45:00,0,0,No,3,3,43059,4,ProbabilitySelected,246
228,2021-02-11 13:00:00,0,0,No,4,3,40299,4,ProbabilitySelected,246
229,2021-04-26 16:15:00,0,1,No,4,3,40299,5,ProbabilitySelected,320
230,2021-04-27 11:15:00,0,0,No,4,3,40291,5,ProbabilitySelected,321
231,2021-04-29 11:30:00,0,1,No,3,3,40291,5,ProbabilitySelected,323
232,2021-05-17 13:15:00,0,1,No,3,3,40291,6,ProbabilitySelected,341
233,2021-05-17 11:30:00,0,1,No,3,3,40228,6,ProbabilitySelected,341
234,2021-05-17 11:00:00,0,1,No,4,3,40291,6,ProbabilitySelected,341
235,2021-05-17 10:00:00,0,1,No,4,3,40299,6,ProbabilitySelected,341
236,2021-05-17 08:15:00,0,1,No,4,3,40299,6,ProbabilitySelected,341
237,2021-05-18 09:15:00,0,0,No,4,3,40299,6,ProbabilitySelected,342
238,2021-05-18 08:00:00,0,1,No,3,3,40291,6,ProbabilitySelected,342
239,2021-05-18 13:00:00,0,0,No,4,3,40291,6,ProbabilitySelected,342
