"","time_point","num_antibody_positive","date","num_antibody_total","percent_positive"
"1",1,1,2021-04-23,4,0.25
"2",2,0,2021-04-24,2,0
"3",5,0,2021-04-27,3,0
"4",25,0,2021-05-17,5,0
"5",26,0,2021-05-18,1,0
"6",28,0,2021-05-20,4,0
"7",29,0,2021-05-21,1,0
"8",30,0,2021-05-22,1,0
"9",31,0,2021-05-23,1,0
"10",56,1,2021-06-17,2,0.5
"11",57,1,2021-06-18,8,0.125
"12",60,0,2021-06-21,1,0
"13",62,0,2021-06-23,1,0
"14",126,3,2021-08-26,5,0.6
"15",128,0,2021-08-28,1,0
"16",129,0,2021-08-29,4,0
"17",130,0,2021-08-30,1,0
"18",131,0,2021-08-31,3,0
