"","time","top","med","bottom","pseudo_med","date"
"1",0,0.000687796494905026,0.000216808624469341,1.79334838113661e-05,0.000352864989358196,2020-06-10
"2",0.5,0.0006557102462958,0.000210050597964872,1.60753366665804e-05,0.00033589279148119,2020-06-10
"3",1,0.000625115974576062,0.000204575069674483,1.44097146911033e-05,0.000319762844633582,2020-06-11
"4",1.5,0.000595944749469977,0.000200402632840427,1.29166707876918e-05,0.000304430710128835,2020-06-11
"5",2,0.000576857279620881,0.000189877496704419,1.15783243953508e-05,0.000294217802008116,2020-06-12
"6",2.5,0.000571042556288263,0.000182873710452695,1.0378647421414e-05,0.000290710601854838,2020-06-12
"7",3,0.000565278590808285,0.000177636382089148,9.30327234314037e-06,0.000287290931575713,2020-06-13
"8",3.5,0.000559565109176779,0.000169140114903436,8.33932018393108e-06,0.000283952214680355,2020-06-13
"9",4,0.000553901834972691,0.000163499799431299,7.47524630661809e-06,0.000280688540639655,2020-06-14
"10",4.5,0.000548288489472116,0.000158078628350063,6.70070217912591e-06,0.000277494595825621,2020-06-14
"11",5,0.00054272479176015,0.000151262635312885,6.00641145866542e-06,0.000274365601609408,2020-06-15
"12",5.5,0.000537210458840573,0.000144668069361464,5.38405891175813e-06,0.000271297258876166,2020-06-15
"13",6,0.000531745205743385,0.000141821504223255,4.82619084083923e-06,0.000268285698292112,2020-06-16
"14",6.5,0.000529978637460513,0.000137041616018851,4.32612582577375e-06,0.000267152381643143,2020-06-16
"15",7,0.000531730057529093,0.000131549969242713,3.87787471197856e-06,0.000267803966120536,2020-06-17
"16",7.5,0.00053347916604792,0.00012579743571243,3.47606888744222e-06,0.000268477617467681,2020-06-17
"17",8,0.000535225875978473,0.000119354612459697,3.11589599009289e-06,0.000269170885984283,2020-06-18
"18",8.5,0.000536970099890546,0.000115139697979359,2.79304227586301e-06,0.000269881571083204,2020-06-18
"19",9,0.000538711749968916,0.000110489807362259,2.50364095749844e-06,0.000270607695463207,2020-06-19
"20",9.5,0.000540450738020143,0.000106658163908461,2.24422589561076e-06,0.000271347481957877,2020-06-19
"21",10,0.000542186975479477,0.000102040450659466,2.01169008752589e-06,0.000272099332783502,2020-06-20
"22",10.5,0.000543920373417895,9.86677108678844e-05,1.80324845690654e-06,0.000272861810937401,2020-06-20
"23",11,0.000548092622719545,9.49350114134927e-05,1.61640449860485e-06,0.000274854513609075,2020-06-21
"24",11.5,0.0005530653794745,9.28890135776268e-05,1.44892037935046e-06,0.000277257149926925,2020-06-21
"25",12,0.000558077349666877,8.94970535375858e-05,1.29879013624958e-06,0.000279688069901563,2020-06-22
"26",12.5,0.000563128728493004,8.63401256506211e-05,1.16421565215722e-06,0.00028214647207258,2020-06-22
"27",13,0.000568219709785949,8.45266520235776e-05,1.04358512023002e-06,0.000284631647453089,2020-06-23
"28",13.5,0.000573350485955058,8.36292032862564e-05,9.35453739770057e-07,0.000287142969847414,2020-06-23
"29",14,0.00057852124792448,8.08016210175868e-05,8.38526412185803e-07,0.000289679887168333,2020-06-24
"30",14.5,0.000583732185070667,7.74153324937509e-05,7.51642229845014e-07,0.000292241913650256,2020-06-24
"31",15,0.000588983485158837,7.59808992506246e-05,6.73760572062841e-07,0.00029482862286545,2020-06-25
"32",15.5,0.000594275334278404,7.47382373649614e-05,6.03948641712669e-07,0.000297439641460059,2020-06-25
"33",16,0.00059960791677737,7.13617677616405e-05,5.41370293198253e-07,0.000300074643535284,2020-06-26
"34",16.5,0.000604981415195657,6.80002890321693e-05,4.85276017989679e-07,0.000302733345606823,2020-06-26
"35",17,0.000610396010197396,6.52989674478225e-05,4.34993967787698e-07,0.000305415502082592,2020-06-27
"36",17.5,0.000615851880502156,6.2817045490079e-05,3.89921907806931e-07,0.000308120901204981,2020-06-27
"37",18,0.000621349202815111,6.13308733046043e-05,3.28842796819936e-07,0.000310839022805966,2020-06-28
"38",18.5,0.000626888151756141,5.98029651456467e-05,2.71664552209362e-07,0.000313579908154175,2020-06-28
"39",19,0.000632468899787862,5.77346733934573e-05,2.24428296810196e-07,0.000316346664042336,2020-06-29
"40",19.5,0.00063809161714259,5.57587905361491e-05,1.85405346161944e-07,0.000319138511244376,2020-06-29
"41",20,0.000643756471748219,5.29918317246159e-05,1.53167594444779e-07,0.000321954819671332,2020-06-30
"42",20.5,0.000649463629153036,5.05266938507676e-05,1.26535250748746e-07,0.000324795082201892,2020-06-30
"43",21,0.000655213252449437,4.83483477562972e-05,1.04533662803229e-07,0.00032765889305612,2020-07-01
"44",21.5,0.000661005502196582,4.62683510531118e-05,8.63576480676107e-08,0.000330545929922325,2020-07-01
"45",22,0.000666840536341949,4.45413975139451e-05,7.13420268263291e-08,0.000333455939184388,2020-07-02
"46",22.5,0.000672718510141817,4.28363735947695e-05,5.89372789027036e-08,0.00033638872371036,2020-07-02
"47",23,0.000678639576080659,4.18411553518361e-05,4.86894331121381e-08,0.000339344132756885,2020-07-03
"48",23.5,0.00068460388378945,4.06555319821166e-05,4.02234534786154e-08,0.000342322053621465,2020-07-03
"49",24,0.0006906115799629,3.95980671519538e-05,3.32295142076383e-08,0.000345322404738554,2020-07-04
"50",24.5,0.000696662808275589,3.80787225617576e-05,2.74516611271528e-08,0.000348345129968358,2020-07-04
"51",25,0.000702757709297042,3.67038374854978e-05,2.26784446443855e-08,0.000351390193870843,2020-07-05
"52",25.5,0.000708896420405706,3.54885084882581e-05,1.87351814171565e-08,0.000354457577793562,2020-07-05
"53",26,0.000715079075701864,3.48031640981245e-05,1.54775615435247e-08,0.000357547276631704,2020-07-06
"54",26.5,0.00072130580591947,3.36190598690855e-05,1.27863673149334e-08,0.000360659296143392,2020-07-06
"55",27,0.000727576738336918,3.23542175611785e-05,1.05631102574061e-08,0.000363793650723588,2020-07-07
"56",27.5,0.000733891996686748,3.102699548202e-05,8.72642679151226e-09,0.00036695036155677,2020-07-07
"57",28,0.000740251701064288,2.98440388326731e-05,7.20910060465415e-09,0.000370129455082446,2020-07-08
"58",28.5,0.000746655967835244,2.87068122129334e-05,5.95560276473753e-09,0.000373330961719004,2020-07-08
"59",29,0.000753104909542247,2.76135250599258e-05,4.92005955183951e-09,0.000376554914800899,2020-07-09
"60",29.5,0.000759598634810353,2.65624576993511e-05,4.06457363749479e-09,0.000379801349691995,2020-07-09
"61",30,0.000766137248251518,2.55519585156088e-05,3.35783717252851e-09,0.000383070303044345,2020-07-10
"62",30.5,0.000772720850368035,2.49944979924898e-05,2.77398602721339e-09,0.000386361812177031,2020-07-10
"63",31,0.000779349537454975,2.45527547590258e-05,2.29165325287482e-09,0.000389675914554114,2020-07-11
"64",31.5,0.000786023401501602,2.41250890025805e-05,1.89318712488837e-09,0.000393012647344363,2020-07-11
"65",32,0.000792742530091811,2.37110304587834e-05,1.56400515012763e-09,0.00039637204704848,2020-07-12
"66",32.5,0.000799507006303566,2.31629859319505e-05,1.29206039775249e-09,0.000399754149181982,2020-07-12
"67",33,0.000806316908607379,2.23357222787353e-05,1.06740062287603e-09,0.000403158988004001,2020-07-13
"68",33.5,0.000813172310763822,2.14451651058367e-05,8.81804048549762e-10,0.000406586596283935,2020-07-13
"69",34,0.000820073281720096,2.05909148375867e-05,7.28478476937336e-10,0.000410037005099287,2020-07-14
"70",34.5,0.000827019885505673,1.99354506827443e-05,6.01812718178634e-10,0.000413510243659196,2020-07-14
"71",35,0.000834012181127013,1.93775586300595e-05,4.97171240093373e-10,0.000417006339149127,2020-07-15
"72",35.5,0.000841050222461391,1.8841785637247e-05,4.10724523608168e-10,0.000420525316592957,2020-07-15
"73",36,0.000848134058149839,1.83271553244592e-05,3.39308915497736e-10,0.000424067198729377,2020-07-16
"74",36.5,0.000855263731489218,1.7832735456581e-05,2.80310849531482e-10,0.000427632005900034,2020-07-16
"75",37,0.000862439280323457,1.72864465516731e-05,2.31571198916685e-10,0.000431219755947328,2020-07-17
"76",37.5,0.00086966073693395,1.65839832936286e-05,1.91306259665896e-10,0.000434830464120105,2020-07-17
"77",38,0.000876928127929165,1.59931837704652e-05,1.58042473150908e-10,0.000438464142985819,2020-07-18
"78",38.5,0.000884241474133456,1.54234920859735e-05,1.30562498912757e-10,0.000442120802347978,2020-07-18
"79",39,0.000891600790475126,1.48741521022218e-05,1.0786066417762e-10,0.000445800449167895,2020-07-19
"80",39.5,0.000899006085873744,1.43444348288713e-05,8.9106159683752e-11,0.000449503087489952,2020-07-19
"81",40,0.000906457363126755,1.38336374470634e-05,7.36126349130121e-11,0.000453228718369695,2020-07-20
"82",40.5,0.000913954618795408,1.33410823684028e-05,6.08130800167583e-11,0.000456977339804244,2020-07-20
"83",41,0.000921497843090013,1.28661163277808e-05,5.02390752007927e-11,0.000460748946664544,2020-07-21
"84",41.5,0.000929087019754581,1.23618008105955e-05,4.1503648168036e-11,0.000464543530629114,2020-07-21
"85",42,0.000936722125950849,1.18616731068669e-05,3.428711226015e-11,0.000468361080118981,2020-07-22
"86",42.5,0.000944403132141745,1.13823219975228e-05,2.83253670226821e-11,0.000472201580233556,2020-07-22
"87",43,0.0009521300019743,1.0922863388605e-05,2.34002330345566e-11,0.000476065012687267,2020-07-23
"88",43.5,0.000959902692162061,1.04824515932113e-05,1.93314672898325e-11,0.000479951355746764,2020-07-23
"89",44,0.00096772115236702,1.00602776344913e-05,1.59701669220963e-11,0.000483860584168594,2020-07-24
"90",44.5,0.000975585325081116,9.67649671711105e-06,1.31933198704341e-11,0.000487792669137218,2020-07-24
"91",45,0.000983495145507315,9.37765648100265e-06,1.08993030600541e-11,0.000491747578203309,2020-07-25
"92",45.5,0.000991450541440334,9.1133594325568e-06,9.00416334641536e-12,0.000495725275222249,2020-07-25
"93",46,0.000999451433147034,8.85677342723939e-06,7.43854511817963e-12,0.000499725720292789,2020-07-26
"94",46.5,0.00100749773324652,8.60766637099669e-06,6.14515211979353e-12,0.000503748869695834,2020-07-26
"95",47,0.00101558934658998,8.33030102963214e-06,5.07665060511765e-12,0.000507794675833316,2020-07-27
"96",47.5,0.00102372617014036,8.03414956711338e-06,4.19393708471883e-12,0.000511863087167148,2020-07-27
"97",48,0.0010319080928518,7.74855825075891e-06,3.46470727232012e-12,0.000515954048158254,2020-07-28
"98",48.5,0.00104013499554903,7.48519389010971e-06,2.86227385875829e-12,0.00052006749920565,2020-07-28
"99",49,0.00104840675080661,7.26555514183115e-06,2.36458984803205e-12,0.0005242033765856,2020-07-29
"100",49.5,0.00105672322282824,7.05287390840106e-06,1.95344171289107e-12,0.00052836161239084,2020-07-29
"101",50,0.00106508426732597,6.84691612315161e-06,1.6137828422289e-12,0.000532542134469878,2020-07-30
"102",50.5,0.0010734897313996,6.64745593059271e-06,1.33318288674098e-12,0.000536744866366394,2020-07-30
"103",51,0.0010819394534161,6.45427539064159e-06,1.10137285078836e-12,0.000540969727258739,2020-07-31
"104",51.5,0.00109043326288927,6.26716419366929e-06,9.0986928239003e-13,0.000545216631899567,2020-07-31
"105",52,0.00109897098035956,6.07832679099107e-06,7.51663807986876e-13,0.00054948549055561,2020-08-01
"106",52.5,0.00110755241727426,5.84409818209084e-06,6.20966650015044e-13,0.000553776208947612,2020-08-01
"107",53,0.00111617737586793,5.61890132115168e-06,5.12994740911667e-13,0.000558088688190465,2020-08-02
"108",53.5,0.0011248456490433,5.40963300167671e-06,4.23796679252665e-13,0.00056242282473355,2020-08-02
"109",54,0.00113355702025254,5.20862984181e-06,3.50108122017789e-13,0.000566778510301322,2020-08-03
"110",54.5,0.00114231126337909,5.01422744065342e-06,2.89232320835963e-13,0.000571155631834163,2020-08-03
"111",55,0.00115110814262011,4.82715076754764e-06,2.38941430247388e-13,0.000575554071429527,2020-08-04
"112",55.5,0.00115994741236943,4.64712120888705e-06,1.97394976203394e-13,0.000579973706283414,2020-08-04
"113",56,0.00116882881710133,4.47387083913651e-06,1.63072501030885e-13,0.0005844144086322,2020-08-05
"114",56.5,0.00117775209125497,4.30714200760238e-06,1.3471791989816e-13,0.000588876045694846,2020-08-05
"115",57,0.00118671695911978,4.1663575025961e-06,1.11293552419667e-13,0.000593358479615536,2020-08-06
"116",57.5,0.00119572313472157,4.03585099266276e-06,9.19421471141519e-14,0.000597861567406758,2020-08-06
"117",58,0.00120477032170979,3.87669441279549e-06,7.59555089416531e-14,0.000602385160892872,2020-08-07
"118",58.5,0.00121385821324565,3.72661539802815e-06,6.27485817948396e-14,0.000606929106654199,2020-08-07
"119",59,0.00122298649189149,3.59047683732865e-06,5.18380374527971e-14,0.000611493245971662,2020-08-08
"120",59.5,0.00123215482950121,3.45934478269278e-06,4.28245874264299e-14,0.000616077414772018,2020-08-08
"121",60,0.00124136288711206,3.33303392288409e-06,3.53783703697096e-14,0.000620681443573717,2020-08-09
"122",60.5,0.00125061031483761,3.21136584844686e-06,2.92268802861574e-14,0.000625305157433419,2020-08-09
"123",61,0.00125989675176229,3.09416879316039e-06,2.41449937443342e-14,0.000629948375893219,2020-08-10
"124",61.5,0.00126922182583727,2.98127738522927e-06,1.99467311326433e-14,0.00063461091292861,2020-08-10
"125",62,0.00127858515377795,2.87253240784145e-06,1.64784504436381e-14,0.000639292576897216,2020-08-11
"126",62.5,0.0012879863409631,2.76778056873994e-06,1.3613224503691e-14,0.000643993170488356,2020-08-11
"127",63,0.00129742498133566,2.66687427846712e-06,1.12461958739234e-14,0.000648712490673453,2020-08-12
"128",63.5,0.0013069006573054,2.56967143695391e-06,9.29073942770571e-15,0.000653450328657346,2020-08-12
"129",64,0.00131641293965342,2.47603522813821e-06,7.67529216823182e-15,0.000658206469830546,2020-08-13
"130",64.5,0.00132596138743859,2.38583392230927e-06,6.34073426836686e-15,0.000662980693722465,2020-08-13
"131",65,0.0013355455479061,2.2989406858858e-06,5.2382254878128e-15,0.000667772773955669,2020-08-14
"132",65.5,0.00134516495639808,2.2152333983471e-06,4.32741778788324e-15,0.000672582478201203,2020-08-14
"133",66,0.00135481913626645,2.14406125224274e-06,3.57497873172075e-15,0.000677409568135015,2020-08-15
"134",66.5,0.00136450759878813,2.07689920935552e-06,2.95337163147062e-15,0.00068225379939554,2020-08-15
"135",67,0.00137422984308251,2.01185207079696e-06,2.43984779998315e-15,0.000687114921542474,2020-08-16
"136",67.5,0.00138398535603157,1.94885289832566e-06,2.01561402691419e-15,0.000691992678016791,2020-08-16
"137",68,0.00139377361220242,1.88783688270049e-06,1.66514481170558e-15,0.000696886806102042,2020-08-17
"138",68.5,0.0014035940737726,1.82874127565841e-06,1.37561418353241e-15,0.000701797036886987,2020-08-17
"139",69,0.00141344619045806,1.77150532407446e-06,1.13642631477634e-15,0.000706723095229599,2020-08-18
"140",69.5,0.00142332939944404,1.71474155291313e-06,9.38827750088926e-16,0.000711664699722489,2020-08-18
"141",70,0.00143324312531882,1.65721441807659e-06,7.75587059958656e-16,0.000716621562659798,2020-08-19
"142",70.5,0.00144318678001056,1.60165192918405e-06,6.40730195201765e-16,0.000721593390005599,2020-08-19
"143",71,0.0014531597627272,1.54798585555074e-06,5.29321857258909e-16,0.000726579881363862,2020-08-20
"144",71.5,0.0014631614598996,1.49615037247644e-06,4.37284883200786e-16,0.00073158072995002,2020-08-20
"145",72,0.00147319124512802,1.44608197526307e-06,3.61251035553579e-16,0.000736595622564191,2020-08-21
"146",72.5,0.00148324847913189,1.39771939633992e-06,2.9843773636376e-16,0.000741624239566092,2020-08-21
"147",73,0.00149333250970317,1.35100352538312e-06,2.46546234391943e-16,0.000746666254851709,2020-08-22
"148",73.5,0.00150344267166329,1.30587733232019e-06,2.03677478704493e-16,0.000751721335831749,2020-08-22
"149",74,0.00151357828682371,1.260768929997e-06,1.68262619924951e-16,0.000756789143411942,2020-08-23
"150",74.5,0.0015237386639503,1.21576280746659e-06,1.39005595729538e-16,0.000761869331975218,2020-08-23
"151",75,0.00153392309873155,1.1723694693162e-06,1.14835699412871e-16,0.00076696154936583,2020-08-24
"152",75.5,0.00154413087375081,1.13053090225553e-06,9.48683956961099e-17,0.000772065436875452,2020-08-24
"153",76,0.00155436125846252,1.09019118750974e-06,7.83729497705739e-17,0.000777180629231301,2020-08-25
"154",76.5,0.00156461350917262,1.05129642493064e-06,6.47456849108787e-17,0.000782306754586341,2020-08-25
"155",77,0.00157488686902315,1.01379465986669e-06,5.34878899779874e-17,0.000787443434511603,2020-08-26
"156",77.5,0.00158518056798131,9.77635812691037e-07,4.41875683025879e-17,0.000792590283990676,2020-08-26
"157",78,0.00159549382283277,9.42771610890823e-07,3.65043600205471e-17,0.000797746911416403,2020-08-27
"158",78.5,0.00160582583717967,9.09155523624327e-07,3.01570860696509e-17,0.000802912918589851,2020-08-27
"159",79,0.00161617580144311,8.76742698656028e-07,2.49134580006452e-17,0.000808087900721569,2020-08-28
"160",79.5,0.00162654289287039,8.45489901582902e-07,2.058157701697e-17,0.000813271446435205,2020-08-28
"161",80,0.00163692627554702,8.15355457268479e-07,1.70029111372053e-17,0.000818463137773517,2020-08-29
"162",80.5,0.00164732510041363,7.86299193404203e-07,1.40464934684709e-17,0.000823662550206822,2020-08-29
"163",81,0.00165773850528783,7.58282386120578e-07,1.16041292674912e-17,0.00082886925264392,2020-08-30
"164",81.5,0.00166816561489109,7.31267707573446e-07,9.58643638420487e-18,0.000834082807445552,2020-08-30
"165",82,0.00167860554088084,7.05219175433422e-07,7.91957418174089e-18,0.000839302770440422,2020-08-31
"166",82.5,0.00168905738188765,6.80102104209186e-07,6.54254122245438e-18,0.000844528690943826,2020-08-31
"167",83,0.00169952022355787,6.55883058337828e-07,5.40494282460341e-18,0.000849760111778937,2020-09-01
"168",83.5,0.00170999313860153,6.32529806977905e-07,4.46514678990019e-18,0.000854996569300769,2020-09-01
"169",84,0.00172047518684577,6.10011280443204e-07,3.68875980789287e-18,0.000860237593422889,2020-09-02
"170",84.5,0.00173096541529375,5.88297528217469e-07,3.04736877880559e-18,0.000865482707646877,2020-09-02
"171",85,0.00174146285818922,5.67359678492551e-07,2.51750099157141e-18,0.000870731429094611,2020-09-03
"172",85.5,0.00175196653708676,5.47169899174511e-07,2.07976510314157e-18,0.000875983268543383,2020-09-03
"173",86,0.00176247546092779,5.27701360304252e-07,1.71814148186118e-18,0.000881237730463898,2020-09-04
"174",86.5,0.00177298862612238,5.08928197841198e-07,1.41939594391357e-18,0.000886494313061189,2020-09-04
"175",87,0.00178350501663695,4.90825478760425e-07,1.17259542759882e-18,0.000891752508318475,2020-09-05
"176",87.5,0.001794023604088,4.73369167415441e-07,9.6870788078664e-19,0.000897011802044002,2020-09-05
"177",88,0.00180454334784179,4.56536093120576e-07,8.00271718797112e-19,0.000902271673920897,2020-09-06
"178",88.5,0.00182396963161055,4.40303918908618e-07,6.61122756001962e-19,0.000911984815805278,2020-09-06
"179",89,0.00184427492056843,4.24651111420937e-07,5.46168617779733e-19,0.000922137460284215,2020-09-07
"180",89.5,0.00186476863313157,4.09556911888915e-07,4.51202377076458e-19,0.000932384316565787,2020-09-07
"181",90,0.00188545161481292,3.95001308166999e-07,3.72748595309352e-19,0.00094272580740646,2020-09-08
"182",90.5,0.00190632469139558,3.80965007779127e-07,3.07936133238835e-19,0.00095316234569779,2020-09-08
"183",91,0.0019273886682147,3.67429411941694e-07,2.54393077123171e-19,0.000963694334107351,2020-09-09
"184",91.5,0.00194864432942773,3.5437659052756e-07,2.10159934813502e-19,0.000974322164713863,2020-09-09
"185",92,0.00197009243727306,3.41789257936876e-07,1.73617925064175e-19,0.000985046218636532,2020-09-10
"186",92.5,0.00199173373131723,3.29650749841794e-07,1.43429735693146e-19,0.000995866865658617,2020-09-10
"187",93,0.00201356892769055,3.18596016134445e-07,1.1849058254441e-19,0.00100678446384528,2020-09-11
"188",93.5,0.00203559871831136,3.08273981555419e-07,9.78877781783743e-20,0.00101779935915568,2020-09-11
"189",94,0.00205782377009897,2.98286864685241e-07,8.08673306429845e-20,0.00102891188504949,2020-09-12
"190",94.5,0.0020802447241753,2.88623782521663e-07,6.68063499552032e-20,0.00104012236208765,2020-09-12
"191",95,0.00210286219505536,2.79274206209488e-07,5.51902524647544e-20,0.00105143109752768,2020-09-13
"192",95.5,0.0021256767698267,2.70227949500082e-07,4.5593928858047e-20,0.00106283838491335,2020-09-13
"193",96,0.00214868900731791,2.61475157587443e-07,3.7666186615838e-20,0.00107434450365896,2020-09-14
"194",96.5,0.0021718994372563,2.53006296308554e-07,3.11168975719611e-20,0.00108594971862815,2020-09-14
"195",97,0.00219530855941492,2.44812141696081e-07,2.57063802178685e-20,0.00109765427970746,2020-09-15
"196",97.5,0.00221891684274909,2.3688376987194e-07,2.12366281817591e-20,0.00110945842137455,2020-09-15
"197",98,0.00224272472452259,2.29212547270577e-07,1.75440638747263e-20,0.0011213623622613,2020-09-16
"198",98.5,0.00226673260942365,2.21790121181202e-07,1.44935521122346e-20,0.00113336630471182,2020-09-16
"199",99,0.00229094086867104,2.14608410598546e-07,1.19734546300116e-20,0.00114547043433552,2020-09-17
"200",99.5,0.00231534983911037,2.0765959737208e-07,9.8915445066035e-21,0.00115767491955519,2020-09-17
"201",100,0.00233995982230093,2.00936117643932e-07,8.17163097447868e-21,0.00116997991115047,2020-09-18
"202",100.5,0.00236477108359317,1.94430653566085e-07,6.75077109934457e-21,0.00118238554179658,2020-09-18
"203",101,0.00238978385119718,1.88136125287723e-07,5.57696628470833e-21,0.00119489192559859,2020-09-19
"204",101.5,0.00241499831524251,1.82045683203919e-07,4.60725930165121e-21,0.00120749915762126,2020-09-19
"205",102,0.00244041462682941,1.76152700457109e-07,3.80616220163535e-21,0.0012202073134147,2020-09-20
"206",102.5,0.00246603289707195,1.70450765683119e-07,3.14435757934564e-21,0.00123301644853597,2020-09-20
"207",103,0.00249185319613336,1.64933675993737e-07,2.59762565624248e-21,0.00124592659806668,2020-09-21
"208",103.5,0.00251787555225385,1.59595430188132e-07,2.14595791976478e-21,0.00125893777612693,2020-09-21
"209",104,0.00254409995077124,1.54430222185621e-07,1.77282488041891e-21,0.00127204997538562,2020-09-22
"210",104.5,0.00257052633313489,1.49432434672574e-07,1.46457114917558e-21,0.00128526316656745,2020-09-22
"211",105,0.00259715459591329,1.44596632956464e-07,1.20991569708263e-21,0.00129857729795664,2020-09-23
"212",105.5,0.00262398458979559,1.39917559020294e-07,9.99539008310372e-22,0.00131199229489779,2020-09-23
"213",106,0.00265101611858771,1.35390125770857e-07,8.25742017847259e-22,0.00132550805929385,2020-09-24
"214",106.5,0.00267824893820333,1.31009411474513e-07,6.82164352135758e-22,0.00133912446910167,2020-09-24
"215",107,0.00270568275565026,1.2677065437435e-07,5.63551561222449e-22,0.00135284137782513,2020-09-25
"216",107.5,0.00273331722801273,1.22669247482818e-07,4.65562823917624e-22,0.00136665861400636,2020-09-25
"217",108,0.00276115196143001,1.18700733544092e-07,3.84612088632997e-22,0.001380575980715,2020-09-26
"218",108.5,0.00278918651007204,1.14860800160651e-07,3.17736836197235e-22,0.00139459325503602,2020-09-26
"219",109,0.00281742037511245,1.11145275078681e-07,2.62489661818621e-22,0.00140871018755623,2020-09-27
"220",109.5,0.00284585300369964,1.0755012162715e-07,2.16848708466662e-22,0.00142292650184982,2020-09-27
"221",110,0.00287448378792648,1.04071434305515e-07,1.79143673841724e-22,0.00143724189396324,2020-09-28
"222",110.5,0.00290331206379931,1.00705434515222e-07,1.47994683041628e-22,0.00145165603189965,2020-09-28
"223",111,0.00293233711020668,9.74484664303083e-08,1.2226178987455e-22,0.00146616855510334,2020-09-29
"224",111.5,0.00296155814788878,9.42969930025628e-08,1.01003258739533e-22,0.00148077907394439,2020-09-29
"225",112,0.00299097433840789,9.12475920968534e-08,8.34411003345585e-23,0.00149548716920395,2020-09-30
"226",112.5,0.00302058478312089,8.82969527523799e-08,6.89325999173603e-23,0.00151029239156045,2020-09-30
"227",113,0.00305038852215426,8.54418715657389e-08,5.69467961509955e-23,0.00152519426107713,2020-10-01
"228",113.5,0.00308038453338248,8.26792491918274e-08,4.70450497406281e-23,0.00154019226669124,2020-10-01
"229",114,0.00311057173141054,8.00060869587423e-08,3.88649907402996e-23,0.00155528586570527,2020-10-02
"230",114.5,0.00314094896656135,7.74194835929558e-08,3.21072570561897e-23,0.00157047448328068,2020-10-02
"231",115,0.00317151502386879,7.49166320511685e-08,2.65245388210865e-23,0.0015857575119344,2020-10-03
"232",115.5,0.00320226862207735,7.24948164553625e-08,2.19125277017611e-23,0.00160113431103867,2020-10-03
"233",116,0.00323320841264908,7.01514091276864e-08,1.8102439914949e-23,0.00161660420632454,2020-10-04
"234",116.5,0.00326433297877883,6.78838677219165e-08,1.4954839319975e-23,0.00163216648938942,2020-10-04
"235",117,0.00329564083441853,6.56897324483452e-08,1.23545345344072e-23,0.00164782041720926,2020-10-05
"236",117.5,0.00332713042331156,6.35666233890481e-08,1.02063633246791e-23,0.00166356521165578,2020-10-05
"237",118,0.00335880011803806,6.15122379005832e-08,8.43170999483974e-24,0.00167940005901903,2020-10-06
"238",118.5,0.00339064821907215,5.95243481012704e-08,6.96562832181126e-24,0.00169532410953608,2020-10-06
"239",119,0.00342267295385201,5.76007984402941e-08,5.75446474645282e-24,0.00171133647692601,2020-10-07
"240",119.5,0.00345487247586383,5.57395033459597e-08,4.75389483738027e-24,0.00172743623793192,2020-10-07
"241",120,0.00348724486374063,5.3938444950523e-08,3.92730116885356e-24,0.00174362243187032,2020-10-08
"242",120.5,0.00351978812037702,5.21956708890972e-08,3.2444332486282e-24,0.00175989406018851,2020-10-08
"243",121,0.00355250017206081,5.05092921702207e-08,2.68030045372787e-24,0.0017762500860304,2020-10-09
"244",121.5,0.00358537886762275,4.88774811157498e-08,2.21425745938564e-24,0.00179268943381138,2020-10-09
"245",122,0.00361842197760526,4.72984693678169e-08,1.82924869099126e-24,0.00180921098880263,2020-10-10
"246",122.5,0.00365162719345135,4.57705459606674e-08,1.51118414857757e-24,0.00182581359672568,2020-10-10
"247",123,0.00368499212671493,4.42920554552596e-08,1.24842376116426e-24,0.00184249606335746,2020-10-11
"248",123.5,0.0037185143082934,4.28613961345836e-08,1.03135140009678e-24,0.0018592571541467,2020-10-11
"249",124,0.00375219118768396,4.14770182577182e-08,8.52022961730237e-25,0.00187609559384198,2020-10-12
"250",124.5,0.0037860201322645,4.01374223707124e-08,7.03875640492122e-25,0.00189301006613225,2020-10-12
"251",125,0.0038199984266005,3.88411576724386e-08,5.81487752715119e-25,0.00190999921330025,2020-10-13
"252",125.5,0.00385412327177893,3.75868204336275e-08,4.80380321616576e-25,0.00192706163588947,2020-10-13
"253",126,0.00388839178477043,3.63730524673494e-08,3.96853162115525e-25,0.00194419589238521,2020-10-14
"254",126.5,0.00392280099782099,3.51985396492673e-08,3.27849466753961e-25,0.00196140049891049,2020-10-14
"255",127,0.00395734785787427,3.40620104860385e-08,2.70843937031722e-25,0.00197867392893713,2020-10-15
"256",127.5,0.00399202922602586,3.29622347302967e-08,2.23750366145614e-25,0.00199601461301293,2020-10-15
"257",128,0.00402684187701061,3.18980220406967e-08,1.8484529097815e-25,0.0020134209385053,2020-10-16
"258",128.5,0.00406178249872437,3.083295410967e-08,1.52704919260606e-25,0.00203089124936218,2020-10-16
"259",129,0.0040968476917813,2.97891827848012e-08,1.26153023660985e-25,0.00204842384589065,2020-10-17
"260",129.5,0.00413203396910802,2.87809893936769e-08,1.04217895899275e-25,0.00206601698455401,2020-10-17
"261",130,0.00416733775557584,2.7807153054011e-08,8.60967855583086e-26,0.00208366887778792,2020-10-18
"262",130.5,0.00420275538767228,2.68664950512767e-08,7.11265221727142e-26,0.00210137769383614,2020-10-18
"263",131,0.00423828311321318,2.59578773732755e-08,5.87592454652031e-26,0.00211914155660659,2020-10-19
"264",131.5,0.00427391709109659,2.50802012959301e-08,4.85423555401182e-26,0.0021369585455483,2020-10-19
"265",132,0.00430965339109972,2.42324060184994e-08,4.01019492801123e-26,0.00215482669554986,2020-10-20
"266",132.5,0.00434548799372007,2.34134673464807e-08,3.31291367749061e-26,0.00217274399686004,2020-10-20
"267",133,0.00438141679006215,2.2622396420523e-08,2.73687370103662e-26,0.00219070839503108,2020-10-21
"268",133.5,0.0044174355817708,2.18582384897358e-08,2.26099391189076e-26,0.0022087177908854,2020-10-21
"269",134,0.00445354008101246,2.11172286972942e-08,1.86785874250273e-26,0.00222677004050623,2020-10-22
"270",134.5,0.00448972591050548,2.03771283707184e-08,1.54308079451054e-26,0.00224486295525274,2020-10-22
"271",135,0.00452598860360077,1.96630172882844e-08,1.27477430932324e-26,0.00226299430180038,2020-10-23
"272",135.5,0.00456232360441373,1.89739810369708e-08,1.05312019013625e-26,0.00228116180220687,2020-10-23
"273",136,0.00459872626800891,1.83091374389137e-08,8.70006656677444e-27,0.00229936313400446,2020-10-24
"274",136.5,0.0046351918606382,1.76676354128749e-08,7.18732381880494e-27,0.0023175959303191,2020-10-24
"275",137,0.00467171556003389,1.7048653875997e-08,5.93761246306336e-27,0.00233585778001694,2020-10-25
"276",137.5,0.00470829245575756,1.64514006844191e-08,4.90519735166007e-27,0.00235414622787878,2020-10-25
"277",138,0.00474491754960587,1.58751116113736e-08,4.05229563370987e-27,0.00237245877480293,2020-10-26
"278",138.5,0.00479073440630195,1.53190493614378e-08,3.34769403262168e-27,0.00239536720315098,2020-10-26
"279",139,0.00484570171072215,1.47825026196568e-08,2.76560654726733e-27,0.00242285085536108,2020-10-27
"280",139.5,0.00490099289064773,1.4264785134303e-08,2.28473077281142e-27,0.00245049644532386,2020-10-27
"281",140,0.00495660127894769,1.376523483208e-08,1.88746830578243e-27,0.00247830063947385,2020-10-28
"282",140.5,0.00501251994152725,1.32832129646208e-08,1.55928070288536e-27,0.00250625997076362,2020-10-28
"283",141,0.00506874167460966,1.28181032851711e-08,1.28815742385818e-27,0.00253437083730483,2020-10-29
"284",141.5,0.00512525900216167,1.23693112543896e-08,1.06417628690614e-27,0.00256262950108084,2020-10-29
"285",142,0.00518206417346994,1.19362632742324e-08,8.79140350890859e-28,0.00259103208673497,2020-10-30
"286",142.5,0.00523914916087638,1.15184059489263e-08,7.26277935408148e-28,0.00261957458043819,2020-10-30
"287",143,0.00529650565768005,1.11152053720727e-08,5.99994800518724e-28,0.00264825282884002,2020-10-31
"288",143.5,0.0053541250762135,1.07261464389556e-08,4.95669416760124e-28,0.00267706253810675,2020-10-31
"289",144,0.0054119985461014,1.03507321831613e-08,4.0948383302474e-28,0.0027059992730507,2020-11-01
"290",144.5,0.00547011691270926,9.98848313664752e-09,3.38283952648585e-28,0.00273505845635463,2020-11-01
"291",145,0.0055284707357903,9.6389367124342e-09,2.79464104295018e-28,0.00276423536789515,2020-11-02
"292",145.5,0.00558705028833813,9.30164660911158e-09,2.30871683323828e-28,0.00279352514416907,2020-11-02
"293",146,0.00564584555565324,8.9761822363955e-09,1.90728373846931e-28,0.00282292277782662,2020-11-03
"294",146.5,0.00570484623463107,8.66212816098338e-09,1.5756506846823e-28,0.00285242311731553,2020-11-03
"295",147,0.00576404173327939,8.35908357199256e-09,1.30168103993394e-28,0.0028820208666397,2020-11-04
"296",147.5,0.00582342117047279,8.0666617652876e-09,1.07534845520987e-28,0.0029117105852364,2020-11-04
"297",148,0.00588297337595171,7.78448964602785e-09,8.88369934451031e-29,0.00294148668797585,2020-11-05
"298",148.5,0.00594268689057364,7.51220724879032e-09,7.33902705316578e-29,0.00297134344528682,2020-11-05
"299",149,0.00600254996682388,7.24946727464572e-09,6.06293797193653e-29,0.00300127498341194,2020-11-06
"300",149.5,0.00606255056959298,6.9959346445877e-09,5.00873161868142e-29,0.00303127528479649,2020-11-06
"301",150,0.00612267637722802,6.75128606873639e-09,4.13782765782874e-29,0.00306133818861401,2020-11-07
"302",150.5,0.0061829147828646,6.51520963075808e-09,3.41835399246243e-29,0.0030914573914323,2020-11-07
"303",151,0.00624325289604621,6.28740438696259e-09,2.82398035492746e-29,0.00312162644802311,2020-11-08
"304",151.5,0.00630367754463754,6.06757997955894e-09,2.33295470937212e-29,0.00315183877231877,2020-11-08
"305",152,0.00636417527703777,5.85545626356832e-09,1.92730720186662e-29,0.00318208763851888,2020-11-09
"306",152.5,0.00642473236470003,5.65076294691124e-09,1.59219252540339e-29,0.00321236618235002,2020-11-09
"307",153,0.0064853348049626,5.45323924320274e-09,1.31534663259453e-29,0.0032426674024813,2020-11-10
"308",153.5,0.00654596832419718,5.26263353680618e-09,1.08663791361501e-29,0.00327298416209859,2020-11-10
"309",154,0.00660661838127941,5.0787030597118e-09,8.9769641404448e-30,0.00330330919063971,2020-11-11
"310",154.5,0.00666727017138628,4.9012135798221e-09,7.41607523252522e-30,0.00333363508569314,2020-11-11
"311",155,0.00672790863012478,4.72993910024032e-09,6.12658923373497e-30,0.00336395431506239,2020-11-12
"312",155.5,0.00678851843799571,4.56466156917305e-09,5.0613153807147e-30,0.00339425921899786,2020-11-12
"313",156,0.00684908402519632,4.40517060007156e-09,4.18126830537361e-30,0.00342454201259816,2020-11-13
"314",156.5,0.00690958957676469,4.25126320164984e-09,3.45424130417519e-30,0.00345479478838235,2020-11-13
"315",157,0.00697001903806874,4.10274351743007e-09,2.85362768328825e-30,0.00348500951903437,2020-11-14
"316",157.5,0.00703035612064187,3.95942257447871e-09,2.35744704487967e-30,0.00351517806032093,2020-11-14
"317",158,0.00709058430836705,3.82111804100829e-09,1.94754087996787e-30,0.00354529215418353,2020-11-15
"318",158.5,0.00715068686401055,3.68765399253144e-09,1.60890802929558e-30,0.00357534343200528,2020-11-15
"319",159,0.0072106468361059,3.5588606862649e-09,1.32915569236959e-30,0.00360532341805295,2020-11-16
"320",159.5,0.00727044706618826,3.43457434349188e-09,1.09804589348216e-30,0.00363522353309413,2020-11-16
"321",160,0.00733007019637876,3.31463693960151e-09,9.07120806926339e-31,0.00366503509818938,2020-11-17
"322",160.5,0.00738949867731779,3.19889600153398e-09,7.49393229593695e-31,0.0036947493386589,2020-11-17
"323",161,0.00744871477644557,3.08720441236982e-09,6.19090873313494e-31,0.00372435738822278,2020-11-18
"324",161.5,0.00750770058662784,2.97942022281066e-09,5.11445118910225e-31,0.00375385029331392,2020-11-18
"325",162,0.00756643803512384,2.87540646930817e-09,4.22516501102799e-31,0.00378321901756192,2020-11-19
"326",162.5,0.007624908892893,2.77503099860613e-09,3.49050537591479e-31,0.0038124544464465,2020-11-19
"327",163,0.00768309478423632,2.67816629846913e-09,2.88358626171756e-31,0.00384154739211816,2020-11-20
"328",163.5,0.00774097719676764,2.58468933437936e-09,2.38219651118201e-31,0.00387048859838382,2020-11-20
"329",164,0.0077985374917093,2.49448139199064e-09,1.96798697969507e-31,0.00389926874585465,2020-11-21
"330",164.5,0.00785575691450611,2.40742792513625e-09,1.62579901954755e-31,0.00392787845725305,2020-11-21
"331",165,0.00791261660575095,2.32341840919463e-09,1.34310972543698e-31,0.00395630830287547,2020-11-22
"332",165.5,0.0079690976124143,2.24234619962346e-09,1.10957363909926e-31,0.00398454880620715,2020-11-22
"333",166,0.00802518089936983,2.16410839547976e-09,9.16644141031313e-32,0.00401259044968492,2020-11-23
"334",166.5,0.00808084736120693,2.08860570774992e-09,7.57260673540448e-32,0.00404042368060347,2020-11-23
"335",167,0.00813607783432098,2.01574233231977e-09,6.2559034855746e-32,0.00406803891716049,2020-11-24
"336",167.5,0.00819085310927088,1.94542582742087e-09,5.16814483945786e-32,0.00409542655463544,2020-11-24
"337",168,0.00824515394339325,1.87756699539508e-09,4.26952256268091e-32,0.00412257697169663,2020-11-25
"338",168.5,0.00829896107366149,1.81207976862483e-09,3.52715016306577e-32,0.00414948053683074,2020-11-25
"339",169,0.00835225522977779,1.74888109948214e-09,2.91385935784893e-32,0.0041761276148889,2020-11-26
"340",169.5,0.00840501714748511,1.68789085415442e-09,2.40720580774589e-32,0.00420250857374255,2020-11-26
"341",170,0.00845722758208563,1.6290317102104e-09,1.98864773113939e-32,0.00422861379104281,2020-11-27
"342",170.5,0.00850886732215173,1.57222905777403e-09,1.64286733848862e-32,0.00425443366107587,2020-11-27
"343",171,0.00855991720341471,1.51741090417905e-09,1.35721025378702e-32,0.00427995860170736,2020-11-28
"344",171.5,0.00861035812281595,1.46450778198146e-09,1.12122240781731e-32,0.00430517906140798,2020-11-28
"345",172,0.00866017105270478,1.41345266021142e-09,9.26267455085796e-33,0.00433008552635239,2020-11-29
"346",172.5,0.00870933705516658,1.36418085875012e-09,7.65210713208394e-33,0.00435466852758329,2020-11-29
"347",173,0.00875783729646426,1.31662996572161e-09,6.32158058014315e-33,0.00437891864823213,2020-11-30
"348",173.5,0.00880565306157572,1.27073975779302e-09,5.22240218824013e-33,0.00440282653078786,2020-11-30
"349",174,0.00885276576880938,1.22645212328069e-09,4.31434579848663e-33,0.00442638288440469,2020-12-01
"350",174.5,0.00889915698447962,1.1837109879632e-09,3.56417966253796e-33,0.00444957849223981,2020-12-01
"351",175,0.00894480843762327,1.14246224350581e-09,2.94445027362092e-33,0.00447240421881163,2020-12-02
"352",175.5,0.00898970203473816,1.10448274091466e-09,2.43247766237822e-33,0.00449485101736908,2020-12-02
"353",176,0.00903381987452438,1.06852823868118e-09,2.00952538780445e-33,0.00451690993726219,2020-12-03
"354",176.5,0.00907714426260845,1.03374558191549e-09,1.6601148477896e-33,0.00453857213130422,2020-12-03
"355",177,0.00911965772623047,1.00009653194742e-09,1.37145881538854e-33,0.00455982886311523,2020-12-04
"356",177.5,0.00916134302887411,9.67544099336065e-10,1.1329934701875e-33,0.00458067151443706,2020-12-04
"357",178,0.00920218318481899,9.36052503011525e-10,9.35991798721167e-34,0.0046010915924095,2020-12-05
"358",178.5,0.009242161473595,9.0558713075464e-10,7.73244215722002e-34,0.0046210807367975,2020-12-05
"359",179,0.00928126145431791,8.76114500970607e-10,6.387947180354e-34,0.00464063072715895,2020-12-06
"360",179.5,0.00931946697988564,8.47602225714198e-10,5.2772291533912e-34,0.00465973348994282,2020-12-06
"361",180,0.0093567622110145,8.19888345061893e-10,4.35963960739241e-34,0.00467838110550725,2020-12-07
"362",180.5,0.00939313163009476,7.92369398141742e-10,3.60159791320241e-34,0.00469656581504738,2020-12-07
"363",181,0.00942856005484494,7.65777454137722e-10,2.9753623456372e-34,0.00471428002742247,2020-12-08
"364",181.5,0.0094630326517445,7.40081175911246e-10,2.45801483152353e-34,0.00473151632587225,2020-12-08
"365",182,0.00949653494922454,7.15250289276692e-10,2.03062222685208e-34,0.00474826747461227,2020-12-09
"366",182.5,0.00952905285059656,6.91255546828373e-10,1.67754342866594e-34,0.00476452642529828,2020-12-09
"367",183,0.00956057264669939,6.68068693002333e-10,1.3858569643566e-34,0.00478028632334969,2020-12-10
"368",183.5,0.00959108102824496,6.45662430330682e-10,1.14488811009981e-34,0.00479554051412248,2020-12-10
"369",184,0.0096205650978437,6.24010386847668e-10,9.45818232588273e-35,0.00481028254892185,2020-12-11
"370",184.5,0.00964901238169078,6.0308708460803e-10,7.81362057309179e-35,0.00482450619084539,2020-12-11
"371",185,0.00967641084089515,5.8286790927959e-10,6.45501052492612e-35,0.00483820542044758,2020-12-12
"372",185.5,0.00970274888243335,5.63329080773306e-10,5.33263171498224e-35,0.00485137444121668,2020-12-12
"373",186,0.00972801536971101,5.4444762487528e-10,4.40540892967172e-35,0.0048640076848555,2020-12-13
"374",186.5,0.00975219963271525,5.26201345846451e-10,3.63940899633192e-35,0.00487609981635762,2020-12-13
"375",187,0.00977529147774203,5.08568799956855e-10,3.00659894553052e-35,0.00488764573887102,2020-12-14
"376",187.5,0.00979728119668295,4.91529269922475e-10,2.48382010056471e-35,0.00489864059834148,2020-12-14
"377",188,0.00981815957585682,4.7506274021383e-10,2.05194054935074e-35,0.00490907978792841,2020-12-15
"378",188.5,0.00983791790437201,4.59149873206452e-10,1.69515498208287e-35,0.00491895895218601,2020-12-15
"379",189,0.00985654798200638,4.43771986144494e-10,1.40040627112203e-35,0.00492827399100319,2020-12-16
"380",189.5,0.00987404212659225,4.28911028889633e-10,1.15690762492302e-35,0.00493702106329613,2020-12-16
"381",190,0.009890393180895,4.14549562428441e-10,9.55747828473119e-36,0.0049451965904475,2020-12-17
"382",190.5,0.00990559451897429,4.00670738112271e-10,7.89565123396835e-36,0.00495279725948715,2020-12-17
"383",191,0.00991964005201822,3.87258277604635e-10,6.52277792857359e-36,0.00495982002600911,2020-12-18
"384",191.5,0.00993252423364137,3.74296453511873e-10,5.38861591586573e-36,0.00496626211682068,2020-12-18
"385",192,0.00994424206463868,3.61770070673778e-10,4.45165875746307e-36,0.00497212103231934,2020-12-19
"386",192.5,0.00995478909718805,3.49664448091601e-10,3.67761703604623e-36,0.00497739454859402,2020-12-19
"387",193,0.00996416143849552,3.3796540147167e-10,3.03816348033043e-36,0.00498208071924776,2020-12-20
"388",193.5,0.00997235575387785,3.26659226363591e-10,2.50989628412671e-36,0.00498617787693892,2020-12-20
"389",194,0.00997936926927828,3.15732681872701e-10,2.07348268052644e-36,0.00498968463463914,2020-12-21
"390",194.5,0.00998519977321234,3.05172974927169e-10,1.71295142896273e-36,0.00499259988660617,2020-12-21
"391",195,0.0099898456181414,2.94967745080798e-10,1.41510832260268e-36,0.0049949228090707,2020-12-22
"392",195.5,0.00999330572127286,2.85105049833227e-10,1.16905332564624e-36,0.00499665286063643,2020-12-22
"393",196,0.00999557956478672,2.75573350449862e-10,9.65781669413769e-37,0.00499778978239336,2020-12-23
"394",196.5,0.00999666719548934,2.6636149826448e-10,7.97854308707468e-37,0.00499833359774467,2020-12-23
"395",197,0.00999656922389624,2.57458721448018e-10,6.59125678280342e-37,0.00499828461194812,2020-12-24
"396",197.5,0.00999528682274662,2.48854612227631e-10,5.44518786233453e-37,0.00499764341137331,2020-12-24
"397",198,0.00999282172495352,2.40539114540656e-10,4.49839413531457e-37,0.00499641086247676,2020-12-25
"398",198.5,0.00998917622099417,2.32502512108625e-10,3.71622619976179e-37,0.00499458811049708,2020-12-25
"399",199,0.00998435315574638,2.24735416917004e-10,3.07005939283492e-37,0.00499217657787319,2020-12-26
"400",199.5,0.00997835592477749,2.17228758086804e-10,2.53624622638365e-37,0.00498917796238875,2020-12-26
"401",200,0.00997118847009338,2.09973771124691e-10,2.09525097001639e-37,0.00498559423504669,2020-12-27
"402",200.5,0.00996285527535611,2.02961987538689e-10,1.73093471039454e-37,0.00498142763767805,2020-12-27
"403",201,0.00995336136057928,1.96185224806993e-10,1.42996472237653e-37,0.00497668068028964,2020-12-28
"404",201.5,0.00994271227631141,1.89635576687858e-10,1.18132653702189e-37,0.00497135613815571,2020-12-28
"405",202,0.0099309140973182,1.83305403858924e-10,9.75920849818474e-38,0.0049654570486591,2020-12-29
"406",202.5,0.00991797341577535,1.77187324874734e-10,8.06230517356744e-38,0.00495898670788767,2020-12-29
"407",203,0.00990389733398452,1.71274207431621e-10,6.66045455672177e-38,0.00495194866699226,2020-12-30
"408",203.5,0.00988869345662556,1.65559159929444e-10,5.50235372478792e-38,0.00494434672831278,2020-12-30
"409",204,0.00987236988255887,1.60035523320091e-10,4.54562016073407e-38,0.00493618494127943,2020-12-31
"410",204.5,0.00985493519619243,1.54696863232945e-10,3.75524069864636e-38,0.00492746759809621,2020-12-31
"411",205,0.00983639845842859,1.49536962367887e-10,3.10229016198588e-38,0.00491819922921429,2021-01-01
"412",205.5,0.00981676919720638,1.44549813146717e-10,2.56287280136893e-38,0.00490838459860319,2021-01-01
"413",206,0.00979605739765545,1.39729610614176e-10,2.11724779212529e-38,0.00489802869882773,2021-01-02
"414",206.5,0.00977427349187844,1.35070745580072e-10,1.74910678784566e-38,0.00488713674593922,2021-01-02
"415",207,0.00975142834837885,1.305677979943e-10,1.4449770908566e-38,0.00487571417418943,2021-01-03
"416",207.5,0.00972753326115207,1.26215530546808e-10,1.19372859771021e-38,0.00486376663057604,2021-01-03
"417",208,0.0097025999384573,1.22008882484858e-10,9.86166475585039e-39,0.00485129996922865,2021-01-04
"418",208.5,0.00967664049128881,1.17942963640173e-10,8.14694662952115e-39,0.0048383202456444,2021-01-04
"419",209,0.00964966742156482,1.14013048658827e-10,6.73037879784857e-39,0.00482483371078241,2021-01-05
"420",209.5,0.00962169361005299,1.10214571426975e-10,5.56011973840463e-39,0.00481084680502649,2021-01-05
"421",210,0.00959273230405113,1.06543119685747e-10,4.5933419847452e-39,0.00479636615202556,2021-01-06
"422",210.5,0.00956279710484251,1.0299442982887e-10,3.79466478807826e-39,0.00478139855242126,2021-01-06
"423",211,0.00953190195494474,9.95643818768075e-11,3.13485930324864e-39,0.00476595097747237,2021-01-07
"424",211.5,0.0095000611251715,9.62489946213833e-11,2.58977891328878e-39,0.00475003056258575,2021-01-07
"425",212,0.00946728920152648,9.30444209351158e-11,2.13947554608427e-39,0.00473364460076324,2021-01-08
"426",212.5,0.00943360107194855,8.99469432396371e-11,1.76746964337575e-39,0.00471680053597428,2021-01-08
"427",213,0.00939901191292764,8.69529691277924e-11,1.46014706546769e-39,0.00469950595646382,2021-01-09
"428",213.5,0.00936353717601005,8.4059027134189e-11,1.20626086042522e-39,0.00468176858800502,2021-01-09
"429",214,0.00932719257421252,8.12617626491446e-11,9.96519664221449e-40,0.00466359628710626,2021-01-10
"430",214.5,0.00928999406836347,7.85579339711577e-11,8.23247668692465e-40,0.00464499703418174,2021-01-10
"431",215,0.0092519578533903,7.59444084931868e-11,6.80103713294082e-40,0.00462597892669515,2021-01-11
"432",215.5,0.00921310034457077,7.34181590181904e-11,5.61849220382289e-40,0.00460655017228538,2021-01-11
"433",216,0.00917343816376678,7.09762601995295e-11,4.64156481244921e-40,0.00458671908188339,2021-01-12
"434",216.5,0.00913298812565816,6.86158851019891e-11,3.8345027681106e-40,0.00456649406282908,2021-01-12
"435",217,0.00909176722399383,6.63343018793172e-11,3.16777036899531e-40,0.00454588361199692,2021-01-13
"436",217.5,0.00904979261787759,6.41288705643203e-11,2.61696749683901e-40,0.0045248963089388,2021-01-13
"437",218,0.0090070816181049,6.19970399676899e-11,2.1619366563126e-40,0.00450354080905245,2021-01-14
"438",218.5,0.00896365167356722,5.99363446818645e-11,1.786025279853e-40,0.00448182583678361,2021-01-14
"439",219,0.00891952035773943,5.79444021863579e-11,1.47547630082495e-40,0.00445976017886971,2021-01-15
"440",219.5,0.0088747053552659,5.60189100511058e-11,1.21892469208234e-40,0.00443735267763295,2021-01-15
"441",220,0.00882922444865996,5.4157643234501e-11,1.00698154496776e-40,0.00441461222432998,2021-01-16
"442",220.5,0.00878309550513114,5.23584514728999e-11,8.3189046746881e-41,0.00439154775256557,2021-01-16
"443",221,0.00873633646355411,5.06192567584944e-11,6.87243726882436e-41,0.00436816823177705,2021-01-17
"444",221.5,0.00868896532159258,4.89380509025463e-11,5.67747748782767e-41,0.00434448266079629,2021-01-17
"445",222,0.00864100012299102,4.73128931810874e-11,4.69029390359268e-41,0.00432050006149551,2021-01-18
"446",222.5,0.0085924589450463,4.57419080602828e-11,3.87475898394022e-41,0.00429622947252315,2021-01-18
"447",223,0.0085433598862711,4.42232829987555e-11,3.20102694889231e-41,0.00427167994313555,2021-01-19
"448",223.5,0.00849372105426,4.27552663242566e-11,2.64444151752508e-41,0.00424686052713,2021-01-19
"449",224,0.00844356055376895,4.13361651821596e-11,2.18463357268211e-41,0.00422178027688448,2021-01-20
"450",224.5,0.00839289647501785,3.99643435533407e-11,1.8047757211725e-41,0.00419644823750893,2021-01-20
"451",225,0.00834174688222578,3.86382203390897e-11,1.4909664689144e-41,0.00417087344111289,2021-01-21
"452",225.5,0.0082901298023875,3.73562675107774e-11,1.23172147394741e-41,0.00414506490119375,2021-01-21
"453",226,0.00823806321429945,3.6117008322083e-11,1.01755325891925e-41,0.00411903160714972,2021-01-22
"454",226.5,0.00818556503784281,3.49190155816574e-11,8.40624001966043e-42,0.00409278251892141,2021-01-22
"455",227,0.00813265312353061,3.36951321564927e-11,6.94458699323456e-42,0.00406632656176531,2021-01-23
"456",227.5,0.00807934524232525,3.25054818380343e-11,5.73708202404514e-42,0.00403967262116262,2021-01-23
"457",228,0.00802565907573234,3.13578336739054e-11,4.73953457314119e-42,0.00401282953786617,2021-01-24
"458",228.5,0.00797161220617607,3.02507047230557e-11,3.91543782638167e-42,0.00398580610308804,2021-01-24
"459",229,0.00791722210766076,2.91826644016196e-11,3.23463267029189e-42,0.00395861105383038,2021-01-25
"460",229.5,0.00786250613672276,2.81523326343769e-11,2.67220397198557e-42,0.00393125306836138,2021-01-25
"461",230,0.00780748152367629,2.71583780714784e-11,2.20756877078444e-42,0.00390374076183815,2021-01-26
"462",230.5,0.00775216536415624,2.61995163681318e-11,1.82372301247707e-42,0.00387608268207812,2021-01-26
"463",231,0.00769657461096038,2.52745085250266e-11,1.50661925927526e-42,0.00384828730548019,2021-01-27
"464",231.5,0.00764072606619311,2.43821592873514e-11,1.24465260178739e-42,0.00382036303309655,2021-01-27
"465",232,0.00758463637371216,2.35213156003372e-11,1.02823595915091e-42,0.00379231818685608,2021-01-28
"466",232.5,0.00752832201187919,2.26908651193286e-11,8.49449224765759e-43,0.0037641610059396,2021-01-28
"467",233,0.00747179928661497,2.18897347724598e-11,7.01749417566567e-43,0.00373589964330749,2021-01-29
"468",233.5,0.007415084324759,2.11168893740767e-11,5.79731231364433e-43,0.0037075421623795,2021-01-29
"469",234,0.0073581930677334,2.03713302871146e-11,4.78929219185907e-43,0.0036790965338667,2021-01-30
"470",234.5,0.00730114126551006,1.96520941327014e-11,3.95654373234609e-43,0.00365057063275503,2021-01-30
"471",235,0.00724394447088,1.89582515453211e-11,3.26859119862775e-43,0.00362197223544,2021-01-31
"472",235.5,0.00718661803402313,1.82889059719272e-11,2.70025788831903e-43,0.00359330901701157,2021-01-31
"473",236,0.00712917709737656,1.7643192513455e-11,2.23074475220098e-43,0.00356458854868828,2021-02-01
"474",236.5,0.00707163659079891,1.70202768072363e-11,1.84286922038029e-43,0.00353581829539946,2021-02-01
"475",237,0.00701401122702812,1.64193539488716e-11,1.52243637918422e-43,0.00350700561351406,2021-02-02
"476",237.5,0.00695631549742941,1.58396474521669e-11,1.25771948602259e-43,0.0034781577487147,2021-02-02
"477",238,0.00689856366803025,1.52804082457918e-11,1.03903081084318e-43,0.00344928183401513,2021-02-03
"478",238.5,0.0068492543487322,1.47409137053614e-11,8.58367098450154e-44,0.0034246271743661,2021-02-03
"479",239,0.00684321601632752,1.42204667196919e-11,7.09116676822919e-44,0.00342160800816376,2021-02-04
"480",239.5,0.00683662963973114,1.37183947900238e-11,5.85817492604629e-44,0.00341831481986557,2021-02-04
"481",240,0.00682949769942862,1.32340491610476e-11,4.83957218689519e-44,0.00341474884971431,2021-02-05
"482",240.5,0.00682182284573586,1.27668039826099e-11,3.9980811853252e-44,0.00341091142286793,2021-02-05
"483",241,0.0068136078968188,1.23160555010171e-11,3.30290623781485e-44,0.0034068039484094,2021-02-06
"484",241.5,0.006804855836607,1.18812212788904e-11,2.72860632641427e-44,0.0034024279183035,2021-02-06
"485",242,0.00679556981260373,1.14617394425656e-11,2.25416404477582e-44,0.00339778490630186,2021-02-07
"486",242.5,0.00678575313359508,1.10570679560636e-11,1.86221643319191e-44,0.00339287656679754,2021-02-07
"487",243,0.00677540926726103,1.06666839206954e-11,1.5384195538417e-44,0.00338770463363051,2021-02-08
"488",243.5,0.00676454183769107,1.02900828993946e-11,1.27092355188049e-44,0.00338227091884553,2021-02-08
"489",244,0.00675315462280767,9.92677826490535e-12,1.04993899140906e-44,0.00337657731140383,2021-02-09
"490",244.5,0.0067412515517003,9.57630057098397e-12,8.67378595707015e-45,0.00337062577585015,2021-02-09
"491",245,0.00672883670187328,9.23819694580047e-12,7.16561280652122e-45,0.00336441835093664,2021-02-10
"492",245.5,0.00671591429641064,8.9120305067571e-12,5.91967649964061e-45,0.00335795714820532,2021-02-10
"493",246,0.00670248870106117,8.59737979596759e-12,4.8903800423749e-45,0.00335124435053058,2021-02-11
"494",246.5,0.00668856442124702,8.29383823566733e-12,4.04005471588027e-45,0.00334428221062351,2021-02-11
"495",247,0.00667414609899926,8.00101360285119e-12,3.3375815306534e-45,0.00333707304949963,2021-02-12
"496",247.5,0.0066592385098237,7.71852752245989e-12,2.75725237828408e-45,0.00332961925491185,2021-02-12
"497",248,0.00664384655950056,7.44601497846e-12,2.27782920289137e-45,0.00332192327975028,2021-02-13
"498",248.5,0.00662797528082153,7.18312384218609e-12,1.88176676114564e-45,0.00331398764041077,2021-02-13
"499",249,0.00661162983026756,6.92951441733521e-12,1.55457052655999e-45,0.00330581491513378,2021-02-14
"500",249.5,0.0065948154846312,6.68485900102605e-12,1.28426623955122e-45,0.0032974077423156,2021-02-14
"501",250,0.00657753763758696,6.44884146035542e-12,1.06096169062253e-45,0.00328876881879348,2021-02-15
"502",250.5,0.00655980179621332,6.22115682390503e-12,8.76484699435812e-46,0.00327990089810666,2021-02-15
"503",251,0.00654161357747008,6.00151088767056e-12,7.24084041049892e-46,0.00327080678873504,2021-02-16
"504",251.5,0.00652297870463456,5.78961983490404e-12,5.98182374250947e-46,0.00326148935231728,2021-02-16
"505",252,0.00650390300370049,5.58520986937813e-12,4.94172129999817e-46,0.00325195150185024,2021-02-17
"506",252.5,0.00648439239974305,5.38801686159846e-12,4.08246890213632e-46,0.00324219619987152,2021-02-17
"507",253,0.00646445291325379,5.19778600750702e-12,3.3726208592371e-46,0.00323222645662689,2021-02-18
"508",253.5,0.006444090656449,5.01427149923532e-12,2.78619916840248e-46,0.0032220453282245,2021-02-18
"509",254,0.0064233118295552,4.83723620748219e-12,2.30174280774705e-46,0.0032116559147776,2021-02-19
"510",254.5,0.00640212271707517,4.66645137510559e-12,1.90152233662929e-46,0.00320106135853759,2021-02-19
"511",255,0.00638052968403836,4.5016963215325e-12,1.5708910589534e-46,0.00319026484201918,2021-02-20
"512",255.5,0.00635853917223879,4.34275815760516e-12,1.29774900434462e-46,0.00317926958611939,2021-02-20
"513",256,0.00633615769646436,4.18943151049487e-12,1.0721001107483e-46,0.00316807884823218,2021-02-21
"514",256.5,0.00631339184072063,4.0415182583282e-12,8.85686402854906e-47,0.00315669592036031,2021-02-21
"515",257,0.00629024825445274,3.89882727418251e-12,7.31685778536615e-47,0.00314512412722637,2021-02-22
"516",257.5,0.00626673364876863,3.76117417912004e-12,6.04462343315928e-47,0.00313336682438431,2021-02-22
"517",258,0.00624285479266697,3.6283811039415e-12,4.99360155964408e-47,0.00312142739633348,2021-02-23
"518",258.5,0.00621861850927295,3.5002764593512e-12,4.12532837028141e-47,0.00310930925463647,2021-02-23
"519",259,0.00619403167208518,3.37669471423687e-12,3.40802804536565e-47,0.00309701583604259,2021-02-24
"520",259.5,0.00616910120123674,3.25747618177757e-12,2.81544985404556e-47,0.00308455060061837,2021-02-24
"521",260,0.00614383405977349,3.1424668131033e-12,2.32590746764078e-47,0.00307191702988675,2021-02-25
"522",260.5,0.00611823724995252,3.03151799823983e-12,1.92148531441739e-47,0.00305911862497626,2021-02-25
"523",261,0.00609231780956374,2.92448637408133e-12,1.5873829311304e-47,0.00304615890478187,2021-02-26
"524",261.5,0.00606608280827741,2.82123363914284e-12,1.31137331684898e-47,0.0030330414041387,2021-02-26
"525",262,0.00603953934402026,2.72162637485313e-12,1.08335546667298e-47,0.00301976967201013,2021-02-27
"526",262.5,0.00601269453938306,2.62553587315705e-12,8.94984709609879e-48,0.00300634726969153,2021-02-27
"527",263,0.00598555553806196,2.53283797020459e-12,7.39367322246843e-48,0.00299277776903098,2021-02-28
"528",263.5,0.00595812950133641,2.44341288591183e-12,6.10808242126009e-48,0.0029790647506682,2021-02-28
"529",264,0.00593042360458578,2.35714506918629e-12,5.04602647998159e-48,0.00296521180229289,2021-03-01
"530",264.5,0.00590244503384723,2.27392304861691e-12,4.1686377950713e-48,0.00295122251692362,2021-03-01
"531",265,0.00587420098241691,2.19363928843557e-12,3.4438069509616e-48,0.00293710049120846,2021-03-02
"532",265.5,0.00584569864749676,2.11619004956404e-12,2.84500762563579e-48,0.00292284932374838,2021-03-02
"533",266,0.00581694522688888,2.04147525556695e-12,2.35032581825347e-48,0.00290847261344444,2021-03-03
"534",266.5,0.00578794791573946,1.96939836333736e-12,1.94165787190618e-48,0.00289397395786973,2021-03-03
"535",267,0.00575871390333421,1.89986623834799e-12,1.6040479418878e-48,0.0028793569516671,2021-03-04
"536",267.5,0.00572925036994693,1.83278903430689e-12,1.32514066309145e-48,0.00286462518497346,2021-03-04
"537",268,0.00569956448374306,1.76808007706202e-12,1.09472898603755e-48,0.00284978224187153,2021-03-05
"538",268.5,0.00566966339773967,1.70565575260466e-12,9.04380633883007e-49,0.00283483169886984,2021-03-05
"539",269,0.00563955424682353,1.64543539902711e-12,7.47129510019732e-49,0.00281977712341176,2021-03-06
"540",269.5,0.00560924414482848,1.58734120229489e-12,6.17220762839262e-49,0.00280462207241424,2021-03-06
"541",270,0.00557874018167367,1.53129809569889e-12,5.09900177908673e-49,0.00278937009083683,2021-03-07
"542",270.5,0.00554804942056358,1.47723366285744e-12,4.21240190033927e-49,0.00277402471028179,2021-03-07
"543",271,0.00551717889525128,1.42507804414306e-12,3.47996147849158e-49,0.00275858944762564,2021-03-08
"544",271.5,0.00548613560736567,1.37476384641293e-12,2.87487570709005e-49,0.00274306780368284,2021-03-08
"545",272,0.0054549265238039,1.32622605592644e-12,2.37500052293654e-49,0.00272746326190195,2021-03-09
"546",272.5,0.0054235585741896,1.27940195433727e-12,1.96204220935112e-49,0.0027117792870948,2021-03-09
"547",273,0.00539203864839789,1.23423103765154e-12,1.62088790890692e-49,0.00269601932419895,2021-03-10
"548",273.5,0.00536037359414777,1.1906549380472e-12,1.3390525447001e-49,0.00268018679707389,2021-03-10
"549",274,0.00532857021466241,1.14861734845371e-12,1.10622190937127e-49,0.00266428510733121,2021-03-11
"550",274.5,0.00529663526639803,1.1080639497945e-12,9.13875200503873e-50,0.00264831763319901,2021-03-11
"551",275,0.0052645754568416,1.06894234079832e-12,7.54973188490423e-50,0.0026322877284208,2021-03-12
"552",275.5,0.00523239744237796,1.03120197028855e-12,6.23700604880326e-50,0.00261619872118898,2021-03-12
"553",276,0.00520010782622631,9.94794071863278e-13,5.15253323506626e-50,0.00260005391311315,2021-03-13
"554",276.5,0.00516771315644655,9.59671600881446e-13,4.25662545951138e-50,0.00258385657822328,2021-03-13
"555",277,0.00513521992401548,9.25789173673889e-13,3.51649557139196e-50,0.00256760996200774,2021-03-14
"556",277.5,0.00510263456097281,8.93103008900545e-13,2.90505735617124e-50,0.00255131728048641,2021-03-14
"557",278,0.00506996343863712,8.61570870978148e-13,2.39993427300237e-50,0.00253498171931856,2021-03-15
"558",278.5,0.00503721286589155,8.31152015505278e-13,1.98264055010689e-50,0.00251860643294577,2021-03-15
"559",279,0.00500438908753906,8.01807136614244e-13,1.63790466895185e-50,0.00250219454376953,2021-03-16
"560",279.5,0.00497149828272714,7.73498316181789e-13,1.35311047906775e-50,0.00248574914136357,2021-03-16
"561",280,0.00493854656344147,7.46188974832969e-13,1.11783549022704e-50,0.00246927328172074,2021-03-17
"562",280.5,0.0049055399730684,7.19843824674904e-13,9.23469445061154e-51,0.0024527699865342,2021-03-17
"563",281,0.00487248448502559,6.9442882369933e-13,7.62899213182386e-51,0.00243624224251279,2021-03-18
"564",281.5,0.00483938600146059,6.69911131795025e-13,6.30248475016693e-51,0.0024196930007303,2021-03-18
"565",282,0.00480625035201661,6.46259068313276e-13,5.20662668668798e-51,0.00240312517600831,2021-03-19
"566",282.5,0.00477308329266497,6.23442071131551e-13,4.30131329612712e-51,0.00238654164633248,2021-03-19
"567",283,0.00473989050460366,6.01430657162479e-13,3.55341321449895e-51,0.00236994525230183,2021-03-20
"568",283.5,0.00470667759322124,5.80196384257117e-13,2.93555586484361e-51,0.00235333879661062,2021-03-20
"569",284,0.00467345008712538,5.5971181445327e-13,2.42512978801786e-51,0.00233672504356269,2021-03-21
"570",284.5,0.00464021343723523,5.39950478521376e-13,2.00345514086985e-51,0.00232010671861761,2021-03-21
"571",285,0.0046069730159369,5.20886841762141e-13,1.65510007806983e-51,0.00230348650796845,2021-03-22
"572",285.5,0.00457373411630106,5.02496271011745e-13,1.36731599951741e-51,0.00228686705815053,2021-03-22
"573",286,0.00454050195136192,4.84755002811957e-13,1.12957099531803e-51,0.00227025097568096,2021-03-23
"574",286.5,0.00450728165345647,4.67640112704055e-13,9.33164414015566e-52,0.00225364082672824,2021-03-23
"575",287,0.00447407827362321,4.51129485606865e-13,7.70908448600738e-52,0.0022370391368116,2021-03-24
"576",287.5,0.00444089678105925,4.35201787240633e-13,6.36865087435795e-52,0.00222044839052962,2021-03-24
"577",288,0.00440774206263484,4.19836436559827e-13,5.26128803401747e-52,0.00220387103131742,2021-03-25
"578",288.5,0.00437461892246419,4.0501357915922e-13,4.34647028436553e-52,0.0021873094612321,2021-03-25
"579",289,0.00434153208153162,3.90714061618923e-13,3.59071843448323e-52,0.00217076604076581,2021-03-26
"580",289.5,0.00430848617737184,3.76919406755182e-13,2.96637455963185e-52,0.00215424308868592,2021-03-26
"581",290,0.0042754857638033,3.63611789744992e-13,2.45058981610109e-52,0.00213774288190165,2021-03-27
"582",290.5,0.00424253531071354,3.50774015093656e-13,2.02448825192314e-52,0.00212126765535677,2021-03-27
"583",291,0.00420963920389518,3.38389494415534e-13,1.67247601179362e-52,0.00210481960194759,2021-03-28
"584",291.5,0.00417680174493167,3.26442224999275e-13,1.38167065546958e-52,0.00208840087246584,2021-03-28
"585",292,0.00414402715113137,3.14916769129826e-13,1.14142970465593e-52,0.00207201357556569,2021-03-29
"586",292.5,0.00411131955550894,3.03798234140513e-13,9.42961164814012e-53,0.00205565977775447,2021-03-29
"587",293,0.00407868300681275,2.93072253169396e-13,7.79001768326528e-53,0.00203934150340637,2021-03-30
"588",293.5,0.00404612146959712,2.82724966595062e-13,6.43551163822903e-53,0.00202306073479856,2021-03-30
"589",294,0.00401363882433824,2.72743004127837e-13,5.31652323906168e-53,0.00200681941216912,2021-03-31
"590",294.5,0.00398123886759246,2.63113467533299e-13,4.3921013495768e-53,0.00199061943379623,2021-03-31
"591",295,0.00394892531219579,2.53823913965758e-13,3.62841530028917e-53,0.00197446265609789,2021-04-01
"592",295.5,0.00391670178750334,2.44862339890171e-13,2.99751680198388e-53,0.00195835089375167,2021-04-01
"593",296,0.0038845718396676,2.36217165571708e-13,2.47631713422099e-53,0.0019422859198338,2021-04-02
"594",296.5,0.00385253893195414,2.27877220112942e-13,2.04574217738428e-53,0.00192626946597707,2021-04-02
"595",297,0.00382060644509369,2.19831727019317e-13,1.69003436534615e-53,0.00191030322254685,2021-04-03
"596",297.5,0.00378877767766932,2.12070290274244e-13,1.39617601261121e-53,0.00189438883883466,2021-04-03
"597",298,0.00375705584653748,2.04582880905838e-13,1.15341291169052e-53,0.00187852792326874,2021-04-04
"598",298.5,0.00372544408728176,1.97359824027929e-13,9.52860766004914e-54,0.00186272204364088,2021-04-04
"599",299,0.00369394545469814,1.90391786338612e-13,7.8718005511203e-54,0.00184697272734907,2021-04-05
"600",299.5,0.00366256292331054,1.83669764060172e-13,6.50307433439843e-54,0.00183128146165527,2021-04-05
"601",300,0.00363129938791548,1.77185071304808e-13,5.37233832641923e-54,0.00181564969395774,2021-04-06
"602",300.5,0.00360015766415479,1.70929328851122e-13,4.43821146881952e-54,0.00180007883207739,2021-04-06
"603",301,0.00356914048911502,1.64894453316865e-13,3.6665079235786e-54,0.00178457024455751,2021-04-07
"604",301.5,0.0035382505219526,1.59072646713954e-13,3.02898598863752e-54,0.0017691252609763,2021-04-07
"605",302,0.00350749034454353,1.53456386372266e-13,2.50231454850031e-54,0.00175374517227176,2021-04-08
"606",302.5,0.00347686246215645,1.4803841521918e-13,2.06721923545539e-54,0.00173843123107823,2021-04-08
"607",303,0.00344636930414809,1.42811732402317e-13,1.70777705384716e-54,0.00172318465207405,2021-04-09
"608",303.5,0.00341601322467991,1.37769584243356e-13,1.41083365306651e-54,0.00170800661233996,2021-04-09
"609",304,0.00338579650345495,1.32905455511233e-13,1.16552192345075e-54,0.00169289825172748,2021-04-10
"610",304.5,0.00335572134647376,1.28213061003454e-13,9.62864297354761e-55,0.00167786067323688,2021-04-10
"611",305,0.00332578988680841,1.23686337424642e-13,7.95444200977017e-55,0.00166289494340421,2021-04-11
"612",305.5,0.00329600418539363,1.19319435551822e-13,6.57134633204537e-55,0.00164800209269681,2021-04-11
"613",306,0.00326636623183385,1.15106712676315e-13,5.42873938393748e-55,0.00163318311591693,2021-04-12
"614",306.5,0.00323687794522553,1.1104272531249e-13,4.48480567140353e-55,0.00161843897261276,2021-04-12
"615",307,0.00320754117499337,1.07122222163936e-13,3.70500045917933e-55,0.00160377058749669,2021-04-13
"616",307.5,0.00317835770173991,1.03340137337975e-13,3.06078555199096e-55,0.00158917885086995,2021-04-13
"617",308,0.00314932923810717,9.96915837997436e-14,2.52858489452165e-55,0.00157466461905358,2021-04-14
"618",308.5,0.00312045742964978,9.61718470573914e-14,2.08892176867605e-55,0.00156022871482489,2021-04-14
"619",309,0.00309174385571849,9.27763790702253e-14,1.72570601252214e-55,0.00154587192785925,2021-04-15
"620",309.5,0.00306319003035324,8.95007923719387e-14,1.42564517556947e-55,0.00153159501517662,2021-04-15
"621",310,0.00303479740318501,8.63408544013264e-14,1.17775806068732e-55,0.00151739870159251,2021-04-16
"622",310.5,0.00300656736034559,8.32924820331618e-14,9.72972849965886e-56,0.0015032836801728,2021-04-16
"623",311,0.00297850122538443,8.03517363021669e-14,8.03795107306061e-56,0.00148925061269222,2021-04-17
"624",311.5,0.0029506002601918,7.75148173132612e-14,6.64033507771378e-56,0.0014753001300959,2021-04-17
"625",312,0.00292286566592753,7.47780593315092e-14,5.48573256337655e-56,0.00146143283296376,2021-04-18
"626",312.5,0.0028952985839546,7.21379260454251e-14,4.53188903943846e-56,0.0014476492919773,2021-04-18
"627",313,0.00286790009677676,6.95910059975113e-14,3.74389710553827e-56,0.00143395004838838,2021-04-19
"628",313.5,0.00284067122897955,6.71340081761287e-14,3.09291896047715e-56,0.00142033561448978,2021-04-19
"629",314,0.00281361294817411,6.47637577630011e-14,2.55513103763671e-56,0.00140680647408705,2021-04-20
"630",314.5,0.00278672616594289,6.24771920308593e-14,2.1108521441788e-56,0.00139336308297144,2021-04-20
"631",315,0.00276001173878692,6.0271356385925e-14,1.74382319691337e-56,0.00138000586939346,2021-04-21
"632",315.5,0.00273347046907379,5.81434005501189e-14,1.44061219563827e-56,0.00136673523453689,2021-04-21
"633",316,0.00270710310598578,5.60905748780616e-14,1.1901226580167e-56,0.00135355155299289,2021-04-22
"634",316.5,0.00268091034646769,5.41102268041069e-14,9.83187526395468e-57,0.00134045517323385,2021-04-22
