"","time","top","med","bottom","pseudo_med","date"
"1",0,0.000874940827252494,0.000234518465880312,1.89038890307722e-05,0.000446922358141633,2021-04-23
"2",0.5,0.000880042490749024,0.000232679613240592,1.87562638944891e-05,0.000449399377321757,2021-04-23
"3",1,0.00088515294845944,0.000227914762811487,1.86097820941181e-05,0.000451881365276779,2021-04-24
"4",1.5,0.000890271888524671,0.000228534058263575,1.84644349232119e-05,0.000454368161723941,2021-04-24
"5",2,0.000895398994424047,0.000226174265023858,1.8320213739296e-05,0.000456859604081671,2021-04-25
"6",2.5,0.000900533944975988,0.000226171337390885,1.81771099634356e-05,0.000459355527469712,2021-04-25
"7",3,0.000905676414340019,0.000226105980725256,1.80351150798042e-05,0.000461855764709911,2021-04-26
"8",3.5,0.000910826072020115,0.000225884676935201,1.78942206352553e-05,0.000464360146327685,2021-04-26
"9",4,0.000915982582869428,0.000224531576104964,1.77544182388961e-05,0.000466868500554162,2021-04-27
"10",4.5,0.000921145607096385,0.000221240141419498,1.76156995616631e-05,0.000469380653329024,2021-04-27
"11",5,0.000926314800272202,0.000219186917420511,1.7478056335901e-05,0.000471896428304051,2021-04-28
"12",5.5,0.000931489813339832,0.000216271680569244,1.73414803549431e-05,0.000474415646847388,2021-04-28
"13",6,0.000936670292624357,0.000216727532621902,1.72059634726943e-05,0.000476938128048526,2021-04-29
"14",6.5,0.000941855879844857,0.000215107562141598,1.70714976032165e-05,0.000479463688724037,2021-04-29
"15",7,0.00094704621212777,0.000209772593807383,1.69380747203164e-05,0.000481992143424043,2021-04-30
"16",7.5,0.000952240922021774,0.000205883186379462,1.6805686857135e-05,0.000484523304439454,2021-04-30
"17",8,0.000957439637514192,0.000205172713364419,1.64423803408905e-05,0.000486941008927541,2021-05-01
"18",8.5,0.000962641982048961,0.000202379852848359,1.57207167637119e-05,0.000489181349406336,2021-05-01
"19",9,0.000967847574546166,0.00020121488558482,1.50307241101782e-05,0.000491439149328172,2021-05-02
"20",9.5,0.000973056029423176,0.000201713584986093,1.43710127467968e-05,0.000493713521084986,2021-05-02
"21",10,0.000978266956617378,0.000203033797271592,1.37402539896514e-05,0.000496003605303515,2021-05-03
"22",10.5,0.00101580198028693,0.000204221418680152,1.31371774331809e-05,0.000514469578860057,2021-05-03
"23",11,0.00105910810094825,0.000202309254780326,1.2560568395855e-05,0.000535834334672053,2021-05-04
"24",11.5,0.00110423496113969,0.000199516292359593,1.20092654776439e-05,0.000558122113308666,2021-05-04
"25",12,0.00115125688054551,0.000196747010112376,1.1482158224405e-05,0.000581369519384957,2021-05-05
"26",12.5,0.00120025101699,0.000194765966124448,1.0978184894518e-05,0.000605614600942261,2021-05-05
"27",13,0.00125129745748764,0.000193584771945907,1.04963303233039e-05,0.000630896893905471,2021-05-06
"28",13.5,0.00130447931061284,0.000192352277951288,1.00356238809574e-05,0.000657257467246898,2021-05-06
"29",14,0.00135988280003801,0.000189593875311777,9.59513751990661e-06,0.000684738968778956,2021-05-07
"30",14.5,0.00141759735906629,0.000186652012418158,9.17398390769425e-06,0.00071338567148699,2021-05-07
"31",15,0.00147771572596157,0.000184864631508282,8.77131464164083e-06,0.000743243520301605,2021-05-08
"32",15.5,0.00154033403985208,0.00018488476531232,8.38631854171633e-06,0.0007743601791969,2021-05-08
"33",16,0.00160555193695556,0.000184624660083817,8.01822001820052e-06,0.000806785078486882,2021-05-09
"34",16.5,0.00167347264684323,0.000181634997414702,7.66627751086174e-06,0.000840569462177045,2021-05-09
"35",17,0.00174420308842661,0.000178265337109897,7.32978199652614e-06,0.00087576643521157,2021-05-10
"36",17.5,0.00181785396531535,0.000176285308536377,7.00805556204606e-06,0.000912431010438699,2021-05-10
"37",18,0.00189453986015531,0.00017497130570215,6.7004500398062e-06,0.000950620155097556,2021-05-11
"38",18.5,0.00197437932751487,0.000171333167443406,6.40634570303129e-06,0.000990392836608951,2021-05-11
"39",19,0.00205749498484243,0.000170774636832691,6.12515001827835e-06,0.00103181006743036,2021-05-12
"40",19.5,0.00214401360097007,0.000169101716585826,5.85629645261054e-06,0.00107493494871134,2021-05-12
"41",20,0.00223406618158717,0.000168988976091181,5.59924333305922e-06,0.00111983271246011,2021-05-13
"42",20.5,0.00232778805105282,0.000166982444394267,5.35347275608497e-06,0.00116657076190445,2021-05-13
"43",21,0.00242531892985731,0.00016917026852091,5.11848954484852e-06,0.00121521870970108,2021-05-14
"44",21.5,0.00252680300698073,0.000168667007260223,4.89382025219813e-06,0.00126584841361646,2021-05-14
"45",22,0.00263238900633076,0.000168670160168993,4.67901220737115e-06,0.00131853400926907,2021-05-15
"46",22.5,0.0027422302463715,0.000167328148757096,4.47363260449546e-06,0.001373351939488,2021-05-15
"47",23,0.00285648469198128,0.000165321022116731,4.27726763105962e-06,0.00143038097980617,2021-05-16
"48",23.5,0.00297531499749936,0.000162686380129232,4.0895216346011e-06,0.00148970225956698,2021-05-16
"49",24,0.00309888853983933,0.000158698570814887,3.91001632593802e-06,0.00155139927808263,2021-05-17
"50",24.5,0.00322737744046109,0.000154824469507194,3.73839001734351e-06,0.00161555791523922,2021-05-17
"51",25,0.00336095857490335,0.000153447544754099,3.57429689413146e-06,0.00168226643589874,2021-05-18
"52",25.5,0.00349981356848485,0.000152753085076679,3.41740631818962e-06,0.00175161548740152,2021-05-18
"53",26,0.00364412877668571,0.000151945216796289,3.26740216205998e-06,0.00182369808942389,2021-05-19
"54",26.5,0.0037940952486193,0.000150153170063225,3.12398217222759e-06,0.00189860961539576,2021-05-19
"55",27,0.00394990867190216,0.000149712670331923,2.98685736033772e-06,0.00197644776463125,2021-05-20
"56",27.5,0.0041117692971235,0.000149543085012017,2.85575142111702e-06,0.00205731252427231,2021-05-20
"57",28,0.00427988184000783,0.000148403217266559,2.73040017582829e-06,0.00214130612009183,2021-05-21
"58",28.5,0.00445445535925547,0.00014667245454387,2.61055104013928e-06,0.0022285329551478,2021-05-21
"59",29,0.00463570310793598,0.000146148130423815,2.49596251533545e-06,0.00231909953522566,2021-05-22
"60",29.5,0.00482384235620017,0.000144759418498272,2.386403701853e-06,0.00241311437995101,2021-05-22
"61",30,0.00501909418296887,0.000143117656238554,2.28165383415359e-06,0.00251068791840151,2021-05-23
"62",30.5,0.00522168323415118,0.000141506926900922,2.18150183600511e-06,0.00261193236799359,2021-05-23
"63",31,0.00543183744484428,0.000140244955389147,2.08574589527344e-06,0.00271696159536978,2021-05-24
"64",31.5,0.00564978772287099,0.000139003617978887,1.99419305736987e-06,0.00282589095796418,2021-05-24
"65",32,0.00587576759092383,0.000137948451438636,1.90665883653586e-06,0.00293883712488018,2021-05-25
"66",32.5,0.00611001278450553,0.000136990904182022,1.822966844183e-06,0.00305591787567486,2021-05-25
"67",33,0.00635276080278934,0.000136040694506011,1.74294843354018e-06,0.00317725187561144,2021-05-26
"68",33.5,0.00660425040946985,0.000134715792938486,1.6664423598926e-06,0.00330295842591487,2021-05-26
"69",34,0.00686472108063949,0.000133555525692871,1.59329445572897e-06,0.00343315718754761,2021-05-27
"70",34.5,0.00713441239671017,0.000133233518134956,1.52335732014291e-06,0.00356796787701516,2021-05-27
"71",35,0.00741356337540697,0.000132312087939473,1.45649002186316e-06,0.00370750993271442,2021-05-28
"72",35.5,0.00770241174289495,0.000131260600035397,1.39255781531509e-06,0.00385190215035513,2021-05-28
"73",36,0.00800119314016482,0.000129457708058575,1.33143186914158e-06,0.00400126228601698,2021-05-29
"74",36.5,0.00831014026190216,0.00012768151549763,1.27298900663689e-06,0.0041557066254544,2021-05-29
"75",37,0.0086294819252025,0.000125367632799456,1.21711145757083e-06,0.00431534951833004,2021-05-30
"76",37.5,0.00895944206567556,0.000122997587964349,1.16368662090357e-06,0.00448030287614823,2021-05-30
"77",38,0.00930023865870985,0.000120672250845107,1.1126068379133e-06,0.00465067563277388,2021-05-31
"78",38.5,0.00965208256395003,0.000120367862431105,1.06376917527993e-06,0.00482657316656265,2021-05-31
"79",39,0.0100151762913766,0.000119686372390573,1.017075217688e-06,0.00500809668329713,2021-06-01
"80",39.5,0.0103897126877772,0.000118805094919624,9.72430869531135e-07,0.00519534255932338,2021-06-01
"81",40,0.0107758735428651,0.000117930637200463,9.29746165318794e-07,0.00538840164451523,2021-06-02
"82",40.5,0.0111738281148357,0.000117062946306223,8.8893508840342e-07,0.00558735852496203,2021-06-02
"83",41,0.011583731575765,0.000116201969679488,8.49915397662937e-07,0.00579229074558132,2021-06-03
"84",41.5,0.0120057233779444,0.000115347655130822,8.12608461789558e-07,0.00600326799320308,2021-06-03
"85",42,0.0124399255430155,0.00011449995083728,7.76939100851129e-07,0.0062203512410582,2021-06-04
"86",42.5,0.012886440876629,0.00011348276010628,7.42835434805899e-07,0.00644359185603192,2021-06-04
"87",43,0.0133453511122891,0.000111726176424959,7.10228738665622e-07,0.00667303067051387,2021-06-05
"88",43.5,0.013816714989076,0.000109862169981592,6.7905330401523e-07,0.00690869702119001,2021-06-05
"89",44,0.0143005662690505,0.000108358279955713,6.49246306610176e-07,0.00715060775767854,2021-06-06
"90",44.5,0.0147969117013384,0.000106724470484584,6.20747679784717e-07,0.00739876622450911,2021-06-06
"91",45,0.0153057289411698,0.000105554439783935,5.93499993416174e-07,0.00765316122058159,2021-06-07
"92",45.5,0.0158269644334898,0.000104592312206262,5.67448338201321e-07,0.00791376594091402,2021-06-07
"93",46,0.0163605312721722,0.000104314797070087,5.42540215011827e-07,0.00818053690619362,2021-06-08
"94",46.5,0.0169063070473254,0.0001036668644271,5.18725429105828e-07,0.00845341288637726,2021-06-08
"95",47,0.0174695740178791,0.000103438533400501,4.95955988982547e-07,0.00873503498693402,2021-06-09
"96",47.5,0.018278327754489,0.00010287401399565,4.74186009676188e-07,0.00913940097024932,2021-06-09
"97",48,0.0191190684314925,0.00010202822390561,4.53371620294289e-07,0.00955976090155641,2021-06-10
"98",48.5,0.0199925251236719,0.000101189446233646,4.33470875614269e-07,0.00999647929727377,2021-06-10
"99",49,0.0208993882182037,0.000100357623980809,4.14443671560061e-07,0.0104499013309377,2021-06-11
"100",49.5,0.0218403025106269,9.95327005721121e-05,3.96251664388553e-07,0.0109203493811456,2021-06-11
"101",50,0.0228158598306204,9.87146198542766e-05,3.78858193423024e-07,0.0114081193444069,2021-06-12
"102",50.5,0.0238265912038554,9.79033260934676e-05,3.62228207177911e-07,0.0119134767160313,2021-06-12
"103",51,0.0248729585625718,9.70987639730243e-05,3.46328192726063e-07,0.0124366524453822,2021-06-13
"104",51.5,0.0259553460247533,9.58540274757944e-05,3.31126108166177e-07,0.0129778385754308,2021-06-13
"105",52,0.0270740507698449,9.45612321226411e-05,3.16591318054362e-07,0.0135371836805815,2021-06-14
"106",52.5,0.0282292735478653,9.32870627367235e-05,3.02694531669732e-07,0.0141147881211985,2021-06-14
"107",53,0.0294211088684969,9.25286539533092e-05,2.89407743989649e-07,0.0147106991381204,2021-06-15
"108",53.5,0.030649534927222,9.18085050665401e-05,2.76704179255688e-07,0.0153249058157006,2021-06-15
"109",54,0.0319144033367534,9.07218615511677e-05,2.64558237016625e-07,0.0159573339474952,2021-06-16
"110",54.5,0.0332154287437544,8.98707366122062e-05,2.52945440539732e-07,0.0166078408445975,2021-06-16
"111",55,0.0345521784230272,8.91569836127333e-05,2.41842387486425e-07,0.0172762101327074,2021-06-17
"112",55.5,0.0359240619537721,8.84490022588108e-05,2.31226702752896e-07,0.0179621465902374,2021-06-17
"113",56,0.0373303210949746,8.7746746372052e-05,2.21076993380693e-07,0.018665271085984,2021-06-18
"114",56.5,0.0387700199891932,8.70501701158528e-05,2.11372805446415e-07,0.0193851156809993,2021-06-18
"115",57,0.0402420358356974,8.63592279935297e-05,2.02094582843633e-07,0.0201211189651401,2021-06-19
"116",57.5,0.0417450501847076,8.56738748464526e-05,1.9322362787401e-07,0.0208726217041677,2021-06-19
"117",58,0.0432775410140411,8.49940658521732e-05,1.84742063568198e-07,0.0216388628780523,2021-06-20
"118",58.5,0.044837775757368,8.43197565225502e-05,1.76632797660586e-07,0.0224189761950828,2021-06-20
"119",59,0.0464238054591141,8.36509027018698e-05,1.6887948814533e-07,0.0232119871693011,2021-06-21
"120",59.5,0.0480334602343755,8.29874605649642e-05,1.61466510344232e-07,0.0240168108504429,2021-06-21
"121",60,0.0496643462126174,8.23293866153262e-05,1.54378925420134e-07,0.0248322502957714,2021-06-22
"122",60.5,0.0513138441409924,8.16766376832227e-05,1.47602450272367e-07,0.0256569958717213,2021-06-22
"123",61,0.0529791098164767,8.10291709238048e-05,1.41123428753598e-07,0.0264896254699527,2021-06-23
"124",61.5,0.0546570765053498,8.0386943815217e-05,1.34928804150076e-07,0.027328605717077,2021-06-23
"125",62,0.0563444594935976,7.9749914156705e-05,1.29006092869824e-07,0.0281722942498452,2021-06-24
"126",62.5,0.0580377628924401,7.93144693116987e-05,1.23343359285756e-07,0.0290189431178997,2021-06-24
"127",63,0.0597332887993304,7.89725147987489e-05,1.17929191683028e-07,0.029866703364261,2021-06-25
"128",63.5,0.0614271488865218,7.86322085710625e-05,1.12752679262148e-07,0.0307136308196005,2021-06-25
"129",64,0.0631152784568884,7.82935428151693e-05,1.07803390151522e-07,0.0315576931301393,2021-06-26
"130",64.5,0.0647934529704732,7.79565097438353e-05,1.03071350385109e-07,0.0323967780209118,2021-06-26
"131",65,0.0664573070057798,7.7621101596151e-05,9.85470238028326e-08,0.0332287027764018,2021-06-27
"132",65.5,0.0681023555777928,7.72873106376173e-05,9.42212928332549e-08,0.0340512248995428,2021-06-27
"133",66,0.0697240176909541,7.69551291602277e-05,9.00854401197673e-08,0.0348620538881971,2021-06-28
"134",66.5,0.0713176419608096,7.66245494825477e-05,8.61311309532933e-08,0.0356588640459703,2021-06-28
"135",67,0.0728785340938454,7.62955639497905e-05,8.23503964760915e-08,0.036439308222121,2021-06-29
"136",67.5,0.0744019859723247,7.59348992160141e-05,7.83352494418663e-08,0.0372010321537871,2021-06-29
"137",68,0.0758833060509097,7.53830181859553e-05,7.40372879961805e-08,0.0379416900440988,2021-06-30
"138",68.5,0.0773178507357263,7.4768032081004e-05,6.99751394773177e-08,0.0386589603554329,2021-06-30
"139",69,0.078701056385449,7.40817436037631e-05,6.61358657308826e-08,0.0393505612606574,2021-07-01
"140",69.5,0.0800284715490403,7.3662648672917e-05,6.25072384683989e-08,0.0400142670281394,2021-07-01
"141",70,0.0812957890369003,7.33947724478194e-05,5.90777003198691e-08,0.0406479240573003,2021-07-02
"142",70.5,0.0824988774121306,7.31282750050237e-05,5.58363280232082e-08,0.0412494666242293,2021-07-02
"143",71,0.0836338114869427,7.28631490962446e-05,5.27727976333112e-08,0.0418169321298702,2021-07-03
"144",71.5,0.084696901416238,7.25993875014032e-05,4.98773516399477e-08,0.0423484756467948,2021-07-03
"145",72,0.0856847199960998,7.23369830286662e-05,4.71407678897546e-08,0.0428423835684338,2021-07-04
"146",72.5,0.0865941277991224,7.21533711726289e-05,4.45543302133464e-08,0.0432970861767263,2021-07-04
"147",73,0.0874222958106628,7.1958083130814e-05,4.21098006639907e-08,0.0437111689602317,2021-07-05
"148",73.5,0.088166725269466,7.16135949659529e-05,3.97993932794295e-08,0.0440833825344297,2021-07-05
"149",74,0.0888252644617065,7.12709772572563e-05,3.76157492832801e-08,0.0444126510387279,2021-07-06
"150",74.5,0.0893961222681141,7.09302191191768e-05,3.55519136470306e-08,0.0446980789100139,2021-07-06
"151",75,0.0898778783181954,7.06048226512218e-05,3.36013129379818e-08,0.0449389559597542,2021-07-07
"152",75.5,0.0902694896621847,7.06710382438408e-05,3.1757734382581e-08,0.0451347607099596,2021-07-07
"153",76,0.0905702939288,7.07381660667386e-05,3.00153060784647e-08,0.0452851619720531,2021-07-08
"154",76.5,0.0907800089936785,7.0806208124977e-05,2.8368478292186e-08,0.0453900186810784,2021-07-08
"155",77,0.0908987292381289,7.08751664223624e-05,2.68120057830588e-08,0.0454493780250673,2021-07-09
"156",77.5,0.0909269185292802,7.04592107074624e-05,2.53409310968219e-08,0.0454634719351056,2021-07-09
"157",78,0.090865400099696,7.00435427773595e-05,2.39505687759124e-08,0.0454327120251324,2021-07-10
"158",78.5,0.0907153435461174,6.96309293302588e-05,2.26364904360574e-08,0.0453576830913039,2021-07-10
"159",79,0.0904782492024471,6.92213455821282e-05,2.13945106616546e-08,0.0452391352984789,2021-07-11
"160",79.5,0.0901559301708832,6.88147669493008e-05,2.02206736750156e-08,0.0450779751957784,2021-07-11
"161",80,0.0897504923169471,6.84111690470259e-05,1.91112407370168e-08,0.0448752557140939,2021-07-12
"162",80.5,0.0892643125489588,6.80105276880249e-05,1.80626782390251e-08,0.0446321653058185,2021-07-12
"163",81,0.088700015710408,6.76128188810563e-05,1.70716464481738e-08,0.0443500163910272,2021-07-13
"164",81.5,0.0880604504149726,6.72180188294854e-05,1.61349888701405e-08,0.0440302332749807,2021-07-13
"165",82,0.0873486641490982,6.65549961372667e-05,1.52497221955479e-08,0.0436743396994102,2021-07-14
"166",82.5,0.0865678779566806,6.58236031084907e-05,1.44130267979659e-08,0.0432839461848537,2021-07-14
"167",83,0.0857214610051635,6.51282681523562e-05,1.36222377532521e-08,0.0428607373137006,2021-07-15
"168",83.5,0.0848129053130354,6.4780658634956e-05,1.28748363516251e-08,0.0424064590939359,2021-07-15
"169",84,0.0838458008960698,6.44386620554463e-05,1.21684420754384e-08,0.0419229065322559,2021-07-16
"170",84.5,0.0828238115644901,6.41022097762132e-05,1.15008050171024e-08,0.0414119115326476,2021-07-16
"171",85,0.081750651576333,6.37712339930184e-05,1.08697987130053e-08,0.0408753312230659,2021-07-17
"172",85.5,0.080630063324361,6.34456677257082e-05,1.02734133706101e-08,0.0403150367988872,2021-07-17
"173",86,0.0794657962056159,6.3030357330398e-05,9.70974946715358e-09,0.0397329029576827,2021-07-18
"174",86.5,0.0782615867947187,6.24178573569601e-05,9.17701169956135e-09,0.0391307979858652,2021-07-18
"175",87,0.0770211404148236,6.18112894192884e-05,8.67350326630667e-09,0.0385105745441634,2021-07-19
"176",87.5,0.075748114174193,6.12105967546771e-05,8.19762046300256e-09,0.0378740611859067,2021-07-19
"177",88,0.0744461015120095,6.06704485734404e-05,7.74784757451281e-09,0.0372230546299285,2021-07-20
"178",88.5,0.0731186182745794,6.0144944169517e-05,7.32275204731344e-09,0.0365593127986657,2021-07-20
"179",89,0.0717690903226997,5.96290118792938e-05,6.92097992672823e-09,0.0358845486218398,2021-07-21
"180",89.5,0.0704008426527818,5.91282938083232e-05,6.54125154450583e-09,0.0352004245970167,2021-07-21
"181",90,0.0690170899984152,5.86319683961195e-05,6.18235744300308e-09,0.0345085480903863,2021-07-22
"182",90.5,0.0676209288654144,5.81399960048657e-05,5.8431545229929e-09,0.0338104673542844,2021-07-22
"183",91,0.0662153309419738,5.7652337354971e-05,5.52256240282737e-09,0.0331076682322681,2021-07-23
"184",91.5,0.0648031378162786,5.7168953521986e-05,5.21955997735976e-09,0.0324015715179193,2021-07-23
"185",92,0.0633870569266549,5.66898059335414e-05,4.93318216566539e-09,0.0316935309299185,2021-07-24
"186",92.5,0.0619696586639629,5.62148563663078e-05,4.6625168372028e-09,0.0309848316632398,2021-07-24
"187",93,0.0605533745422661,5.57440669429779e-05,4.40670190662488e-09,0.030276689474484,2021-07-25
"188",93.5,0.0591404963516933,5.52774001292706e-05,4.16492258798667e-09,0.0295702502583079,2021-07-25
"189",94,0.057733176206659,5.48148187309574e-05,3.93640879960441e-09,0.0288665900715339,2021-07-26
"190",94.5,0.0563334274030632,5.43562858909099e-05,3.72043271130026e-09,0.028166715561748,2021-07-26
"191",95,0.0549431259995633,5.39017650861703e-05,3.51630642622042e-09,0.0274715647579349,2021-07-27
"192",95.5,0.0535640130403547,5.34512201250422e-05,3.32337978984312e-09,0.0267820081818672,2021-07-27
"193",96,0.0521976973399411,5.30422032181143e-05,3.14103831919816e-09,0.0260988502404897,2021-07-28
"194",96.5,0.0508456587539893,5.26937339133884e-05,2.96870124570235e-09,0.0254228308613453,2021-07-28
"195",97,0.0495092518644055,5.234750964228e-05,2.80581966537723e-09,0.0247546273351126,2021-07-29
"196",97.5,0.0481897100111308,5.20035165304974e-05,2.65187479055737e-09,0.0240948563315028,2021-07-29
"197",98,0.0468881496077199,5.16617407817045e-05,2.50637629752087e-09,0.0234440760570481,2021-07-30
"198",98.5,0.0456055746824523,5.13221686771871e-05,2.36886076477922e-09,0.0228027885256565,2021-07-30
"199",99,0.0443428815914443,5.09847865755192e-05,2.23889019705226e-09,0.0221714419151672,2021-07-31
"200",99.5,0.0431008638549213,5.06495809122291e-05,2.11605063022718e-09,0.021550432985486,2021-07-31
"201",100,0.0418802170724097,5.03165381994654e-05,1.9999508128581e-09,0.0209401095361803,2021-08-01
"202",100.5,0.0406815438770746,4.99856450256631e-05,1.89022096000691e-09,0.0203407728836478,2021-08-01
"203",101,0.0395053588937243,4.965688805521e-05,1.78651157545613e-09,0.019752680340118,2021-08-02
"204",101.5,0.0383520936690981,4.93302540281129e-05,1.68849233854262e-09,0.0191760476787952,2021-08-02
"205",102,0.0372221015469248,4.89985880573899e-05,1.59585105206642e-09,0.0186110515713879,2021-08-03
"206",102.5,0.0361156624638793,4.86165222447263e-05,1.50829264792407e-09,0.018057831986086,2021-08-03
"207",103,0.0350329876459546,4.82374554046494e-05,1.42553824729894e-09,0.0175164945357464,2021-08-04
"208",103.5,0.0339742241879108,4.78613640380227e-05,1.34732427241554e-09,0.0169871127676175,2021-08-04
"209",104,0.0329394595013576,4.74882248263459e-05,1.27340160702844e-09,0.0164697303873796,2021-08-05
"210",104.5,0.0319287256196746,4.71180146304464e-05,1.20353480297211e-09,0.0159643634116047,2021-08-05
"211",105,0.030942003350383,4.67507104891783e-05,1.13750133024434e-09,0.0154710022439422,2021-08-06
"212",105.5,0.0299792262677625,4.63862896181296e-05,1.07509086823482e-09,0.0149896136714267,2021-08-06
"213",106,0.0290402845404628,4.60247294083369e-05,1.01610463584133e-09,0.0145201427782837,2021-08-07
"214",106.5,0.0284664994188184,4.56660074250086e-05,9.60354758340007e-10,0.0142332501895866,2021-08-07
"215",107,0.0286435332994796,4.53101014062557e-05,9.07663668992977e-10,0.0143217671035716,2021-08-08
"216",107.5,0.0288127486032997,4.50004789748128e-05,8.57863543487652e-10,0.0144063747305816,2021-08-08
"217",108,0.0289739656342136,4.47684795863465e-05,8.10795765406157e-10,0.0144869832225047,2021-08-09
"218",108.5,0.0291270135425045,4.45377800305857e-05,7.66310421022481e-10,0.0145635071544075,2021-08-09
"219",109,0.0292717307213349,4.42820620360399e-05,7.24265821818217e-10,0.0146358657228004,2021-08-10
"220",109.5,0.0294079651809623,4.39343436566056e-05,6.84528053196088e-10,0.0147039829327452,2021-08-10
"221",110,0.0295355748991107,4.35893776631042e-05,6.46970547953867e-10,0.0147677877730406,2021-08-11
"222",110.5,0.0296544281460713,4.32471422886441e-05,6.11473683160198e-10,0.0148272143787725,2021-08-11
"223",111,0.0297644037832196,4.29076159351255e-05,5.7792439914834e-10,0.014882202180572,2021-08-12
"224",111.5,0.0298653915337516,4.25707771720113e-05,5.46215839414291e-10,0.0149326960399837,2021-08-12
"225",112,0.029957292224576,4.22366047351061e-05,5.16247010272373e-10,0.0149786463704115,2021-08-13
"226",112.5,0.0300400179984268,4.19050775253413e-05,4.87922459184236e-10,0.0150200092431746,2021-08-13
"227",113,0.0301134924954043,4.15761746075693e-05,4.61151970736752e-10,0.0150567464782781,2021-08-14
"228",113.5,0.0301776510032964,4.1249875209363e-05,4.35850279300472e-10,0.0150888257195733,2021-08-14
"229",114,0.030232440576178,4.09261587198244e-05,4.11936797453435e-10,0.0151162204940574,2021-08-15
"230",114.5,0.0302778201209395,4.06050046883995e-05,3.89335359305358e-10,0.0151389102551374,2021-08-15
"231",115,0.0303137604515431,4.02863928237005e-05,3.67973977904662e-10,0.0151568804097585,2021-08-16
"232",115.5,0.0303402443109618,3.99703029923361e-05,3.4778461595568e-10,0.0151701223293732,2021-08-16
"233",116,0.0303572663609037,3.96567152177476e-05,3.28702969115751e-10,0.0151786333448033,2021-08-17
"234",116.5,0.0303648331395744,3.93456096790541e-05,3.1066826118199e-10,0.0151824167251213,2021-08-17
"235",117,0.0303629629878768,3.90369667099029e-05,2.9362305051541e-10,0.0151814816407499,2021-08-18
"236",117.5,0.0303516859445888,3.87307667973288e-05,2.77513047085819e-10,0.0151758431110509,2021-08-18
"237",118,0.0303310436111976,3.84269905806196e-05,2.62286939554786e-10,0.0151655219367423,2021-08-19
"238",118.5,0.0303010889871997,3.81256188501887e-05,2.4789623184592e-10,0.015150544617548,2021-08-19
"239",119,0.0302618862768006,3.78266325464559e-05,2.34295088681928e-10,0.0151309432555478,2021-08-20
"240",119.5,0.0302135106680669,3.75300127587336e-05,2.21440189596485e-10,0.0151067554447536,2021-08-20
"241",120,0.0301560480856898,3.72357407241219e-05,2.09290590955915e-10,0.0150780241474902,2021-08-21
"242",120.5,0.0300895949186221,3.69437978264091e-05,1.97807595551243e-10,0.0150447975582149,2021-08-21
"243",121,0.0300142577239413,3.66541655949808e-05,1.86954629345238e-10,0.015007128955448,2021-08-22
"244",121.5,0.0299301529083722,3.63668257037345e-05,1.76697124981885e-10,0.0149650765425347,2021-08-22
"245",122,0.0298374063889749,3.60817599700026e-05,1.67002411687263e-10,0.0149187032779887,2021-08-23
"246",122.5,0.0297361532345662,3.57989503534811e-05,1.5783961121115e-10,0.0148680766962029,2021-08-23
"247",123,0.0296265372894917,3.55183789551664e-05,1.49179539477921e-10,0.0148132687193356,2021-08-24
"248",123.5,0.0295087107814088,3.5240028016298e-05,1.409946136335e-10,0.0147543554612017,2021-08-24
"249",124,0.0293828339147701,3.49638799173091e-05,1.33258764192297e-10,0.0146914170240144,2021-08-25
"250",124.5,0.029249074451717,3.4689917176783e-05,1.25947352004314e-10,0.0146245372888322,2021-08-25
"251",125,0.029107607282104,3.4418122450417e-05,1.1903708977796e-10,0.0145538037005706,2021-08-26
"252",125.5,0.0289586139843739,3.41484785299932e-05,1.12505967908614e-10,0.0144793070484399,2021-08-26
"253",126,0.028802282378996,3.3880968342356e-05,1.063331843767e-10,0.0144011412426646,2021-08-27
"254",126.5,0.0286388060761614,3.36155749483957e-05,1.0049907849199e-10,0.0143194030883303,2021-08-27
"255",127,0.0284683840194016,3.33522815420397e-05,9.49850682731166e-11,0.0142341920571933,2021-08-28
"256",127.5,0.0282912200267628,3.30910714492504e-05,8.97735912628347e-11,0.0141456100582682,2021-08-28
"257",128,0.0281075223311286,3.28104574576696e-05,8.48480485905277e-11,0.0140537612079883,2021-08-29
"258",128.5,0.0279175031212291,3.25065456937841e-05,8.01927521037992e-11,0.0139587516007109,2021-08-29
"259",129,0.0277213780848255,3.22054383294773e-05,7.57928744007552e-11,0.0138606890803092,2021-08-30
"260",129.5,0.0275193659554931,3.19071097270289e-05,7.16344016038297e-11,0.0137596830135638,2021-08-30
"261",130,0.0273116880643631,3.16115344782201e-05,6.77040887247345e-11,0.0136558440660336,2021-08-31
"262",130.5,0.0270985678981109,3.13556639351281e-05,6.39894174783674e-11,0.0135492839810501,2021-08-31
"263",131,0.0268802306644048,3.11327815387333e-05,6.04785564113151e-11,0.0134401153624417,2021-09-01
"264",131.5,0.0266569028659541,3.09116774391942e-05,5.71603232179556e-11,0.0133284514615572,2021-09-01
"265",132,0.0264288118842106,3.06923363697712e-05,5.40241491241368e-11,0.0132144059691174,2021-09-02
"266",132.5,0.0261961855737025,3.04747431984151e-05,5.10600452249891e-11,0.0130980928123813,2021-09-02
"267",133,0.0259592518678912,3.02588829266033e-05,4.82585706696574e-11,0.0129796259580749,2021-09-03
"268",133.5,0.0257182383973616,3.00447406881864e-05,4.56108025916178e-11,0.0128591192214862,2021-09-03
"269",134,0.0254733721210708,2.98323017482425e-05,4.3108307688807e-11,0.0127366860820895,2021-09-04
"270",134.5,0.0253824505160379,2.96215515019416e-05,4.07431153630427e-11,0.0126912252783905,2021-09-04
"271",135,0.0255264302223784,2.94124754734178e-05,3.85076923331848e-11,0.012763215130443,2021-09-05
"272",135.5,0.025665284054794,2.92050593146515e-05,3.63949186411782e-11,0.0128326420455945,2021-09-05
"273",136,0.0257989006467373,2.89992888043598e-05,3.43980649745536e-11,0.0128994503405677,2021-09-06
"274",136.5,0.0259271728212652,2.87951498468957e-05,3.25107712331595e-11,0.012963586426888,2021-09-06
"275",137,0.026049997778431,2.85926284711562e-05,3.07270262718567e-11,0.013024998904579,2021-09-07
"276",137.5,0.0261672772751684,2.83917108294993e-05,2.90411487546563e-11,0.0130836386521048,2021-09-07
"277",138,0.0262789177971154,2.81923831966689e-05,2.74477690593202e-11,0.0131394589122816,2021-09-08
"278",138.5,0.0263848307218493,2.7994631968729e-05,2.59418121747876e-11,0.0131924153738956,2021-09-08
"279",139,0.0264849324730302,2.77605159700851e-05,2.45184815369571e-11,0.0132424662487743,2021-09-09
"280",139.5,0.0265791446649814,2.74981548989593e-05,2.31732437513392e-11,0.0132895723440773,2021-09-09
"281",140,0.0266673942372649,2.72382624152259e-05,2.19018141539192e-11,0.0133336971295834,2021-09-10
"282",140.5,0.0267496135788444,2.69808155061688e-05,2.07001431642422e-11,0.0133748067997723,2021-09-10
"283",141,0.0268257406414645,2.67257913694747e-05,1.9564403387254e-11,0.0134128703305144,2021-09-11
"284",141.5,0.0268957190419115,2.6473167411388e-05,1.84909774228153e-11,0.0134478595302012,2021-09-11
"285",142,0.0269594981528593,2.62229212448813e-05,1.74764463440624e-11,0.0134797490851679,2021-09-12
"286",142.5,0.0270170331820459,2.59750306878396e-05,1.65175788079181e-11,0.0135085165992817,2021-09-12
"287",143,0.0270682852395644,2.57294737612597e-05,1.56113207630674e-11,0.0135341426275879,2021-09-13
"288",143.5,0.0271132213930995,2.54862286874631e-05,1.47547857226189e-11,0.0135566107039272,2021-09-13
"289",144,0.0271518147109764,2.52452738883241e-05,1.39452455704688e-11,0.0135759073624608,2021-09-14
"290",144.5,0.0271840442929386,2.50065879835117e-05,1.31801218720856e-11,0.0135920221530594,2021-09-14
"291",145,0.0272098952886117,2.47701497887455e-05,1.24569776620394e-11,0.0136049476505343,2021-09-15
"292",145.5,0.0272293589036522,2.4535938314066e-05,1.17735096821191e-11,0.0136146794577129,2021-09-15
"293",146,0.0272424323936271,2.43777215100845e-05,1.11275410453154e-11,0.0136212162023773,2021-09-16
"294",146.5,0.0272491190457095,2.42394640291571e-05,1.0517014302303e-11,0.0136245595281133,2021-09-16
"295",147,0.0272494281483185,2.41023027320926e-05,9.93998488834051e-12,0.0136247140791292,2021-09-17
"296",147.5,0.027243374948872,2.39662279218149e-05,9.39461492971269e-12,0.0136216874791333,2021-09-17
"297",148,0.0272309805998627,2.3831229987872e-05,8.87916738999175e-12,0.0136154903043709,2021-09-18
"298",148.5,0.027212272093502,2.36972994056879e-05,8.39200053747068e-12,0.013606136050947,2021-09-18
"299",149,0.0271872821852177,2.35644267358222e-05,7.93156271614806e-12,0.0135936410965746,2021-09-19
"300",149.5,0.0271560493063225,2.34326026232337e-05,7.49638740360957e-12,0.0135780246569095,2021-09-19
"301",150,0.0271186174662077,2.3243100765145e-05,7.08508854006505e-12,0.0135593087366464,2021-09-20
"302",150.5,0.0270750361444431,2.30322808319768e-05,6.69635611366389e-12,0.0135375180755697,2021-09-20
"303",151,0.0270253601731966,2.2823365617392e-05,6.32895198802781e-12,0.0135126800897628,2021-09-21
"304",151.5,0.0269696496104131,2.26163380567439e-05,5.9817059587113e-12,0.0134848248081974,2021-09-21
"305",152,0.0269079696042144,2.24222064370101e-05,5.6535120260294e-12,0.0134539848049339,2021-09-22
"306",152.5,0.0268403902490073,2.22487275619609e-05,5.34332487238162e-12,0.0134201951271753,2021-09-22
"307",153,0.0267669864338045,2.20766095481587e-05,5.05015653285188e-12,0.0133834932194273,2021-09-23
"308",153.5,0.0266878376832793,2.19058416491485e-05,4.77307324848026e-12,0.0133439188440262,2021-09-23
"309",154,0.0266030279920913,2.17364132027355e-05,4.51119249218406e-12,0.0133015139983012,2021-09-24
"310",154.5,0.0265126456530312,2.15683136303474e-05,4.26368015785547e-12,0.0132563228286475,2021-09-24
"311",155,0.0264167830795417,2.14015324364014e-05,4.02974790368293e-12,0.0132083915417857,2021-09-25
"312",155.5,0.0263155366231781,2.12360592076748e-05,3.80865064123464e-12,0.0131577683134934,2021-09-25
"313",156,0.0262090063865784,2.10718836126808e-05,3.59968416230666e-12,0.013104503195089,2021-09-26
"314",156.5,0.0260972960325107,2.09089954010475e-05,3.40218289597704e-12,0.0130486480179564,2021-09-26
"315",157,0.025980512589569,2.07473844029024e-05,3.215517788722e-12,0.0129902562963922,2021-09-27
"316",157.5,0.0258587662550824,2.05870405282601e-05,3.0390943008423e-12,0.0129293831290608,2021-09-27
"317",158,0.0257321701957997,2.04279537664145e-05,2.87235051281817e-12,0.012866085099336,2021-09-28
"318",158.5,0.0256008403469017,2.02701141853358e-05,2.71475533556154e-12,0.0128004201748082,2021-09-28
"319",159,0.0254648952098873,2.01135119310709e-05,2.56580681886508e-12,0.0127324476062266,2021-09-29
"320",159.5,0.0253244556498647,1.9958137227148e-05,2.42503055266027e-12,0.0126622278261449,2021-09-29
"321",160,0.0251796446927683,1.98039803739862e-05,2.29197815599254e-12,0.0125898223475301,2021-09-30
"322",160.5,0.0250305873230063,1.96510317483081e-05,2.16622584890073e-12,0.0125152936625863,2021-09-30
"323",161,0.024877410282028,1.9499281802557e-05,2.0473731026522e-12,0.0124387051420377,2021-10-01
"324",161.5,0.0247202418682816,1.93547378982384e-05,1.93504136403443e-12,0.0123601209351083,2021-10-01
"325",162,0.0245592117390146,1.92568291820146e-05,1.82887284964013e-12,0.0122796058704217,2021-10-02
"326",162.5,0.0243944507143495,1.91594494947537e-05,1.72852940630533e-12,0.012197225358039,2021-10-02
"327",163,0.0242260905840458,1.90625958730889e-05,1.63369143407103e-12,0.0121130452928398,2021-10-03
"328",163.5,0.0240542639173371,1.89662653699936e-05,1.54405686823793e-12,0.0120271319594406,2021-10-03
"329",164,0.0238791038762103,1.88704550547014e-05,1.45934021727201e-12,0.0119395519388348,2021-10-04
"330",164.5,0.0237007440324715,1.8775162012627e-05,1.3792716534967e-12,0.0118503720169254,2021-10-04
"331",165,0.023519318188917,1.8680383345287e-05,1.30359615367529e-12,0.0117596590951103,2021-10-05
"332",165.5,0.0233349602049073,1.85861161702211e-05,1.23207268674651e-12,0.0116674801030697,2021-10-05
"333",166,0.0231478038266154,1.84923576209136e-05,1.16447344612589e-12,0.01157390191389,2021-10-06
"334",166.5,0.0229579825221984,1.83991048467147e-05,1.10058312412801e-12,0.0114789912616495,2021-10-06
"335",167,0.022765629322116,1.83063550127624e-05,1.04019822619846e-12,0.0113828146615781,2021-10-07
"336",167.5,0.0225708766647971,1.82141052999045e-05,9.83126422771264e-13,0.0112854383328901,2021-10-07
"337",168,0.0223738562478309,1.8122352904621e-05,9.29185936687608e-13,0.0111869281243801,2021-10-08
"338",168.5,0.0221746988848365,1.80310950389463e-05,8.78204964224513e-13,0.0110873494428574,2021-10-08
"339",169,0.0219735343681416,1.79403289303921e-05,8.30021127889559e-13,0.0109867671844858,2021-10-09
"340",169.5,0.0217704913373795,1.78500518218705e-05,7.84480959238711e-13,0.010885245669082,2021-10-09
"341",170,0.0215656971540917,1.77602609716165e-05,7.4143941007001e-13,0.0107828485774166,2021-10-10
"342",170.5,0.0213592777824019,1.76709536531123e-05,7.0075939043624e-13,0.0106796388915513,2021-10-10
"343",171,0.0211513576758069,1.75821271550104e-05,6.62311332005127e-13,0.0105756788382346,2021-10-11
"344",171.5,0.0209420596701128,1.74937787810573e-05,6.25972775376331e-13,0.0104710298353694,2021-10-11
"345",172,0.020731504882522,1.74004984834726e-05,5.91627980040826e-13,0.0103657524415568,2021-10-12
"346",172.5,0.0205198126168637,1.72725530967874e-05,5.59167555740346e-13,0.0102599063087114,2021-10-12
"347",173,0.0203071002749384,1.71455514369041e-05,5.28488114052776e-13,0.0101535501377334,2021-10-13
"348",173.5,0.0200934832739368,1.70194865652141e-05,4.99491939093749e-13,0.0100467416372182,2021-10-13
"349",174,0.019879074969873,1.68943515933129e-05,4.7208667628562e-13,0.00993953748517256,2021-10-14
"350",174.5,0.0196639865869614,1.67701396826522e-05,4.46185038202533e-13,0.00983199329370379,2021-10-14
"351",175,0.0194483271528521,1.6646844044195e-05,4.21704526554667e-13,0.0097241635766369,2021-10-15
"352",175.5,0.0192322034396282,1.65244579380717e-05,3.98567169426178e-13,0.00961610172001338,2021-10-15
"353",176,0.019015719910456,1.6402974673239e-05,3.76699272929908e-13,0.00950785995541636,2021-10-16
"354",176.5,0.0187989786717702,1.62761822796101e-05,3.56031186487886e-13,0.00939948933606313,2021-10-16
"355",177,0.0185820794308657,1.61447156180526e-05,3.36497080990004e-13,0.00929103971560112,2021-10-17
"356",177.5,0.0183651194587604,1.60143403155224e-05,3.18034739124308e-13,0.00918255972953919,2021-10-17
"357",178,0.0181481935581838,1.58850471080057e-05,3.0058535721108e-13,0.00907409677924221,2021-10-18
"358",178.5,0.0179313940365434,1.57568268112441e-05,2.84093357909548e-13,0.00896569701841373,2021-10-18
"359",179,0.0177148106837087,1.56296703200468e-05,2.68506213200685e-13,0.0088574053419886,2021-10-19
"360",179.5,0.017498530754456,1.55035686076091e-05,2.53774277082274e-13,0.00874926537735491,2021-10-19
"361",180,0.0172826389554048,1.53785127248363e-05,2.3985062744338e-13,0.00864131947782233,2021-10-20
"362",180.5,0.0170672174362786,1.52544937996736e-05,2.2669091661458e-13,0.00853360871825263,2021-10-20
"363",181,0.0168523457853184,1.51315030364413e-05,2.14253230117937e-13,0.00842617289276634,2021-10-21
"364",181.5,0.0166381010286753,1.50095317151761e-05,2.02497953166849e-13,0.00831905051443887,2021-10-21
"365",182,0.0164245576336056,1.48885711909774e-05,1.91387644490549e-13,0.00821227881689849,2021-10-22
"366",182.5,0.0162117875152958,1.47686128933597e-05,1.80886917081377e-13,0.00810589375773832,2021-10-22
"367",183,0.015999860047138,1.46496483256104e-05,1.70962325485022e-13,0.0079999300236545,2021-10-23
"368",183.5,0.0157888420742836,1.45316690641522e-05,1.61582259274713e-13,0.00789442103722258,2021-10-23
"369",184,0.0155787979302975,1.44146667579126e-05,1.52716842370092e-13,0.0077893989652251,2021-10-24
"370",184.5,0.0153697894567429,1.42986331276966e-05,1.44337837880086e-13,0.00768489472844363,2021-10-24
"371",185,0.0151618760255231,1.4183559965567e-05,1.36418558166691e-13,0.00758093801282974,2021-10-25
"372",185.5,0.0149551145638115,1.4069439134228e-05,1.2893377984323e-13,0.00747755728197021,2021-10-25
"373",186,0.0147495595814052,1.39562625664151e-05,1.21859663436331e-13,0.00737477979076352,2021-10-26
"374",186.5,0.0145452632003363,1.38440222642904e-05,1.15173677455757e-13,0.00727263160022574,2021-10-26
"375",187,0.0143422751865827,1.37327102988419e-05,1.08854526630245e-13,0.00717113759334576,2021-10-27
"376",187.5,0.0141406429837204,1.3622318809289e-05,1.0288208408077e-13,0.00707032149191164,2021-10-27
"377",188,0.013940411748366,1.35128400024927e-05,9.72373272152164e-14,0.0069702058742316,2021-10-28
"378",188.5,0.0137416243872589,1.34042661523708e-05,9.19022771402656e-14,0.00687081219367538,2021-10-28
"379",189,0.0135443215958401,1.32965895993179e-05,8.68599413975302e-14,0.00677216079796348,2021-10-29
"380",189.5,0.0133485418981868,1.31898027496307e-05,8.2094259841542e-14,0.00667427094913446,2021-10-29
"381",190,0.0131543216881667,1.30838980749379e-05,7.75900534872136e-14,0.00657716084412216,2021-10-30
"382",190.5,0.0129616952716817,1.29788681116354e-05,7.33329761638494e-14,0.00648084763587754,2021-10-30
"383",191,0.0127706949098742,1.28684769446838e-05,6.9309468821721e-14,0.00638534745497173,2021-10-31
"384",191.5,0.0125813508631738,1.2755492929034e-05,6.55067163456706e-14,0.00629067543161967,2021-10-31
"385",192,0.0123936914360695,1.26435052636963e-05,6.19126067381913e-14,0.00619684571806572,2021-11-01
"386",192.5,0.0122077430224923,1.25325051407822e-05,5.85156925419795e-14,0.00610387151127542,2021-11-01
"387",193,0.0120235301517042,1.24224838301629e-05,5.53051543790886e-14,0.00601176507587975,2021-11-02
"388",193.5,0.0118410755345891,1.23134326787887e-05,5.22707664905533e-14,0.00592053776732069,2021-11-02
"389",194,0.0116604001102494,1.22053431100148e-05,4.94028641667264e-14,0.00583020005514939,2021-11-03
"390",194.5,0.0114815230928144,1.20982066229317e-05,4.66923129645919e-14,0.00574076154643056,2021-11-03
"391",195,0.0113044620183739,1.1992014791703e-05,4.41304796140093e-14,0.00565223100920901,2021-11-04
"392",195.5,0.0111292327919519,1.18867592649068e-05,4.17092045202245e-14,0.0055646163959968,2021-11-04
"393",196,0.0109558497344435,1.17824317648846e-05,3.94207757750644e-14,0.00547792486724146,2021-11-05
"394",196.5,0.0107843256294391,1.1679024087095e-05,3.72579045940419e-14,0.00539216281473818,2021-11-05
"395",197,0.0106146717698672,1.15765280994724e-05,3.52137021011342e-14,0.0053073358849512,2021-11-06
"396",197.5,0.0104468980043893,1.1474935741792e-05,3.32816573872949e-14,0.00522344900221131,2021-11-06
"397",198,0.0102810127834869,1.13742390250402e-05,3.14556167728131e-14,0.00514050639175916,2021-11-07
"398",198.5,0.0101170232051811,1.12744300307901e-05,2.972976420747e-14,0.00505851160260543,2021-11-07
"399",199,0.00995493506033493,1.1175500910582e-05,2.8098602746066e-14,0.00497746753018151,2021-11-08
"400",199.5,0.00979475287748502,1.10774438853102e-05,2.65569370403161e-14,0.00489737643875579,2021-11-08
"401",200,0.00963647996716057,1.09802512446142e-05,2.50998567913509e-14,0.00481823998359283,2021-11-09
"402",200.5,0.00948011846564519,1.08839153462758e-05,2.37227211101158e-14,0.00474005923283446,2021-11-09
"403",201,0.00932566937814422,1.07884286156205e-05,2.24211437358581e-14,0.00466283468908332,2021-11-10
"404",201.5,0.00917313262132196,1.06937835449249e-05,2.11909790656202e-14,0.00458656631067157,2021-11-10
