"","time","top","med","bottom","pseudo_med","date"
"1",0,0.00799295177480448,0.00159259167431328,7.96941149562654e-06,0.00400046059315006,2020-06-10
"2",0.5,0.00763320734276707,0.00154187579321779,3.21155851724462e-05,0.00383266146396976,2020-06-10
"3",1,0.00729095060723884,0.00152039478401561,5.35449735292225e-05,0.00367224779038403,2020-06-11
"4",1.5,0.00696531314153934,0.0014900793401406,7.24866295763602e-05,0.00351889988555785,2020-06-11
"5",2,0.00665546988133507,0.00146833726589602,8.88445917214383e-05,0.00337215723652825,2020-06-12
"6",2.5,0.0063606369565443,0.0014075502549757,9.15800169174519e-05,0.00322610848673087,2020-06-12
"7",3,0.00608006963167939,0.0013666684488034,9.36477389909398e-05,0.00308685868533517,2020-06-13
"8",3.5,0.00581306034920302,0.00131179493684936,9.51192660162097e-05,0.00295408980760961,2020-06-13
"9",4,0.00555893687074541,0.0012619628159552,9.60598517654131e-05,0.00282749836125541,2020-06-14
"10",4.5,0.00531706051128801,0.00123068402419145,9.65289935911679e-05,0.00270679475243959,2020-06-14
"11",5,0.00508682446166345,0.00117752175973288,9.65808927837821e-05,0.00259170267722362,2020-06-15
"12",5.5,0.00486765219495436,0.00113665847625147,9.62648801314696e-05,0.00248195853754292,2020-06-15
"13",6,0.00465899595259461,0.00111497654170578,9.56258092186249e-05,0.00237731088090662,2020-06-16
"14",6.5,0.00446033530618642,0.00107820099745977,9.47044198173214e-05,0.00227751986300187,2020-06-16
"15",7,0.00427117579124613,0.00104550509629887,9.32560904892003e-05,0.00218221594086766,2020-06-17
"16",7.5,0.00409104760928089,0.00101255735391601,9.12089747232919e-05,0.00209112829200209,2020-06-17
"17",8,0.00391950439477857,0.00098580041702594,8.89903539175962e-05,0.00200424737434808,2020-06-18
"18",8.5,0.00375612204386392,0.000964259298683025,8.66346804180402e-05,0.00192137836214098,2020-06-18
"19",9,0.00360049760153669,0.000935855692296043,8.41723711180109e-05,0.00184233498632735,2020-06-19
"20",9.5,0.00345224820456147,0.000908016027608296,8.16302090046435e-05,0.00176693920678306,2020-06-19
"21",10,0.00331101007722574,0.000880737353294311,7.90317077582949e-05,0.00169502089249202,2020-06-20
"22",10.5,0.00317643757732168,0.000848085345961848,7.63974426546731e-05,0.00162641750998818,2020-06-20
"23",11,0.00304820228983976,0.000822622157983209,7.37453507414312e-05,0.0015609738202906,2020-06-21
"24",11.5,0.00292599216598757,0.000791187875184314,7.1091003006629e-05,0.0014985415844971,2020-06-21
"25",12,0.00280951070526694,0.000775082372001133,6.84478510234067e-05,0.00143897927814517,2020-06-22
"26",12.5,0.00269847617845553,0.000747080025784426,6.58274503417234e-05,0.00138215181439863,2020-06-22
"27",13,0.00259262088944713,0.000723196253011522,6.32396627024865e-05,0.00132793027607481,2020-06-23
"28",13.5,0.00249169047400686,0.00069820791435687,6.06928389703363e-05,0.0012761916564886,2020-06-23
"29",14,0.00239544323359499,0.000680676984164975,5.81939845173919e-05,0.00122681860905619,2020-06-24
"30",14.5,0.00240132661430681,0.000657312985132693,5.57489086401615e-05,0.00122853776147349,2020-06-24
"31",15,0.0024206433871616,0.000635046917971757,5.3362359454409e-05,0.00123700287330801,2020-06-25
"32",15.5,0.0024396582353189,0.000607091814220723,5.10381455870098e-05,0.00124534819045295,2020-06-25
"33",16,0.00245837963916702,0.000585708314643357,4.87792458687337e-05,0.00125357944251788,2020-06-26
"34",16.5,0.00247681580840563,0.000567817971662138,4.65879081265895e-05,0.00126170185826611,2020-06-26
"35",17,0.00249497469015644,0.000551907707625964,4.44657380780231e-05,0.00126972021411723,2020-06-27
"36",17.5,0.00251286397683105,0.000530773361942561,4.24137792411388e-05,0.00127763887803609,2020-06-27
"37",18,0.00253049111376303,0.000515250941290732,4.04325846945201e-05,0.00128546184922877,2020-06-28
"38",18.5,0.00254786330661168,0.000499763772302974,3.85222814465304e-05,0.00129319279402911,2020-06-28
"39",19,0.00256498752854405,0.000485964484636604,3.66826281066007e-05,0.00130083507832532,2020-06-29
"40",19.5,0.00258187052720211,0.000476634459966389,3.49130664894227e-05,0.00130839179684577,2020-06-29
"41",20,0.00259851883146153,0.000464486699478111,3.32127677266853e-05,0.00131586579959411,2020-06-30
"42",20.5,0.00261493875798831,0.00045019804739948,3.15806734095585e-05,0.00132325971569893,2020-06-30
"43",21,0.00263113641759943,0.000434116893334521,3.00155322381523e-05,0.00133057597491879,2020-07-01
"44",21.5,0.00264711772143341,0.000418628950485783,2.85159326112584e-05,0.00133781682702234,2020-07-01
"45",22,0.00266288838693651,0.000404206684687168,2.70803315505013e-05,0.00134498435924351,2020-07-02
"46",22.5,0.00267845394367018,0.000393542434754313,2.57070803172439e-05,0.00135208051199371,2020-07-02
"47",23,0.00269381973894516,0.000382454916423401,2.43944470479413e-05,0.00135910709299655,2020-07-03
"48",23.5,0.0027089909432874,0.000369714275569568,2.31406367038301e-05,0.00136606578999562,2020-07-03
"49",24,0.002723972555741,0.000359079606979138,2.19438086036583e-05,0.00137295818217233,2020-07-04
"50",24.5,0.002738769409013,0.000352595912867005,2.08020917833569e-05,0.00137978575039818,2020-07-04
"51",25,0.00275338617446479,0.000341641748327039,1.97135984039442e-05,0.00138654988643437,2020-07-05
"52",25.5,0.00276782736695495,0.000329158088388576,1.8676435408338e-05,0.00139325190118164,2020-07-05
"53",26,0.00278209734953771,0.00032052607403373,1.76887146089624e-05,0.00139989303207334,2020-07-06
"54",26.5,0.00279620033802171,0.00031353675952766,1.67485613709183e-05,0.00140647444969631,2020-07-06
"55",27,0.00281014040539306,0.000308375715020941,1.58541220398971e-05,0.00141299726371648,2020-07-07
"56",27.5,0.00282392148610693,0.00030045142061652,1.50035702498156e-05,0.00141946252817837,2020-07-07
"57",28,0.00283754738025155,0.00029118661532751,1.41951122322339e-05,0.00142587124624189,2020-07-08
"58",28.5,0.00285102175758859,0.00028227828420577,1.34269912378541e-05,0.00143222437441322,2020-07-08
"59",29,0.00286434816147354,0.000273577450022742,1.26974911697035e-05,0.00143852282632162,2020-07-09
"60",29.5,0.00287753001265981,0.000261804644048995,1.20049395178812e-05,0.00144476747608885,2020-07-09
"61",30,0.00289057061299002,0.00025075625700899,1.13477096769058e-05,0.00145095916133346,2020-07-10
"62",30.5,0.00290347314897789,0.000242780018435314,1.07242227186708e-05,0.00145709868584828,2020-07-10
"63",31,0.00291624069528411,0.000237643031738311,1.01072114151713e-05,0.00146317395334964,2020-07-11
"64",31.5,0.00292887621808927,0.000230742807949081,9.38164764525445e-06,0.00146912893286726,2020-07-11
"65",32,0.00294138257836705,0.000223457572013125,8.708031582119e-06,0.00147504530497458,2020-07-12
"66",32.5,0.00295376253506073,0.000214876937142258,8.08265836063108e-06,0.00148092259671068,2020-07-12
"67",33,0.00296601874816581,0.000206774998310642,7.50208583839709e-06,0.0014867604170021,2020-07-13
"68",33.5,0.00297815378172169,0.000200168928748481,6.96311612323516e-06,0.00149255844892246,2020-07-13
"69",34,0.0029901701067151,0.000193768627101664,6.46277838282282e-06,0.00149831644254896,2020-07-14
"70",34.5,0.00300207010389808,0.000187990780560578,5.99831284929838e-06,0.00150403420837369,2020-07-14
"71",35,0.00301385606652279,0.000183380216922757,5.56715593733573e-06,0.00150971161123006,2020-07-15
"72",35.5,0.0030255302029961,0.000177591529491192,5.16692639959772e-06,0.00151534856469785,2020-07-15
"73",36,0.00303709463945596,0.0001716335155581,4.79541244852136e-06,0.00152094502595224,2020-07-16
"74",36.5,0.00304855142227223,0.000164892226647316,4.45055977811778e-06,0.00152650099102517,2020-07-16
"75",37,0.00305990252047408,0.000157965274943159,4.13046042389996e-06,0.00153201649044899,2020-07-17
"76",37.5,0.00307114982810625,0.000151327745717771,3.83334240319827e-06,0.00153749158525472,2020-07-17
"77",38,0.00308229516651631,0.000146228123513599,3.55756008200482e-06,0.00154292636329916,2020-07-18
"78",38.5,0.00309334028657498,0.000141592840569299,3.30158521811856e-06,0.00154832093589655,2020-07-18
"79",39,0.00310428687083162,0.00013710531575994,3.06399863375807e-06,0.00155367543473269,2020-07-19
"80",39.5,0.00311513653560668,0.000134357085500305,2.84348247398331e-06,0.00155899000904033,2020-07-19
"81",40,0.00312589083302325,0.000129616549409254,2.63881301023409e-06,0.00156426482301674,2020-07-20
"82",40.5,0.00313655125297933,0.000125311628584849,2.44885395106438e-06,0.0015695000534652,2020-07-20
"83",41,0.00314711922506272,0.000121248794276497,2.27255022474059e-06,0.00157469588764373,2020-07-21
"84",41.5,0.00315759612041035,0.000117317300237985,2.1089222007889e-06,0.00157985252130557,2020-07-21
"85",42,0.00316798325351345,0.000113513182381951,1.95706031983367e-06,0.00158497015691664,2020-07-22
"86",42.5,0.00317828188397056,0.000109689290613387,1.81612010317482e-06,0.00159004900203687,2020-07-22
"87",43,0.00318849321818964,0.000106641878197878,1.68531751551759e-06,0.00159508926785258,2020-07-23
"88",43.5,0.00319861841104104,0.000103447062725911,1.56392465610105e-06,0.00160009116784857,2020-07-23
"89",44,0.00320865856746265,9.900288565327e-05,1.45126575518194e-06,0.00160505491660892,2020-07-24
"90",44.5,0.0032186147440188,9.4748204140545e-05,1.3467134544247e-06,0.00160998072873661,2020-07-24
"91",45,0.00322848795041424,9.19570411083485e-05,1.24968535123522e-06,0.00161486881788274,2020-07-25
"92",45.5,0.00323827915096455,9.09004021548147e-05,1.15964078846139e-06,0.00161971939587651,2020-07-25
"93",46,0.00324798926602433,8.92550958855246e-05,1.07607787217489e-06,0.00162453267194825,2020-07-26
"94",46.5,0.00325761917337444,8.80222314478179e-05,9.98530701452268e-07,0.00162930885203794,2020-07-26
"95",47,0.00326716970956945,8.53029826312312e-05,9.26566795193978e-07,0.00163404813818232,2020-07-27
"96",47.5,0.00327664167124668,8.18711246081133e-05,8.59784702064768e-07,0.00163875072797437,2020-07-27
"97",48,0.0032860358163977,7.85730313617924e-05,7.97811780611225e-07,0.00164341681408916,2020-07-28
"98",48.5,0.00329535286560377,7.58103763755729e-05,7.40302137518068e-07,0.00164804658387064,2020-07-28
"99",49,0.00330459350323593,7.33625659329361e-05,6.86934712808149e-07,0.00165264021897437,2020-07-29
"100",49.5,0.00331375837862121,7.09250229619104e-05,6.37411501576241e-07,0.00165719789506139,2020-07-29
"101",50,0.00332284810717554,6.82612847170772e-05,5.91455902577548e-07,0.00166171978153906,2020-07-30
"102",50.5,0.00333186327150478,6.56085799627497e-05,5.4881118467213e-07,0.00166620604134473,2020-07-30
"103",51,0.00334080442247452,6.31910466896013e-05,5.09239062759468e-07,0.00167065683076864,2020-07-31
"104",51.5,0.00334967208024971,6.12784419791618e-05,4.72518375426506e-07,0.00167507229931257,2020-07-31
"105",52,0.00335846673530507,5.94807568188602e-05,4.38443857080583e-07,0.00167945258958107,2020-08-01
"106",52.5,0.00336718884940704,5.7993490611238e-05,4.06824997848621e-07,0.00168379783720245,2020-08-01
"107",53,0.00337583885656825,5.65803631338718e-05,3.77484984998234e-07,0.00168810817077662,2020-08-02
"108",53.5,0.00338441716397515,5.51634348569992e-05,3.50259720077701e-07,0.00169238371184761,2020-08-02
"109",54,0.00339292415288989,5.40626255232165e-05,3.24996906382048e-07,0.00169662457489814,2020-08-03
"110",54.5,0.00340136017952688,5.31372159540321e-05,3.01555201734158e-07,0.00170083086736431,2020-08-03
"111",55,0.00340972557590508,5.15622120659312e-05,2.79803431924689e-07,0.0017050026896685,2020-08-04
"112",55.5,0.00341802065067651,4.96451196549816e-05,2.59619860484549e-07,0.0017091401352685,2020-08-04
"113",56,0.00342624568993193,4.77963495032762e-05,2.40891510770494e-07,0.00171324329072135,2020-08-05
"114",56.5,0.00343440095798409,4.63409495226069e-05,2.23513536629626e-07,0.00171731223576036,2020-08-05
"115",57,0.00344248669812946,4.50631289487306e-05,2.07388638173726e-07,0.00172134704338381,2020-08-06
"116",57.5,0.00345050313338896,4.35807041818373e-05,1.92426519440813e-07,0.0017253477799542,2020-08-06
"117",58,0.00345845046722834,4.20324728781295e-05,1.78543384950434e-07,0.00172931450530664,2020-08-07
"118",58.5,0.00346632888425876,4.05386641721746e-05,1.65661472372093e-07,0.00173324727286557,2020-08-07
"119",59,0.00347413855091829,3.90973957148653e-05,1.53708618724119e-07,0.00173714612976851,2020-08-08
"120",59.5,0.00348187961613472,3.77068485149564e-05,1.42617857704171e-07,0.00174101111699621,2020-08-08
"121",60,0.00348955221197038,3.63652649160423e-05,1.32327045923458e-07,0.00174484226950815,2020-08-09
"122",60.5,0.0034971564542494,3.50709466304635e-05,1.22778515975554e-07,0.00174863961638269,2020-08-09
"123",61,0.00350469244316801,3.38222528291471e-05,1.13918754418213e-07,0.00175240318096121,2020-08-10
"124",61.5,0.00351216026388825,3.26175982863476e-05,1.05698102883678e-07,0.00175613298099557,2020-08-10
"125",62,0.00351955998711576,3.14554515782201e-05,9.8070480660334e-08,0.00175982902879821,2020-08-11
"126",62.5,0.00352689166966196,3.0334333334133e-05,9.09931272068692e-08,0.00176349133139458,2020-08-11
"127",63,0.00353415535499108,2.92528145396069e-05,8.44263631700193e-08,0.00176711989067713,2020-08-12
"128",63.5,0.00354135107375266,2.83353718464084e-05,7.83333685790726e-08,0.00177071470356062,2020-08-12
"129",64,0.00354847884429969,2.74797654689145e-05,7.2679976985153e-08,0.00177427576213834,2020-08-13
"130",64.5,0.00355553867319297,2.66508318115645e-05,6.74344844013935e-08,0.00177780305383868,2020-08-13
"131",65,0.00356253055569208,2.58477232098743e-05,6.25674719819287e-08,0.00178129656158203,2020-08-14
"132",65.5,0.00356945447623328,2.50696190556624e-05,5.77692410693519e-08,0.00178475612273717,2020-08-14
"133",66,0.00357631040889474,2.43157249450568e-05,5.29751488471496e-08,0.00178818169202179,2020-08-15
"134",66.5,0.00358309831784952,2.35852718523204e-05,4.85777555127676e-08,0.00179157344780252,2020-08-15
"135",67,0.00358981815780655,2.28775153287715e-05,4.45443410390376e-08,0.00179493135107379,2020-08-16
"136",67.5,0.00359646987444003,2.21917347260996e-05,4.08448743952924e-08,0.00179825535965721,2020-08-16
"137",68,0.0036030534048076,2.15273044397994e-05,3.74517934666719e-08,0.00180154542830053,2020-08-17
"138",68.5,0.00360956867775746,2.0859925700593e-05,3.43398029015828e-08,0.00180480150878018,2020-08-17
"139",69,0.00361601561432494,2.01851038845773e-05,3.14856884347321e-08,0.00180802355000669,2020-08-18
"140",69.5,0.00362239412811868,1.95326250832241e-05,2.88681463501074e-08,0.00181121149813251,2020-08-18
"141",70,0.00362870412569672,1.89017289386622e-05,2.64676268558819e-08,0.00181436529666179,2020-08-19
"142",70.5,0.00363494550693296,1.82916818333456e-05,2.42661902422197e-08,0.0018174848865616,2020-08-19
"143",71,0.00364111816537391,1.77017759120719e-05,2.22473747840361e-08,0.00182057020637435,2020-08-20
"144",71.5,0.00364722198858639,1.71171083214585e-05,2.03960754345435e-08,0.00182362119233091,2020-08-20
"145",72,0.00365325685849614,1.64759422775472e-05,1.86984324324827e-08,0.00182663777846429,2020-08-21
"146",72.5,0.00365922265171776,1.58502782655507e-05,1.71417290168198e-08,0.00182961989672339,2020-08-21
"147",73,0.00366511923987607,1.52481778663506e-05,1.57142975078832e-08,0.00183256747708679,2020-08-22
"148",73.5,0.00367094648991934,1.46687673880513e-05,1.44054330738726e-08,0.00183548044767621,2020-08-22
"149",74,0.00367670426442437,1.41112046703138e-05,1.32053145568065e-08,0.00183835873486946,2020-08-23
"150",74.5,0.00368239242189376,1.35746779981662e-05,1.21049317826808e-08,0.00184120226341277,2020-08-23
"151",75,0.00368801081704565,1.3088907028849e-05,1.10960188272266e-08,0.00184401095653224,2020-08-24
"152",75.5,0.00369355930109597,1.26298937725741e-05,1.01709927515274e-08,0.00184678473604436,2020-08-24
"153",76,0.0036990377220335,1.21868889286429e-05,9.32289736116217e-09,0.00184952352246543,2020-08-25
"154",76.5,0.00370444592488796,1.17593381868891e-05,8.54535157877668e-09,0.00185222723511977,2020-08-25
"155",77,0.0037097837519912,1.13467062517851e-05,7.83250205329343e-09,0.00185489579224663,2020-08-26
"156",77.5,0.00371505104323177,1.09705289279741e-05,7.17897965959012e-09,0.00185752911110571,2020-08-26
"157",78,0.003720247636303,1.06073094142292e-05,6.57985957062255e-09,0.00186012710808129,2020-08-27
"158",78.5,0.00372537336694479,1.02561926250465e-05,6.0306246098379e-09,0.0018626896987847,2020-08-27
"159",79,0.00373042806917918,9.90982902031497e-06,5.5271316155021e-09,0.0018652167981554,2020-08-28
"160",79.5,0.00373541157554003,9.55615596008318e-06,5.06558057041808e-09,0.0018677083205603,2020-08-28
"161",80,0.00374032371729673,9.27146527880295e-06,4.64248627059517e-09,0.0018701641798915,2020-08-29
"162",80.5,0.00374516432467234,8.98647915065819e-06,4.25465232488622e-09,0.00187258428966233,2020-08-29
"163",81,0.0037499332270561,8.74721190024173e-06,3.89914729456848e-09,0.0018749685631017,2020-08-30
"164",81.5,0.00375463025321051,8.51446152856002e-06,3.5732827974287e-09,0.00187731691324665,2020-08-30
"165",82,0.0037592552314732,8.28804681737222e-06,3.27459341523201e-09,0.00187962925303331,2020-08-31
"166",82.5,0.00376380798995359,8.06779167710582e-06,3.00081825661086e-09,0.00188190549538592,2020-08-31
"167",83,0.00376828835672452,7.85352499978151e-06,2.74988403949751e-09,0.00188414555330428,2020-09-01
"168",83.5,0.00377269616000899,7.64508051618578e-06,2.51988956832906e-09,0.00188634933994928,2020-09-01
"169",84,0.0037893626350132,7.44229665716868e-06,2.30909149145544e-09,0.00189468247205235,2020-09-02
"170",84.5,0.0038143847338702,7.2450164189478e-06,2.11589123355281e-09,0.00190719342488072,2020-09-02
"171",85,0.00383945994666482,7.01529524204593e-06,1.93882300645345e-09,0.00191973094274391,2020-09-03
"172",85.5,0.00386458644743285,6.77782649398122e-06,1.77654280971087e-09,0.00193229411198783,2020-09-03
"173",86,0.00388976237891028,6.54840365525254e-06,1.62781833948206e-09,0.00194488200336431,2020-09-04
"174",86.5,0.00391498585253235,6.32675522928054e-06,1.4915197309799e-09,0.00195749367202604,2020-09-04
"175",87,0.00394025494844329,6.11261877228793e-06,1.36661106587566e-09,0.00197012815752718,2020-09-05
"176",87.5,0.00396556771551677,5.9057405988186e-06,1.25214258165855e-09,0.00198278448382967,2020-09-05
"177",88,0.00399092217138741,5.70587549638538e-06,1.14724352512673e-09,0.00199546165931547,2020-09-06
"178",88.5,0.00401631630249347,5.51278644899017e-06,1.0511155969297e-09,0.00200815867680454,2020-09-06
"179",89,0.00404174806413097,5.3262443692658e-06,9.63026938440005e-10,0.00202087451357896,2020-09-07
"180",89.5,0.00406721538051937,5.14602783899456e-06,8.82306616233195e-10,0.00203360813141299,2020-09-07
"181",90,0.00409271614487911,4.97192285776382e-06,8.08339563129613e-10,0.00204635847660934,2020-09-08
"182",90.5,0.00411824821952112,4.80372259952462e-06,7.40561938125033e-10,0.00205912448004153,2020-09-08
"183",91,0.00414380943594854,4.64122717682474e-06,6.78456870634622e-10,0.0020719050572027,2020-09-09
"184",91.5,0.00416939759497074,4.48424341249288e-06,6.21550557318577e-10,0.00208469910826065,2020-09-09
"185",92,0.00419501046682997,4.3325846185563e-06,5.69408682368597e-10,0.00209750551811933,2020-09-10
"186",92.5,0.00422064579134072,4.18607038217931e-06,5.21633134531262e-10,0.00211032315648693,2020-09-10
"187",93,0.0042463012780419,4.04452635841537e-06,4.77858996344719e-10,0.00212315087795045,2020-09-11
"188",93.5,0.0042719746063622,3.90778406957066e-06,4.37751783085022e-10,0.00213598752205699,2020-09-11
"189",94,0.00429766342579862,3.77568071098216e-06,4.01004910772558e-10,0.00214883191340176,2020-09-12
"190",94.5,0.00432336535610833,3.64805896301842e-06,3.67337374291016e-10,0.00216168286172285,2020-09-12
"191",95,0.00434907798751417,3.51966309198966e-06,3.36491618233519e-10,0.00217453916200289,2020-09-13
"192",95.5,0.00437479888092377,3.39166690419532e-06,3.08231584524426e-10,0.00218739959457768,2020-09-13
"193",96,0.00440052556816249,3.28317149177344e-06,2.82340922181359e-10,0.0022002629252517,2020-09-14
"194",96.5,0.00442625555222031,3.17962814811339e-06,2.58621345789858e-10,0.00221312790542083,2020-09-14
"195",97,0.00445198630751285,3.07943085575733e-06,2.36891130371596e-10,0.00222599327220199,2020-09-15
"196",97.5,0.00447771528015655,2.98246876087545e-06,2.16983731344416e-10,0.00223885774857014,2020-09-15
"197",98,0.00450343988825815,2.88863477753886e-06,1.98746519206076e-10,0.00225172004350234,2020-09-16
"198",98.5,0.00452915752221867,2.79782545613868e-06,1.82039619430305e-10,0.00226457885212915,2020-09-16
"199",99,0.00455486554505185,2.70994085653764e-06,1.66734848850007e-10,0.00227743285589335,2020-09-17
"200",99.5,0.00458056129271722,2.62488442577825e-06,1.52714740523855e-10,0.00229028072271598,2020-09-17
"201",100,0.00460624207446793,2.53988401197589e-06,1.39871649744493e-10,0.00230312110716979,2020-09-18
"202",100.5,0.00463190517321327,2.44411442991924e-06,1.28106934453978e-10,0.0023159526506601,2020-09-18
"203",101,0.00465754784589615,2.35195513451104e-06,1.17330203889398e-10,0.00232877398161318,2020-09-19
"204",101.5,0.00468316732388543,2.26327027101879e-06,1.0745862979295e-10,0.00234158371567203,2020-09-19
"205",102,0.00470876081338319,2.17792907636946e-06,9.84163149899068e-11,0.00235438045589975,2020-09-20
"206",102.5,0.00473432549584713,2.09580568969918e-06,9.01337145683266e-11,0.00236716279299042,2020-09-20
"207",103,0.00475985852842789,2.01677896986737e-06,8.25471052892265e-11,0.0023799293054875,2020-09-21
"208",103.5,0.00478535704442155,1.94073231968444e-06,7.55980992182278e-11,0.00239267856000983,2020-09-21
"209",104,0.00481081815373715,1.86755351661053e-06,6.92331979019957e-11,0.00240540911148517,2020-09-22
"210",104.5,0.00483623894337937,1.79713454969179e-06,6.34033837176753e-11,0.00241811950339137,2020-09-22
"211",105,0.00486161647794626,1.7293714625082e-06,5.80637453031848e-11,0.002430808268005,2020-09-23
"212",105.5,0.00488694780014214,1.66416420191554e-06,5.31731342327618e-11,0.00244347392665764,2020-09-23
"213",106,0.00491222993130548,1.60141647237127e-06,4.86938503374787e-11,0.00245611498999966,2020-09-24
"214",106.5,0.00493745987195188,1.54103559564179e-06,4.45913532862796e-11,0.00246872995827162,2020-09-24
"215",107,0.00496263460233205,1.48293237569542e-06,4.08339982410751e-11,0.00248131732158302,2020-09-25
"216",107.5,0.0049877510830047,1.42702096859275e-06,3.73927935810142e-11,0.00249387556019875,2020-09-25
"217",108,0.00501280625542436,1.37321875719218e-06,3.42411788576025e-11,0.00250640314483277,2020-09-26
"218",108.5,0.00503779704254399,1.32144623049542e-06,3.13548212950864e-11,0.00251889853694941,2020-09-26
"219",109,0.00506272034943232,1.27162686746359e-06,2.87114292906158e-11,0.00253136018907188,2020-09-27
"220",109.5,0.00508757306390585,1.22368702514074e-06,2.62905814971797e-11,0.00254378654509822,2020-09-27
"221",110,0.00511235205717534,1.1775558309275e-06,2.40735701901396e-11,0.00255617604062446,2020-09-28
"222",110.5,0.00513705418450678,1.13582668129595e-06,2.2043257726239e-11,0.00256852710327502,2020-09-28
"223",111,0.00519085772958232,1.10287160516222e-06,2.01839450030667e-11,0.00259542887488313,2020-09-29
"224",111.5,0.00524528652825554,1.07099046176437e-06,1.8481250917816e-11,0.0026226432733684,2020-09-29
"225",112,0.00530014484902935,1.04008582717803e-06,1.69220019075165e-11,0.00265007243297568,2020-09-30
"226",112.5,0.00535543280211615,1.01012630172569e-06,1.54941307293233e-11,0.00267771640880514,2020-09-30
"227",113,0.00541115040997835,9.81081534113556e-07,1.41865837095134e-11,0.00270557521208247,2020-10-01
"228",113.5,0.00546729760532947,9.52922185435318e-07,1.29892357540886e-11,0.00273364880915935,2020-10-01
"229",114,0.0055238742291242,9.25619894438244e-07,1.18928124727883e-11,0.00276193712050851,2020-10-02
"230",114.5,0.0055808800285383,8.99147244006454e-07,1.08888188223303e-11,0.00279044001971356,2020-10-02
"231",115,0.00563831465493919,8.73477728818041e-07,9.96947372422164e-12,0.00281915733245433,2020-10-03
"232",115.5,0.00569617766184824,8.48585724134175e-07,9.12765015788439e-12,0.00284808883548794,2020-10-03
"233",116,0.00575446850289557,8.2444645567988e-07,8.35682027147183e-12,0.0028772342556262,2020-10-04
"234",116.5,0.00581318652976845,8.01035970577619e-07,7.65100509091732e-12,0.00290659326870973,2020-10-04
"235",117,0.00587233099015428,7.78331109296244e-07,7.0047284427476e-12,0.00293616549857951,2020-10-05
"236",117.5,0.00593190102567929,7.56964400741917e-07,6.41297473827151e-12,0.00296595051604613,2020-10-05
"237",118,0.00599189566984395,7.34006185655606e-07,5.87115029616335e-12,0.00299594783785755,2020-10-06
"238",118.5,0.0060523138459564,7.09259374764358e-07,5.37504790741951e-12,0.00302615692566573,2020-10-06
"239",119,0.00611315436506489,6.85348029752625e-07,4.92081437138154e-12,0.00305657718499285,2020-10-07
"240",119.5,0.00617441592389065,6.62243970534685e-07,4.50492075417443e-12,0.00308720796419779,2020-10-07
"241",120,0.00623609710276233,6.39919963792758e-07,4.1241351416768e-12,0.00311804855344323,2020-10-08
"242",120.5,0.00629819636355337,6.18349691424371e-07,3.77549767817704e-12,0.00314909818366443,2020-10-08
"243",121,0.00636071204762366,5.97507720026674e-07,3.45629769931947e-12,0.00318035602553998,2020-10-09
"244",121.5,0.00642364237376682,5.77369471384422e-07,3.16405278394049e-12,0.00321182118846544,2020-10-09
"245",122,0.00648698543616461,5.57911193929321e-07,2.89648956405562e-12,0.00324349271953055,2020-10-10
"246",122.5,0.00655073920234987,5.39109935139473e-07,2.65152614569748e-12,0.0032753696025007,2020-10-10
"247",123,0.00661490151117956,5.20943514848613e-07,2.42725600562159e-12,0.00330745075680341,2020-10-11
"248",123.5,0.00667947007081937,5.03390499435777e-07,2.22193324018702e-12,0.00333973503652065,2020-10-11
"249",124,0.00674444245674159,4.86430176866949e-07,2.03395905306577e-12,0.00337222122938777,2020-10-12
"250",124.5,0.00680981610973778,4.70042532561131e-07,1.86186937791841e-12,0.00340490805579982,2020-10-12
"251",125,0.00687558833394797,4.54208226054143e-07,1.70432354086528e-12,0.00343779416782615,2020-10-13
"252",125.5,0.00694175629490808,4.38908568434282e-07,1.56009387554818e-12,0.00347087814823409,2020-10-13
"253",126,0.00700831701761721,4.24125500524811e-07,1.42805621087772e-12,0.00350415850952263,2020-10-14
"254",126.5,0.00707526738462678,4.09841571788997e-07,1.30718115825227e-12,0.00353763369296698,2020-10-14
"255",127,0.00714260413415318,3.96039919934222e-07,1.19652613116539e-12,0.00357130206767485,2020-10-15
"256",127.5,0.00721032385821578,3.82704251192396e-07,1.09522803573791e-12,0.0036051619296555,2020-10-15
"257",128,0.00727842300080232,3.69818821254654e-07,1.0024965758595e-12,0.00363921150090241,2020-10-16
"258",128.5,0.00734689785606347,3.57368416838985e-07,9.17608121343667e-13,0.00367344892849054,2020-10-16
"259",129,0.00741574456653856,3.45338337870145e-07,8.39900091823674e-13,0.00370787228368923,2020-10-17
"260",129.5,0.00748495912141458,3.33714380251834e-07,7.68765813079521e-13,0.00374247956109167,2020-10-17
"261",130,0.00755453735482019,3.22482819211792e-07,7.03649806116668e-13,0.00377726867776192,2020-10-18
"262",130.5,0.00762447494415719,3.11630393201037e-07,6.44043472644356e-13,0.00381223747240062,2020-10-18
"263",131,0.00769476740847114,3.0114428832911e-07,5.89481143649835e-13,0.00384738370453031,2020-10-19
"264",131.5,0.00776541010686354,2.91012123317747e-07,5.39536460558202e-13,0.00388270505370154,2020-10-19
"265",132,0.0078363982369475,2.81221934955958e-07,4.93819061027021e-13,0.00391819911872066,2020-10-20
"266",132.5,0.00790772683334917,2.71762164040072e-07,4.51971543770085e-13,0.00395386341690057,2020-10-20
"267",133,0.00797939076625712,2.6262164178277e-07,4.13666688953385e-13,0.00398969538333539,2020-10-21
"268",133.5,0.0080513847400218,2.5378957667572e-07,3.78604912675137e-13,0.0040256923702002,2020-10-21
"269",134,0.00812370329180739,2.45255541790852e-07,3.46511935845499e-13,0.00406185164607695,2020-10-22
"270",134.5,0.00819634079029815,2.37009462505837e-07,3.17136649434252e-13,0.00409817039530765,2020-10-22
"271",135,0.00826929143446179,2.29041604639781e-07,2.90249159568866e-13,0.00413464571737602,2020-10-23
"272",135.5,0.00834254925237181,2.21342562985607e-07,2.65638997352565e-13,0.00417127462631872,2020-10-23
"273",136,0.0084161081000913,2.13903250226015e-07,2.43113479542922e-13,0.00420805405016721,2020-10-24
"274",136.5,0.00848996166062054,2.0671488622036e-07,2.22496207395832e-13,0.00424498083042152,2020-10-24
"275",137,0.0085641034429105,1.99768987650174e-07,2.03625692046405e-13,0.00428205172155706,2020-10-25
"276",137.5,0.00863852678094471,1.93057358011484e-07,1.8635409577552e-13,0.00431926339056553,2020-10-25
"277",138,0.00871322483289179,1.86265719258216e-07,1.70546079405982e-13,0.00435661241653117,2020-10-26
"278",138.5,0.00878819058033094,1.7935695505664e-07,1.56077746892358e-13,0.00439409529024351,2020-10-26
"279",139,0.00886341682755264,1.72703564962793e-07,1.42835678919806e-13,0.00443170841384774,2020-10-27
"280",139.5,0.00893889620093696,1.66296147974712e-07,1.30716048015456e-13,0.00446944810053384,2020-10-27
"281",140,0.00901462114841179,1.60125647464447e-07,1.19623808306305e-13,0.00450731057426571,2020-10-28
"282",140.5,0.00909058393899313,1.54183338638454e-07,1.0947195363513e-13,0.0045452919695513,2020-10-28
"283",141,0.00916677666240988,1.4846081645124e-07,1.00180838274883e-13,0.00458338833125503,2020-10-29
"284",141.5,0.00924319122881535,1.42949983956012e-07,9.16775549666512e-14,0.00462159561445351,2020-10-29
"285",142,0.00931981936858763,1.3764304107669e-07,8.38953654500869e-14,0.00465990968433576,2020-10-30
"286",142.5,0.00939665263222118,1.32532473786172e-07,7.67731790618297e-14,0.00469832631614898,2020-10-30
"287",143,0.00947368239031174,1.27611043676277e-07,7.0255075349817e-14,0.004736841195191,2020-10-31
"288",143.5,0.00955089983363676,1.2287177790533e-07,6.42898669925142e-14,0.00477544991685052,2020-10-31
"289",144,0.00962829597333345,1.18307959509818e-07,5.88306996245251e-14,0.00481414798669614,2020-11-01
"290",144.5,0.00970586164117658,1.13913118067065e-07,5.38346854562209e-14,0.00485293082061521,2020-11-01
"291",145,0.0097835874899581,1.09681020696293e-07,4.92625678371332e-14,0.00489179374500368,2020-11-02
"292",145.5,0.0098614639939705,1.05605663385934e-07,4.50784141529327e-14,0.00493073199700779,2020-11-02
"293",146,0.00993948144959602,1.01681262635451e-07,4.12493346656902e-14,0.00496974072481863,2020-11-03
"294",146.5,0.0100176299760035,9.79022474003569e-08,3.77452251085012e-14,0.00500881498802061,2020-11-03
"295",147,0.0100958995159547,9.42632513295341e-08,3.4538531029997e-14,0.00504794975799463,2020-11-04
"296",147.5,0.0101742798367224,9.07591052843213e-08,3.16040320531886e-14,0.005087139918377,2020-11-04
"297",148,0.0102527605311209,8.73848301292332e-08,2.8918644367793e-14,0.00512638026557489,2020-11-05
"298",148.5,0.0103313310186519,8.41356297845234e-08,2.64612399168831e-14,0.00516566550933919,2020-11-05
"299",149,0.0104099805467669,8.10068845311588e-08,2.42124808684554e-14,0.00520499027339553,2020-11-06
"300",149.5,0.0104886981922466,7.79941445591066e-08,2.2154668081351e-14,0.00524434909613435,2020-11-06
"301",150,0.010567472862701,7.50931237501598e-08,2.02716023837897e-14,0.00528373643136065,2020-11-07
"302",150.5,0.0106462932981897,7.22996936868415e-08,1.85484575824447e-14,0.0053231466491041,2020-11-07
"303",151,0.0107251480729637,6.96098778792307e-08,1.6971664211255e-14,0.00536257403649035,2020-11-08
"304",151.5,0.0108040255973321,6.70198462018416e-08,1.5528803112754e-14,0.00540201279867384,2020-11-08
"305",152,0.0108829141196518,6.47584784159548e-08,1.42085080212363e-14,0.00544145705983298,2020-11-09
"306",152.5,0.0109618017284431,6.25933529663994e-08,1.30003763871742e-14,0.00548090086422804,2020-11-09
"307",153,0.0110406763546327,6.05017107062391e-08,1.18948877464813e-14,0.00552033817732229,2020-11-10
"308",153.5,0.0111195257739226,5.84810238494022e-08,1.08833289969996e-14,0.00555976288696672,2020-11-10
"309",154,0.0111983376092879,5.65288525714334e-08,9.95772599840212e-15,0.00559916880464892,2020-11-11
"310",154.5,0.0112770993336032,5.46428419199489e-08,9.11078096099487e-15,0.00563854966680614,2020-11-11
"311",155,0.0113557982723978,5.28207188343747e-08,8.33581513402563e-15,0.00567789913620307,2020-11-12
"312",155.5,0.011434421606741,5.10602892710832e-08,7.62671634543396e-15,0.00571721080337433,2020-11-12
"313",156,0.0115129563762569,4.93594354301835e-08,6.97789098281475e-15,0.00575647818813196,2020-11-13
"314",156.5,0.0115913894822694,4.77161130803518e-08,6.38422004001559e-15,0.0057956947411379,2020-11-13
"315",157,0.0116697076910772,4.61283489782201e-08,5.8410188855128e-15,0.00583485384554154,2020-11-14
"316",157.5,0.0117631771903801,4.45942383789625e-08,5.34400043775939e-15,0.00588158859519271,2020-11-14
"317",158,0.011879386356507,4.31119426348401e-08,4.88924145929611e-15,0.00593969317825595,2020-11-15
"318",158.5,0.0119958226933988,4.16796868785804e-08,4.47315170576914e-15,0.00599791134670163,2020-11-15
"319",159,0.0121124623517184,4.02957577885777e-08,4.0924456882964e-15,0.00605623117586123,2020-11-16
"320",159.5,0.0122292809772292,3.89585014330099e-08,3.74411682803974e-15,0.00611464048861645,2020-11-16
"321",160,0.0123462537152662,3.76663211900686e-08,3.42541380053279e-15,0.00617312685763479,2020-11-17
"322",160.5,0.0124633552157414,3.64176757416011e-08,3.13381888442844e-15,0.00623167760787228,2020-11-17
"323",161,0.0125805596386924,3.52110771375578e-08,2.86702814499909e-15,0.00629027981934763,2020-11-18
"324",161.5,0.0126978406603805,3.40450889287322e-08,2.62293329706879e-15,0.00634892033019155,2020-11-18
"325",162,0.0128151714799473,3.29183243653699e-08,2.39960510519079e-15,0.00640758573997484,2020-11-19
"326",162.5,0.0129325248266344,3.18294446593089e-08,2.19527819090901e-15,0.00646626241331829,2020-11-19
"327",163,0.013049872967573,3.07771573073979e-08,2.00833712795127e-15,0.00652493648378753,2020-11-20
"328",163.5,0.0131671877161484,2.97602144740172e-08,1.83730371628091e-15,0.00658359385807509,2020-11-20
"329",164,0.0132844404409424,2.87774114306089e-08,1.68082533516129e-15,0.00664222022047203,2020-11-21
"330",164.5,0.0134016020752599,2.78275850501906e-08,1.53766428383508e-15,0.00670080103763073,2020-11-21
"331",165,0.0135186431272395,2.69096123549064e-08,1.40668802615416e-15,0.00675932156362046,2020-11-22
"332",165.5,0.0136355336905518,2.60224091147333e-08,1.28686026257613e-15,0.00681776684527654,2020-11-22
"333",166,0.0137522434556861,2.51649284955289e-08,1.1772327594248e-15,0.00687612172784364,2020-11-23
"334",166.5,0.0138687417218259,2.42989688017443e-08,1.07693787124606e-15,0.00693437086091349,2020-11-23
"335",167,0.0139849974093121,2.34148845750474e-08,9.85181697522091e-16,0.00699249870465653,2020-11-24
"336",167.5,0.0141009790726927,2.2562964713977e-08,9.01237819979877e-16,0.00705048953634682,2020-11-24
"337",168,0.0142166549143569,2.17420394003857e-08,8.24441571281824e-16,0.00710832745717886,2020-11-25
"338",168.5,0.0143319927987486,2.09509813355321e-08,7.54184790053605e-16,0.0071659963993747,2020-11-25
"339",169,0.0144469602671574,2.01887041961922e-08,6.89911021018858e-16,0.00722348013357906,2020-11-26
"340",169.5,0.0145615245530788,1.94541611467463e-08,6.31111122502347e-16,0.00728076227653972,2020-11-26
"341",170,0.0146756525981395,1.87463434052166e-08,5.77319246759698e-16,0.00733782629907003,2020-11-27
"342",170.5,0.0147893110685789,1.80642788613036e-08,5.2810916151784e-16,0.0073946555342897,2020-11-27
"343",171,0.0149024663722791,1.74070307445392e-08,4.83090883788744e-16,0.00745123318613978,2020-11-28
"344",171.5,0.0150150846763334,1.67736963407426e-08,4.41907599470771e-16,0.0075075423381669,2020-11-28
"345",172,0.0151271319251426,1.61634057550301e-08,4.04232844496216e-16,0.0075635659625715,2020-11-29
"346",172.5,0.0152385738590284,1.55753207196953e-08,3.69767925337875e-16,0.00761928692951439,2020-11-29
"347",173,0.0153493760333496,1.50086334453324e-08,3.38239558567871e-16,0.00767468801667497,2020-11-30
"348",173.5,0.015459503838109,1.44673519000205e-08,3.09397710883078e-16,0.00772975191905464,2020-11-30
"349",174,0.0155689225180349,1.39744177888401e-08,2.8301362258699e-16,0.00778446125901758,2020-12-01
"350",174.5,0.0156775971931223,1.34983044016311e-08,2.58877998959815e-16,0.00783879859656128,2020-12-01
"351",175,0.0157854928796163,1.30384369350001e-08,2.36799355268555e-16,0.00789274643980827,2020-12-02
"352",175.5,0.0158925745114198,1.25942602536098e-08,2.16602502376862e-16,0.00794628725570999,2020-12-02
"353",176,0.0159988069619069,1.21652382164269e-08,1.98127161020281e-16,0.00799940348095353,2020-12-03
"354",176.5,0.0161041550661221,1.17508530260706e-08,1.81226693824566e-16,0.00805207753306115,2020-12-03
"355",177,0.0162085836433441,1.13506046004703e-08,1.65766945071088e-16,0.00810429182167212,2020-12-04
"356",177.5,0.016312057519992,1.09640099660665e-08,1.51625179061245e-16,0.00815602875999606,2020-12-04
"357",178,0.0164145415528524,1.05906026718169e-08,1.38689108707766e-16,0.00820727077642627,2020-12-05
"358",178.5,0.0165160006526025,1.0229932223292e-08,1.26856006691055e-16,0.0082580003263013,2020-12-05
"359",179,0.0166163998076048,9.88156353617297e-09,1.16031892168784e-16,0.00830819990380246,2020-12-06
"360",179.5,0.0167157041079489,9.5450764084848e-09,1.06130786621873e-16,0.00835785205397453,2020-12-06
"361",180,0.0168138787697133,9.22006501092268e-09,9.70740329645262e-17,0.00840693938485667,2020-12-07
"362",180.5,0.01691088915942,8.9061373946504e-09,8.87896725443444e-17,0.00845544457971003,2020-12-07
"363",181,0.0170067008186561,8.60291501597183e-09,8.1211875114619e-17,0.00850335040932809,2020-12-08
"364",181.5,0.0171012794888316,8.31003227729631e-09,7.42804172783615e-17,0.00855063974441586,2020-12-08
"365",182,0.0171945911360462,8.0271360838391e-09,6.79402052856289e-17,0.00859729556802315,2020-12-09
"366",182.5,0.0172866019760346,7.75388541551713e-09,6.2140838415341e-17,0.00864330098801731,2020-12-09
"367",183,0.0173772784991607,7.48995091351872e-09,5.68362094927605e-17,0.00868863924958038,2020-12-10
"368",183.5,0.0174665874954306,7.23501448104389e-09,5.19841393866338e-17,0.00873329374771531,2020-12-10
"369",184,0.0175544960794917,6.98876889772921e-09,4.75460425979836e-17,0.00877724803974585,2020-12-11
"370",184.5,0.0176409717155886,6.75091744728779e-09,4.3486621297799e-17,0.00882048585779434,2020-12-11
"371",185,0.0177259822424433,6.52117355791097e-09,3.97735853953112e-17,0.00886299112122168,2020-12-12
"372",185.5,0.0178094958980268,6.29926045499416e-09,3.63773964239464e-17,0.00890474794901342,2020-12-12
"373",186,0.0178914813441921,6.0849108257639e-09,3.32710332200149e-17,0.00894574067209605,2020-12-13
"374",186.5,0.0179719076911345,5.87786649539803e-09,3.04297775412133e-17,0.00898595384556727,2020-12-13
"375",187,0.0180507445216482,5.67787811424484e-09,2.78310179294332e-17,0.00902537226082413,2020-12-14
"376",187.5,0.018127961915146,5.48470485576028e-09,2.54540702664249e-17,0.00906398095757302,2020-12-14
"377",188,0.0182035304714104,5.29811412479584e-09,2.32800136026903e-17,0.0091017652357052,2020-12-15
"378",188.5,0.0182774213340441,5.11788127588203e-09,2.1291539960614e-17,0.00913871066702205,2020-12-15
"379",189,0.0183496062135879,4.94378934116455e-09,1.94728169232327e-17,0.00917480310679394,2020-12-16
"380",189.5,0.0184200574102741,4.77562876766226e-09,1.7809361921062e-17,0.00921002870513705,2020-12-16
"381",190,0.0184887478363848,4.61319716352712e-09,1.62879272218399e-17,0.00924437391819239,2020-12-17
"382",190.5,0.0185556510381834,4.45629905299743e-09,1.48963947126355e-17,0.00927782551909168,2020-12-17
"383",191,0.0186207412173896,4.30474563974632e-09,1.36236796411759e-17,0.00931037060869482,2020-12-18
"384",191.5,0.0186839932521681,4.15835457833739e-09,1.24596425540766e-17,0.00934199662608404,2020-12-18
"385",192,0.0187453827176002,4.01694975350976e-09,1.13950087344719e-17,0.00937269135880011,2020-12-19
"386",192.5,0.0188048859056124,3.8803610670238e-09,1.04212945008514e-17,0.0094024429528062,2020-12-19
"387",193,0.0188624798443311,3.74842423180845e-09,9.53073978317644e-18,0.00943123992216554,2020-12-20
"388",193.5,0.0189181423168385,3.62098057315968e-09,8.71624644200775e-18,0.00945907115841928,2020-12-20
"389",194,0.0189718518793026,3.49787683674833e-09,7.97132184181509e-18,0.00948592593965128,2020-12-21
"390",194.5,0.0190235878784547,3.37896500320389e-09,7.29002723121477e-18,0.00951179393922734,2020-12-21
"391",195,0.0190733304683928,3.26410210904867e-09,6.66693052092577e-18,0.00953666523419641,2020-12-22
"392",195.5,0.0191210606266844,3.15315007376479e-09,6.09706308504417e-18,0.0095605303133422,2020-12-22
"393",196,0.0191667601697478,3.04597553278348e-09,5.57588024308723e-18,0.00958338008487388,2020-12-23
"394",196.5,0.0192104117674906,2.94244967619391e-09,5.0992251094017e-18,0.0096052058837453,2020-12-23
"395",197,0.019251998957185,2.8424480929753e-09,4.66329552319709e-18,0.0096259994785925,2020-12-24
"396",197.5,0.0192915061565603,2.74585062056303e-09,4.26461379686348e-18,0.00964575307828016,2020-12-24
"397",198,0.019328918676096,2.65254119956589e-09,3.89999904255768e-18,0.009664459338048,2020-12-25
"398",198.5,0.0193642227304978,2.56240773345786e-09,3.56654185746781e-18,0.00968211136524889,2020-12-25
"399",199,0.0193974054493422,2.4753419530739e-09,3.26158116685511e-18,0.00969870272467111,2020-12-26
"400",199.5,0.0194284548868754,2.39123928574522e-09,2.98268304107176e-18,0.00971422744343771,2020-12-26
"401",200,0.0194573600309536,2.30999872891472e-09,2.7276213183986e-18,0.0097286800154768,2020-12-27
"402",200.5,0.0194841108111143,2.23152272807931e-09,2.49435987986122e-18,0.00974205540555716,2020-12-27
"403",201,0.0195086981057684,2.15571705891074e-09,2.2810364352799e-18,0.00975434905288418,2020-12-28
"404",201.5,0.0195311137485043,2.08249071341158e-09,2.08594769179145e-18,0.00976555687425214,2020-12-28
"405",202,0.0195513505334984,2.01175578996826e-09,1.90753578704461e-18,0.00977567526674918,2020-12-29
"406",202.5,0.0195694022200247,1.94342738716753e-09,1.74437587930082e-18,0.00978470111001234,2020-12-29
"407",203,0.0195852635360611,1.8774235012473e-09,1.59516479584969e-18,0.00979263176803056,2020-12-30
"408",203.5,0.0195989301809888,1.81366492705748e-09,1.45871064954408e-18,0.00979946509049442,2020-12-30
"409",204,0.0196103988273838,1.75207516241034e-09,1.333923340942e-18,0.00980519941369191,2020-12-31
"410",204.5,0.0196196671219012,1.69258031570445e-09,1.21980587056975e-18,0.00980983356095058,2020-12-31
"411",205,0.0196267336852533,1.63510901670985e-09,1.11544639225087e-18,0.00981336684262667,2021-01-01
"412",205.5,0.0196315981112861,1.57959233040623e-09,1.02001094432784e-18,0.00981579905564304,2021-01-01
"413",206,0.019634260965156,1.52596367376956e-09,9.32736800984977e-19,0.009817130482578,2021-01-02
"414",206.5,0.0196347237806161,1.47415873540602e-09,8.52926390804674e-19,0.00981736189030807,2021-01-02
"415",207,0.0196329890564168,1.42411539793579e-09,7.79941734193581e-19,0.00981649452820839,2021-01-03
"416",207.5,0.01962906025183,1.37577366303244e-09,7.13199355435977e-19,0.00981453012591499,2021-01-03
"417",208,0.019622941781308,1.32907557902702e-09,6.52165628901763e-19,0.009811470890654,2021-01-04
"418",208.5,0.0196146390082868,1.28396517098886e-09,5.96352522385385e-19,0.00980731950414342,2021-01-04
"419",209,0.0196041582381474,1.24038837319837e-09,5.45313703707267e-19,0.00980207911907372,2021-01-05
"420",209.5,0.0195915067103483,1.19829296392982e-09,4.98640979595862e-19,0.00979575335517413,2021-01-05
"421",210,0.019576692589744,1.15762850246507e-09,4.55961038509135e-19,0.00978834629487202,2021-01-06
"422",210.5,0.0195597249571074,1.11834626826173e-09,4.16932471470036e-19,0.00977986247855368,2021-01-06
"423",211,0.0195406137988694,1.08039920220204e-09,3.81243047200532e-19,0.00977030689943469,2021-01-07
"424",211.5,0.0195193699960988,1.04374184985113e-09,3.4860721986047e-19,0.00975968499804938,2021-01-07
"425",212,0.0194960053127375,1.00833030665599e-09,3.1876384954705e-19,0.00974800265636876,2021-01-08
"426",212.5,0.0194705323831144,9.74122165018546e-10,2.91474117402587e-19,0.0097352661915572,2021-01-08
"427",213,0.0194429646987565,9.41076463178671e-10,2.66519618726016e-19,0.00972148234937825,2021-01-09
"428",213.5,0.0194133165945216,9.09153635845296e-10,2.43700618899435e-19,0.00970665829726078,2021-01-09
"429",214,0.0193816032340735,8.78315466515599e-10,2.22834458236256e-19,0.00969080161703676,2021-01-10
"430",214.5,0.0193478405947248,8.48525041424564e-10,2.03754093042314e-19,0.00967392029736241,2021-01-10
"431",215,0.01931204545167,8.19746705069066e-10,1.86306761265194e-19,0.00965602272583499,2021-01-11
"432",215.5,0.019274235361635,7.9194601725257e-10,1.70352762098502e-19,0.00963711768081751,2021-01-11
"433",216,0.0192344286459685,7.650897115984e-10,1.5576433981477e-19,0.00961721432298426,2021-01-12
"434",216.5,0.0191926443732003,7.39145655481279e-10,1.42424662930371e-19,0.00959632218660016,2021-01-12
"435",217,0.0191489023410941,7.14082811328618e-10,1.30226890564731e-19,0.00957445117054705,2021-01-13
"436",217.5,0.0191032230582211,6.8987119924464e-10,1.19073318550376e-19,0.00955161152911053,2021-01-13
"437",218,0.0190556277250819,6.66481860912079e-10,1.08874598485394e-19,0.00952781386254096,2021-01-14
"438",218.5,0.0190061382148047,6.43886824727705e-10,9.95490235007815e-20,0.00950306910740235,2021-01-14
"439",219,0.0189547770534462,6.22059072129468e-10,9.10218750465348e-20,0.00947738852672312,2021-01-15
"440",219.5,0.0189015673999256,6.00972505074456e-10,8.32248254863734e-20,0.00945078369996281,2021-01-15
"441",220,0.0188465330256172,5.80601914628298e-10,7.6095391735617e-20,0.00942326651280861,2021-01-16
"442",220.5,0.0187896982936322,5.60922950627965e-10,6.95764355834086e-20,0.0093948491468161,2021-01-16
"443",221,0.0187310881378163,5.41912092381244e-10,6.36157067124849e-20,0.00936554406890814,2021-01-17
"444",221.5,0.0186707280414924,5.23546620367409e-10,5.81654247699718e-20,0.00933536402074618,2021-01-17
"445",222,0.0186086440159759,5.05804588904824e-10,5.31818971539238e-20,0.00930432200798793,2021-01-18
"446",222.5,0.0185448625788912,4.88664799752405e-10,4.86251694650333e-20,0.00927243128944559,2021-01-18
"447",223,0.0184794107323168,4.72106776612981e-10,4.44587058333384e-20,0.00923970536615839,2021-01-19
"448",223.5,0.018412315940787,4.56110740507697e-10,4.06490965679569e-20,0.00920615797039349,2021-01-19
"449",224,0.0183436061091773,4.40657585991669e-10,3.71657907957442e-20,0.00917180305458866,2021-01-20
"450",224.5,0.0182733095605012,4.25728858182097e-10,3.39808519540561e-20,0.00913665478025059,2021-01-20
"451",225,0.0182014550136437,4.11306730571054e-10,3.10687341850719e-20,0.00910072750682184,2021-01-21
"452",225.5,0.0181280715610599,3.97373983596113e-10,2.84060778458626e-20,0.00906403578052997,2021-01-21
"453",226,0.0180531886464628,3.83913983942877e-10,2.59715225008767e-20,0.00902659432323139,2021-01-22
"454",226.5,0.0179768360425261,3.70910664554385e-10,2.37455359030049e-20,0.00898841802126303,2021-01-22
"455",227,0.0178990438286279,3.58348505323223e-10,2.17102575969556e-20,0.00894952191431394,2021-01-23
"456",227.5,0.0178198423686584,3.46212514442988e-10,1.98493558953631e-20,0.00890992118432921,2021-01-23
"457",228,0.0177392622889161,3.34488210396543e-10,1.81478970847786e-20,0.00886963114445806,2021-01-24
"458",228.5,0.0176573344561153,3.2316160455931e-10,1.65922258163099e-20,0.00882866722805764,2021-01-24
"459",229,0.0175740899555276,3.12219184396555e-10,1.51698557249582e-20,0.00878704497776382,2021-01-25
"460",229.5,0.01748956006928,3.0164789723435e-10,1.38693694033645e-20,0.00874478003464002,2021-01-25
"461",230,0.0174037762548291,2.91435134584611e-10,1.2680326930365e-20,0.00870188812741456,2021-01-26
"462",230.5,0.0173167701236337,2.81568717005255e-10,1.15931822230694e-20,0.00865838506181686,2021-01-26
"463",231,0.0172285734200448,2.72036879477191e-10,1.05992065436523e-20,0.00861428671002239,2021-01-27
"464",231.5,0.0171392180004317,2.62828257280469e-10,9.69041854919605e-21,0.00856960900021587,2021-01-27
"465",232,0.0170487358125639,2.5393187235252e-10,8.85952032518437e-21,0.00852436790628195,2021-01-28
"466",232.5,0.016957158875264,2.45337120112021e-10,8.09983889104979e-21,0.008478579437632,2021-01-28
"467",233,0.0168645192583512,2.37033756732455e-10,7.40527270989446e-21,0.00843225962917562,2021-01-29
"468",233.5,0.0167708490628893,2.29011886850001e-10,6.77024277449013e-21,0.00838542453144467,2021-01-29
"469",234,0.016676180401755,2.2126195169091e-10,6.18964787823181e-21,0.00833809020087749,2021-01-30
"470",234.5,0.0165805453805413,2.13774717604025e-10,5.65882371316568e-21,0.00829027269027063,2021-01-30
"471",235,0.0164839760788093,2.06541264984608e-10,5.17350546780038e-21,0.00824198803940464,2021-01-31
"472",235.5,0.0163865045317013,1.99552977576091e-10,4.72979362538679e-21,0.00819325226585064,2021-01-31
"473",236,0.0162881627119267,1.92801532136849e-10,4.32412268893675e-21,0.00814408135596337,2021-02-01
"474",236.5,0.0161889825121332,1.86278888459502e-10,3.95323258265118e-21,0.0080944912560666,2021-02-01
"475",237,0.0160889957276719,1.79977279730731e-10,3.61414250082842e-21,0.00804449786383593,2021-02-02
"476",237.5,0.0159882340397676,1.7388920321994e-10,3.30412699489553e-21,0.00799411701988382,2021-02-02
"477",238,0.0158867289991026,1.68007411285551e-10,3.02069410710483e-21,0.00794336449955131,2021-02-03
"478",238.5,0.015784512009821,1.62324902688082e-10,2.76156537580793e-21,0.00789225600491052,2021-02-03
"479",239,0.0156816143139628,1.56834914199506e-10,2.52465755219047e-21,0.00784080715698139,2021-02-04
"480",239.5,0.0155780669763323,1.51530912498797e-10,2.30806588204242e-21,0.00778903348816616,2021-02-04
"481",240,0.0154739008698085,1.46406586343866e-10,2.11004881866015e-21,0.00773695043490424,2021-02-05
"482",240.5,0.0153691466611006,1.4145583901046e-10,1.92901404442762e-21,0.00768457333055028,2021-02-05
"483",241,0.0152638347969547,1.36672780988901e-10,1.76350568909663e-21,0.00763191739847733,2021-02-06
"484",241.5,0.0151579954908142,1.32051722929854e-10,1.61219264236303e-21,0.00757899774540711,2021-02-06
"485",242,0.0150516587099374,1.27587168830633e-10,1.47385786709457e-21,0.00752582935496869,2021-02-07
"486",242.5,0.0149448541629738,1.23273809453814e-10,1.3473886275758e-21,0.0074724270814869,2021-02-07
"487",243,0.0148376112880022,1.19106515970235e-10,1.23176755446036e-21,0.00741880564400111,2021-02-08
"488",243.5,0.0147299592410298,1.15080333818714e-10,1.12606447481992e-21,0.00736497962051489,2021-02-08
"489",244,0.0146219268849536,1.11190476775091e-10,1.02942894180491e-21,0.00731096344247682,2021-02-09
"490",244.5,0.0145135427789844,1.0743232122344e-10,9.4108340403462e-22,0.00725677138949222,2021-02-09
"491",245,0.0144048351685307,1.03801400622557e-10,8.60316959957092e-22,0.00720241758426536,2021-02-10
"492",245.5,0.0142958319755431,1.00293400161047e-10,7.8647964710476e-22,0.00714791598777156,2021-02-10
"493",246,0.0141865607893161,9.69041515945877e-11,7.18977220455838e-22,0.00709328039465807,2021-02-11
"494",246.5,0.0140770488577452,9.36296282591299e-11,6.57266378029749e-22,0.00703852442887262,2021-02-11
"495",247,0.0139673230790359,9.04659402540517e-11,6.00850395427732e-22,0.00698366153951797,2021-02-12
"496",247.5,0.013857409993862,8.74093297894479e-11,5.49275134306282e-22,0.00692870499693099,2021-02-12
"497",248,0.013747335777968,8.44561666919624e-11,5.02125392767353e-22,0.00687366788898401,2021-02-13
"498",248.5,0.0136371262352131,8.16029440637498e-11,4.590215683892e-22,0.00681856311760654,2021-02-13
"499",249,0.0135268067910494,7.8846274089341e-11,4.19616607127351e-22,0.0067634033955247,2021-02-14
"500",249.5,0.0134164024864321,7.6182883985365e-11,3.83593213606418e-22,0.00670820124321607,2021-02-14
"501",250,0.0133059379721537,7.36096120882528e-11,3.5066130041873e-22,0.00665296898607684,2021-02-15
"502",250.5,0.0131954375035974,7.11234040752162e-11,3.20555655961732e-22,0.00659771875179869,2021-02-15
"503",251,0.0130849249359038,6.87213093139518e-11,2.9303381209816e-22,0.00654246246795188,2021-02-16
"504",251.5,0.0129744237195433,6.64700648225429e-11,2.67874094525171e-22,0.00648721185977165,2021-02-16
"505",252,0.0128639568962884,6.42929617396232e-11,2.44873840203649e-22,0.00643197844814421,2021-02-17
"506",252.5,0.0127758039903793,6.21871696043649e-11,2.23847767538641e-22,0.00638790199518963,2021-02-17
"507",253,0.0127554606768292,6.0150352495047e-11,2.04626486226925e-22,0.00637773033841458,2021-02-18
"508",253.5,0.0127341757545269,5.81802510119213e-11,1.87055134807943e-22,0.00636708787726343,2021-02-18
"509",254,0.0127119563095675,5.62746797702866e-11,1.70992134978696e-22,0.00635597815478377,2021-02-19
"510",254.5,0.0126888096805368,5.44716069619655e-11,1.56308052669889e-22,0.0063444048402684,2021-02-19
"511",255,0.0126647434536637,5.27302045495187e-11,1.42884556737143e-22,0.00633237172683183,2021-02-20
"512",255.5,0.0126397654578505,5.10445011744114e-11,1.3061346690429e-22,0.00631988272892526,2021-02-20
"513",256,0.0126138837595855,4.94127143043219e-11,1.19395883311961e-22,0.00630694187979276,2021-02-21
"514",256.5,0.0125871066577426,4.78331184892364e-11,1.09141390679536e-22,0.00629355332887131,2021-02-21
"515",257,0.0125594426782748,4.63040435321239e-11,9.97673306873347e-23,0.00627972133913738,2021-02-22
"516",257.5,0.0125309005688055,4.48238727182898e-11,9.11981367334952e-23,0.00626545028440276,2021-02-22
"517",258,0.012501489293125,4.33910411015248e-11,8.33647257206475e-23,0.0062507446465625,2021-02-23
"518",258.5,0.0124712180255952,4.20040338452238e-11,7.62039419853044e-23,0.00623560901279758,2021-02-23
"519",259,0.0124400961454707,4.06613846167105e-11,6.96580489015126e-23,0.00622004807273533,2021-02-24
"520",259.5,0.0124081332311402,3.9361674033059e-11,6.36742640730746e-23,0.0062040666155701,2021-02-24
"521",260,0.0123753390542947,3.81035281567592e-11,5.82043343786529e-23,0.00618766952714735,2021-02-25
"522",260.5,0.0123417235740273,3.68856170396251e-11,5.32041474540977e-23,0.00617086178701363,2021-02-25
"523",261,0.0123072969308712,3.57066533133975e-11,4.86333764889615e-23,0.00615364846543561,2021-02-26
"524",261.5,0.0122720694407813,3.45653908255417e-11,4.44551554817328e-23,0.00613603472039067,2021-02-26
"525",262,0.0122360515890642,3.34606233187904e-11,4.06357823429712e-23,0.0061180257945321,2021-02-27
"526",262.5,0.0121992540242631,3.23911831530258e-11,3.71444474592256e-23,0.00609962701213156,2021-02-27
"527",263,0.0121616875520034,3.13559400681434e-11,3.39529855351585e-23,0.00608084377600172,2021-02-28
"528",263.5,0.0121233631288033,3.03537999865815e-11,3.10356487183211e-23,0.00606168156440167,2021-02-28
"529",264,0.0120842918558562,2.93837038542425e-11,2.83688991820269e-23,0.00604214592792809,2021-03-01
"530",264.5,0.0120444849727894,2.84446265185758e-11,2.59312194981255e-23,0.0060222424863947,2021-03-01
"531",265,0.0120039538514056,2.75355756426275e-11,2.37029392744444e-23,0.00600197692570279,2021-03-02
"532",265.5,0.011962709989411,2.66555906539038e-11,2.16660766623769e-23,0.00598135499470549,2021-03-02
"533",266,0.0119207650041369,2.58037417269311e-11,1.98041934596162e-23,0.00596038250206843,2021-03-03
"534",266.5,0.0118781306262588,2.4979128798431e-11,1.81022626423126e-23,0.00593906531312939,2021-03-03
"535",267,0.0118348186935188,2.41808806140631e-11,1.65465472608462e-23,0.00591740934675941,2021-03-04
"536",267.5,0.0117908411444561,2.34081538057248e-11,1.5124489724766e-23,0.00589542057222806,2021-03-04
"537",268,0.0117462100121505,2.26601319984248e-11,1.38246105859705e-23,0.00587310500607526,2021-03-05
"538",268.5,0.011700937417984,2.19246945450663e-11,1.26364160055813e-23,0.00585046870899198,2021-03-05
"539",269,0.0116550355654248,2.12042128337699e-11,1.1550313159784e-23,0.00582751778271242,2021-03-06
"540",269.5,0.0116085167338397,2.05074559496521e-11,1.0557532903757e-23,0.00580425836691986,2021-03-06
"541",270,0.0115613932723369,1.98336410553138e-11,9.65005907118172e-24,0.00578069663616845,2021-03-07
"542",270.5,0.0115136775936465,1.91820111971428e-11,8.82056384019668e-24,0.00575683879682325,2021-03-07
"543",271,0.0114653821680414,1.85518344477325e-11,8.06234864545507e-24,0.00573269108402071,2021-03-08
"544",271.5,0.0114165195173031,1.79424030767737e-11,7.36929016056088e-24,0.00570825975865153,2021-03-08
"545",272,0.0113671022087364,1.73530327494711e-11,6.73579091594769e-24,0.00568355110436822,2021-03-09
"546",272.5,0.0113171428492381,1.6783061751569e-11,6.15673415456011e-24,0.00565857142461907,2021-03-09
"547",273,0.0112666540794214,1.62318502401018e-11,5.62744256179484e-24,0.0056333270397107,2021-03-10
"548",273.5,0.0112156485678019,1.56987795190123e-11,5.14364053733398e-24,0.00560782428390093,2021-03-10
"549",274,0.0111641390050476,1.51832513388114e-11,4.70141970500561e-24,0.00558206950252382,2021-03-11
"550",274.5,0.0111121380982971,1.46846872194798e-11,4.29720738286622e-24,0.00555606904914853,2021-03-11
"551",275,0.0110596585655478,1.42025277958382e-11,3.92773775952506e-24,0.0055298292827739,2021-03-12
"552",275.5,0.01100671313012,1.37362321846395e-11,3.59002554451307e-24,0.00550335656506001,2021-03-12
"553",276,0.0109533145151972,1.32852773726595e-11,3.28134188041471e-24,0.00547665725759861,2021-03-13
"554",276.5,0.0108994754384473,1.284915762509e-11,2.99919232268872e-24,0.00544973771922366,2021-03-13
"555",277,0.0108452086067269,1.24273839135566e-11,2.74129670975043e-24,0.00542260430336345,2021-03-14
"556",277.5,0.0107905267108713,1.20194833631114e-11,2.50557076110815e-24,0.00539526335543566,2021-03-14
"557",278,0.0107354424205732,1.16249987175685e-11,2.29010925525987e-24,0.00536772121028658,2021-03-15
"558",278.5,0.0106799683793515,1.12434878225722e-11,2.09317065177837e-24,0.00533998418967576,2021-03-15
"559",279,0.0106241171996142,1.08745231258098e-11,1.91316303364282e-24,0.00531205859980709,2021-03-16
"560",279.5,0.0105679014578151,1.05176911937983e-11,1.74863125650824e-24,0.00528395072890753,2021-03-16
"561",280,0.0105113336897086,1.01725922446945e-11,1.59824520132503e-24,0.00525566684485431,2021-03-17
"562",280.5,0.0104544263857034,9.83883969659604e-12,1.46078903560852e-24,0.00522721319285172,2021-03-17
"563",281,0.0103971919863163,9.51605973081879e-12,1.33515139678351e-24,0.00519859599315815,2021-03-18
"564",281.5,0.0103396428777287,9.20389086965257e-12,1.22031641845709e-24,0.00516982143886433,2021-03-18
"565",282,0.0102817913874467,8.9019835681149e-12,1.11535552726446e-24,0.00514089569372333,2021-03-19
"566",282.5,0.0102236497800664,8.60999981923716e-12,1.01941994414077e-24,0.00511182489003322,2021-03-19
"567",283,0.0101652302531454,8.32761277243399e-12,9.3173382954855e-25,0.00508261512657268,2021-03-20
"568",283.5,0.0101065449331808,8.05450636452123e-12,8.51588017379095e-25,0.00505327246659038,2021-03-20
"569",284,0.0100476058716967,7.79037496296242e-12,7.78334286990714e-25,0.00502380293584837,2021-03-21
"570",284.5,0.00998842504144013,7.53492302093768e-12,7.11380127183425e-25,0.00499421252072007,2021-03-21
"571",285,0.00992901433268602,7.28786474384237e-12,6.50183949874988e-25,0.00496450716634301,2021-03-22
"572",285.5,0.00986938554965366,7.04892376683609e-12,5.94250714867914e-25,0.00493469277482683,2021-03-22
"573",286,0.00980955040703314,6.81783284307506e-12,5.43127930410976e-25,0.00490477520351657,2021-03-23
"574",286.5,0.00974952052662304,6.59433354227315e-12,4.96401997288281e-25,0.00487476026331152,2021-03-23
"575",287,0.00968930743407947,6.37817595924883e-12,4.53694866938595e-25,0.00484465371703973,2021-03-24
"576",287.5,0.0096289225557765,6.16911843212634e-12,4.14660986639525e-25,0.00481446127788825,2021-03-24
"577",288,0.00956837721577806,5.96692726987082e-12,3.78984507105914e-25,0.00478418860788903,2021-03-25
"578",288.5,0.0095076826329211,5.77137648884747e-12,3.46376729967852e-25,0.00475384131646055,2021-03-25
"579",289,0.00944684991801001,5.58224755810535e-12,3.16573774528207e-25,0.004723424959005,2021-03-26
"580",289.5,0.0093858900711218,5.39932915309621e-12,2.89334444968052e-25,0.0046929450355609,2021-03-26
"581",290,0.00932481397902181,5.22241691754846e-12,2.64438280785098e-25,0.0046624069895109,2021-03-27
"582",290.5,0.00926363241268935,5.05131323322575e-12,2.41683774728191e-25,0.00463181620634467,2021-03-27
"583",291,0.00920235602495282,4.88582699730846e-12,2.20886743842044e-25,0.00460117801247641,2021-03-28
"584",291.5,0.00914099534823354,4.72577340714529e-12,2.01878840471548e-25,0.00457049767411677,2021-03-28
"585",292,0.00907956079239764,4.5709737521304e-12,1.84506191204152e-25,0.00453978039619882,2021-03-29
"586",292.5,0.00901806264271512,4.42125521246974e-12,1.68628152760989e-25,0.00450903132135756,2021-03-29
"587",293,0.0089565110579252,4.27645066460809e-12,1.5411617479111e-25,0.0044782555289626,2021-03-30
"588",293.5,0.0088949160684071,4.13639849309591e-12,1.40852760385753e-25,0.00444745803420355,2021-03-30
"589",294,0.008833287574455,4.0009424086823e-12,1.28730515918184e-25,0.0044166437872275,2021-03-31
"590",294.5,0.00877163534465624,3.86993127242782e-12,1.17651282535525e-25,0.00438581767232812,2021-03-31
"591",295,0.00870996901437154,3.7432189256373e-12,1.07525342287959e-25,0.00435498450718577,2021-04-01
"592",295.5,0.00864829808431598,3.62066402541995e-12,9.82706924831449e-26,0.00432414904215799,2021-04-01
"593",296,0.00858663191923948,3.50212988568983e-12,8.98123824043736e-26,0.00429331595961974,2021-04-02
"594",296.5,0.00852497974670536,3.38748432342677e-12,8.20819070343946e-26,0.00426248987335268,2021-04-02
"595",297,0.00846335065596576,3.27659951002286e-12,7.50166528870744e-26,0.00423167532798288,2021-04-03
"596",297.5,0.00840175359693221,3.16935182754641e-12,6.85593914697057e-26,0.00420087679846611,2021-04-03
"597",298,0.00834019737924008,3.06562172976001e-12,6.26578162833647e-26,0.00417009868962004,2021-04-04
"598",298.5,0.00827869067140524,2.96529360773532e-12,5.72641196202485e-26,0.00413934533570262,2021-04-04
"599",299,0.00821724200007144,2.86825565991222e-12,5.23346057382858e-26,0.00410862100003572,2021-04-05
"600",299.5,0.0081558597493467,2.77439976645499e-12,4.78293372870695e-26,0.00407792987467335,2021-04-05
"601",300,0.00809455216022712,2.68362136776321e-12,4.37118121276983e-26,0.00404727608011356,2021-04-06
"602",300.5,0.00803332733010645,2.59581934699961e-12,3.99486679345833e-26,0.00401666366505323,2021-04-06
"603",301,0.00797219321236965,2.51089591650188e-12,3.65094121916703e-26,0.00398609660618483,2021-04-07
"604",301.5,0.0079111576160687,2.42875650794974e-12,3.3366175400647e-26,0.00395557880803435,2021-04-07
"605",302,0.00785022820567898,2.34930966616283e-12,3.04934855062099e-26,0.00392511410283949,2021-04-08
"606",302.5,0.00778941250093433,2.27246694640918e-12,2.78680617148615e-26,0.00389470625046717,2021-04-08
"607",303,0.00772871787673912,2.19814281510799e-12,2.54686260403917e-26,0.00386435893836956,2021-04-09
"608",303.5,0.00766815156315534,2.12625455381428e-12,2.32757310524109e-26,0.00383407578157767,2021-04-09
"609",304,0.00760772064546303,2.05672216637675e-12,2.12716024352265e-26,0.00380386032273151,2021-04-10
"610",304.5,0.00754743206429217,1.9894682891637e-12,1.94399950840231e-26,0.00377371603214609,2021-04-10
"611",305,0.00748729261582414,1.9244181042555e-12,1.77660615747005e-26,0.00374364630791207,2021-04-11
"612",305.5,0.00742730895206089,1.86149925550533e-12,1.62362319437202e-26,0.00371365447603045,2021-04-11
"613",306,0.00736748758116003,1.80064176737327e-12,1.48381038057132e-26,0.00368374379058002,2021-04-12
"614",306.5,0.00730783486783391,1.74177796644184e-12,1.3560341920158e-26,0.00365391743391696,2021-04-12
"615",307,0.00724835703381083,1.68484240552434e-12,1.23925863948092e-26,0.00362417851690541,2021-04-13
"616",307.5,0.00718906015835651,1.62977179028006e-12,1.13253687833723e-26,0.00359453007917826,2021-04-13
"617",308,0.00712995017885408,1.57650490825345e-12,1.03500353987336e-26,0.00356497508942704,2021-04-14
"618",308.5,0.00707103289144046,1.52498256025698e-12,9.45867722138561e-27,0.00353551644572023,2021-04-14
"619",309,0.0070123139516976,1.47514749402019e-12,8.64406583601065e-27,0.0035061569758488,2021-04-15
"620",309.5,0.00695379887539649,1.42694434002981e-12,7.89959487792113e-27,0.00347689943769825,2021-04-15
"621",310,0.00689549303929228,1.38031954948862e-12,7.21922651560665e-27,0.00344774651964614,2021-04-16
"622",310.5,0.00683740168196853,1.33522133432278e-12,6.59744253636065e-27,0.00341870084098427,2021-04-16
"623",311,0.00677952990472897,1.29159960916998e-12,6.02919963918161e-27,0.00338976495236449,2021-04-17
"624",311.5,0.00672188267253478,1.24940593528281e-12,5.50988857316865e-27,0.00336094133626739,2021-04-17
"625",312,0.00666446481498577,1.20859346628398e-12,5.03529679073138e-27,0.00333223240749288,2021-04-18
"626",312.5,0.00660728102734358,1.16911689571217e-12,4.60157431336139e-27,0.00330364051367179,2021-04-18
"627",313,0.00655033587159531,1.13093240629933e-12,4.20520253369757e-27,0.00327516793579765,2021-04-19
"628",313.5,0.00649363377755563,1.09399762092204e-12,3.84296570136833e-27,0.00324681688877781,2021-04-19
"629",314,0.00643717904400592,1.05827155517161e-12,3.51192486180397e-27,0.00321858952200296,2021-04-20
"630",314.5,0.00638097583986853,1.02371457148953e-12,3.20939403705629e-27,0.00319048791993427,2021-04-20
"631",315,0.00632502820541472,9.90288334816224e-13,2.93291845580091e-27,0.00316251410270736,2021-04-21
"632",315.5,0.00626934005350438,9.57955769703392e-13,2.68025465627717e-27,0.00313467002675219,2021-04-21
"633",316,0.00621391517085623,9.26681018841261e-13,2.44935230107442e-27,0.00310695758542812,2021-04-22
"634",316.5,0.00615875721934661,8.96429402954183e-13,2.23833755652541e-27,0.0030793786096733,2021-04-22
