"","time","top","med","bottom","pseudo_med","date"
"1",0,0.00859942772939988,0.00157003172642241,5.52693276405224e-05,0.0043273485285202,2021-04-23
"2",0.5,0.00825613797170069,0.00152101247253341,0.000109291613498436,0.00418271479259956,2021-04-23
"3",1,0.00792684469295299,0.00148120241116237,0.000131973111386014,0.0040294089021695,2021-04-24
"4",1.5,0.00761096924599747,0.0014260992289083,0.000142236237877958,0.00387660274193772,2021-04-24
"5",2,0.00730795712033209,0.00136035278315538,0.00015188076301058,0.00372991894167134,2021-04-25
"6",2.5,0.00701727692964743,0.00133826508020824,0.000160938990174067,0.00358910795991075,2021-04-25
"7",3,0.00673841944198185,0.00130226531859635,0.000169441556468777,0.00345393049922531,2021-04-26
"8",3.5,0.00647089665069831,0.00125935938990887,0.000177417518580808,0.00332415708463956,2021-04-26
"9",4,0.00621424088456077,0.00122821839129155,0.000184894434231829,0.0031995676593963,2021-04-27
"10",4.5,0.00596800395526087,0.00121619519774227,0.000191898439431254,0.00307995119734606,2021-04-27
"11",5,0.00573175634081524,0.00117787821545329,0.000198454321747098,0.00296510533128117,2021-04-28
"12",5.5,0.00550508640332042,0.00115171964244916,0.000204585589800705,0.00285483599656056,2021-04-28
"13",6,0.00528759963961653,0.00112510097333397,0.000210314539179957,0.00274895708939825,2021-04-29
"14",6.5,0.00507891796347172,0.00108700195639112,0.000215662314955547,0.00264729013921363,2021-04-29
"15",7,0.00487867901795823,0.00106761228914456,0.00022064897097539,0.00254966399446681,2021-04-30
"16",7.5,0.00468653551674711,0.00104769048523754,0.000217711016697311,0.00245212326672221,2021-04-30
"17",8,0.00450215461310212,0.00101756870258203,0.000210931749449938,0.00235654318127603,2021-05-01
"18",8.5,0.00432521729540517,0.000979798709058792,0.000204458156872654,0.00226483772613891,2021-05-01
"19",9,0.00415541780809471,0.000959914901623793,0.000198273969343477,0.00217684588871909,2021-05-02
"20",9.5,0.00399246309694582,0.000937316416227805,0.000192363828222672,0.00209241346258424,2021-05-02
"21",10,0.00383607227766604,0.000910647383284181,0.000186713234157415,0.00201139275591173,2021-05-03
"22",10.5,0.00368597612682419,0.000894275878252536,0.000181308498329855,0.00193364231257702,2021-05-03
"23",11,0.00354191659417091,0.000865960999091579,0.000176136696480846,0.00185902664532588,2021-05-04
"24",11.5,0.00340364633544959,0.000850738797852739,0.000171185625551182,0.00178741598050039,2021-05-04
"25",12,0.00328052062538231,0.000839982414968846,0.000166443762791189,0.00172348219408675,2021-05-05
"26",12.5,0.00319997131508828,0.000820903633301099,0.000161900227198017,0.00168093577114315,2021-05-05
"27",13,0.00312351887724682,0.000810092780379531,0.000157544743148003,0.00164053181019741,2021-05-06
"28",13.5,0.00305097601451363,0.000793830937508337,0.000153367606099022,0.00160217181030633,2021-05-06
"29",14,0.00298216406020783,0.000766237834397158,0.000149359650244889,0.00156576185522636,2021-05-07
"30",14.5,0.00291691258044805,0.000749178472500392,0.000145512218010578,0.00153121239922931,2021-05-07
"31",15,0.00285505899462368,0.000729545903136328,0.00013930667157445,0.00149718283309906,2021-05-08
"32",15.5,0.00280332839284149,0.000713040328684775,0.000132081225656482,0.00146770480924899,2021-05-08
"33",16,0.00281569704532857,0.00069571726566724,0.000125299061207985,0.00147049805326828,2021-05-09
"34",16.5,0.00282814267230523,0.000680284648291205,0.000118930808035678,0.00147353674017046,2021-05-09
"35",17,0.00284066227603116,0.000666484680870003,0.000112949100257715,0.00147680568814444,2021-05-10
"36",17.5,0.00285325295063293,0.00065918520592067,0.000107328438074297,0.00148029069435361,2021-05-10
"37",18,0.00286591187795968,0.00065167486353989,0.000102045059106326,0.001483978468533,2021-05-11
"38",18.5,0.00287863632361322,0.000643257807635881,9.70768186389914e-05,0.00148785657112611,2021-05-11
"39",19,0.00289142363314557,0.000632110693775344,9.24030781531376e-05,0.00149191335564935,2021-05-12
"40",19.5,0.00290427122841688,0.000621088091105564,8.80046015700646e-05,0.00149613791499347,2021-05-12
"41",20,0.00291717660410731,0.000610394109745551,8.38634586752371e-05,0.00150052003139127,2021-05-13
"42",20.5,0.00293013732437634,0.000607507255417565,7.9962935223428e-05,0.00150505012979988,2021-05-13
"43",21,0.00294315101966359,0.000595343386455045,7.62874492623186e-05,0.00150971923446296,2021-05-14
"44",21.5,0.00295621538362538,0.000586160001346289,7.28224732436769e-05,0.00151451892843453,2021-05-14
"45",22,0.00296932817020125,0.000574617033103954,6.95544615211058e-05,0.00151944131586118,2021-05-15
"46",22.5,0.00298248719080539,0.000568768077949975,6.64707828611566e-05,0.00152447898683327,2021-05-15
"47",23,0.00299569031163763,0.00056384674777492,6.35596576204753e-05,0.00152962498462905,2021-05-16
"48",23.5,0.00300893545110927,0.000554618800935895,6.08100992657291e-05,0.0015348727751875,2021-05-16
"49",24,0.00302222057737895,0.0005440824051456,5.8211859935471e-05,0.00154021621865721,2021-05-17
"50",24.5,0.00303554370599408,0.000534941048899227,5.57553797639545e-05,0.00154564954287902,2021-05-17
"51",25,0.00304890289763362,0.000526455308536135,5.34317397063224e-05,0.00155116731866997,2021-05-18
"52",25.5,0.0030622962559479,0.000515580138461662,5.12326176226537e-05,0.00155676443678528,2021-05-18
"53",26,0.00307572192549176,0.000516346285988248,4.91502473951692e-05,0.00156243608644346,2021-05-19
"54",26.5,0.00308917808974696,0.000514996975416739,4.71773808685356e-05,0.00156817773530775,2021-05-19
"55",27,0.00310266296923047,0.000504077179143166,4.53072524177739e-05,0.00157398511082412,2021-05-20
"56",27.5,0.00311617481968502,0.000496571889280516,4.3533545961826e-05,0.00157985418282342,2021-05-20
"57",28,0.00312971193034855,0.000490336494384459,4.18503642534447e-05,0.001585781147301,2021-05-21
"58",28.5,0.00314327262229953,0.000481401050246463,4.02522002878114e-05,0.00159176241129367,2021-05-21
"59",29,0.00315685524687492,0.000474632012856932,3.87339106832068e-05,0.00159779457877906,2021-05-22
"60",29.5,0.00317045818415787,0.000470810154348537,3.72906908972258e-05,0.00160387443752755,2021-05-22
"61",30,0.00318407984153247,0.00046005039259269,3.59180521514906e-05,0.00160999894684198,2021-05-23
"62",30.5,0.00319771865230266,0.000458571482366567,3.46117999466193e-05,0.00161616522612464,2021-05-23
"63",31,0.00321137307437291,0.00046064466138823,3.33680140574008e-05,0.00162237054421516,2021-05-24
"64",31.5,0.00322504158898807,0.000457488608303928,3.17589737388718e-05,0.00162840028136347,2021-05-24
"65",32,0.00323872269953003,0.000448433730501543,2.97410105935479e-05,0.00163423185506179,2021-05-25
"66",32.5,0.00325241493036898,0.000441994656308699,2.78585312411251e-05,0.00164013673080505,2021-05-25
"67",33,0.0032661168257671,0.000435270017962594,2.61020970088258e-05,0.00164610946138796,2021-05-26
"68",33.5,0.00327982694883242,0.000429178455950312,2.4462942063838e-05,0.00165214494544813,2021-05-26
"69",34,0.00329354388052115,0.000420737810465349,2.29329247924377e-05,0.00165823840265679,2021-05-27
"70",34.5,0.00330726621868623,0.000413544086598321,2.15044827201831e-05,0.0016643853507032,2021-05-27
"71",35,0.00332099257717055,0.000405977079526662,2.01705907141369e-05,0.00167058158394234,2021-05-28
"72",35.5,0.0033347215849429,0.000400794735264751,1.89247222270727e-05,0.00167682315358498,2021-05-28
"73",36,0.00334845188527502,0.000391846890380905,1.77608133612217e-05,0.00168310634931812,2021-05-29
"74",36.5,0.00336218213495814,0.000388215533472631,1.66732295454245e-05,0.00168942768225178,2021-05-29
"75",37,0.00337591100355745,0.000384948693501046,1.56567346346683e-05,0.00169578386909606,2021-05-30
"76",37.5,0.00338963717270298,0.000380032682013914,1.47064622549857e-05,0.00170217181747898,2021-05-30
"77",38,0.00340335933541557,0.000376097237607763,1.38178892296737e-05,0.00170858861232262,2021-05-31
"78",38.5,0.00341707619546639,0.000372128114874156,1.29868109348053e-05,0.0017150315032006,2021-05-31
"79",39,0.00343742423513551,0.000366008882228781,1.22093184431507e-05,0.00172481677678933,2021-06-01
"80",39.5,0.00353727670211862,0.000358397364020211,1.14817773259448e-05,0.00177437923972228,2021-06-01
"81",40,0.00363992616319116,0.000353750125842306,1.08008079915015e-05,0.00182536348559133,2021-06-02
"82",40.5,0.00374544152225196,0.000348135505303109,1.01632674485379e-05,0.00187780239485025,2021-06-02
"83",41,0.00385389296596462,0.00034283228791275,9.56623239028373e-06,0.00193172959917745,2021-06-03
"84",41.5,0.00396535195414789,0.00034122281465179,9.00698350305922e-06,0.00198717946882548,2021-06-03
"85",42,0.00407989120774532,0.000338435968006907,8.4829909100573e-06,0.00204418709932769,2021-06-04
"86",42.5,0.00419758469420549,0.000335797616907197,7.9919006675979e-06,0.00210278829743654,2021-06-04
"87",43,0.00431850761009767,0.000331449477465667,7.53152223717775e-06,0.00216301956616743,2021-06-05
"88",43.5,0.00444273636078134,0.000326855632280231,7.09981686224872e-06,0.00222491808882179,2021-06-05
"89",44,0.00457034853694152,0.000326688475446969,6.69488678385673e-06,0.00228852171186269,2021-06-06
"90",44.5,0.00470142288779548,0.000326540597203824,6.31496523409056e-06,0.00235386892651479,2021-06-06
"91",45,0.00483603929076988,0.000323683371548707,5.9584071507544e-06,0.00242099884896032,2021-06-07
"92",45.5,0.00497427871744116,0.000318076279220216,5.62368056081488e-06,0.00248995119900099,2021-06-07
"93",46,0.00511622319552589,0.000315860217215605,5.30935858400669e-06,0.00256076627705495,2021-06-08
"94",46.5,0.00526195576670171,0.000314194681833189,5.01411201153411e-06,0.00263348493935662,2021-06-08
"95",47,0.0054115604400337,0.000310854279439853,4.73670241809752e-06,0.0027081485712259,2021-06-09
"96",47.5,0.00556512214077573,0.000307547516947273,4.47597576852518e-06,0.00278479905827213,2021-06-09
"97",48,0.00572272665431079,0.000305054526101707,4.23085648311817e-06,0.00286347875539695,2021-06-10
"98",48.5,0.00588446056499,0.000303976150532682,4.00034192843633e-06,0.00294423045345922,2021-06-10
"99",49,0.00605041118962529,0.000300065341386288,3.78349730268176e-06,0.00302709734346399,2021-06-11
"100",49.5,0.00622066650538713,0.000297958774439397,3.57945088708667e-06,0.00311212297813711,2021-06-11
"101",50,0.00639531507185554,0.000295108882432701,3.38738963679826e-06,0.00319935123074617,2021-06-12
"102",50.5,0.00657444594696992,0.00029146799844025,3.20655508668626e-06,0.0032888262510283,2021-06-12
"103",51,0.00675814859662176,0.000287897987132178,3.03623954929003e-06,0.00338059241808553,2021-06-13
"104",51.5,0.00694651279763307,0.000285458750782739,2.87578258378297e-06,0.00347469429010843,2021-06-13
"105",52,0.00713962853386373,0.000284183757041551,2.72456771637021e-06,0.00357117655079005,2021-06-14
"106",52.5,0.00733758588519188,0.000282860867043274,2.58201939396239e-06,0.00367008395229292,2021-06-14
"107",53,0.00754047490911385,0.000280769669018955,2.4476001542899e-06,0.00377146125463407,2021-06-15
"108",53.5,0.00774838551471347,0.000279477896548674,2.32080799684736e-06,0.00387535316135516,2021-06-15
"109",54,0.00796140732875573,0.000276532357500408,2.20117394019361e-06,0.00398180425134796,2021-06-16
"110",54.5,0.00817962955366592,0.000273445278567001,2.08825975218539e-06,0.00409085890670905,2021-06-16
"111",55,0.00840314081716354,0.000270413217301868,1.98165584069828e-06,0.00420256123650212,2021-06-17
"112",55.5,0.00863202901332993,0.000267599695287323,1.88097929329289e-06,0.00431695499631161,2021-06-17
"113",56,0.0088663811349001,0.000265889407843725,1.78587205512293e-06,0.00443408350347761,2021-06-18
"114",56.5,0.00910628309658299,0.00026580888626607,1.69599923515837e-06,0.00455398954790907,2021-06-18
"115",57,0.00935181954922996,0.000264857344872192,1.61104753151762e-06,0.00467671529838074,2021-06-19
"116",57.5,0.00960307368468924,0.000262632820767361,1.53072376737022e-06,0.00480230220422831,2021-06-19
"117",58,0.0098601270312046,0.000259097028297073,1.45475352949068e-06,0.00493079089236705,2021-06-20
"118",58.5,0.0101230592392391,0.000255804954587861,1.38287990211776e-06,0.00506222105957059,2021-06-20
"119",59,0.0103919478576302,0.000254009019779765,1.31486228930568e-06,0.00519663135995973,2021-06-21
"120",59.5,0.0106668681000115,0.000250843473350394,1.25047531944678e-06,0.00533405928766548,2021-06-21
"121",60,0.0109478926014661,0.000246584905641597,1.1895078261025e-06,0.00547454105464612,2021-06-22
"122",60.5,0.0112350911654117,0.00024240155908242,1.13176189970344e-06,0.0056181114636557,2021-06-22
"123",61,0.0115285305007542,0.000239278441201982,1.0770520050722e-06,0.00576480377637965,2021-06-23
"124",61.5,0.0118282739493878,0.00023675494541415,1.02520416008732e-06,0.00591464957677396,2021-06-23
"125",62,0.0121343812041606,0.00023426720516291,9.76055171144203e-07,0.00606767862966588,2021-06-24
"126",62.5,0.0124469080174747,0.000232400377312706,9.2945192138265e-07,0.00622391873469803,2021-06-24
"127",63,0.0127659059007373,0.000230577914280751,8.85250707940593e-07,0.00638339557572263,2021-06-25
"128",63.5,0.0130914218149344,0.000228173676665616,8.4331662476345e-07,0.0065461325657796,2021-06-25
"129",64,0.0134234978526537,0.000225254435599524,8.0352298774804e-07,0.00671215068782074,2021-06-26
"130",64.5,0.0137621709119452,0.00022237657968193,7.6575079923177e-07,0.0068814683313722,2021-06-26
"131",65,0.0141074723624694,0.000219539419280456,7.2988824905254e-07,0.00705410112535923,2021-06-27
"132",65.5,0.0144594277044517,0.000216742280201374,6.9583024960412e-07,0.00723006176735064,2021-06-27
"133",66,0.014818056221027,0.000213474297711872,6.63478002496428e-07,0.00740935984951474,2021-06-28
"134",66.5,0.0151833706246359,0.000210219691748214,6.32738594601581e-07,0.00759200168161524,2021-06-28
"135",67,0.0155553766982038,0.000207017206425463,6.03524621425469e-07,0.0077779901114126,2021-06-29
"136",67.5,0.0159340729319148,0.000203865905027099,5.75753835892079e-07,0.00796732434287533,2021-06-29
"137",68,0.0163194501564701,0.000201048832796339,5.49348820764494e-07,0.00815999975264541,2021-06-30
"138",68.5,0.0167114911738017,0.000198888685826767,5.24236683053379e-07,0.00835600770524237,2021-06-30
"139",69,0.0171101703862957,0.000196755407154552,5.00348768881423e-07,0.00855533536753228,2021-07-01
"140",69.5,0.0175154534256614,0.00019464856925819,4.77620397381361e-07,0.00875796552302938,2021-07-01
"141",70,0.017927296782668,0.000192567754702369,4.55990612306502e-07,0.00896387638664016,2021-07-02
"142",70.5,0.0183456474390536,0.000190512555777474,4.35401950126624e-07,0.00917304142050188,2021-07-02
"143",71,0.0187704425029944,0.000188482574156156,4.15800223469301e-07,0.00938542915160894,2021-07-03
"144",71.5,0.0192016088496048,0.000186477420565998,3.9713431884761e-07,0.00960100299196181,2021-07-03
"145",72,0.0196390627680187,0.000184496714477388,3.79356007690229e-07,0.00981972106201322,2021-07-04
"146",72.5,0.0200827096166803,0.000183131051326238,3.62419769759603e-07,0.010041536018225,2021-07-04
"147",73,0.0205324434885449,0.000182154947246718,3.46282628108502e-07,0.0102663948855865,2021-07-05
"148",73.5,0.0209881468879637,0.00018118498833143,3.30903994785263e-07,0.0104942388959793,2021-07-05
"149",74,0.0214496904210877,0.000180221107275987,3.16245526553739e-07,0.0107250033333071,2021-07-06
"150",74.5,0.0219169325016862,0.000179263239047309,3.02270989945629e-07,0.0109586173863381,2021-07-06
"151",75,0.0223897190743281,0.000178311320753214,2.88946135010842e-07,0.0111950040102316,2021-07-07
"152",75.5,0.0228678833569176,0.000177365291520226,2.76238577176111e-07,0.0114340797977474,2021-07-07
"153",76,0.0233512456046107,0.000176309032551208,2.64117686663402e-07,0.0116757548611487,2021-07-08
"154",76.5,0.0238396128971674,0.000174401396988982,2.52554484958054e-07,0.0119199327258262,2021-07-08
"155",77,0.0243327789518069,0.000172565283114922,2.4152154785224e-07,0.0121665102366774,2021-07-09
"156",77.5,0.0248305239636399,0.000172580191806354,2.30992914622435e-07,0.0124153774782773,2021-07-09
"157",78,0.0253326144757417,0.000171466027844497,2.20944002930317e-07,0.0126664177098723,2021-07-10
"158",78.5,0.0258388032809102,0.000169722747896008,2.11351529065066e-07,0.0129195073162197,2021-07-10
"159",79,0.026348829357117,0.000167998898202113,2.02193433171551e-07,0.0131745157752751,2021-07-11
"160",79.5,0.0268624178386093,0.000166294225752308,1.93448809133532e-07,0.0134313056437092,2021-07-11
"161",80,0.0273792800245572,0.000165382412753783,1.85097838803842e-07,0.013689732561198,2021-07-12
"162",80.5,0.0278991134270593,0.000164660517363924,1.77121730294838e-07,0.0139496452743948,2021-07-12
"163",81,0.028421601860222,0.000163924111180179,1.69502660062082e-07,0.014210885681441,2021-07-13
"164",81.5,0.0289464155719174,0.00016286231692448,1.62223718532631e-07,0.014473288897818,2021-07-13
"165",82,0.0294732114196924,0.000161521134495479,1.55268859046328e-07,0.0147366833442757,2021-07-14
"166",82.5,0.0300016330921567,0.000160190993317113,1.48622849894347e-07,0.0150008908575033,2021-07-14
"167",83,0.0305313113770157,0.000158780639943193,1.42271229253978e-07,0.0152657268241225,2021-07-15
"168",83.5,0.0310618644767335,0.000157138972863478,1.36200262832338e-07,0.0155310003384982,2021-07-15
"169",84,0.0315928983726195,0.00015551445113687,1.30396904044412e-07,0.0157965143847618,2021-07-16
"170",84.5,0.0321240072379205,0.000153906890039325,1.24848756562683e-07,0.0160620660433385,2021-07-16
"171",85,0.0326547739002794,0.000152316107174443,1.19544039086591e-07,0.0163274467221592,2021-07-17
"172",85.5,0.0331847703536827,0.000151284740111981,1.14471552190344e-07,0.0165924424126175,2021-07-17
"173",86,0.0337135583197739,0.000150481230413657,1.09620647117069e-07,0.0168568339702105,2021-07-18
"174",86.5,0.0342406898581476,0.00014946957895439,1.04981196396198e-07,0.017120397419672,2021-07-18
"175",87,0.0347657080249755,0.000147780783754126,1.00543566169193e-07,0.0173829042842708,2021-07-19
"176",87.5,0.0352881475790373,0.000146111394599895,9.62985901164015e-08,0.0176441219388137,2021-07-19
"177",88,0.0358075357339528,0.000144461193952486,9.22375448849544e-08,0.0179038139857488,2021-07-20
"178",88.5,0.0363233929551249,0.0001428886536558,8.83521269242704e-08,0.0181617406536259,2021-07-20
"179",89,0.036835233799623,0.00014183680997864,8.46344306419089e-08,0.0184176592170268,2021-07-21
"180",89.5,0.0373425677969482,0.000140793019834231,8.10769277982684e-08,0.018671324436938,2021-07-21
"181",90,0.0378449003683481,0.000139757220588018,7.7672448063988e-08,0.0189224890203981,2021-07-22
"182",90.5,0.0383417337820689,0.000138879397208473,7.44141606688991e-08,0.0191709040981148,2021-07-22
"183",91,0.0388325681416731,0.000138116009563159,7.12955570760252e-08,0.0194163197186151,2021-07-23
"184",91.5,0.0393169024042911,0.000137055101012011,6.83104346184545e-08,0.0196584853573628,2021-07-23
"185",92,0.0397942354254384,0.000135346451079132,6.5452881040949e-08,0.0198971504391597,2021-07-24
"186",92.5,0.0402640670268006,0.000134000656525733,6.27172598919099e-08,0.0201320648720302,2021-07-24
"187",93,0.0407258990831817,0.000132932860981797,6.0098196714826e-08,0.0203629795906892,2021-07-25
"188",93.5,0.0411792366246237,0.00013133950831437,5.75905659915975e-08,0.0205896471075949,2021-07-25
"189",94,0.041623588949538,0.000129765866374733,5.51894787931734e-08,0.0208118220695084,2021-07-26
"190",94.5,0.0420584707445482,0.000128211695143628,5.28902710957811e-08,0.0210292618174096,2021-07-26
"191",95,0.0424834032066261,0.000126965071116737,5.06884927236768e-08,0.0212417269475594,2021-07-27
"192",95.5,0.0428979151630145,0.000126139190160355,4.85798968818158e-08,0.0214489818714557,2021-07-27
"193",96,0.0433015441843671,0.000125319514747148,4.65604302441469e-08,0.0216507953723986,2021-07-28
"194",96.5,0.043693837686505,0.000124482377910992,4.4626223565391e-08,0.0218469411563643,2021-07-28
"195",97,0.0440743540161875,0.00012314062217284,4.27735827861678e-08,0.0220371983948851,2021-07-29
"196",97.5,0.0444426635163198,0.00012181358877847,4.09989806032147e-08,0.0222213522576502,2021-07-29
"197",98,0.0447983495660827,0.000120501112662485,3.92990484781901e-08,0.0223991944325656,2021-07-30
"198",98.5,0.0451410095915551,0.000119203030721231,3.76705690601911e-08,0.0225705236310621,2021-07-30
"199",99,0.0454702560425189,0.000117919181783582,3.61104689986447e-08,0.0227351460764939,2021-07-31
"200",99.5,0.0457857173312837,0.00011664940658249,3.46158121246574e-08,0.0228928759735479,2021-07-31
"201",100,0.0460870387295442,0.000115393547727246,3.31837929802448e-08,0.0230435359566686,2021-08-01
"202",100.5,0.0463738832194835,0.000114151449676429,3.18117306761119e-08,0.0231869575156071,2021-08-01
"203",101,0.046645932295564,0.000112922958711524,3.04970630598182e-08,0.0233229813963135,2021-08-02
"204",101.5,0.0469028867136957,0.000111707922911162,2.9237341177258e-08,0.0234514579755184,2021-08-02
"205",102,0.0471444671847449,0.000110506192125973,2.80302240114028e-08,0.0235722476074845,2021-08-03
"206",102.5,0.0473704150096339,0.00010931761795401,2.6873473483213e-08,0.0236852209415537,2021-08-03
"207",103,0.0475804926535901,0.000108263504242569,2.57649497005166e-08,0.0237902592092699,2021-08-04
"208",103.5,0.0477744842574239,0.00010759100811994,2.47026064414926e-08,0.0238872544800152,2021-08-04
"209",104,0.047952196084043,0.000106923633295476,2.36844868601804e-08,0.0239761098842649,2021-08-05
"210",104.5,0.0481134568987563,0.000106261335314257,2.27087194021713e-08,0.0240567398037379,2021-08-05
"211",105,0.0482581182822617,0.000105604070188603,2.17735139193267e-08,0.0241290700278878,2021-08-06
"212",105.5,0.0483860548755628,0.000104885605541289,2.08771579730122e-08,0.0241930378763604,2021-08-06
"213",106,0.0484971645564116,0.000103862218482767,2.00180133159433e-08,0.0242485922872124,2021-08-07
"214",106.5,0.048591368547215,0.000102848781802951,1.9194512543304e-08,0.0242956938708638,2021-08-07
"215",107,0.0486686114546925,0.000101845199964293,1.84051559043322e-08,0.0243343149299242,2021-08-08
"216",107.5,0.0487288612418998,0.000100851378310713,1.76485082660667e-08,0.024364439445204,2021-08-08
"217",108,0.0487721091335623,9.98672230605869e-05,1.69231962214157e-08,0.0243860630283793,2021-08-09
"218",108.5,0.0487983694559723,9.88926412997607e-05,1.62279053341507e-08,0.0243991928419388,2021-08-09
"219",109,0.0488076794130021,9.7927540974576e-05,1.55613775138398e-08,0.0244038474871898,2021-08-10
"220",109.5,0.0488000988000679,9.69718308849165e-05,1.49224085141235e-08,0.0244000568612382,2021-08-10
"221",110,0.0487757096581428,9.60254206772756e-05,1.43098455481018e-08,0.0243878619839942,2021-08-11
"222",110.5,0.0487346158701608,9.50882208378455e-05,1.37225850149419e-08,0.0243673147963729,2021-08-11
"223",111,0.0486769427023824,9.41601426856299e-05,1.31595703321402e-08,0.0243384779309764,2021-08-12
"224",111.5,0.0486028362934885,9.32410983655819e-05,1.26197898681741e-08,0.0243014244566392,2021-08-12
"225",112,0.0485124630943574,9.23310008417676e-05,1.21022749705647e-08,0.0242562375983162,2021-08-13
"226",112.5,0.0484060092616314,9.14297638905559e-05,1.16060980846392e-08,0.0242030104338648,2021-08-13
"227",113,0.0482836800083175,9.05373020938381e-05,1.11303709585358e-08,0.0241418455693442,2021-08-14
"228",113.5,0.0481456989147773,8.96535308322748e-05,1.06742429302297e-08,0.0240728547945101,2021-08-14
"229",114,0.0479923072035491,8.87783662785747e-05,1.02368992925836e-08,0.0239961587202242,2021-08-15
"230",114.5,0.0478237629815099,8.79117253908032e-05,9.81755973263877e-09,0.0239118863995348,2021-08-15
"231",115,0.0476403404529295,8.70535259057236e-05,9.41547684155859e-09,0.0238201749342032,2021-08-16
"232",115.5,0.0474423291069876,8.62036863321707e-05,9.02993469182582e-09,0.0237211690684612,2021-08-16
"233",116,0.047230032883326,8.53621259444581e-05,8.66024747847202e-09,0.0236150207717867,2021-08-17
"234",116.5,0.0470037693191875,8.45287647758202e-05,8.30575822128296e-09,0.0235018888124729,2021-08-17
"235",117,0.0467638686816541,8.37035236118881e-05,7.96583752508216e-09,0.0233819383237458,2021-08-18
"236",117.5,0.0465106730884378,8.28863239842025e-05,7.63988239534296e-09,0.0232553403641601,2021-08-18
"237",118,0.0462445356206064,8.20770881637615e-05,7.32731510651981e-09,0.0231222714739608,2021-08-19
"238",118.5,0.0459658194305343,8.12757391546063e-05,7.02758212062191e-09,0.0229829132290582,2021-08-19
"239",119,0.0456748968482659,8.04822006874431e-05,6.74015305367747e-09,0.0228374517942095,2021-08-20
"240",119.5,0.0453721484893645,7.96678510102041e-05,6.46451968785507e-09,0.0226860774769421,2021-08-20
"241",120,0.0450579623671884,7.88334033807272e-05,6.20019502712051e-09,0.0225289842836917,2021-08-21
"242",120.5,0.0447327330124021,7.8007809278871e-05,5.94671239441312e-09,0.0223663694795573,2021-08-21
"243",121,0.0443968606023831,7.7234838950766e-05,5.70362456842545e-09,0.0221984331530039,2021-08-22
"244",121.5,0.0440507501030322,7.65261076994742e-05,5.47050295816503e-09,0.0220253777867676,2021-08-22
"245",122,0.0436948104253364,7.58241306640225e-05,5.24693681356619e-09,0.0218474078361366,2021-08-23
"246",122.5,0.0433294535988709,7.51288373491956e-05,5.03253247050486e-09,0.0216647293157017,2021-08-23
"247",123,0.0429550939642616,7.44401581979786e-05,4.82691262864937e-09,0.0214775493955871,2021-08-24
"248",123.5,0.0425721473864598,7.37580245722547e-05,4.62971566065638e-09,0.0212860760080877,2021-08-24
"249",124,0.0421810304905133,7.30823687340848e-05,4.44059495129306e-09,0.0210905174655541,2021-08-25
"250",124.5,0.0417821599213511,7.24131238275497e-05,4.25921826513487e-09,0.0208910820902847,2021-08-25
"251",125,0.0420426409782318,7.17502238611326e-05,4.08526714155306e-09,0.0210213225317495,2021-08-26
"252",125.5,0.0425353381348424,7.10936036906242e-05,3.91843631576723e-09,0.0212676710266394,2021-08-26
"253",126,0.0430225954082673,7.04431990025317e-05,3.75843316479674e-09,0.0215112995833502,2021-08-27
"254",126.5,0.0435040151855316,6.97989462979729e-05,3.60497717719959e-09,0.0217520093952544,2021-08-27
"255",127,0.0439792001260721,6.91607828770392e-05,3.45779944554025e-09,0.0219896017919358,2021-08-28
"256",127.5,0.0444477538458073,6.85286468236097e-05,3.31664218057721e-09,0.0222238785812248,2021-08-28
"257",128,0.0449092816107771,6.79024769906025e-05,3.1812582462086e-09,0.0224546423960177,2021-08-29
"258",128.5,0.0453633910382688,6.72822129856452e-05,3.05141071425885e-09,0.0226816970448398,2021-08-29
"259",129,0.0458096928032805,6.66677951571521e-05,2.92687243823212e-09,0.0229048478650765,2021-08-30
"260",129.5,0.046247801348114,6.60591645807928e-05,2.80742564519855e-09,0.0231239020777698,2021-08-30
"261",130,0.046677335592841,6.54562630463385e-05,2.69286154501807e-09,0.0233386691428513,2021-08-31
"262",130.5,0.0470979196443522,6.48136966900678e-05,2.58297995614288e-09,0.0235489611136661,2021-08-31
"263",131,0.0475091835016712,6.4173705265629e-05,2.47758894727463e-09,0.0237545929896301,2021-09-01
"264",131.5,0.0479107637552064,6.35401036564319e-05,2.37650449418533e-09,0.0239553830658554,2021-09-01
"265",132,0.0483023042776094,6.29128257042557e-05,2.27955015104257e-09,0.0241511532785798,2021-09-02
"266",132.5,0.0486834569039234,6.22918060253719e-05,2.18655673560944e-09,0.0243417295452401,2021-09-02
"267",133,0.0490538820987274,6.167697999816e-05,2.09736202771813e-09,0.0245269420980447,2021-09-03
"268",133.5,0.0494132496080191,6.10682837510294e-05,2.01181048044344e-09,0.0247066258099148,2021-09-03
"269",134,0.0497612390936274,6.04656541506365e-05,1.92975294342781e-09,0.0248806205116902,2021-09-04
"270",134.5,0.0500975407480058,5.98690287903883e-05,1.85104639783473e-09,0.0250487712995261,2021-09-04
"271",135,0.0504218558873299,5.92783459792214e-05,1.77555370243012e-09,0.0252109288314418,2021-09-05
"272",135.5,0.0507338975209045,5.86935447306498e-05,1.70314335031425e-09,0.0253669496120239,2021-09-05
"273",136,0.0510333908949803,5.81145647520709e-05,1.63368923584737e-09,0.0255166962643348,2021-09-06
"274",136.5,0.0513200740091808,5.75413464343218e-05,1.56707043133315e-09,0.0256600377881256,2021-09-06
"275",137,0.0515936981038562,5.69738308414787e-05,1.50317097304271e-09,0.0257968498035136,2021-09-07
"276",137.5,0.0518540281167985,5.64119597008906e-05,1.44187965618102e-09,0.0259270147793391,2021-09-07
"277",138,0.0521008431078831,5.58556753934404e-05,1.38308983841452e-09,0.0260504222454865,2021-09-08
"278",138.5,0.0523339366503353,5.53049209440257e-05,1.32669925159585e-09,0.0261669689885173,2021-09-08
"279",139,0.0525531171874648,5.47596400122536e-05,1.2726098213375e-09,0.0262765592300373,2021-09-09
"280",139.5,0.0527582083538538,5.42197768833407e-05,1.22072749410138e-09,0.0263791047872907,2021-09-09
"281",140,0.0529490492601371,5.3685276459214e-05,1.17096207148579e-09,0.0264745252155496,2021-09-10
"282",140.5,0.0531254947406649,5.3156084249805e-05,1.11704856202678e-09,0.0265627479288567,2021-09-10
"283",141,0.0532874155634957,5.26321463645322e-05,1.06047345061123e-09,0.0266437083119846,2021-09-11
"284",141.5,0.05343469860232,5.20655428433377e-05,1.00675881279221e-09,0.0267173498045394,2021-09-11
"285",142,0.053567246970076,5.14892142576225e-05,9.55760314079719e-10,0.0267836239629181,2021-09-12
"286",142.5,0.0536849801141705,5.09192868785078e-05,9.07340885255907e-10,0.0268424905107557,2021-09-12
"287",143,0.0537878338733741,5.03556889016056e-05,8.61370357726793e-10,0.0268939173673723,2021-09-13
"288",143.5,0.0538757604966091,4.97983493566971e-05,8.17725117111979e-10,0.0269378806571671,2021-09-13
"289",144,0.0539487286239964,4.92471980968802e-05,7.76287774164062e-10,0.0269743647001421,2021-09-14
"290",144.5,0.0540067232306723,4.87021657879015e-05,7.36946852154442e-10,0.0270033619838096,2021-09-14
"291",145,0.0540497455340185,4.81631838976695e-05,6.99596489904976e-10,0.0270248731168075,2021-09-15
"292",145.5,0.0540778128650874,4.76301846859438e-05,6.64136159685669e-10,0.0270389067646118,2021-09-15
"293",146,0.0540909585051232,4.7103101194196e-05,6.30470399237198e-10,0.0270454795677968,2021-09-16
"294",146.5,0.054089231488202,4.6581867235638e-05,5.98508557213892e-10,0.0270446160433553,2021-09-16
"295",147,0.0540726963711223,4.60664173854147e-05,5.68164551377721e-10,0.0270363484696434,2021-09-17
"296",147.5,0.054041432971779,4.55566869709554e-05,5.39356638907068e-10,0.0270207167555678,2021-09-17
"297",148,0.0539955360773501,4.50526120624821e-05,5.12007198215691e-10,0.0269977682946786,2021-09-18
"298",148.5,0.0539351151237079,4.45541294636693e-05,4.86042521707258e-10,0.0269675578048752,2021-09-18
"299",149,0.0538602938475441,4.40611767024529e-05,4.61392618919451e-10,0.0269301471544683,2021-09-19
"300",149.5,0.0537712099127645,4.35736920219842e-05,4.37991029538711e-10,0.0268856051753778,2021-09-19
"301",150,0.0536680145127672,4.30916143717262e-05,4.15774645792545e-10,0.0268340074642709,2021-09-20
"302",150.5,0.053550871950266,4.26148833986882e-05,3.94683543750807e-10,0.0267754361724748,2021-09-20
"303",151,0.0534199591963609,4.21434394387963e-05,3.74660823090695e-10,0.0267099797855109,2021-09-21
"304",151.5,0.053275465430588,4.16772235083963e-05,3.5565245490234e-10,0.0266377328931202,2021-09-21
"305",152,0.0531175915637007,4.12161772958861e-05,3.37607137132948e-10,0.0265587959506539,2021-09-22
"306",152.5,0.0529465497449496,4.07602431534757e-05,3.20476157287454e-10,0.0264732750327129,2021-09-22
"307",153,0.0527625628556307,4.03093640890698e-05,3.04213262022683e-10,0.026381281579922,2021-09-23
"308",153.5,0.0525658639906679,3.98634837582733e-05,2.88774533290096e-10,0.0262829321397212,2021-09-23
"309",154,0.0523566959299857,3.94225464565144e-05,2.74118270699374e-10,0.026178348102052,2021-09-24
"310",154.5,0.052135310601407,3.89864971112846e-05,2.60204879791448e-10,0.026067655430806,2021-09-24
"311",155,0.0519019685367865,3.85552812744918e-05,2.46996765925093e-10,0.0259509843918916,2021-09-25
"312",155.5,0.0516569383230569,3.8128845114926e-05,2.34458233495961e-10,0.0258284692787576,2021-09-25
"313",156,0.0514004960498278,3.77071354108327e-05,2.22555390220961e-10,0.0257002481361916,2021-09-26
"314",156.5,0.0511329247551308,3.72900995425943e-05,2.11256056234199e-10,0.0255664624831934,2021-09-26
"315",157,0.0508545138708578,3.68776854855153e-05,2.00529677753383e-10,0.0254272570356937,2021-09-27
"316",157.5,0.0505655586693842,3.64698418027112e-05,1.90347245087612e-10,0.0252827794298657,2021-09-27
"317",158,0.0502663597128103,3.60665176380967e-05,1.80681214768918e-10,0.0251331799467458,2021-09-28
"318",158.5,0.049957222306195,3.56676627094733e-05,1.71505435600785e-10,0.0249786112388502,2021-09-28
"319",159,0.0496384559560871,3.52732273017132e-05,1.62795078427227e-10,0.0248192280594411,2021-09-29
"320",159.5,0.0493103738355985,3.48831622600384e-05,1.54526569435783e-10,0.0246551869950625,2021-09-29
"321",160,0.0489732922571864,3.44974189833916e-05,1.46677526817146e-10,0.024486646201932,2021-09-30
"322",160.5,0.0486275301542474,3.41159494178999e-05,1.39226700612993e-10,0.0243137651467371,2021-09-30
"323",161,0.0482734085725501,3.37387060504261e-05,1.32153915591997e-10,0.024136704352352,2021-10-01
"324",161.5,0.0479112501724594,3.33656419022093e-05,1.25440017002032e-10,0.0239556251489497,2021-10-01
"325",162,0.0475413787428355,3.29967105225906e-05,1.19066819054146e-10,0.0237706894309511,2021-10-02
"326",162.5,0.0471641187274111,3.26564128675952e-05,1.13017056001135e-10,0.0235820594202141,2021-10-02
"327",163,0.0467797947643833,3.23513789984495e-05,1.07274335680407e-10,0.0233898974358288,2021-10-03
"328",163.5,0.0463887312398785,3.20493558210856e-05,1.01823095397339e-10,0.0231943656708508,2021-10-03
"329",164,0.0459912518558797,3.17503122745727e-05,9.66485600315416e-11,0.0229956259762641,2021-10-04
"330",164.5,0.0455876792131343,3.1454217628081e-05,9.17367022543143e-11,0.0227938396524355,2021-10-04
"331",165,0.045178334409491,3.11610414773285e-05,8.70742047512044e-11,0.0225891672482826,2021-10-05
"332",165.5,0.0447635366540478,3.08707537410653e-05,8.26484243488568e-11,0.0223817683683481,2021-10-05
"333",166,0.0443436028974266,3.05833246575956e-05,7.84473579504236e-11,0.022171801487937,2021-10-06
"334",166.5,0.0439188474784275,3.02987247813366e-05,7.44596101885868e-11,0.0219594237764435,2021-10-06
"335",167,0.0434895817872556,3.00169249794148e-05,7.06743627098096e-11,0.021744790928965,2021-10-07
"336",167.5,0.0430561139454527,2.97378964282981e-05,6.70813450077637e-11,0.021528057006267,2021-10-07
"337",168,0.0426187485026114,2.94616106104647e-05,6.36708067279931e-11,0.0213093742831411,2021-10-08
"338",168.5,0.0421777861498974,2.91880393111068e-05,6.04334913697859e-11,0.0210888931051654,2021-10-08
"339",169,0.0417335234503522,2.89299566523038e-05,5.73606113149387e-11,0.0208667617538564,2021-10-09
"340",169.5,0.0412862525859037,2.86769502966417e-05,5.44438241166268e-11,0.0206431263201738,2021-10-09
"341",170,0.040836261120965,2.84262417825492e-05,5.16752099849445e-11,0.0204181305863201,2021-10-10
"342",170.5,0.0403838317824618,2.81778094421641e-05,4.90472504088644e-11,0.0201919159157545,2021-10-10
"343",171,0.0399292422560878,2.79316318220198e-05,4.65528078573907e-11,0.0199646211513203,2021-10-11
"344",171.5,0.0394727649985532,2.76876876806982e-05,4.41851065055533e-11,0.0197363825213691,2021-10-11
"345",172,0.039014667065556,2.74459559865152e-05,4.19377139336197e-11,0.0195073335537468,2021-10-12
"346",172.5,0.0385552099551767,2.72064159152394e-05,3.98045237504959e-11,0.0192776049974906,2021-10-12
"347",173,0.0380946494663688,2.69690468478412e-05,3.77797390947501e-11,0.0190473247520743,2021-10-13
"348",173.5,0.0376332355721917,2.67338283682737e-05,3.58578569690318e-11,0.0188166178040248,2021-10-13
"349",174,0.0371712123074108,2.65007402612841e-05,3.40336533658847e-11,0.0185856061707222,2021-10-14
"350",174.5,0.0367088176700695,2.62697625102535e-05,3.2302169145059e-11,0.0183544088511859,2021-10-14
"351",175,0.0362462835366201,2.60408752950674e-05,3.06586966244391e-11,0.0181231417836394,2021-10-15
"352",175.5,0.0357838355901849,2.58140589900137e-05,2.90987668486027e-11,0.0178919178096419,2021-10-15
"353",176,0.0353216932615081,2.55697535843087e-05,2.7618137500842e-11,0.0176608466445631,2021-10-16
"354",176.5,0.035060040221834,2.52874474904526e-05,2.62127814261921e-11,0.0175300201240234,2021-10-16
"355",177,0.0349353844744078,2.50082632322463e-05,2.48788757346469e-11,0.0174676922496434,2021-10-17
"356",177.5,0.0348072800446401,2.47321662182651e-05,2.36127914552936e-11,0.0174036400341265,2021-10-17
"357",178,0.0346757895785303,2.44591222422913e-05,2.24110837135688e-11,0.0173378948004707,2021-10-18
"358",178.5,0.0345409765569345,2.41890974789455e-05,2.12704824052378e-11,0.0172704882891025,2021-10-18
"359",179,0.0344029052408369,2.39220584793715e-05,2.01878833420304e-11,0.0172014526305124,2021-10-19
"360",179.5,0.034261640616875,2.36579721669726e-05,1.91603398451252e-11,0.0171308203180177,2021-10-19
"361",180,0.0341172483431788,2.33968058332001e-05,1.81850547638749e-11,0.0170586241806819,2021-10-20
"362",180.5,0.0339697946955854,2.31385271333917e-05,1.72593728983044e-11,0.0169848973564224,2021-10-20
"363",181,0.0338193465142868,2.28831040826598e-05,1.6380773804993e-11,0.0169096732653338,2021-10-21
"364",181.5,0.0336659711509644,2.26305050518296e-05,1.55468649669803e-11,0.0168329855832556,2021-10-21
"365",182,0.0335097364164656,2.23806987634249e-05,1.47553753093117e-11,0.0167548682156105,2021-10-22
"366",182.5,0.0333507105290723,2.21336542877022e-05,1.40041490427633e-11,0.0166753552715382,2021-10-22
"367",183,0.0331889620634105,2.18893410387315e-05,1.32911398191682e-11,0.0165944810383508,2021-10-23
"368",183.5,0.0330245599000463,2.16477287705243e-05,1.26144051826017e-11,0.0165122799563303,2021-10-23
"369",184,0.0328575731758138,2.1408787573206e-05,1.1972101301475e-11,0.0164287865938929,2021-10-24
"370",184.5,0.0326880712349153,2.11724878692353e-05,1.13624779673422e-11,0.0163440356231389,2021-10-24
"371",185,0.0325161235808338,2.09388004096665e-05,1.07838738469413e-11,0.0162580617958088,2021-10-25
"372",185.5,0.032341799829094,2.07076962704569e-05,1.0234711974668e-11,0.0161708999196643,2021-10-25
"373",186,0.0321651696609074,2.04791468488169e-05,9.71349547332954e-12,0.0160825848353104,2021-10-26
"374",186.5,0.0319863027777331,2.02531238596032e-05,9.21880349163623e-12,0.015993151393476,2021-10-26
"375",187,0.0318052688567839,2.00295993317537e-05,8.74928734747216e-12,0.0159026344327666,2021-10-27
"376",187.5,0.0316221375075063,1.98085456047652e-05,8.30366686653961e-12,0.015811068757905,2021-10-27
"377",188,0.0314369782290593,1.95899353252104e-05,7.88072690649591e-12,0.01571848911847,2021-10-28
"378",188.5,0.0312498603688147,1.93737414432971e-05,7.47931405720112e-12,0.015624930188147,2021-10-28
"379",189,0.031060853081901,1.91599372094666e-05,7.0983335081679e-12,0.0155304265444997,2021-10-29
"380",189.5,0.0308700252918083,1.89488326588493e-05,6.73674607475515e-12,0.0154350126492725,2021-10-29
"381",190,0.0306774456520723,1.87409967094062e-05,6.39356537507363e-12,0.0153387228292329,2021-10-30
"382",190.5,0.0304831825090507,1.85354448051275e-05,6.06785514997778e-12,0.0152415912575593,2021-10-30
"383",191,0.0302873038658055,1.83321518163418e-05,5.75872671890285e-12,0.0151436519357821,2021-10-31
"384",191.5,0.0300898773471016,1.81310928897554e-05,5.46533656467227e-12,0.0150449386762835,2021-10-31
"385",192,0.0298909701655295,1.79322434454221e-05,5.18688404074738e-12,0.0149454850853582,2021-11-01
"386",192.5,0.0296906490887606,1.77355791737464e-05,4.92260919472176e-12,0.0148453245468416,2021-11-01
"387",193,0.0294889804079385,1.75410760325197e-05,4.67179070217511e-12,0.0147444902063051,2021-11-02
"388",193.5,0.0292860299072101,1.7348710243988e-05,4.43374390529938e-12,0.0146430149558219,2021-11-02
"389",194,0.0290818628343984,1.71584582919515e-05,4.20781895099215e-12,0.0145409314193031,2021-11-03
"390",194.5,0.0288765438728159,1.69702969188966e-05,3.9933990233802e-12,0.0144382719384047,2021-11-03
"391",195,0.0286701371142185,1.67842031231582e-05,3.78989866599125e-12,0.0143350685590042,2021-11-04
"392",195.5,0.0284627060328944,1.66001541561133e-05,3.59676218903302e-12,0.0142313530182456,2021-11-04
"393",196,0.0282543134608858,1.64181275194049e-05,3.4134621574691e-12,0.0141271567321496,2021-11-05
"394",196.5,0.0281059777642689,1.62381009621969e-05,3.23949795579834e-12,0.0140529888837542,2021-11-05
"395",197,0.0279821782830885,1.60600524784573e-05,3.07439442565198e-12,0.0139910891430815,2021-11-06
"396",197.5,0.0278555005408812,1.5883960304273e-05,2.91770057251921e-12,0.0139277502718994,2021-11-06
"397",198,0.0277260091909512,1.5709802915192e-05,2.76898833809816e-12,0.0138630045968601,2021-11-07
"398",198.5,0.0275937694957344,1.5537559023596e-05,2.62785143494691e-12,0.0137968847491811,2021-11-07
"399",199,0.0274588472684735,1.53672075761004e-05,2.49390424027724e-12,0.0137294236354837,2021-11-08
"400",199.5,0.0273213088154666,1.51987277509839e-05,2.36678074589333e-12,0.0136606544089167,2021-11-08
"401",200,0.0271812208789557,1.50320989556447e-05,2.24613356142982e-12,0.0135906104406009,2021-11-09
"402",200.5,0.0270386505807149,1.4867300824086e-05,2.13163296818712e-12,0.0135193252914233,2021-11-09
"403",201,0.0268936653664001,1.47043132144272e-05,2.02296602099912e-12,0.0134468326842115,2021-11-10
"404",201.5,0.0267463329507164,1.4543116206444e-05,1.91983569569782e-12,0.0133731664763181,2021-11-10
