"","time","top","med","bottom","pseudo_med","date"
"1",0,0.027063050038531,0.0215276541350433,0.0160124604620172,0.0215377552502741,2021-04-23
"2",0.5,0.0270824856840448,0.0216408266680644,0.0160387893284673,0.021560637506256,2021-04-23
"3",1,0.0271027402661761,0.0217209102947398,0.0160655156249326,0.0215841279455543,2021-04-24
"4",1.5,0.0271237533055244,0.0217816790831327,0.0160926377362997,0.021608195520912,2021-04-24
"5",2,0.0271454674520282,0.0219169388590882,0.0161201542348502,0.0216328108434392,2021-04-25
"6",2.5,0.0272906109897231,0.0219904201848461,0.0161480638739851,0.0217193374318541,2021-04-25
"7",3,0.0275158804631606,0.0220631124930515,0.0161763655821952,0.0218461230226779,2021-04-26
"8",3.5,0.0277267707715747,0.0221350234841992,0.016205058457269,0.0219659146144218,2021-04-26
"9",4,0.0279243481091672,0.0222326161680107,0.0162341417607283,0.0220792449349478,2021-04-27
"10",4.5,0.0281095983876633,0.0222868405413783,0.0162636149124822,0.0221866066500728,2021-04-27
"11",5,0.0282834332894923,0.0223390397002425,0.0162934774856914,0.0222884553875918,2021-04-28
"12",5.5,0.028446695864525,0.0223901698049495,0.0163237292018347,0.0223852125331799,2021-04-28
"13",6,0.0286001657047861,0.0224358143702815,0.0163543699259703,0.0224772678153782,2021-04-29
"14",6.5,0.0287445637289644,0.0225127226662236,0.016385399662182,0.0225649816955732,2021-04-29
"15",7,0.0288805566061448,0.0225920328254096,0.016416818549207,0.0226486875776759,2021-04-30
"16",7.5,0.0290087608459666,0.0226571243955253,0.0164486268562339,0.0227286938511003,2021-04-30
"17",8,0.0291297465803613,0.0227328728338333,0.0164808249788677,0.0228052857796145,2021-05-01
"18",8.5,0.029244041060127,0.0228115511900964,0.0165134134352531,0.0228787272476901,2021-05-01
"19",9,0.0293521318878417,0.022872927475815,0.0165463928623511,0.0229492623750964,2021-05-02
"20",9.5,0.0294544700069983,0.0229407889350347,0.0165797640123621,0.0230171170096802,2021-05-02
"21",10,0.0295514724657419,0.0230068729563311,0.01661352774929,0.0230825001075159,2021-05-03
"22",10.5,0.0296435249722072,0.0230745445245757,0.0166476850456425,0.0231456050089248,2021-05-03
"23",11,0.0297309842571696,0.0231418410256372,0.0166822369792605,0.0232066106182151,2021-05-04
"24",11.5,0.0298141802585407,0.0231893520086681,0.0167171847302738,0.0232656824944073,2021-05-04
"25",12,0.0298934181411403,0.0232355208450653,0.0167525295781756,0.0233229738596579,2021-05-05
"26",12.5,0.0299689801641685,0.0232822362610614,0.0167882728990132,0.0233786265315908,2021-05-05
"27",13,0.0300411274078601,0.0233280362489447,0.0168244161626894,0.0234327717852747,2021-05-06
"28",13.5,0.0301101013699407,0.0233630168763215,0.0168609609303701,0.0234855311501554,2021-05-06
"29",14,0.0301761254417028,0.0234025144783009,0.016897908851994,0.0235370171468484,2021-05-07
"30",14.5,0.0302394062727774,0.0234246172363275,0.0169352616638803,0.0235873339683288,2021-05-07
"31",15,0.0303001350329963,0.0234719450807494,0.0169730211864312,0.0236365781097138,2021-05-08
"32",15.5,0.0303584885791036,0.0235100964730089,0.0170111893219241,0.0236848389505139,2021-05-08
"33",16,0.0304146305334922,0.0235479741716513,0.0170497680523905,0.0237321992929413,2021-05-09
"34",16.5,0.0304687122815978,0.0235854850882463,0.0170887594375789,0.0237787358595884,2021-05-09
"35",17,0.0305208738940863,0.0236222198419717,0.0171281656129972,0.0238245197535417,2021-05-10
"36",17.5,0.0305712449795036,0.0236581993819825,0.0171679887880312,0.0238696168837674,2021-05-10
"37",18,0.0306199454726322,0.0236942370319757,0.0172082312441382,0.0239140883583852,2021-05-11
"38",18.5,0.0306670863634028,0.0237245837170174,0.0172488953331095,0.0239579908482561,2021-05-11
"39",19,0.0307127703708433,0.0237843599155895,0.0172899834754014,0.0240013769231224,2021-05-12
"40",19.5,0.0307927442319622,0.0238307699184963,0.0173314981585317,0.0240621211952469,2021-05-12
"41",20,0.030904637889837,0.0238694616212695,0.017373441935537,0.024139039912687,2021-05-13
"42",20.5,0.0310149034263194,0.0239211016889415,0.0174158174234911,0.0242153604249053,2021-05-13
"43",21,0.0311236346402406,0.0239670106292195,0.01745862730208,0.0242911309711603,2021-05-14
"44",21.5,0.031230921075927,0.0239978060744831,0.0175018743122314,0.0243663976940792,2021-05-14
"45",22,0.0313368482191398,0.0240494437508934,0.0175455612547973,0.0244412047369686,2021-05-15
"46",22.5,0.0314414976839791,0.0240945519779897,0.0175896909892869,0.024515594336633,2021-05-15
"47",23,0.0315449473911678,0.0241306128694355,0.0176342664326471,0.0245896069119074,2021-05-16
"48",23.5,0.0316472717381135,0.024167758055629,0.0176792905580899,0.0246632811481017,2021-05-16
"49",24,0.0317485417611274,0.0242114573393552,0.0177247663939633,0.0247366540775454,2021-05-17
"50",24.5,0.0318488252901603,0.0242431756983167,0.017770697022665,0.0248097611564127,2021-05-17
"51",25,0.0319481870964018,0.0242704673330627,0.0178170855795961,0.024882636337999,2021-05-18
"52",25.5,0.0320466890330713,0.0242895717929357,0.0178639352521537,0.0249553121426125,2021-05-18
"53",26,0.0321443901697138,0.024305491694964,0.0179112492787603,0.025027819724237,2021-05-19
"54",26.5,0.0322413469203007,0.0243237548133098,0.0179590309479287,0.0251001889341147,2021-05-19
"55",27,0.0323376131654205,0.0243405885332719,0.0180072835973604,0.0251724483813905,2021-05-20
"56",27.5,0.032433240368832,0.0243647928395452,0.0180560106130765,0.0252446254909543,2021-05-20
"57",28,0.0325282776886394,0.0244030052991158,0.0181052154285789,0.0253167465586091,2021-05-21
"58",28.5,0.0326227720833374,0.0244261577643153,0.018154901524041,0.0253888368036892,2021-05-21
"59",29,0.032716768412963,0.0244489420457532,0.0182050724255265,0.0254609204192448,2021-05-22
"60",29.5,0.0328103095355784,0.0244850125959784,0.0182557317042349,0.0255330206199066,2021-05-22
"61",30,0.0329034363993013,0.0245241318928403,0.0183068829757715,0.0256051596875364,2021-05-23
"62",30.5,0.0329961881300871,0.0245609306823939,0.0183585298994426,0.0256773590147649,2021-05-23
"63",31,0.0330886021154587,0.0245815457436408,0.0184106761775732,0.0257496391465159,2021-05-24
"64",31.5,0.0331807140843709,0.0246006006134183,0.0184633255548459,0.0258220198196084,2021-05-24
"65",32,0.0332725581833878,0.02461412737731,0.0185164818176615,0.0258945200005246,2021-05-25
"66",32.5,0.0333641670493416,0.0246254146971219,0.0185701487935182,0.0259671579214299,2021-05-25
"67",33,0.0334555718786368,0.0246716624549463,0.0186243303504103,0.0260399511145235,2021-05-26
"68",33.5,0.0335468024933534,0.0247001153599398,0.0186689898051594,0.0261078961492564,2021-05-26
"69",34,0.0336378874042962,0.0247087545159382,0.0186735858423303,0.0261557366233133,2021-05-27
"70",34.5,0.0337288538711321,0.0247512518560985,0.0186780721425413,0.0262034630068367,2021-05-27
"71",35,0.0338197279597476,0.0247750148208136,0.0186824521456421,0.0262510900526949,2021-05-28
"72",35.5,0.0339105345969574,0.0248021967626515,0.0186867291533463,0.0262986318751519,2021-05-28
"73",36,0.034001297622683,0.0248242735166917,0.0186909063356315,0.0263461019791572,2021-05-29
"74",36.5,0.03409203983972,0.0248420195970418,0.0186949867368245,0.0263935132882723,2021-05-29
"75",37,0.0341827830612049,0.0248585907370151,0.0186989732813872,0.0264408781712961,2021-05-30
"76",37.5,0.0342735481558862,0.0248795941693161,0.0187028687794176,0.0264882084676519,2021-05-30
"77",38,0.0343871902991099,0.0249015291496595,0.0187066759318817,0.0265469331154958,2021-05-31
"78",38.5,0.034522753765508,0.0249232760234463,0.0187103973355882,0.0266165755505481,2021-05-31
"79",39,0.0346594624671098,0.0249448351798553,0.0187140354879199,0.0266867489775149,2021-06-01
"80",39.5,0.0347973419619762,0.0249695831895115,0.0187175927913343,0.0267574673766552,2021-06-01
"81",40,0.0349364170069274,0.0249873921953403,0.0187210715576435,0.0268287442822855,2021-06-02
"82",40.5,0.0350767116026063,0.0250190658543551,0.0187244740120866,0.0269005928073464,2021-06-02
"83",41,0.0352182490357712,0.0250528231805412,0.0187278022972034,0.0269730256664873,2021-06-03
"84",41.5,0.0353610519189755,0.0250863664416439,0.0187310584765196,0.0270460551977475,2021-06-03
"85",42,0.0355051422277802,0.0251186302511437,0.018734244538054,0.0271196933829171,2021-06-04
"86",42.5,0.0356505413356394,0.0251407604038848,0.0187373623976553,0.0271939518666474,2021-06-04
"87",43,0.0357972700465882,0.0251626462413137,0.0187404139021775,0.0272688419743829,2021-06-05
"88",43.5,0.0359453486258574,0.0251842895270035,0.0187434008325028,0.0273443747291801,2021-06-05
"89",44,0.0360947968285308,0.0252155508448353,0.018746324906418,0.0274205608674744,2021-06-06
"90",44.5,0.036245633926354,0.0252393106430747,0.0187491877813531,0.0274974108538536,2021-06-06
"91",45,0.0363978787327986,0.0252733930372217,0.0187519910569889,0.0275749348948937,2021-06-07
"92",45.5,0.0365515496264782,0.0253049693037764,0.0187547362777388,0.0276531429521085,2021-06-07
"93",46,0.0367066645730087,0.0253191247002041,0.0187574249351126,0.0277320447540606,2021-06-08
"94",46.5,0.0368632411453983,0.0253374089247305,0.0187600584699678,0.0278116498076831,2021-06-08
"95",47,0.0370212965430489,0.0253746037294627,0.0187626382746535,0.0278919674088512,2021-06-09
"96",47.5,0.0371808476094456,0.0253986364992026,0.0187651656950523,0.0279730066522489,2021-06-09
"97",48,0.0373545299395141,0.0254225513025074,0.018767642032526,0.0280610859860201,2021-06-10
"98",48.5,0.0376080365782936,0.0254424661206761,0.0187700685457694,0.0281890525620315,2021-06-10
"99",49,0.0378657783264649,0.0254756792145959,0.018772446452576,0.0283191123895204,2021-06-11
"100",49.5,0.0381278157974269,0.0254872510436386,0.018774776931522,0.0284512963644745,2021-06-11
"101",50,0.0383942098080862,0.0254990355923028,0.0187770611235702,0.0285856354658282,2021-06-12
"102",50.5,0.0386650213686997,0.0255126675568879,0.0187793001335994,0.0287221607511496,2021-06-12
"103",51,0.0389403116714197,0.0255407228432953,0.0187814950318628,0.0288609033516413,2021-06-13
"104",51.5,0.0392201420775502,0.0255612824464966,0.0187836468553781,0.0290018944664641,2021-06-13
"105",52,0.0395045741035249,0.0255917669046056,0.0187857566092534,0.0291451653563892,2021-06-14
"106",52.5,0.0397936694056151,0.0256279635417597,0.0187878252679522,0.0292907473367836,2021-06-14
"107",53,0.0400874897633728,0.0256614329735909,0.0187898537764994,0.0294386717699361,2021-06-15
"108",53.5,0.0403860970618174,0.0256787848049188,0.0187918430516327,0.0295889700567251,2021-06-15
"109",54,0.0406895532723688,0.0256872857277169,0.018793793982901,0.0297416736276349,2021-06-16
"110",54.5,0.0409979204325335,0.0257068668428917,0.0187957074337126,0.029896813933123,2021-06-16
"111",55,0.0413112606243463,0.0257432355130157,0.0187975842423359,0.0300544224333411,2021-06-17
"112",55.5,0.0416296359515716,0.0257794908999568,0.018799425222855,0.0302145305872133,2021-06-17
"113",56,0.041953108515668,0.0258032427602116,0.0188012311660823,0.0303771698408751,2021-06-18
"114",56.5,0.0422817403905187,0.0258267301419333,0.018803002840429,0.0305423716154738,2021-06-18
"115",57,0.0426155935959316,0.0258475212690302,0.0188047409927383,0.030710167294335,2021-06-19
"116",57.5,0.0429547300699116,0.0258537993575892,0.0188064463490806,0.0308805882094961,2021-06-19
"117",58,0.0432992116397091,0.0258886136765691,0.018808119615513,0.031053665627611,2021-06-20
"118",58.5,0.0436490999916475,0.0258952265978391,0.0188097614788062,0.0312294307352269,2021-06-20
"119",59,0.0440044566397361,0.0258990575326284,0.0188113726071386,0.0314079146234374,2021-06-21
"120",59.5,0.0443653428930701,0.025902821636976,0.0188129536507605,0.0315891482719153,2021-06-21
"121",60,0.0447318198220253,0.025920242862781,0.0188145052426292,0.0317731625323273,2021-06-22
"122",60.5,0.0451039482232537,0.025962230760353,0.0188160279990165,0.0319599881111351,2021-06-22
"123",61,0.0454817885834855,0.0259986007807671,0.0188175225200898,0.0321496555517876,2021-06-23
"124",61.5,0.0458654010421472,0.0260229005220343,0.0188189893904683,0.0323421952163078,2021-06-23
"125",62,0.0462548453528039,0.0260334811335944,0.0188204291797561,0.03253763726628,2021-06-24
"126",62.5,0.0466501808434372,0.0260439004974654,0.0188218424430512,0.0327360116432442,2021-06-24
"127",63,0.047051466375569,0.0260541609126672,0.0188232297214343,0.0329373480485016,2021-06-25
"128",63.5,0.0474587603022459,0.0260967689269037,0.0188245915424364,0.0331416759223412,2021-06-25
"129",64,0.0478721204248974,0.0261674229753735,0.0188259284204869,0.0333490244226922,2021-06-26
"130",64.5,0.0482916039490851,0.026177337747673,0.0188272408573429,0.033559422403214,2021-06-26
"131",65,0.0487172674391598,0.0261823095767326,0.0188285293425011,0.0337728983908305,2021-06-27
"132",65.5,0.0491491667718476,0.0261902500668956,0.0188297943535925,0.0339894805627201,2021-06-27
"133",66,0.0495873570887847,0.0262131939775896,0.018831036356761,0.0342091967227729,2021-06-28
"134",66.5,0.0500318927480265,0.0262242514690873,0.0188322558070263,0.0344320742775264,2021-06-28
"135",67,0.0504828272745544,0.0262304047990497,0.0188334531486331,0.0346581402115937,2021-06-29
"136",67.5,0.05094021330981,0.0262508398334333,0.018834628815385,0.0348874210625975,2021-06-29
"137",68,0.0514041025602854,0.0262715354332383,0.018835783230966,0.0351199428956257,2021-06-30
"138",68.5,0.0518745457452018,0.0262895951377158,0.0188369168092488,0.0353557312772253,2021-06-30
"139",69,0.0523515925433113,0.026293775122781,0.0188380299545913,0.0355948112489513,2021-07-01
"140",69.5,0.0529322533648664,0.0262987339191809,0.0188391230621212,0.0358856882134938,2021-07-01
"141",70,0.0538098854855753,0.0263369565823146,0.0188401965180099,0.0363250410017926,2021-07-02
"142",70.5,0.0547081534956345,0.0263536042496777,0.0188412506997351,0.0367747020976848,2021-07-02
"143",71,0.0556273834508309,0.0263600376533597,0.0188422859763346,0.0372348347135828,2021-07-03
"144",71.5,0.0565678982556839,0.0263796914930261,0.0188433027086491,0.0377056004821665,2021-07-03
"145",72,0.0575300171507057,0.0263810596091846,0.0188443012495567,0.0381871592001312,2021-07-04
"146",72.5,0.0585140551819782,0.0263935932705472,0.0188452819441986,0.0386796685630884,2021-07-04
"147",73,0.0595203226534584,0.0264129203418727,0.0188462451301959,0.0391832838918272,2021-07-05
"148",73.5,0.060549124562508,0.0264154890048578,0.0188471911378586,0.0396981578501833,2021-07-05
"149",74,0.0616007600192326,0.0264289541159857,0.0188481202903877,0.0402244401548102,2021-07-06
"150",74.5,0.0626755216503093,0.0264476268733782,0.0188490329040686,0.0407622772771889,2021-07-06
"151",75,0.0637736949880722,0.02646637581065,0.0188499292884586,0.0413118121382654,2021-07-07
"152",75.5,0.0648955578457298,0.0264752947738047,0.0188508097465675,0.0418731837961487,2021-07-07
"153",76,0.0660413796796798,0.0264825781368325,0.0188516745750314,0.0424465271273556,2021-07-08
"154",76.5,0.067211420939996,0.0264897790246033,0.0188525240642808,0.0430319725021384,2021-07-08
"155",77,0.0684059324102597,0.026496898523715,0.0188533584987028,0.0436296454544813,2021-07-09
"156",77.5,0.0696251545380141,0.0265372213439884,0.0188541781567975,0.0442396663474058,2021-07-09
"157",78,0.0708693167572231,0.0265833746301199,0.0188549833113292,0.0448621500342762,2021-07-10
"158",78.5,0.0721386368042209,0.0266486896590768,0.0188557742294722,0.0454972055168466,2021-07-10
"159",79,0.0734333200287376,0.026689200537377,0.0188565511729525,0.0461449356008451,2021-07-11
"160",79.5,0.0747535587016918,0.0267233714750296,0.0188573143981837,0.0468054365499377,2021-07-11
"161",80,0.0760995313215344,0.0267282978095221,0.0188580641563988,0.0474787977389666,2021-07-12
"162",80.5,0.0774714019210265,0.0267912922793033,0.0188588006937784,0.0481651013074024,2021-07-12
"163",81,0.0788693193764215,0.0268276912971832,0.0188595242515734,0.0488644218139974,2021-07-13
"164",81.5,0.0802934167211119,0.0268742101086328,0.018860235066225,0.0495768258936684,2021-07-13
"165",82,0.0817438104658771,0.0268956283805298,0.0188609333694801,0.0503023719176786,2021-07-14
"166",82.5,0.0832205999279456,0.0268978326016913,0.0188616193885032,0.0510411096582244,2021-07-14
"167",83,0.0847238665711503,0.0269000037761102,0.0188622933459852,0.0517930799585677,2021-07-15
"168",83.5,0.0862536733595135,0.0269021424957823,0.0188629554602482,0.0525583144098809,2021-07-15
"169",84,0.0878100641266489,0.0269159613335966,0.0188636059453476,0.0533368350359983,2021-07-16
"170",84.5,0.0893930629634066,0.0269360636293167,0.0188642450111707,0.0541286539872887,2021-07-16
"171",85,0.0910026736262161,0.0269368188157362,0.0188648728635327,0.0549337732448744,2021-07-17
"172",85.5,0.0926388789686017,0.0269375525223448,0.0188654897042693,0.0557521843364355,2021-07-17
"173",86,0.09430164039835,0.0269593710700559,0.0188660957313273,0.0565838680648387,2021-07-18
"174",86.5,0.0959908973628018,0.0269851604749455,0.0188666911388519,0.0574287942508268,2021-07-18
"175",87,0.0977065668647239,0.0269997998849501,0.0188672761172714,0.0582869214909977,2021-07-19
"176",87.5,0.0994485430111825,0.0270003536051291,0.0188678508533805,0.0591581969322815,2021-07-19
"177",88,0.101216696597792,0.0270008906230805,0.0188684155304196,0.060042556064106,2021-07-20
"178",88.5,0.103010874730658,0.0270014114392811,0.0188689703281533,0.0609399225294057,2021-07-20
"179",89,0.104830900488247,0.0270019165393745,0.0188695154229457,0.0618502079555964,2021-07-21
"180",89.5,0.106676572625345,0.0270024063946027,0.0188700509878345,0.0627733118065896,2021-07-21
"181",90,0.108547665321143,0.0270028814622256,0.018870577192602,0.0637091212568726,2021-07-22
"182",90.5,0.110443927973392,0.0270033421859289,0.0188710942038454,0.0646575110886189,2021-07-22
"183",91,0.112365085040415,0.0270037889962201,0.0188716021850437,0.0656183436127294,2021-07-23
"184",91.5,0.114310835932643,0.0270042223108135,0.0188721012966245,0.0665914686146337,2021-07-23
"185",92,0.116280854955172,0.027004642535004,0.0188725916960277,0.0675767233256001,2021-07-24
"186",92.5,0.118274791302675,0.0270050500620307,0.0188730735377679,0.0685739324202216,2021-07-24
"187",93,0.120292269107808,0.0270054452734297,0.0188735469734955,0.0695829080406515,2021-07-25
"188",93.5,0.122332887544084,0.0270058285393771,0.018874012152056,0.0706034498480702,2021-07-25
"189",94,0.124396220983977,0.0270062002190222,0.0188744692195475,0.0716353451017621,2021-07-26
"190",94.5,0.126481819212783,0.0270065606608109,0.0188749183193772,0.0726783687660802,2021-07-26
"191",95,0.128589207698612,0.0270069102028006,0.0188753595923162,0.0737322836454643,2021-07-27
"192",95.5,0.130717887918591,0.0270334764922601,0.0188757931765531,0.0747968405475722,2021-07-27
"193",96,0.132867337741189,0.0270631769576383,0.0188762192077459,0.0758717784744675,2021-07-28
"194",96.5,0.135037011864316,0.0270930501089556,0.0188766378190731,0.0769568248416947,2021-07-28
"195",97,0.137226342308628,0.0270989240412585,0.0188770491412832,0.0780516957249556,2021-07-29
"196",97.5,0.13943473896523,0.0270994244513414,0.0188774533027434,0.0791560961339869,2021-07-29
"197",98,0.141661590196763,0.0270999105836493,0.0188778504294865,0.0802697203131247,2021-07-30
"198",98.5,0.143906263490595,0.0271003828446251,0.0188782406452574,0.0813922520679262,2021-07-30
"199",99,0.146168106162663,0.0271008416292117,0.0188786240715579,0.0825233651171104,2021-07-31
"200",99.5,0.148446446110249,0.0271107250820215,0.0188790008276907,0.0836627234689701,2021-07-31
"201",100,0.150740592611805,0.0271300587733101,0.0188793710308025,0.0848099818213036,2021-08-01
"202",100.5,0.153049837171706,0.0271494225284918,0.0188797347959259,0.0859647859838158,2021-08-01
"203",101,0.15537345440766,0.0271688165894986,0.0188800922360206,0.0871267733218404,2021-08-02
"204",101.5,0.157710702978287,0.0271854631227705,0.018880443462013,0.0882955732201499,2021-08-02
"205",102,0.160060826548231,0.0271859526071832,0.0188807885828359,0.0894708075655336,2021-08-03
"206",102.5,0.162423054788034,0.0271864291422597,0.0188811277054664,0.0906520912467501,2021-08-03
"207",103,0.164796604405817,0.0271868930699128,0.0188814609349636,0.0918390326703901,2021-08-04
"208",103.5,0.167180680207746,0.027187344723058,0.018881788374505,0.0930312342911257,2021-08-04
"209",104,0.169574476184115,0.0272070238524685,0.0188821101254224,0.0942282931547687,2021-08-05
"210",104.5,0.171977176617792,0.0272223261494213,0.0188824262872368,0.0954298014525145,2021-08-05
"211",105,0.174387957211735,0.0272225133423605,0.0188827369576928,0.096635347084714,2021-08-06
"212",105.5,0.176805986232179,0.0272226957089082,0.018883042232792,0.0978445142324857,2021-08-06
"213",106,0.179230425664102,0.0272228733749597,0.0188833422068259,0.099056883935464,2021-08-07
"214",106.5,0.181660432375528,0.0272313167153524,0.0188836369724077,0.100272034673968,2021-08-07
"215",107,0.184095159287237,0.0272503298402979,0.018883926620504,0.10148954295387,2021-08-08
"216",107.5,0.186533756544466,0.0272503861326793,0.0188842112404653,0.102708983892465,2021-08-08
"217",108,0.188975372687203,0.0272504406327246,0.0188844909200565,0.10392993180363,2021-08-09
"218",108.5,0.191419155815742,0.0272504933983036,0.0188847657454857,0.105151960780614,2021-08-09
"219",109,0.19386425474821,0.0272505444853883,0.0188850358014336,0.106374645274822,2021-08-10
"220",109.5,0.19630982016688,0.0272505939481165,0.0188853011710817,0.107597560668981,2021-08-10
"221",110,0.198755005750141,0.0272506418388525,0.0188855619361396,0.10882028384314,2021-08-11
"222",110.5,0.201198969287143,0.0272506882082464,0.0188858181768724,0.110042393732007,2021-08-11
"223",111,0.203640873772207,0.0272507331052913,0.0188860699721273,0.111263471872167,2021-08-12
"224",111.5,0.206079888476271,0.0272507765773781,0.0188863173993594,0.112483102937815,2021-08-12
"225",112,0.208515189992715,0.0272851165073704,0.0188865605346573,0.113700875263686,2021-08-13
"226",112.5,0.210945963255138,0.0273262055240636,0.0188867994527682,0.114916381353953,2021-08-13
"227",113,0.213371402524732,0.0273985367377737,0.0188870342271219,0.116129218375927,2021-08-14
"228",113.5,0.215790712345125,0.0274669491300729,0.0188872649298555,0.11733898863749,2021-08-14
"229",114,0.218203108462698,0.0275050912634417,0.0188874916318363,0.118545300047267,2021-08-15
"230",114.5,0.220607818710567,0.0275093348551918,0.0188877144026851,0.119747766556626,2021-08-15
"231",115,0.223004083854594,0.0275104593569631,0.0188879333107989,0.120946008582697,2021-08-16
"232",115.5,0.225391158399964,0.0275115651187298,0.0188881484233728,0.122139653411668,2021-08-16
"233",116,0.227768311357051,0.0275126524592277,0.0188883598064219,0.123328335581737,2021-08-17
"234",116.5,0.230134826965481,0.0275137216915888,0.0188885675248024,0.124511697245142,2021-08-17
"235",117,0.232490005375449,0.0275147731234443,0.0188887716422328,0.125689388508841,2021-08-18
"236",117.5,0.234833163285566,0.0275158070570271,0.0188889722213139,0.12686106775344,2021-08-18
"237",118,0.23716363453665,0.0275407099489128,0.0188891693235496,0.1280264019301,2021-08-19
"238",118.5,0.239480770661054,0.0275417714187016,0.0188893630093657,0.12918506683521,2021-08-19
"239",119,0.241783941387303,0.0275427531550899,0.0188895533381301,0.130336747362716,2021-08-20
"240",119.5,0.244072535099948,0.0275437185936719,0.018889740368171,0.13148113773406,2021-08-20
"241",120,0.246345959254729,0.0275446680096817,0.018889924156796,0.132617941705763,2021-08-21
"242",120.5,0.248603640749244,0.0275456016735781,0.0188901047603101,0.133746872754777,2021-08-21
"243",121,0.250845026249505,0.0275465198511309,0.0188902822340337,0.134867654241769,2021-08-22
"244",121.5,0.25306958247288,0.0275474228035058,0.0188904566323202,0.1359800195526,2021-08-22
"245",122,0.255276796428021,0.0275601647626169,0.018890628008573,0.137083712218297,2021-08-23
"246",122.5,0.257466175612541,0.0275841095779549,0.0188907964152626,0.138178486013902,2021-08-23
"247",123,0.259637248169271,0.0276081733757149,0.018890961903943,0.139264105036607,2021-08-24
"248",123.5,0.261789563002062,0.0276219708917898,0.0188911245252685,0.140340343763665,2021-08-24
"249",124,0.26392268985216,0.0276237159610508,0.0188912843290088,0.141406987090584,2021-08-25
"250",124.5,0.266036219336292,0.0276244932559535,0.0188914413640655,0.142463830350179,2021-08-25
"251",125,0.268129762947664,0.0276245606968485,0.018891595678487,0.143510679313075,2021-08-26
"252",125.5,0.270202953021136,0.0276246263011333,0.0188917473194837,0.14454735017031,2021-08-26
"253",126,0.272255442663914,0.0276246901189212,0.0188918963334432,0.145573669498679,2021-08-27
"254",126.5,0.274286905653129,0.0276247521989543,0.0188920427659441,0.146589474209536,2021-08-27
"255",127,0.276297036301738,0.0276248125886413,0.018892186661771,0.147594611481754,2021-08-28
"256",127.5,0.278285549294204,0.0276248713340938,0.018892328064928,0.148588938679566,2021-08-28
"257",128,0.28025217949344,0.0276249284801621,0.018892467018653,0.149572323256046,2021-08-29
"258",128.5,0.282196681720527,0.02762498407047,0.0188926035654307,0.150544642642979,2021-08-29
"259",129,0.284118830508747,0.0276250381474483,0.018892737747006,0.151505784127876,2021-08-30
"260",129.5,0.286018419833429,0.0276250907523676,0.0188928696043973,0.152455644718913,2021-08-30
"261",130,0.287895262819184,0.0276251419253701,0.0188929991779091,0.153394130998547,2021-08-31
"262",130.5,0.289749191426022,0.027628060883998,0.0188931265071444,0.154321158966583,2021-08-31
"263",131,0.291580056115897,0.0276419550681394,0.0188932516310172,0.155236653873457,2021-09-01
"264",131.5,0.29338772550117,0.027655950698408,0.0188933745877647,0.156140550044467,2021-09-01
"265",132,0.29517208597649,0.0276700485060365,0.0188934954149589,0.157032790695725,2021-09-02
"266",132.5,0.296933041335547,0.0276842492258895,0.0188936141495186,0.157913327742533,2021-09-02
"267",133,0.298670512374135,0.0276985535964943,0.0188937308277206,0.158782121600928,2021-09-03
"268",133.5,0.300384436480936,0.0277129623600706,0.0188938454852111,0.159639140983074,2021-09-03
"269",134,0.302074767217391,0.0277181579536152,0.0188939581570168,0.160484362687204,2021-09-04
"270",134.5,0.303741473887987,0.0277195078434296,0.0188940688775554,0.161317771382771,2021-09-04
"271",135,0.305384541102271,0.0277208406616013,0.018894177680647,0.162139359391459,2021-09-05
"272",135.5,0.307003968329825,0.0277221566287793,0.0188942845995235,0.162949126464674,2021-09-05
"273",136,0.308599769449423,0.0277234559626332,0.0188943896668401,0.163747079558132,2021-09-06
"274",136.5,0.310171972293531,0.0277247388778962,0.0188944929146842,0.164533232604107,2021-09-06
"275",137,0.311720618189261,0.0277288189123848,0.0188945943745864,0.165307606281924,2021-09-07
"276",137.5,0.313245761496868,0.0277380691864369,0.0188946940775294,0.166070227787199,2021-09-07
"277",138,0.314747469146781,0.0277473013775991,0.0188947920539581,0.166821130600369,2021-09-08
"278",138.5,0.316225820176176,0.0277565156569814,0.0188948883337888,0.167560354254982,2021-09-08
"279",139,0.317680905265984,0.0277657121933834,0.0188949829464183,0.168287944106201,2021-09-09
"280",139.5,0.319112826279232,0.0277748911533234,0.0188950759207331,0.169003951099983,2021-09-09
"281",140,0.320521695801527,0.0277780346371488,0.0188951672851187,0.169708431543323,2021-09-10
"282",140.5,0.321907636684471,0.0277792363847526,0.0188952570674674,0.170401446875969,2021-09-10
"283",141,0.323270781592727,0.027780422664337,0.0188953452951878,0.171083063443958,2021-09-11
"284",141.5,0.324611272555429,0.0277815936801218,0.018895431995213,0.171753352275321,2021-09-11
"285",142,0.325929260522555,0.0277827496335214,0.0188955171940084,0.172412388858282,2021-09-12
"286",142.5,0.327224904926871,0.0277838907231851,0.0188956009175805,0.173060252922226,2021-09-12
"287",143,0.328498373251972,0.0277850171450379,0.0188956831914846,0.173697028221728,2021-09-13
"288",143.5,0.329749840606929,0.0277861290923198,0.0188957640408327,0.174322802323881,2021-09-13
"289",144,0.330979489308007,0.0277886073300448,0.0188958434903012,0.174937666399154,2021-09-14
"290",144.5,0.332187508467851,0.0277935946591118,0.0188959215641385,0.175541715015995,2021-09-14
"291",145,0.333374093592533,0.0277985389617057,0.0188959982861724,0.176135045939353,2021-09-15
"292",145.5,0.334539446186796,0.0278022646818415,0.0188960736798176,0.176717759933307,2021-09-15
"293",146,0.335683773367784,0.0278040375649191,0.0188961477680827,0.177289960567933,2021-09-16
"294",146.5,0.33680728748754,0.0278057889123619,0.0188962205735773,0.177851754030559,2021-09-16
"295",147,0.337910205764485,0.0278075189855259,0.0188962921185189,0.178403248941502,2021-09-17
"296",147.5,0.338992749924091,0.0278092280426024,0.0188963624247401,0.178944556174415,2021-09-17
"297",148,0.340055145848901,0.0278109163386562,0.0188964315136946,0.179475788681298,2021-09-18
"298",148.5,0.34109762323805,0.0278125841256631,0.0188964994064645,0.179997061322257,2021-09-18
"299",149,0.342120415276374,0.0278142316525476,0.0188965661237662,0.18050849070007,2021-09-19
"300",149.5,0.343123758313205,0.0278158591652192,0.0188966316859571,0.181010194999581,2021-09-19
"301",150,0.344107891550903,0.0278174669066089,0.0188966961130418,0.181502293831973,2021-09-20
"302",150.5,0.34507305674316,0.0278190551167053,0.018896759424678,0.181984908083919,2021-09-20
"303",151,0.346019497903075,0.0278206240325898,0.0188968216401828,0.182458159771629,2021-09-21
"304",151.5,0.346947461021005,0.0278248370918356,0.0188968827785386,0.182922171899772,2021-09-21
"305",152,0.347857193792155,0.027830083077271,0.0188969428583986,0.183377068325277,2021-09-22
"306",152.5,0.348748945353847,0.0278352965492283,0.0188970018980929,0.18382297362597,2021-09-22
"307",153,0.349622966032423,0.0278404777439832,0.018897059915634,0.184260012974028,2021-09-23
"308",153.5,0.350479507099677,0.0278456268957317,0.0188971169287221,0.1846883120142,2021-09-23
"309",154,0.351318820538743,0.0278507442366119,0.0188971729547507,0.185107996746747,2021-09-24
"310",154.5,0.352141158819304,0.0278533608630144,0.0188972280108122,0.185519193415058,2021-09-24
"311",155,0.352946774682021,0.0278547155619768,0.0188972821137025,0.185922028397862,2021-09-25
"312",155.5,0.35373592093204,0.0278560542653886,0.0188973352799267,0.186316628105984,2021-09-25
"313",156,0.354508850241427,0.0278573771625087,0.0188973875257038,0.186703118883565,2021-09-26
"314",156.5,0.355265814960388,0.0278586844403549,0.0188974388669719,0.18708162691368,2021-09-26
"315",157,0.356007066937114,0.0278599762837305,0.0188974893193931,0.187452278128254,2021-09-27
"316",157.5,0.356732857346072,0.0278612528752503,0.0188975388983578,0.187815198122215,2021-09-27
"317",158,0.357443436524572,0.0278625143953666,0.0188975876189901,0.188170512071781,2021-09-28
"318",158.5,0.358139053817442,0.0278637610223947,0.018897635496152,0.188518344656797,2021-09-28
"319",159,0.358819957429602,0.0278649929325386,0.0188976825444481,0.188858819987025,2021-09-29
"320",159.5,0.359486394286371,0.027866210299915,0.0188977287782299,0.189192061532301,2021-09-29
"321",160,0.360138609901302,0.0278674132965792,0.0188977742116005,0.189518192056451,2021-09-30
"322",160.5,0.360776848251346,0.0278686020925484,0.0188978188584184,0.189837333554882,2021-09-30
"323",161,0.361401351659166,0.0278697768558268,0.0188978627323023,0.190149607195734,2021-10-01
"324",161.5,0.36201236068238,0.0278709377524284,0.018897905846635,0.190455133264507,2021-10-01
"325",162,0.362610114009549,0.0278720849464014,0.0188979482145674,0.190754031112058,2021-10-02
"326",162.5,0.363194848362703,0.027873218599851,0.0188979898490227,0.191046419105863,2021-10-02
"327",163,0.363766798406205,0.0278743388729625,0.0188980307627002,0.191332414584452,2021-10-03
"328",163.5,0.364326196661756,0.0278754459240241,0.0188980709680794,0.191612133814918,2021-10-03
"329",164,0.364873273429341,0.0278765399094493,0.0188981104774235,0.191885691953382,2021-10-04
"330",164.5,0.365408256713912,0.027877620983799,0.0188981493027834,0.192153203008348,2021-10-04
"331",165,0.365931372157628,0.0278786892998034,0.0188981874560013,0.192414779806815,2021-10-05
"332",165.5,0.366442842977438,0.0278797450083839,0.0188982249487142,0.192670533963076,2021-10-05
"333",166,0.366942889907824,0.0278807882586743,0.0188982617923578,0.192920575850091,2021-10-06
"334",166.5,0.367431731148527,0.0278818191980421,0.0188982979981695,0.193165014573348,2021-10-06
"335",167,0.367909582317041,0.0278828379721091,0.0188983335771922,0.193403957947116,2021-10-07
"336",167.5,0.368376656405714,0.0278838447247727,0.0188983685402777,0.193637512472996,2021-10-07
"337",168,0.36883316374327,0.0278848395982255,0.0188984028980896,0.19386578332068,2021-10-08
"338",168.5,0.369279311960568,0.0278858227329761,0.0188984366611071,0.194088874310838,2021-10-08
"339",169,0.369715305960429,0.0278867942678688,0.0188984698396278,0.194306887900028,2021-10-09
"340",169.5,0.370141347891355,0.0278877543401033,0.018898502443771,0.194519925167563,2021-10-09
"341",170,0.370557637124985,0.0278887030852542,0.0188985344834808,0.194728085804233,2021-10-10
"342",170.5,0.370964370237108,0.0278967345862986,0.018898565968529,0.194931468102818,2021-10-10
"343",171,0.371361740992083,0.0279088621057685,0.0188985969085184,0.195130168950301,2021-10-11
"344",171.5,0.371749940330516,0.0279210135166265,0.0188986273128853,0.195324283821701,2021-10-11
"345",172,0.372129156360023,0.027933188885754,0.0188986571909028,0.195513906775463,2021-10-12
"346",172.5,0.372499574348954,0.027936839132363,0.0188986865516832,0.195699130450318,2021-10-12
"347",173,0.372861376722914,0.0279377415535188,0.0188987154041813,0.195880046063548,2021-10-13
"348",173.5,0.373214743063962,0.0279386336470629,0.0188987437571965,0.196056743410579,2021-10-13
"349",174,0.373559850112328,0.0279395155312015,0.0188987716193763,0.196229310865852,2021-10-14
"350",174.5,0.373896871770538,0.027940387322789,0.018898798999218,0.196397835384878,2021-10-14
"351",175,0.374225979109807,0.0279412491373436,0.018898825905072,0.19656240250744,2021-10-15
"352",175.5,0.37454734037858,0.0279421010890624,0.0188988523451442,0.196723096361862,2021-10-15
"353",176,0.374861121013098,0.0279429432908363,0.0188988783274982,0.196879999670298,2021-10-16
"354",176.5,0.375167483649883,0.0279437758542651,0.0188989038600582,0.197033193754971,2021-10-16
"355",177,0.375466588140014,0.0279445988896721,0.018898928950611,0.197182758545312,2021-10-17
"356",177.5,0.375758591565099,0.0279454125061191,0.0188989536068087,0.197328772585954,2021-10-17
"357",178,0.376043648254836,0.0279462168114199,0.0188989778361709,0.197471313045504,2021-10-18
"358",178.5,0.376321909806057,0.0279470119121555,0.018899001646087,0.197610455726072,2021-10-18
"359",179,0.376593525103163,0.0279477979136876,0.0188990250438185,0.197746275073491,2021-10-19
"360",179.5,0.376858640339854,0.0279485749201726,0.018899048036501,0.197878844188177,2021-10-19
"361",180,0.377117399042068,0.0279493430345754,0.0188990706311468,0.198008234836607,2021-10-20
"362",180.5,0.377369942092037,0.027950102358683,0.0188990928346466,0.198134517463342,2021-10-20
"363",181,0.377616407753383,0.0279508529931182,0.0188991146537719,0.198257761203578,2021-10-21
"364",181.5,0.377856931697167,0.0279515950373523,0.0188991360951769,0.198378033896172,2021-10-21
"365",182,0.378091647028823,0.0279523285897187,0.0188991571654008,0.198495402097112,2021-10-22
"366",182.5,0.378320684315895,0.0279530537474259,0.0188991778708692,0.198609931093382,2021-10-22
"367",183,0.378838329164537,0.02795377060657,0.0188991982178968,0.198868763691217,2021-10-23
"368",183.5,0.380212668348777,0.0279544792621478,0.0188992182126889,0.199555943280733,2021-10-23
"369",184,0.381566361387812,0.027955179808069,0.0188992378613431,0.200232799624578,2021-10-24
"370",184.5,0.382899548599424,0.027955872337169,0.0188992571698519,0.200899402884638,2021-10-24
"371",185,0.384212375712639,0.0279565569412207,0.0188992761441036,0.201555825928371,2021-10-25
"372",185.5,0.385504993598711,0.0279572337109471,0.0188992947898848,0.202202144194298,2021-10-25
"373",186,0.386777558006566,0.0279579027360329,0.018899313112882,0.202838435559724,2021-10-26
"374",186.5,0.388030229302924,0.0279585641051366,0.0188993311186829,0.203464780210804,2021-10-26
"375",187,0.389263172217221,0.0279592179059021,0.0188993488127789,0.204081260515,2021-10-27
"376",187.5,0.390476555591508,0.0279598642249705,0.0188993662005661,0.204687960896037,2021-10-27
"377",188,0.39167055213544,0.0279605031479912,0.018899383287347,0.205284967711394,2021-10-28
"378",188.5,0.392845338186476,0.0279611347596335,0.0188994000783327,0.205872369132405,2021-10-28
"379",189,0.394001093475385,0.0279617591435977,0.0188994165786438,0.206450255027015,2021-10-29
"380",189.5,0.395138000897145,0.0279623763826262,0.0188994327933123,0.207018716845229,2021-10-29
"381",190,0.39625624628731,0.0279629865585145,0.0188994487272832,0.207577847507297,2021-10-30
"382",190.5,0.397356018203898,0.0279635897521219,0.0188994643854158,0.208127741294657,2021-10-30
"383",191,0.39843750771485,0.0279641860433821,0.0188994797724852,0.208668493743668,2021-10-31
"384",191.5,0.399500908191093,0.0279647755113143,0.018899494893184,0.209200201542139,2021-10-31
"385",192,0.400546415105231,0.0279653582340328,0.0188995097521234,0.209722962428677,2021-11-01
"386",192.5,0.401574225835877,0.0279659342887582,0.018899524353835,0.210236875094856,2021-11-01
"387",193,0.402584539477624,0.0279665037518271,0.0188995387027715,0.210742039090198,2021-11-02
"388",193.5,0.403577556656664,0.0279670666987023,0.0188995528033091,0.211238554729986,2021-11-02
"389",194,0.404553479352008,0.0279676232039829,0.0188995666597478,0.211726523005878,2021-11-03
"390",194.5,0.405512510722324,0.027968173341414,0.0188995802763134,0.212206045499319,2021-11-03
"391",195,0.406454854938326,0.0279687171838966,0.0188995936571583,0.212677224297742,2021-11-04
"392",195.5,0.407380717020689,0.0279692548034973,0.0188996068063633,0.213140161913526,2021-11-04
"393",196,0.408290302683454,0.0279697862714575,0.0188996197279384,0.213594961205696,2021-11-05
"394",196.5,0.409183818182844,0.0279703116582034,0.0188996324258242,0.214041725304334,2021-11-05
"395",197,0.410061470171463,0.0279708310333547,0.018899644903893,0.214480557537678,2021-11-06
"396",197.5,0.410923465557791,0.0279713444657344,0.0188996571659502,0.214911561361871,2021-11-06
"397",198,0.411770011370918,0.0279718520233774,0.0188996692157352,0.215334840293327,2021-11-07
"398",198.5,0.412601314630439,0.0279723537735398,0.0188996810569228,0.215750497843681,2021-11-07
"399",199,0.413417582221438,0.0279728497827078,0.0188996926931242,0.216158637457281,2021-11-08
"400",199.5,0.414219020774467,0.0279733401166064,0.0188997041278878,0.216559362451177,2021-11-08
"401",200,0.415005836550457,0.0279738248402082,0.0188997153647008,0.216952775957579,2021-11-09
"402",200.5,0.415778235330446,0.0279743040177419,0.0188997264069901,0.217338980868718,2021-11-09
"403",201,0.416536422310056,0.027974777712701,0.0188997372581231,0.21771807978409,2021-11-10
"404",201.5,0.417280601998618,0.0279752459878518,0.018899747921409,0.218090174960014,2021-11-10
