"","time","top","med","bottom","pseudo_med","date"
"1",0,0.0281493587236931,0.0217463776294643,0.0163940560592226,0.0222717073914578,2021-04-23
"2",0.5,0.0281888409833587,0.0218036500836426,0.0164584929278587,0.0223236669556087,2021-04-23
"3",1,0.0282268769508237,0.0219613244948234,0.0165207385701791,0.0223738077605014,2021-04-24
"4",1.5,0.0282636082503323,0.0220604999981285,0.016580881773508,0.0224222450119202,2021-04-24
"5",2,0.0282991670822178,0.0221496772423098,0.0166390071962663,0.0224690871392421,2021-04-25
"6",2.5,0.0283336769326828,0.0222271003022364,0.0166951955765471,0.022514436254615,2021-04-25
"7",3,0.0283672532323519,0.022340356020857,0.0167495239297064,0.0225583885810292,2021-04-26
"8",3.5,0.0284000039673461,0.0224662978060305,0.0168020657355581,0.0226010348514521,2021-04-26
"9",4,0.0284320302463528,0.022523501338162,0.0168528911157314,0.0226424606810421,2021-04-27
"10",4.5,0.0284634268269168,0.0225963236974263,0.0169020670017178,0.0226827469143173,2021-04-27
"11",5,0.0284942826039362,0.0226857739570507,0.0169496572941069,0.0227219699490215,2021-04-28
"12",5.5,0.0285246810631357,0.0227859877954562,0.0169957230134831,0.0227602020383094,2021-04-28
"13",6,0.0285547007020851,0.0228619516851296,0.0170403224434305,0.0227975115727578,2021-04-29
"14",6.5,0.0285844154211423,0.0229439486874844,0.0170835112660663,0.0228339633436043,2021-04-29
"15",7,0.0286138948865308,0.0230164555623554,0.0171253426905049,0.0228696187885178,2021-04-30
"16",7.5,0.0286432048675968,0.023079218656145,0.0171658675746286,0.0229045362211127,2021-04-30
"17",8,0.0286724075501451,0.0231631560940841,0.0172051345405235,0.0229387710453343,2021-05-01
"18",8.5,0.0287128216886225,0.0232486195136822,0.0172431900839185,0.0229780058862705,2021-05-01
"19",9,0.0288438051861208,0.0233004782513568,0.0172800786779473,0.0230619419320341,2021-05-02
"20",9.5,0.0289669513402929,0.0233568047735527,0.0173158428715365,0.0231413971059147,2021-05-02
"21",10,0.0290827331330598,0.0234122119257542,0.0173505233827052,0.0232166282578825,2021-05-03
"22",10.5,0.0291915947889673,0.0234583955856278,0.0173841591870485,0.0232878769880079,2021-05-03
"23",11,0.02929395353479,0.0235111921076247,0.0174167876016599,0.0233553705682249,2021-05-04
"24",11.5,0.0293902012508888,0.0235531665688129,0.0174484443647351,0.023419322807812,2021-05-04
"25",12,0.0294807060210104,0.0236151034727465,0.0174791637110879,0.0234799348660492,2021-05-05
"26",12.5,0.0295658135868037,0.0236716695382985,0.0175089784437938,0.0235373960152987,2021-05-05
"27",13,0.0296458487129382,0.0237120348700583,0.0175365718328169,0.0235912102728776,2021-05-06
"28",13.5,0.029721116468344,0.0237731764252174,0.0175611234115379,0.0236411199399409,2021-05-06
"29",14,0.0297919034287524,0.023826140656097,0.0175849361425456,0.023688419785649,2021-05-07
"30",14.5,0.0298584788053934,0.0238608941433238,0.0176080418833062,0.0237332603443498,2021-05-07
"31",15,0.0299210955044069,0.023894007467173,0.017630470803361,0.0237757831538839,2021-05-08
"32",15.5,0.0299799911212412,0.0239261017866754,0.0176522514808907,0.0238161213010659,2021-05-08
"33",16,0.030035388874048,0.0239574075806706,0.0176734109936242,0.0238543999338361,2021-05-09
"34",16.5,0.030087498479835,0.0239879554444296,0.0176939750044264,0.0238907367421307,2021-05-09
"35",17,0.0301365169769045,0.0240177745955582,0.0177139678418777,0.0239252424093911,2021-05-10
"36",17.5,0.0301826294968864,0.0240659524286693,0.0177334125761406,0.0239580210365135,2021-05-10
"37",18,0.0302357414671221,0.0241068475192314,0.017752331090392,0.023994036278757,2021-05-11
"38",18.5,0.0303216462090413,0.0241488622642943,0.0177707441480806,0.024046195178561,2021-05-11
"39",19,0.0304056528245196,0.0241889898732323,0.0177886714562577,0.0240971621403887,2021-05-12
"40",19.5,0.0304878965495791,0.0242231157712425,0.0178061317252104,0.0241470141373948,2021-05-12
"41",20,0.0305685043187677,0.0242555546988079,0.0178231427246166,0.0241958235216922,2021-05-13
"42",20.5,0.0306475952783811,0.0242796136616492,0.0178397213364259,0.0242436583074035,2021-05-13
"43",21,0.0307252812679392,0.0243311461107524,0.0178558836046594,0.0242905824362993,2021-05-14
"44",21.5,0.0308016672718815,0.0243569068765237,0.0178716447823093,0.0243366560270954,2021-05-14
"45",22,0.0308768518433222,0.0243837953079311,0.0178870193755097,0.024381935609416,2021-05-15
"46",22.5,0.030950927501593,0.0244098989504819,0.0179020211851391,0.0244264743433661,2021-05-15
"47",23,0.0310239811051953,0.0244492545185164,0.0179166633460046,0.0244703222256,2021-05-16
"48",23.5,0.0310960942016816,0.0244900854548861,0.0179309583637518,0.0245135262827167,2021-05-16
"49",24,0.031167343355893,0.0245221181502494,0.0179449181496324,0.0245561307527627,2021-05-17
"50",24.5,0.0312378004578923,0.0245666739351066,0.0179585540532576,0.0245981772555749,2021-05-17
"51",25,0.031318209310509,0.0245916040024624,0.0179718768934525,0.0246450431019807,2021-05-18
"52",25.5,0.0314226686256724,0.024628644032617,0.017984896987327,0.0247037828064997,2021-05-18
"53",26,0.0315268774229878,0.0246647797827754,0.0179976241776648,0.0247622508003263,2021-05-19
"54",26.5,0.0316309174589514,0.0247004418229354,0.0180100678587305,0.0248204926588409,2021-05-19
"55",27,0.0317348671081244,0.0247356466362622,0.0180222370005885,0.0248785520543564,2021-05-20
"56",27.5,0.0318388015452956,0.0247704101163152,0.0180341401720196,0.0249364708586576,2021-05-20
"57",28,0.0319427929182472,0.0248023760838673,0.0180457855621182,0.0249942892401827,2021-05-21
"58",28.5,0.0320469105116069,0.0248294204278063,0.0180571810006485,0.0250520457561277,2021-05-21
"59",29,0.0322855986491471,0.0248558838122824,0.01806833397723,0.0251769663131885,2021-05-22
"60",29.5,0.0325898004027648,0.0248817801198247,0.0180792516594241,0.0253345260310944,2021-05-22
"61",30,0.0329039596346535,0.0249077120811822,0.0180899409097837,0.0254969502722186,2021-05-23
"62",30.5,0.033228389620055,0.0249381091410756,0.0181004083019276,0.0256643989609913,2021-05-23
"63",31,0.0335634114244715,0.0249614874428997,0.0181106601356972,0.0258370357800843,2021-05-24
"64",31.5,0.0339093540126706,0.0249848940942377,0.0181207024514476,0.0260150282320591,2021-05-24
"65",32,0.0342665543500797,0.0249998340061349,0.0181305410435262,0.026198547696803,2021-05-25
"66",32.5,0.0346353574958432,0.0250153690447074,0.0181401814729842,0.0263877694844137,2021-05-25
"67",33,0.035016116686774,0.0250421622380488,0.0181496290795666,0.0265828728831703,2021-05-26
"68",33.5,0.0354091934113893,0.0250711190796292,0.0181588889930232,0.0267840412022062,2021-05-26
"69",34,0.0358149574731774,0.0251028447245679,0.0181679661437801,0.0269914618084787,2021-05-27
"70",34.5,0.0362337870421958,0.0251326412696236,0.0181768652730083,0.0272053261576021,2021-05-27
"71",35,0.036666068694062,0.025162318617887,0.0181855909421257,0.0274258298180939,2021-05-28
"72",35.5,0.0371121974353505,0.025191696167247,0.0181941475417648,0.0276531724885577,2021-05-28
"73",36,0.0375725767143695,0.025220907791628,0.0182025393002374,0.0278875580073035,2021-05-29
"74",36.5,0.0380476184162466,0.0252498311702741,0.0182107702915258,0.0281291943538862,2021-05-29
"75",37,0.0385377428412119,0.0252696631162889,0.0182188444428273,0.0283782936420196,2021-05-30
"76",37.5,0.0390433786649267,0.0253044421440606,0.0182267655416797,0.0286350721033032,2021-05-30
"77",38,0.0395649628796664,0.0253197837698836,0.01823453724269,0.0288997500611782,2021-05-31
"78",38.5,0.0401029407151308,0.0253322082787195,0.0182421630738903,0.0291725518945106,2021-05-31
"79",39,0.0406577655376197,0.0253444588325804,0.0182496464427438,0.0294537059901818,2021-06-01
"80",39.5,0.0412298987262808,0.0253998446393871,0.0182569906418184,0.0297434446840496,2021-06-01
"81",40,0.0418198095251079,0.0254536812513164,0.0182641988541496,0.0300420041896288,2021-06-02
"82",40.5,0.0424279748693446,0.0254735115600273,0.0182712741583102,0.0303496245138274,2021-06-02
"83",41,0.0430548791849268,0.0254922123839814,0.018278219533202,0.0306665493590644,2021-06-03
"84",41.5,0.0437010141595849,0.025509723851126,0.0182850378625883,0.0309930260110866,2021-06-03
"85",42,0.0443668784842149,0.025534181806861,0.01829173193938,0.0313293052117974,2021-06-04
"86",42.5,0.0450529775631257,0.0255591676381679,0.0182983044696906,0.0316756410164082,2021-06-04
"87",43,0.0457598231917744,0.0256166487870951,0.0183047580766727,0.0320322906342236,2021-06-05
"88",43.5,0.0464879332006103,0.0256466118697462,0.0183110953041496,0.0323995142523799,2021-06-05
"89",44,0.0472378310636712,0.0256765203691364,0.0183173186200521,0.0327775748418617,2021-06-06
"90",44.5,0.0480100454706016,0.0256935995397951,0.0183234304196741,0.0331667379451379,2021-06-06
"91",45,0.0488051098608019,0.0257280654545637,0.0183294330287544,0.0335672714447782,2021-06-07
"92",45.5,0.049623561918466,0.0257526511752045,0.0183353287063974,0.0339794453124317,2021-06-07
"93",46,0.0504659430273252,0.0257656057430453,0.0183411196478401,0.0344035313375826,2021-06-08
"94",46.5,0.0513327976839872,0.0257734179279908,0.0183468079870752,0.0348398028355312,2021-06-08
"95",47,0.0522246728688442,0.0257758335042923,0.0183523957993375,0.0352885343340908,2021-06-09
"96",47.5,0.0531421173736203,0.0257850535865761,0.0183578851034625,0.0357500012385414,2021-06-09
"97",48,0.0540856810847407,0.0257895735757675,0.0183632778641235,0.0362244794744321,2021-06-10
"98",48.5,0.05505591422183,0.0257998578307026,0.0183685759939549,0.0367122451078925,2021-06-10
"99",49,0.0560533665307885,0.0258160139671787,0.0183737813555673,0.0372135739431779,2021-06-11
"100",49.5,0.0570785864310484,0.025831228035138,0.0183788957634612,0.0377287410972548,2021-06-11
"101",50,0.0581321201167863,0.0258480195283501,0.0183839209858442,0.0382580205513153,2021-06-12
"102",50.5,0.0592145106120515,0.025864864897745,0.018388858746359,0.0388016846792052,2021-06-12
"103",51,0.060326296779976,0.0258817657869237,0.0183937107257238,0.0393600037528499,2021-06-13
"104",51.5,0.0614680122864475,0.0258987237904321,0.0183984785632943,0.0399332454248709,2021-06-13
"105",52,0.0626401845188617,0.0259128938230629,0.0184031638585474,0.0405216741887046,2021-06-14
"106",52.5,0.0638433334608195,0.0259574506680522,0.0184077681724948,0.0411255508166572,2021-06-14
"107",53,0.0650779705238994,0.0260135670787575,0.018412293029027,0.0417451317764632,2021-06-15
"108",53.5,0.0663445973379094,0.0260401486889546,0.0184167399161943,0.0423806686270519,2021-06-15
"109",54,0.0676437045013192,0.0260483118950809,0.0184211102874265,0.0430324073943729,2021-06-16
"110",54.5,0.0689757702938691,0.026056342251148,0.0184254055626959,0.0437005879282825,2021-06-16
"111",55,0.0703412593536716,0.0260684951039696,0.018429627129625,0.0443854432416483,2021-06-17
"112",55.5,0.071740621321438,0.0260971384300137,0.0184337763445445,0.0450871988329912,2021-06-17
"113",56,0.0731742894547937,0.026149846900221,0.0184378545335017,0.0458060719941477,2021-06-18
"114",56.5,0.0746426792159804,0.0261942973121533,0.0184418629932235,0.046542271104602,2021-06-18
"115",57,0.0761461868365773,0.0262069560647615,0.0184458029920366,0.047295994914307,2021-06-19
"116",57.5,0.0776851878632109,0.0262098090805309,0.0184496757707458,0.0480674318169784,2021-06-19
"117",58,0.0792600356885601,0.0262183070192805,0.0184534825434743,0.0488567591160172,2021-06-20
"118",58.5,0.0808710600722864,0.0262206253624931,0.018457224498467,0.0496641422853767,2021-06-20
"119",59,0.0825185656568441,0.0262228864759112,0.0184609027988591,0.0504897342278516,2021-06-21
"120",59.5,0.0842028304834317,0.0262281715886634,0.0184645185834121,0.0513336745334219,2021-06-21
"121",60,0.0859241045136392,0.0262578426986629,0.0184680729672181,0.0521960887404287,2021-06-22
"122",60.5,0.0876826081626215,0.0262992298109641,0.018471567042375,0.0530770876024983,2021-06-22
"123",61,0.0894785308498796,0.0263443099482562,0.0184750018786338,0.0539767663642567,2021-06-23
"124",61.5,0.0913120295739607,0.0263792331256804,0.0184783785240191,0.0548952040489899,2021-06-23
"125",62,0.0931832275175834,0.0263960898169605,0.0184816980054248,0.0558324627615041,2021-06-24
"126",62.5,0.0950922126898628,0.02643971803771,0.0184849613291854,0.0567885870095241,2021-06-24
"127",63,0.0970390366124366,0.0264630661038407,0.0184881694816257,0.0577636030470311,2021-06-25
"128",63.5,0.0990237130563872,0.0264845049408642,0.0184913234295879,0.0587575182429875,2021-06-25
"129",64,0.1010462168369,0.026494141941608,0.0184944241209392,0.0597703204789197,2021-06-26
"130",64.5,0.103106482672605,0.0265243108440558,0.0184974724850597,0.0608019775788324,2021-06-26
"131",65,0.105204404116501,0.0265616990806822,0.0185004694333118,0.0618524367749065,2021-06-27
"132",65.5,0.107339832565277,0.0266067573761563,0.0185034158594922,0.0629216242123844,2021-06-27
"133",66,0.10951257635369,0.0266361006587227,0.018506312640268,0.0640094444969788,2021-06-28
"134",66.5,0.111722399940483,0.0266647972861352,0.0185091606355958,0.0651157802880393,2021-06-28
"135",67,0.113969023192056,0.0266836471448764,0.0185119606891266,0.0662404919405914,2021-06-29
"136",67.5,0.116252120769824,0.0267212141589017,0.0185147136285966,0.0673834171992101,2021-06-29
"137",68,0.11857132162683,0.026740173290932,0.0185174202662034,0.0685443709465166,2021-06-30
"138",68.5,0.120926208618797,0.0267528888400398,0.0185200813989706,0.0697231450088839,2021-06-30
"139",69,0.123316318234327,0.0267629740424647,0.0185226978090988,0.070919508021713,2021-07-01
"140",69.5,0.125741140448475,0.0267729840477608,0.0185252702643057,0.0721332053563906,2021-07-01
"141",70,0.128200118703385,0.026782920137492,0.0185277995181545,0.0733639591107698,2021-07-02
"142",70.5,0.130692650019073,0.0268234992001897,0.0185302863103722,0.0746114681647224,2021-07-02
"143",71,0.133218085236848,0.0268429491430705,0.0185327313671566,0.0758754083020023,2021-07-03
"144",71.5,0.135775729397192,0.0268868218351552,0.0185351354014749,0.0771554323993336,2021-07-03
"145",72,0.138364842253239,0.0268967429431964,0.0185374991133522,0.0784511706832959,2021-07-04
"146",72.5,0.140984638920313,0.0268988483619229,0.018539823190151,0.0797622310552319,2021-07-04
"147",73,0.143634290661236,0.0268998743583534,0.0185421083068426,0.0810881994840391,2021-07-05
"148",73.5,0.146312925806423,0.026900870457515,0.0185443551262702,0.0824286404663467,2021-07-05
"149",74,0.14901963080702,0.026918529169576,0.0185465642994045,0.083783097553212,2021-07-06
"150",74.5,0.151753451418617,0.0269485335788347,0.0185487364655911,0.0851510939421042,2021-07-06
"151",75,0.154513394012376,0.0269734515628479,0.0185508722527917,0.0865321331325839,2021-07-07
"152",75.5,0.157298427009648,0.0269953058920043,0.0185529722778176,0.087925699643733,2021-07-07
"153",76,0.160107482435534,0.0270305209121985,0.0185550371465577,0.0893312597910461,2021-07-08
"154",76.5,0.162939457586132,0.0270650798648771,0.0185570674541989,0.0907482625201655,2021-07-08
"155",77,0.165793216803618,0.0270809759768715,0.0185590637854416,0.0921761402945298,2021-07-09
"156",77.5,0.168667593352711,0.0270942906185153,0.0185610267147086,0.0936143100337096,2021-07-09
"157",78,0.171561391391522,0.027112103387135,0.0185629568063494,0.0950621740989357,2021-07-10
"158",78.5,0.174473388029306,0.0271138470838956,0.0185648546148378,0.0965191213220719,2021-07-10
"159",79,0.177402335463168,0.0271148764648467,0.0185667206849657,0.097984528074067,2021-07-11
"160",79.5,0.180346963185414,0.0271350366878408,0.018568555552031,0.0994577593687225,2021-07-11
"161",80,0.183305980252875,0.0271748902621867,0.0185703597420213,0.100938169997448,2021-07-12
"162",80.5,0.186278077609288,0.0271929857720255,0.0185721337717929,0.10242510569054,2021-07-12
"163",81,0.189261930451594,0.0272010173052473,0.0185738781492449,0.103917904300419,2021-07-13
"164",81.5,0.192256200630864,0.0272053276750325,0.01857559337349,0.105415897002177,2021-07-13
"165",82,0.195259539078494,0.0272200087216052,0.0185772799350202,0.106918409506757,2021-07-14
"166",82.5,0.198270588248275,0.0272346592367741,0.0185789383158692,0.108424763282072,2021-07-14
"167",83,0.201287984564998,0.0272492793673733,0.0185805689897708,0.109934276777384,2021-07-15
"168",83.5,0.204310360870332,0.027263869255813,0.0185821724223134,0.111446266646323,2021-07-15
"169",84,0.207336348856907,0.0272685486481936,0.0185837490710912,0.112960048963999,2021-07-16
"170",84.5,0.210364581481697,0.027268813715929,0.0185852993858517,0.114474940433775,2021-07-16
"171",85,0.213393695350129,0.0272690642114135,0.0185866515010941,0.115990173425611,2021-07-17
"172",85.5,0.216422333062573,0.0272693079277353,0.0185874304377351,0.117504881750154,2021-07-17
"173",86,0.219449145515314,0.0272773243480459,0.0185881912217191,0.119018668368516,2021-07-18
"174",86.5,0.222472794148435,0.0272895708103961,0.0185889342775959,0.120530864213016,2021-07-18
"175",87,0.225491953133511,0.027302318949928,0.0185896600199027,0.122040806576707,2021-07-19
"176",87.5,0.22850531149446,0.0273242261086871,0.0185903688534053,0.123547840173933,2021-07-19
"177",88,0.231511575155405,0.0273461481778982,0.018591061173332,0.125051318164369,2021-07-20
"178",88.5,0.234509468909893,0.0273538014291473,0.018591737365603,0.126550603137748,2021-07-20
"179",89,0.237497738306366,0.0273578898773354,0.0185923978070532,0.128045068056709,2021-07-21
"180",89.5,0.240475151445296,0.0273619288569477,0.0185930428656497,0.129534097155473,2021-07-21
"181",90,0.243440500683985,0.0273659189704674,0.018593672900704,0.131017086792345,2021-07-22
"182",90.5,0.246392604245532,0.027371492741559,0.0185942882630788,0.132493446254305,2021-07-22
"183",91,0.249330307729062,0.0273798884192043,0.0185948892953899,0.133962598512226,2021-07-23
"184",91.5,0.252252485518847,0.027388243315699,0.0185954763322025,0.135423980925525,2021-07-23
"185",92,0.255158042090472,0.0273965578335964,0.0185960497002236,0.136877045895348,2021-07-24
"186",92.5,0.258045913212748,0.027404832369634,0.0185966097184889,0.138321261465618,2021-07-24
"187",93,0.260915067044561,0.0274130673148442,0.0185971566985454,0.139756111871553,2021-07-25
"188",93.5,0.263764505126372,0.0274200450015879,0.0185976909446297,0.141181098035501,2021-07-25
"189",94,0.266593263266503,0.0274262762032735,0.0185982127538413,0.142595738010172,2021-07-26
"190",94.5,0.269400412322852,0.0274324939967464,0.0185987224163125,0.143999567369582,2021-07-26
"191",95,0.272185058881061,0.0274384449505809,0.0185992202153737,0.145392139548217,2021-07-27
"192",95.5,0.274946345830573,0.0274403008703535,0.0185997064277144,0.146773026129144,2021-07-27
"193",96,0.277683452840396,0.0274421324954926,0.018600181323541,0.148141817081968,2021-07-28
"194",96.5,0.280395596736711,0.0274439401464903,0.01860064516673,0.149498120951721,2021-07-28
"195",97,0.283082031784801,0.0274457241394693,0.0186010982149782,0.15084156499989,2021-07-29
"196",97.5,0.28574204987803,0.0274474847862506,0.0186015407199486,0.152171795298989,2021-07-29
"197",98,0.288374980636894,0.0274492223944184,0.0186019729274131,0.153488476782154,2021-07-30
"198",98.5,0.29098019142136,0.027450937267385,0.0186023950773921,0.154791293249376,2021-07-30
"199",99,0.293557087259913,0.0274526297044535,0.0186028074042898,0.156079947332101,2021-07-31
"200",99.5,0.296105110698916,0.0274543000008796,0.018603210137027,0.157354160417972,2021-07-31
"201",100,0.298623741576002,0.0274559484479319,0.0186036034991708,0.158613672537587,2021-08-01
"202",100.5,0.301112496721352,0.0274575753329515,0.0186039877090604,0.159858242215206,2021-08-01
"203",101,0.303570929590791,0.0274591809394101,0.0186043629799305,0.161087646285361,2021-08-02
"204",101.5,0.305998629834702,0.0274607655469666,0.0186047295200316,0.162301679677367,2021-08-02
"205",102,0.308395222806799,0.0274623294315235,0.0186050875327475,0.163500155169773,2021-08-03
"206",102.5,0.310760369016804,0.0274638728652814,0.0186054372167097,0.164682903116757,2021-08-03
"207",103,0.313093763531108,0.0274653961167931,0.0186057787659093,0.165849771148508,2021-08-04
"208",103.5,0.315395135325423,0.0274668994510163,0.0186061123698062,0.167000623847615,2021-08-04
"209",104,0.317664246593447,0.0274683831293655,0.0186064382134356,0.168135342403441,2021-08-05
"210",104.5,0.319900892015464,0.027469847409763,0.0186067564775118,0.169253824246488,2021-08-05
"211",105,0.322104897990763,0.0274712925466887,0.0186070673385303,0.170355982664647,2021-08-06
"212",105.5,0.324276121837661,0.0274727187912295,0.0186073709688663,0.171441746403264,2021-08-06
"213",106,0.326414450964824,0.0274741263911275,0.0186076675368717,0.172511059250848,2021-08-07
"214",106.5,0.328519802017482,0.0274755155908272,0.0186079572069696,0.173563879612226,2021-08-07
"215",107,0.330592120002007,0.0274768866315222,0.0186082401397464,0.174600180070877,2021-08-08
"216",107.5,0.332631377392203,0.0274789641049059,0.0186085164920417,0.175619946942123,2021-08-08
"217",108,0.334637573220554,0.0274953124322623,0.0186087864170364,0.176623179818795,2021-08-09
"218",108.5,0.336610732157489,0.0275163583966757,0.0186090500643384,0.177609891110914,2021-08-09
"219",109,0.338550903581647,0.0275376089076214,0.0186093075800662,0.178580105580857,2021-08-10
"220",109.5,0.340458160643932,0.0275460190991949,0.0186095591069307,0.179533859875431,2021-08-10
"221",110,0.34233259932803,0.0275801875120165,0.0186098047843154,0.180471202056173,2021-08-11
"222",110.5,0.344174337509918,0.0276108010366028,0.0186100447483536,0.181392191129136,2021-08-11
"223",111,0.345983514018724,0.0276179446492003,0.0186102791320054,0.182296896575365,2021-08-12
"224",111.5,0.34776028770118,0.0276197545013969,0.0186105080651311,0.183185397883155,2021-08-12
"225",112,0.34950483649175,0.0276215506126942,0.0186107316745642,0.184057784083157,2021-08-13
"226",112.5,0.351217356490374,0.0276233330973505,0.0186109500841825,0.184914153287278,2021-08-13
"227",113,0.352898061049628,0.0276251020683637,0.0186111634149765,0.185754612232302,2021-08-14
"228",113.5,0.354547179872962,0.027626857637495,0.0186113717851176,0.18657927582904,2021-08-14
"229",114,0.356164958125544,0.0276285999152906,0.0186115753100237,0.187388266717784,2021-08-15
"230",114.5,0.357751655559117,0.0276314125259879,0.0186117741024235,0.18818171483077,2021-08-15
"231",115,0.359307545652109,0.0276342217469934,0.0186119682724196,0.188959756962264,2021-08-16
"232",115.5,0.360832914766174,0.0276370040091043,0.0186121579275499,0.189722536346862,2021-08-16
"233",116,0.36232806132017,0.027639759592441,0.018612343172847,0.190470202246508,2021-08-17
"234",116.5,0.363793294982481,0.0276424887739859,0.0186125241108976,0.191202909546689,2021-08-17
"235",117,0.365228935882504,0.0276451918276213,0.0186127008418987,0.191920818362201,2021-08-18
"236",117.5,0.366635313841979,0.0276478690241675,0.0186128734637142,0.192624093652846,2021-08-18
"237",118,0.36801276762676,0.0276505206314198,0.0186130420719289,0.193312904849344,2021-08-19
"238",118.5,0.369361644219544,0.0276555866718365,0.0186132067599017,0.193987425489723,2021-08-19
"239",119,0.370682298113948,0.0276623140057682,0.0186133676188181,0.194647832866383,2021-08-20
"240",119.5,0.371975090630273,0.0276751087712885,0.01861352473774,0.195294307684007,2021-08-20
"241",120,0.373240389253201,0.0276878965920877,0.0186136782036563,0.195927033728429,2021-08-21
"242",120.5,0.374478566991587,0.0277006775171184,0.0186138281015305,0.196546197546559,2021-08-21
"243",121,0.375690001760459,0.0277134515946447,0.0186139745143483,0.197151988137404,2021-08-22
"244",121.5,0.376875075785251,0.0277256052100495,0.0186141175231635,0.197744596654207,2021-08-22
"245",122,0.378034175028248,0.0277368620657909,0.0186142572071435,0.198324216117696,2021-08-23
"246",122.5,0.379167688637156,0.0277481226356936,0.0186143936436129,0.198891041140384,2021-08-23
"247",123,0.380276008415672,0.0277529672729923,0.0186145269080964,0.199445267661884,2021-08-24
"248",123.5,0.381359528315855,0.0277544923882674,0.0186146570743613,0.199987092695108,2021-08-24
"249",124,0.382418643952092,0.0277576249451756,0.0186147842144578,0.200516714083275,2021-08-25
"250",124.5,0.383453752136366,0.0277717730834839,0.0186149083987598,0.201034330267563,2021-08-25
"251",125,0.384465250434556,0.02778897681811,0.018615029696003,0.20154014006528,2021-08-26
"252",125.5,0.385453536743399,0.0278131256473367,0.0186151481733241,0.202034342458361,2021-08-26
"253",126,0.386419008887773,0.0278224649555524,0.0186152638962974,0.202517136392035,2021-08-27
"254",126.5,0.387362064237903,0.0278225044995503,0.0186153769289713,0.202988720583437,2021-08-27
"255",127,0.38828309934607,0.0278225429781145,0.0186154873339042,0.203449293339987,2021-08-28
"256",127.5,0.389182509602393,0.0278225804202001,0.0186155951721988,0.203899052387296,2021-08-28
"257",128,0.390060688909243,0.0278226168539653,0.0186157005035363,0.20433819470639,2021-08-29
"258",128.5,0.390918029373797,0.0278226523067937,0.0186158033862093,0.204766916380003,2021-08-29
"259",129,0.391754921018285,0.0278226868053159,0.0186159038771543,0.205185412447719,2021-08-30
"260",129.5,0.392571751507411,0.0278227203754307,0.0186160020319834,0.205593876769697,2021-08-30
"261",130,0.39336890589248,0.0278227530423253,0.0186160979050147,0.205992501898747,2021-08-31
"262",130.5,0.394146766371706,0.0278227848304956,0.018616191549303,0.206381478960504,2021-08-31
"263",131,0.394905712066205,0.0278228157637654,0.0186162830166688,0.206760997541437,2021-09-01
"264",131.5,0.395646118811167,0.0278228458653048,0.0186163723577273,0.207131245584447,2021-09-01
"265",132,0.396368358961688,0.0278228751576491,0.0186164596219162,0.207492409291802,2021-09-02
"266",132.5,0.397072801212765,0.0278372689561538,0.0186165448575235,0.207844673035144,2021-09-02
"267",133,0.397759810432938,0.0278582562028129,0.0186166281117138,0.208188219272326,2021-09-03
"268",133.5,0.398429747511078,0.027865119725635,0.018616709430555,0.208523228470816,2021-09-03
"269",134,0.399082969215826,0.0278656293932488,0.0186167888590431,0.208849879037434,2021-09-04
"270",134.5,0.399719828067185,0.0278661312104192,0.0186168664411281,0.209168347254157,2021-09-04
"271",135,0.400340672219783,0.0278666252983859,0.0186169422197375,0.20947880721976,2021-09-05
"272",135.5,0.400945845357316,0.0278681075521112,0.0186170162368004,0.209781430797058,2021-09-05
"273",136,0.401535686597713,0.0278698323833589,0.018617088533271,0.210076387565492,2021-09-06
"274",136.5,0.402110530408551,0.027871540709468,0.0186171591491509,0.210363844778851,2021-09-06
"275",137,0.402670706532264,0.02787323271011,0.0186172281235115,0.210643967327888,2021-09-07
"276",137.5,0.403216539920708,0.0278749085627459,0.0186172954945155,0.210916917707612,2021-09-07
"277",138,0.403748350678636,0.0278765684426559,0.0186173612994382,0.211182855989037,2021-09-08
"278",138.5,0.404266454015678,0.0278782125229683,0.0186174255746882,0.211441939795183,2021-09-08
"279",139,0.404771160206379,0.0278798409746889,0.0186174883558271,0.211694324281103,2021-09-09
"280",139.5,0.405262774557932,0.0278814539667296,0.01861754967759,0.211940162117761,2021-09-09
"281",140,0.405741597385181,0.0278830516659357,0.0186176095739038,0.212179603479543,2021-09-10
"282",140.5,0.406207923992531,0.0278846342371147,0.018617668077907,0.212412796035219,2021-09-10
"283",141,0.406662044662386,0.0278862018430629,0.018617725221967,0.212639884942176,2021-09-11
"284",141.5,0.407104244649766,0.0278889816588743,0.0186177810376991,0.212861012843733,2021-09-11
"285",142,0.407534804182752,0.0278919640651535,0.0186178355559832,0.213076319869368,2021-09-12
"286",142.5,0.407953998468415,0.0278949240634921,0.018617888806981,0.213285943637698,2021-09-12
"287",143,0.408718951002411,0.0278978618480673,0.0186179408201533,0.213668445911282,2021-09-13
"288",143.5,0.409900248761624,0.0279007776110292,0.0186179916242756,0.21425912019295,2021-09-13
"289",144,0.411054734564407,0.0279036715425261,0.0186180412474544,0.214836387905931,2021-09-14
"290",144.5,0.41218285335532,0.0279065438307287,0.0186180897171428,0.215400471536231,2021-09-14
"291",145,0.41328505028416,0.027909394661855,0.0186181370601554,0.215951593672158,2021-09-15
"292",145.5,0.414361770266674,0.0279122242201942,0.0186181833026836,0.216489976784679,2021-09-15
"293",146,0.415413457567471,0.0279150326881305,0.0186182284703096,0.21701584301889,2021-09-16
"294",146.5,0.416440555404618,0.0279178202461666,0.0186182725880209,0.21752941399632,2021-09-16
"295",147,0.417443505575402,0.0279205870729466,0.0186183156802242,0.218030910627813,2021-09-17
"296",147.5,0.418422748102692,0.0279233333452788,0.0186183577707585,0.218520552936725,2021-09-17
"297",148,0.419378720901365,0.0279351963232346,0.0186183988829087,0.218998559892137,2021-09-18
"298",148.5,0.42031185946421,0.0279517924028328,0.0186184390394183,0.219465149251814,2021-09-18
"299",149,0.42122259656675,0.0279601068381842,0.0186184782625021,0.219920537414626,2021-09-19
"300",149.5,0.422111361990398,0.0279625035930629,0.0186185165738583,0.220364939282128,2021-09-19
"301",150,0.422978582263367,0.0279648843584334,0.0186185539946808,0.220798568129024,2021-09-20
"302",150.5,0.423824680418757,0.0279672492541359,0.0186185905456707,0.221221635482214,2021-09-20
"303",151,0.424650075769222,0.0279695983987785,0.0186186262470479,0.221634351008135,2021-09-21
"304",151.5,0.425455183697661,0.0279719319097565,0.018618661118562,0.222036922408112,2021-09-21
"305",152,0.426240415463344,0.0279742499032726,0.0186186951795036,0.222429555321424,2021-09-22
"306",152.5,0.427006178022895,0.0279765524943552,0.018618728448715,0.222812453235805,2021-09-22
"307",153,0.427752873865592,0.0279788397968775,0.0186187609446003,0.223185817405096,2021-09-23
"308",153.5,0.428480900862398,0.0279811119235755,0.0186187926851356,0.223549846773767,2021-09-23
"309",154,0.429190652128195,0.0279833689860658,0.0186188236878794,0.223904737908037,2021-09-24
"310",154.5,0.429882515896672,0.0279856110948632,0.0186188539699818,0.224250684933327,2021-09-24
"311",155,0.430556875407336,0.0279878383593976,0.0186188835481943,0.224587879477765,2021-09-25
"312",155.5,0.431214108804123,0.0279900508880306,0.0186189124388789,0.224916510621501,2021-09-25
"313",156,0.431854589045104,0.0279922487880725,0.0186189406580173,0.225236764851561,2021-09-26
"314",156.5,0.432478683822787,0.0279944321657975,0.0186189682212197,0.225548826022003,2021-09-26
"315",157,0.433086755494519,0.0279966011264597,0.0186189951437334,0.225852875319126,2021-09-27
"316",157.5,0.433679161022524,0.0279987557743086,0.018619021440451,0.226149091231488,2021-09-27
"317",158,0.434256251923109,0.0280010187393156,0.0186190471259193,0.226437649524514,2021-09-28
"318",158.5,0.434818374224579,0.0280066857169594,0.0186190722143468,0.226718723219463,2021-09-28
"319",159,0.435365868433443,0.0280123267959208,0.0186190967196114,0.226992482576527,2021-09-29
"320",159.5,0.435899069508462,0.0280179420992243,0.0186191206552689,0.227259095081865,2021-09-29
"321",160,0.436418306842143,0.0280235317493014,0.0186191440345596,0.227518725438352,2021-09-30
"322",160.5,0.436923904249277,0.0280290958679933,0.0186191668704161,0.227771535559847,2021-09-30
"323",161,0.437416179962123,0.0280346345765534,0.0186191891754705,0.228017684568797,2021-10-01
"324",161.5,0.437895446631878,0.0280401479956506,0.0186192109620611,0.22825732879697,2021-10-01
"325",162,0.438362011336064,0.0280456362453715,0.0186192322422394,0.228490621789152,2021-10-02
"326",162.5,0.438816175591484,0.0280510994452231,0.0186192530277769,0.22871771430963,2021-10-02
"327",163,0.439258235372409,0.028056537714136,0.0186192733301712,0.22893875435129,2021-10-03
"328",163.5,0.43968848113368,0.0280619511704664,0.0186192931606529,0.229153887147166,2021-10-03
"329",164,0.440107197838398,0.0280673399319992,0.0186193125301914,0.229363255184295,2021-10-04
"330",164.5,0.440514664989919,0.0280727041159505,0.0186193314495011,0.22956699821971,2021-10-04
"331",165,0.440911156667854,0.0280780438389703,0.0186193499290473,0.229765253298451,2021-10-05
"332",165.5,0.4412969415678,0.028083359217145,0.0186193679790522,0.229958154773426,2021-10-05
"333",166,0.44167228304454,0.0280870779836065,0.0186193856095003,0.23014583432702,2021-10-06
"334",166.5,0.442037439158454,0.0280894559301988,0.0186194028301439,0.230328420994299,2021-10-06
"335",167,0.442392662724895,0.0280918169315839,0.0186194196505087,0.230506041187702,2021-10-07
"336",167.5,0.442738201366305,0.0280941611128071,0.0186194360798989,0.230678818723102,2021-10-07
"337",168,0.443074297566843,0.0280964885979545,0.0186194521274026,0.230846874847123,2021-10-08
"338",168.5,0.443401188729308,0.0280987995101613,0.0186194678018965,0.231010328265602,2021-10-08
"339",169,0.44371910723416,0.0281010939716187,0.0186194831120509,0.231169295173106,2021-10-09
"340",169.5,0.44402828050045,0.028103372103582,0.0186194980663347,0.231323889283392,2021-10-09
"341",170,0.444328931048455,0.0281056340263775,0.0186195126730199,0.231474221860737,2021-10-10
"342",170.5,0.444621276563868,0.0281078798594102,0.0186195269401862,0.231620401752027,2021-10-10
"343",171,0.444905529963357,0.0281101097211712,0.0186195408757254,0.231762535419541,2021-10-11
"344",171.5,0.445181899461341,0.0281123237292448,0.0186195544873461,0.231900726974344,2021-10-11
"345",172,0.445450588637832,0.0281145220003155,0.0186195677825774,0.232035078210205,2021-10-12
"346",172.5,0.4457117965072,0.0281167046501757,0.0186195807687736,0.232165688637987,2021-10-12
"347",173,0.44596571758773,0.0281188717937324,0.018619593453118,0.232292655520424,2021-10-13
"348",173.5,0.44621254197183,0.0281210235450141,0.0186196058426269,0.232416073907229,2021-10-13
"349",174,0.446452455396785,0.0281316853551478,0.0186196179441536,0.232536036670469,2021-10-14
"350",174.5,0.44668563931593,0.0281461413988798,0.018619629764392,0.232652634540161,2021-10-14
"351",175,0.446912270970144,0.0281605975503239,0.0186196413098803,0.232765956140012,2021-10-15
"352",175.5,0.447132523459553,0.0281750538236834,0.018619652587005,0.232876088023279,2021-10-15
"353",176,0.447346565815359,0.0281895102325416,0.018619663602004,0.232983114708682,2021-10-16
"354",176.5,0.447554563071689,0.028194366291854,0.01861967436097,0.23308711871633,2021-10-16
"355",177,0.447756676337394,0.0281991525208917,0.0186196848698545,0.233188180603624,2021-10-17
"356",177.5,0.447953062867715,0.0282039170287669,0.0186196951344704,0.233286379001093,2021-10-17
"357",178,0.448143876135734,0.0282086599183035,0.0186197051604954,0.233381790648115,2021-10-18
"358",178.5,0.448329265903556,0.0282133812918264,0.0186197149534754,0.233474490428516,2021-10-18
"359",179,0.448509378293137,0.0282180812511646,0.0186197245188274,0.233564551405982,2021-10-19
"360",179.5,0.448684355856721,0.0282227598976527,0.0186197338618423,0.233652044859282,2021-10-19
"361",180,0.44885433764681,0.0282274173321338,0.0186197429876883,0.233737040317249,2021-10-20
"362",180.5,0.44901945928563,0.0282320536549619,0.0186197519014131,0.233819605593521,2021-10-20
"363",181,0.449179853034034,0.0282366689660038,0.0186197606079473,0.233899806820991,2021-10-21
"364",181.5,0.449335647859809,0.0282412633646415,0.018619769112107,0.233977708485958,2021-10-21
"365",182,0.449486969505327,0.028245836949775,0.0186197774185961,0.234053373461962,2021-10-22
"366",182.5,0.449633940554535,0.028250389819824,0.0186197855320094,0.234126863043272,2021-10-22
"367",183,0.44977668049921,0.0282549220727303,0.0186197934568345,0.234198236978022,2021-10-23
"368",183.5,0.449915305804487,0.0282594338059604,0.0186198011974552,0.234267553500971,2021-10-23
"369",184,0.450049929973593,0.0282639251165073,0.0186198087581531,0.234334869365873,2021-10-24
"370",184.5,0.450180663611801,0.0282683961008934,0.0186198161431104,0.234400239877456,2021-10-24
"371",185,0.450307614489548,0.0282711707188859,0.0186198233564119,0.23446371892298,2021-10-25
"372",185.5,0.450430887604714,0.0282729256981898,0.0186198304020476,0.234525359003381,2021-10-25
"373",186,0.450550585244041,0.0282746679769271,0.0186198372839147,0.234585211263978,2021-10-26
"374",186.5,0.45066680704367,0.0282763976534927,0.01861984400582,0.234643325524745,2021-10-26
"375",187,0.450779650048795,0.0282781148254502,0.0186198505714815,0.234699750310138,2021-10-27
"376",187.5,0.450889208772405,0.0282798195895398,0.018619856984531,0.234754532878468,2021-10-27
"377",188,0.450995575253116,0.0282815120416859,0.0186198632485159,0.234807719250816,2021-10-28
"378",188.5,0.451098839112084,0.0282831922770048,0.0186198693669009,0.234859354239493,2021-10-28
"379",189,0.451199087608987,0.0282848603898118,0.0186198753430704,0.234909481476028,2021-10-29
"380",189.5,0.451296405697069,0.0282865164736289,0.0186198811803301,0.2349581434387,2021-10-29
"381",190,0.45139087607726,0.028288160621192,0.0186198868819088,0.235005381479584,2021-10-30
"382",190.5,0.451482579251339,0.0282897929244583,0.0186198924509602,0.235051235851149,2021-10-30
"383",191,0.451571593574171,0.0282914134746132,0.0186198978905649,0.235095745732368,2021-10-31
"384",191.5,0.451657995304995,0.0282930223620776,0.0186199032037316,0.235138949254363,2021-10-31
"385",192,0.451741858657779,0.0282946196765149,0.0186199083933993,0.235180883525589,2021-11-01
"386",192.5,0.451823255850628,0.0282962055068379,0.0186199134624387,0.235221584656533,2021-11-01
"387",193,0.451902257154272,0.0283040300993963,0.0186199184136535,0.235261087783963,2021-11-02
"388",193.5,0.451978930939614,0.0283121144014291,0.0186199232497826,0.235299427094698,2021-11-02
"389",194,0.452053343724359,0.028320168029395,0.0186199279735009,0.23533663584893,2021-11-03
"390",194.5,0.452125560218719,0.0283281910949851,0.0186199325874214,0.23537274640307,2021-11-03
"391",195,0.452195643370214,0.0283361837094366,0.0186199370940961,0.235407790232155,2021-11-04
"392",195.5,0.452263654407563,0.0283441459835361,0.018619941496018,0.235441797951791,2021-11-04
"393",196,0.452329652883677,0.0283520780276234,0.0186199457956218,0.23547479933965,2021-11-05
"394",196.5,0.452393696717768,0.0283583916120988,0.0186199499952858,0.235506823356527,2021-11-05
"395",197,0.452455842236572,0.0283585948162996,0.0186199540973331,0.235537898166953,2021-11-06
"396",197.5,0.452516144214711,0.0283587955736255,0.0186199581040327,0.235568051159372,2021-11-06
"397",198,0.452574655914183,0.0283589939135368,0.0186199620176008,0.235597308965892,2021-11-07
"398",198.5,0.452631429123014,0.0283591898651391,0.0186199658402021,0.235625697481608,2021-11-07
"399",199,0.452686514193059,0.0283593834571875,0.0186199695739511,0.235653241883505,2021-11-08
"400",199.5,0.452739960076983,0.0283595747180909,0.018619973220913,0.235679966648948,2021-11-08
"401",200,0.452791814364419,0.0283597636759161,0.0186199767831052,0.235705895573762,2021-11-09
"402",200.5,0.452842123317322,0.0283599503583918,0.018619980262498,0.23573105178991,2021-11-09
"403",201,0.452890931904528,0.028360134792913,0.018619983661016,0.235755457782772,2021-11-10
"404",201.5,0.452938283835531,0.0283603170065446,0.0186199869805391,0.235779135408035,2021-11-10
