Sample_No,Site,Date,avg_n1,sd_n1,QDI_n1,avg_PMMoV,sd_PMMoV,QDI_PMMoV,avg_CrAssphage,sd_CrAssphage,QDI_CrAssphage
181,MSD02,8/18/20,32.41959413,7.093643477,1,265940.8801,131763.7062,1,878153.8172,271941.901,1
184,MSD03,8/18/20,174.0150757,14.89832968,1,1386869.975,1303893.285,1,3750986.47,1594845.15,1
185,MSD04,8/18/20,43.85396288,4.851218601,1,318127.1748,84214.55362,1,1086836.926,369669.1201,1
186,MSD05,8/18/20,72.2086704,10.32852771,1,359400.9916,50673.06368,1,8221563.68,3900454.766,1
44060,MSD01,8/17/20,17.74391583,5.640858099,1,101673.5019,60968.12469,1,61990.98898,32800.31467,1
44061,MSD01,8/18/20,48.51282048,7.033518023,1,73439.82922,39157.90038,1,73610.24472,29693.60919,1
44062,MSD01,8/19/20,16.68763348,2.638592996,1,30655.5996,19507.76756,1,32466.80396,4863.88255,1
44063,MSD01,8/20/20,17.53248238,1.524217192,1,10104.22944,2025.525963,1,19954.96022,1949.147891,1
196,MSD02,8/25/20,343.1730379,202.028144,1,1534991.211,1086962.902,1,271469.9034,170037.9975,1
199,MSD03,8/25/20,50.26025641,15.93432925,1,937220.1638,423804.8388,1,250052.1252,54243.20014,1
200,MSD04,8/25/20,156.0783456,90.61395899,1,15072461.4,16217566.92,1,1303210.664,872180.5071,1
201,MSD05,8/25/20,80.30758793,33.47826871,1,224955.4185,118097.2878,1,317567.1162,199640.5489,1
44067,MSD01,8/24/20,51.24212512,3.869849367,1,651165.7442,718207.5688,1,234594.4082,77774.74873,1
44068,MSD01,8/25/20,43.30467578,10.46361613,1,422264.6146,498283.1614,1,225441.9615,216294.4412,1
44069,MSD01,8/26/20,99.87854331,127.6111998,1,228667.2904,289505.9081,1,24839349.83,42143363.96,1
44074,MSD01,8/27/20,25.09663282,15.83072531,1,226859.0535,321387.1534,1,764841.338,1275991.587,1
211,MSD02,9/1/20,6.511925017,1.127498616,88,139526.7304,89424.63605,1,136886.7459,38313.21901,1
214,MSD03,9/1/20,4.465332723,0.657865984,88,156812.8358,74045.53242,1,108784.2436,3819.408666,1
215,MSD04,9/1/20,3.175954799,1.136613558,88,99690.8673,66298.38852,1,101047.2202,32578.61953,1
216,MSD05,9/1/20,5.536129404,0.949890231,88,248375.983,150566.7584,1,70944.72077,17726.65463,1
44074,MSD01,8/31/20,12.5265406,3.787807898,1,127179.7738,13738.23172,1,857034.0952,87251.75702,1
44075,MSD01,9/1/20,7.934910083,0.965495501,1,63335.18057,12279.52525,1,12146.97945,2555.701755,1
44076,MSD01,9/2/20,14.51013775,4.288288263,1,144446.6539,38554.51604,1,372875.7327,427758.774,1
226,MSD02,9/3/20,22.00228895,0.983650459,1,134123.4585,43897.03265,1,186966.5323,10612.25724,1
229,MSD03,9/3/20,8.421619285,2.660429482,1,256826.3552,287717.1057,1,708884.7845,667149.8337,1
230,MSD04,9/3/20,8.651717188,2.584172529,1,633551.7432,218823.0467,1,2712600.482,1129939.34,1
231,MSD05,9/3/20,8.15276764,2.649394764,1,259034.006,171859.8251,1,541823.7329,99335.73,1
241,MSD02,9/8/20,19.33929179,3.316173064,1,714280.0956,556393.7143,1,275441.1659,153226.6861,1
244,MSD03,9/8/20,12.32817309,2.179732745,1,8173320.798,13141146.29,1,3438889.162,2736996.615,1
245,MSD04,9/8/20,8.117973682,1.629154716,1,1333722.947,1725481.952,1,290679.8263,176826.7106,1
246,MSD05,9/8/20,4.683017521,0.328277409,88,205666.6387,226286.1611,1,2575223.467,2802118.504,1
44082,MSD01,9/8/20,72.91573778,25.32888082,1,287941.0372,130041.5073,1,4920584.11,6116244.354,1
44083,MSD01,9/9/20,12.13062903,0.417301477,1,46461.7785,30102.531,1,1151245.727,1823982.258,1
44084,MSD01,9/10/20,12.96782658,1.655056643,1,183998.2097,232127.124,1,3654409.142,6080599.885,1
256,MSD02,9/10/20,91.55043362,16.09814605,1,429042.4166,355684.296,1,5232458.858,7811795.955,1
259,MSD03,9/10/20,35.76320888,1.311044771,1,565375.9583,441578.8447,1,426723.8592,115536.1241,1
260,MSD04,9/10/20,13.28187366,6.619289402,1,237239.7649,119614.4184,1,10080308.59,16261992,1
261,MSD05,9/10/20,10.24508324,4.267013256,1,81902.3026,3294.649726,1,97430.81429,33431.83981,1
271,MSD02,9/15/20,34.98325353,14.47938417,1,262600.984,40641.24747,1,33148.44636,7052.123937,1
274,MSD03,9/15/20,24.88182923,7.617906609,1,253569.9316,242133.3962,1,173539.4602,56273.64858,1
276,MSD04,9/15/20,19.76670137,5.650572815,1,153471.5658,65842.79659,1,170858.4469,47535.64782,1
277,MSD05,9/15/20,14.61755229,5.569666444,1,877137.6188,948746.8839,1,2048897.069,3060327.693,1
44088,MSD01,9/14/20,510.4510505,295.4164514,1,48861.60183,#DIV/0!,99,36463.80693,15174.71852,1
44089,MSD01,9/15/20,49.46848493,64.4815997,1,355053.6982,147727.9943,1,135525.8634,53134.65893,1
44090,MSD01,9/16/20,59.75412462,17.41656816,1,164.5589115,#DIV/0!,99,18580.93249,2386.346476,1
44091,MSD01,9/17/20,17.464474,5.233851321,1,264691.7562,274643.6249,1,44570.53474,14367.03687,1
287,MSD02,9/17/20,62.50010103,23.7590878,1,293726.5806,410892.1,1,87814.46374,10907.91566,1
290,MSD03,9/17/20,30.7302863,14.07623502,1,7972.85807,4770.207758,1,48428.23344,5189.682808,1
292,MSD04,9/17/20,69.31628437,42.5133485,1,508.044367,387.0455545,1,82006.11675,6718.878541,1
293,MSD05,9/17/20,41.10807644,8.919987639,1,25652.92854,29106.79684,1,71519.58634,7580.356896,1
303,MSD02,9/22/20,121.2258103,15.29189181,1,253571.2999,41122.61671,1,28613.87299,9248.222221,1
306,MSD03,9/22/20,68.43620621,12.54174755,1,102423.6738,12970.53268,1,386725.0997,214116.1762,1
308,MSD04,9/22/20,78.71673354,5.302059943,1,119548.4001,11406.35462,1,213748.1925,221564.9179,1
309,MSD05,9/22/20,74.30068872,4.557186245,1,564813.3535,681113.2161,1,36528.16891,10317.13529,1
44095,MSD01,9/21/20,92.32465094,1.783339816,1,63344.579,10453.07968,1,297179.6011,409837.8507,1
44096,MSD01,9/22/20,81.30812115,0.80020778,1,10014.38993,5883.460284,1,164629.0413,203213.7256,1
44097,MSD01,9/23/20,436.8935791,56.83422855,1,16002.39302,7206.16057,1,235515.5899,286815.4034,1
44098,MSD01,9/24/20,76.39157037,5.57018926,1,7229.327957,2394.106853,1,428343.0124,358579.5812,1
319,MSD02,9/24/20,50.28374687,4.489192831,1,26533.14154,4165.647842,1,9689.818379,1250.842333,1
322,MSD03,9/24/20,39.80769333,3.910861823,1,39268.04552,9330.011594,1,37277.44076,24969.19902,1
324,MSD04,9/24/20,39.79406949,5.48484607,1,84356.31561,3594.264519,1,42051.98946,21556.68486,1
325,MSD05,9/24/20,45.92334862,5.503959096,1,46247.1117,21106.10549,1,245242.1037,373225.927,1
335,MSD02,9/29/20,7.848617622,2.807392034,1,1347049.541,274456.0913,1,863722.3282,184027.6058,1
338,MSD03,9/29/20,7.955727391,2.057301177,1,2437190.35,866626.4379,1,844011.7744,136166.4754,1
340,MSD04,9/29/20,6.928733089,1.908829696,88,508577.2759,125699.5492,1,125591.3445,58197.57626,1
341,MSD05,9/29/20,5.880940102,0.630500484,88,380939.2835,120777.077,1,1354331.683,1649972.976,1
44102,MSD01,9/28/20,7.432224957,1.827308148,88,437594.7113,143004.6004,1,159480.4811,38743.72997,1
44103,MSD01,9/29/20,4.147611326,0.885211732,88,198670.171,40652.67385,1,112375.6233,37755.63267,1
44104,MSD01,9/30/20,7.781462271,2.332786299,1,829325.4165,11497.4141,1,390404.183,412555.7979,1
44105,MSD01,10/1/20,5.622961871,0.477515702,88,221028.764,169473.0076,1,59008.7506,40929.16462,1
351,MSD02,10/1/20,9.10267725,3.702108631,1,3526006.282,1730032.453,1,9743089.235,16185346.25,1
354,MSD03,10/1/20,8.734569384,2.435511647,1,6040245.038,4384628.317,1,1045574.462,462696.6677,1
356,MSD04,10/1/20,26.31807533,8.75365676,1,620067.7254,464174.2705,1,205753.7373,148215.4923,1
357,MSD05,10/1/20,11.29175345,4.043001067,1,1755450.719,2288064.495,1,507691.3752,362789.8858,1
367,MSD02,10/5/20,32.39965012,4.038156393,1,1348805.745,413327.171,1,599530.8151,318284.9275,1
370,MSD03,10/5/20,13.28964028,2.165516361,1,1482950.187,552167.1759,1,253610.3424,44739.46772,1
372,MSD04,10/5/20,33.62745873,3.800907558,1,1621952.967,1386645.823,1,2878298.632,3003344.53,1
373,MSD05,10/5/20,6.57144079,1.531806567,88,1290751.446,536644.7255,1,668261.0124,227744.2943,1
44109,MSD01,10/5/20,15.66627132,3.40930464,1,2074016.448,989359.5551,1,6171059.563,8619036.517,1
44110,MSD01,10/6/20,12.71461121,3.789999501,1,579147.3359,339429.8911,1,178868.8243,97692.5064,1
44111,MSD01,10/7/20,13.90829652,1.86990575,1,402506.1174,214140.6779,1,73562.99581,30245.453,1
44112,MSD01,10/8/20,5.692495257,2.222143789,88,419883.8689,194870.2361,1,682566.1635,97742.26774,1
383,MSD02,10/8/20,29.41911379,8.93810878,1,2158017.281,618015.0715,1,183464.7724,13450.66575,1
386,MSD03,10/8/20,31.86366972,4.713521508,1,2201826.366,1573113.644,1,46574420.05,69081969.42,1
388,MSD04,10/8/20,139.3999497,4.233232195,1,494529.7371,338504.0362,1,194488.3385,102904.4073,1
389,MSD05,10/8/20,25.16634202,3.408872541,1,483054.7706,62834.1437,1,389215.0598,33191.96299,1
399,MSD02,10/12/20,20.44755105,1.974053349,1,1200282.966,544440.7219,1,713966.9563,261884.9048,1
402,MSD03,10/12/20,74.33066259,4.261510231,1,1755715.08,1378871.493,1,308545.9106,131047.6046,1
404,MSD04,10/12/20,15.12960038,4.33301376,1,819390.6562,263812.8196,1,149970.9417,27668.15881,1
405,MSD05,10/12/20,4.431868203,1.803365159,88,567292.4998,202488.1903,1,216608.59,174398.3211,1
44116,MSD01,10/12/20,17.2207952,6.108208528,1,1353737.166,825761.0455,1,316378.3801,92649.8334,1
44117,MSD01,10/13/20,23.19266999,7.951839064,1,3502878.662,4805796.894,1,50090445.18,78357068.96,1
44118,MSD01,10/14/20,18.7212822,1.555976561,1,830083.9598,118948.2231,1,116357.6515,70361.2197,1
44119,MSD01,10/15/20,3.199373311,0.697502961,88,455689.2124,48247.2727,1,209330.4144,40539.19976,1
415,MSD02,10/14/20,45.27453426,17.72503433,1,496299.1039,64015.23157,1,1104851.518,1475665.196,1
418,MSD03,10/14/20,100.8284492,21.92128688,1,1072841.38,296578.8344,1,496511.0133,205918.3294,1
420,MSD04,10/14/20,22.64517035,4.006385716,1,386595.7321,56813.79464,1,110457.4306,34352.60402,1
421,MSD05,10/14/20,20.77649412,1.600465887,1,1324112.311,1011987.084,1,2663531.896,3553381.551,1
431,MSD02,10/19/20,21.59936335,3.046190701,1,647003.6996,57065.86601,1,402964.3195,70355.38723,1
434,MSD03,10/19/20,58.96467171,3.035967283,1,589467.6079,69192.13575,1,454214.4134,24824.29073,1
436,MSD04,10/19/20,9.217104911,2.624826958,1,769161.6395,382962.5719,1,270329.4142,136816.0742,1
437,MSD05,10/19/20,11.35151631,2.842150037,1,333213.0202,56869.33081,1,339367.5259,252959.4811,1
44123,MSD01,10/19/20,14.26948861,2.062163849,1,481663.3216,110774.5243,1,234835.3476,64806.43319,1
44124,MSD01,10/20/20,17.35380324,4.734767597,1,429445.4316,65971.8436,1,1247877.078,808278.3217,1
44125,MSD01,10/21/20,4.982149279,2.557845959,88,1020393.802,1267677.517,1,171521.1132,19946.45414,1
44126,MSD01,10/22/20,8.859201746,2.066906713,1,585757.77,209962.1792,1,233801.1848,113314.0758,1
444,MSD04,10/21/20,20.06208684,2.271813562,1,341620.7858,79985.34286,1,234046.1898,30551.55546,1
445,MSD05,10/21/20,14.77791462,5.132557017,1,330106.4077,119888.8017,1,829055.5708,806755.8093,1
455,MSD02,10/21/20,28.14208719,3.062660389,1,442921.1754,103781.9736,1,376577.2246,244786.7484,1
458,MSD03,10/21/20,41.2717701,0.13910991,1,756711.9272,265839.5824,1,233067.0781,53097.17649,1
463,MSD02,10/26/20,73.81998806,38.25120499,1,1846109.548,1322212.17,1,801684.389,666778.9759,1
466,MSD03,10/26/20,180.3642793,101.7959128,1,1108933.648,385099.504,1,433048.2418,339853.8873,1
468,MSD04,10/26/20,60.12955484,15.68975766,1,1179473.015,163829.0212,1,489963.1407,53637.11077,1
469,MSD05,10/26/20,178.7824941,203.7901931,1,796871.4067,202399.7556,1,440922.6965,72602.54263,1
44130,MSD01,10/26/20,47.77015583,46.55548638,1,3562622.292,4909622.848,1,1952630.7,3202743.113,1
44131,MSD01,10/27/20,134.2914725,169.4080605,1,4185084.076,4402134.269,1,126287922.7,217441116.1,1
44132,MSD01,10/28/20,18.80914496,6.015727859,1,323361.2453,111069.7132,1,74368.67262,24295.62057,1
44133,MSD01,10/29/20,79.7293988,16.71372089,1,191919.4424,225812.4268,1,40177.22965,14967.75677,1
479,MSD02,10/28/20,117.5412936,51.54043837,1,2451313.496,2104626.384,1,6862050.397,9298810.789,1
482,MSD03,10/28/20,97.9808722,23.34620882,1,7175620.858,6105530.948,1,25681888.81,39240084.8,1
484,MSD04,10/28/20,67.58881805,16.79766654,1,895884.0547,363180.0312,1,2726405.913,4035980.642,1
485,MSD05,10/28/20,46.01515051,10.91115033,1,1674393.665,1653799.19,1,794404.4198,402379.5839,1
495,MSD02,11/2/20,322.0681635,209.154371,1,204672.9149,95894.89739,1,111462.8188,20896.26326,1
498,MSD03,11/2/20,198.7312157,128.1394431,1,195570.9025,136164.0059,1,119776.0629,11979.02998,1
500,MSD04,11/2/20,45.15806364,21.57756603,1,58304.33183,12058.21102,1,64779.23988,12138.29105,1
501,MSD05,11/2/20,89.65816359,29.46948245,1,112463.5981,26440.25513,1,144809.4303,24162.9434,1
44137,MSD01,11/2/20,40.31727738,16.60969137,1,18309.49024,3601.150114,1,38874.18458,6986.649514,1
44138,MSD01,11/3/20,10.80342286,2.273775751,1,18595.09926,1653.362256,1,54095.72492,8093.381202,1
44139,MSD01,11/4/20,43.9572522,1.18920344,1,49888.09424,11250.16222,1,34894.21486,7600.332564,1
44140,MSD01,11/5/20,48.61827897,3.039132708,1,68749.74528,7861.81927,1,97121.04692,40466.61665,1
511,MSD02,11/4/20,151.5234997,36.25872238,1,96444.99464,27774.84813,1,196889.5736,38361.17852,1
514,MSD03,11/4/20,120.3870083,28.68703119,1,175684.3178,40930.04915,1,279962.2998,35121.05123,1
516,MSD04,11/4/20,50.65994921,25.70064579,1,41700.23605,5057.040847,1,96005.12501,22361.79798,1
517,MSD05,11/4/20,87.94745139,21.22961767,1,86751.29809,13651.72043,1,458838.6264,533460.6349,1
527,MSD02,11/9/20,60.4233118,9.855547422,1,162554.2189,102370.1685,1,373489.1506,246662.9922,1
530,MSD03,11/9/20,76.67647004,24.80068915,1,247425.1407,73206.51001,1,170367.9761,42417.79878,1
532,MSD04,11/9/20,61.31581562,17.12433166,1,62657.34448,17075.96213,1,76080.94681,17245.56177,1
533,MSD05,11/9/20,113.8917006,34.73440518,1,260007.6931,105789.6213,1,134799.0625,36076.88024,1
44144,MSD01,11/9/20,32.24854478,16.8246157,1,37108.83948,6406.851188,1,66086.92657,4961.310358,1
44145,MSD01,11/10/20,24.13642819,14.20561585,1,26050.65558,6500.969673,1,200738.3083,60077.49107,1
44146,MSD01,11/11/20,55.9117952,4.734782246,1,45990.29249,8490.487912,1,43504.31805,7307.320269,1
44147,MSD01,11/12/20,26.02500441,6.949588196,1,300067.7323,73752.20582,1,189454.6453,11081.07651,1
543,MSD02,11/11/20,72.14334057,29.24683184,1,52138.92873,8161.458744,1,415297.6779,148665.5967,1
546,MSD03,11/11/20,137.3548049,51.64522293,1,187747.868,31548.50936,1,216603.4677,27807.92694,1
548,MSD04,11/11/20,85.21540022,31.81959504,1,47381.86603,21931.33279,1,50822.45191,15200.14865,1
549,MSD05,11/11/20,145.2441098,51.70145841,1,51325.63661,2395.593179,1,99129.87978,26988.20406,1
559,MSD02,11/16/20,224.1589761,27.12612722,1,212575.1655,28676.583,1,1249008.542,525262.3519,1
562,MSD03,11/16/20,178.0198149,27.71438768,1,185268.9621,55470.31288,1,429728.1138,235218.2832,1
564,MSD04,11/16/20,149.844609,29.71057753,1,231318.4877,101765.9653,1,455791.7478,447429.3787,1
565,MSD05,11/16/20,195.0260221,33.24780362,1,235216.6152,29682.50019,1,646983.803,226752.5166,1
44151,MSD01,11/16/20,95.07000954,13.2067098,1,135656.9423,21293.43648,1,520917.0073,177172.5928,1
44152,MSD01,11/17/20,72.72545243,15.78291274,1,816868.4782,303439.0468,1,213732.5206,16945.86648,1
44153,MSD01,11/18/20,72.43928446,5.527365684,1,272964.2437,42458.90873,1,52753.34471,6724.05015,1
44154,MSD01,11/19/20,74.40321753,13.62153214,1,677295.8739,64151.64789,1,376274.2795,287313.0777,1
575,MSD02,11/18/20,74.06178729,6.684605822,1,793941.2165,335629.0242,1,146416.285,13453.98099,1
578,MSD03,11/18/20,115.0705528,14.95146187,1,1166802.063,605563.1488,1,212212.9262,25445.64299,1
580,MSD04,11/18/20,86.16086819,11.57928083,1,324014.2569,68666.11345,1,126441.4782,24123.7061,1
581,MSD05,11/18/20,130.4988166,16.38364939,1,386823.0153,126616.8134,1,342632.2091,332442.5989,1
591,MSD02,11/23/20,119.8879579,11.90990337,1,942770.975,187017.8594,1,297039.3096,112650.9278,1
594,MSD03,11/23/20,102.9540951,6.929934799,1,1423590.856,723882.6939,1,624458.619,190706.2278,1
596,MSD04,11/23/20,133.7696914,10.6701326,1,686346.8121,146187.4329,1,192377.5579,57293.28601,1
597,MSD05,11/23/20,69.8345197,12.07279367,1,410339.0543,83477.85072,1,279662.6792,99059.8408,1
603,MSD02,11/24/20,148.4146203,5.098744027,1,286983.2033,86823.53963,1,151265.8405,15969.24315,1
604,MSD03,11/24/20,163.5953381,25.6167353,1,215747.6653,78093.10714,1,1828721.417,2944802.648,1
605,MSD04,11/24/20,118.4152343,26.23313255,1,224961.4931,43561.10019,1,131061.8538,32213.68106,1
606,MSD05,11/24/20,107.7667761,43.96974471,1,259947.0211,6378.513558,1,152637.4816,31683.41555,1
44158,MSD01,11/23/20,77.69843145,4.325268179,1,608395.2992,78788.36139,1,956192.5992,392807.1703,1
44159,MSD01,11/24/20,75.79530603,11.89401534,1,181682.1463,20049.42623,1,91434.26334,24354.5514,1
611,MSD02,11/30/20,354.8558623,28.06106124,1,564614.8782,201791.3338,1,229900.7301,63087.93908,1
614,MSD03,11/30/20,141.2489085,7.158900128,1,183300.7067,29953.39119,1,94078.70869,12520.83695,1
616,MSD04,11/30/20,120.4677226,30.44973656,1,121475.2759,41919.46293,1,88878.16502,19197.38335,1
617,MSD05,11/30/20,179.4600247,4.954288968,1,182197.4808,22702.66178,1,133321.6034,15133.61655,1
44165,MSD01,11/30/20,106.1224084,1.417269704,1,178539.1275,39691.96427,1,39173.39927,7171.326269,1
627,MSD02,12/2/20,61.25987533,2.239677268,1,131084.6787,16136.96728,1,7592838.11,12824284.26,1
630,MSD03,12/2/20,44.1796812,5.040628367,1,156620.6231,76670.48573,1,1959571.522,1255111.467,1
632,MSD04,12/2/20,45.65163479,1.653630159,1,66744.73251,16365.44843,1,106165.4614,21613.62566,1
633,MSD05,12/2/20,44.71879263,8.603192545,1,108721.8357,17951.16971,1,2414755.469,1837652.365,1
44166,MSD01,12/1/20,19.73260178,1.302081532,1,61250.56695,13035.95929,1,536361.3,713802.279,1
44167,MSD01,12/2/20,16.39477664,6.492845087,1,39641.65377,9700.545242,1,57030.47334,11844.75141,1
44168,MSD01,12/3/20,64.89649781,18.46919486,1,624137.9814,252801.8587,1,286678.1761,157689.3249,1
643,MSD02,12/7/20,102.6189024,7.976337876,1,1513903.107,960377.7279,1,140664.8023,28855.70117,1
646,MSD03,12/7/20,102.6603189,8.714503526,1,1291591.998,791254.9877,1,360540.5107,24448.91632,1
648,MSD04,12/7/20,57.34102377,17.73752576,1,854898.2011,69433.86274,1,147097.4195,24547.33685,1
649,MSD05,12/7/20,111.7609315,19.39354927,1,823172.9622,772363.5277,1,228913.3071,120884.622,1
44172,MSD01,12/7/20,57.29881354,7.804199407,1,468911.8018,116180.562,1,135014.819,41131.11195,1
659,MSD02,12/9/20,299.9333795,49.11973951,1,934801.5303,360437.1075,1,258436.0106,125304.3787,1
662,MSD03,12/9/20,396.0376958,3.372987445,1,1106970.693,429016.0488,1,485160.5908,161290.2988,1
664,MSD04,12/9/20,83.27896114,19.28996219,1,523157.4582,263950.3361,1,136332.6326,29505.79886,1
665,MSD05,12/9/20,125.1597973,30.15503968,1,639070.7312,33991.79384,1,295965.3139,280380.4504,1
44173,MSD01,12/8/20,171.608911,63.26779332,1,912557.0204,104992.8456,1,183334.8338,34891.82723,1
44174,MSD01,12/9/20,171.0733064,93.37621733,1,529756.4462,415980.3337,1,108855.6697,74352.63284,1
44175,MSD01,12/10/20,48.51281025,5.598488803,1,168287.9258,25175.61182,1,193812.0873,51342.50682,1
675,MSD02,12/14/20,186.2540338,22.3487276,1,362758.9012,100261.5313,1,835388.7527,1023195.936,1
678,MSD03,12/14/20,135.0941003,4.96794024,1,283113.5085,52164.26641,1,492736.7667,246457.206,1
680,MSD04,12/14/20,154.9015385,30.60024629,1,270738.684,79484.7536,1,170561.6501,65604.36214,1
681,MSD05,12/14/20,83.19986628,10.27432124,1,132044.3724,47011.60503,1,190956.2068,125434.0394,1
44179,MSD01,12/14/20,54.05234953,4.820492018,1,146499.5614,33367.93624,1,134520.6875,81773.12311,1
691,MSD02,12/16/20,82.19660771,8.651299765,1,442372.6904,34550.51045,1,149169.8349,26129.86459,1
694,MSD03,12/16/20,90.90302882,16.84251526,1,495415.2739,63589.83645,1,174964.965,19164.6444,1
696,MSD04,12/16/20,73.47453996,7.913808454,1,304289.339,89082.20415,1,138141.8667,31464.96946,1
697,MSD05,12/16/20,122.465998,24.50102741,1,320824.4866,90962.39268,1,104062.2116,16779.66108,1
44180,MSD01,12/15/20,60.85385558,13.34918415,1,430996.288,105915.5439,1,97123.7781,7623.405998,1
44181,MSD01,12/16/20,45.25008933,15.02168051,1,208989.8944,37245.8254,1,51688.05725,19546.88372,1
44182,MSD01,12/17/20,34.59319686,3.74709704,1,147907.4258,17484.76675,1,55226.20841,4198.718836,1
771,MSD02,1/4/21,68.1828032,18.83665037,1,149731.2529,65591.81328,1,172609.0913,41876.79623,1
774,MSD03,1/4/21,72.57472773,12.65141501,1,123247.2946,3428.717389,1,120484.9853,29278.50103,1
776,MSD04,1/4/21,45.58560672,8.854815454,1,110146.9053,16468.46841,1,177996.9239,34327.06669,1
777,MSD05,1/4/21,50.07536512,25.37187015,1,85078.23989,13240.86251,1,83815.84297,42215.99108,1
44200,MSD01,1/4/21,30.96151064,1.872990082,1,57049.67696,6961.13643,1,88983.09735,7285.481774,1
787,MSD02,1/11/21,42.07847987,8.191071454,1,80159.65547,31090.1314,1,37751.57416,2948.911165,1
790,MSD03,1/11/21,74.42907548,28.10967426,1,115673.1255,12028.70682,1,95817.73311,47123.06287,1
792,MSD04,1/11/21,21.52252119,3.886938266,1,81767.80016,18953.33557,1,34699.81807,6977.166444,1
793,MSD05,1/11/21,61.4333065,20.82173808,1,286222.2486,31487.54925,1,56507.3996,2940.350297,1
44207,MSD01,1/11/21,103.5352991,25.77223011,1,288715.4439,86893.63691,1,89012.229,11171.16593,1
803,MSD02,1/18/21,52.9592832,2.131730107,1,539107.6093,151502.9966,1,100424.6534,15758.95638,1
806,MSD03,1/18/21,65.52110141,4.437682762,1,1011731.828,928357.1379,1,187561.7314,43595.11809,1
808,MSD04,1/18/21,67.99243514,13.12292506,1,545380.1844,75708.65222,1,212084.7248,81245.20744,1
809,MSD05,1/18/21,45.13847853,9.670018911,1,720481.0361,424308.223,1,216543.9321,52324.40419,1
44214,MSD01,1/18/21,46.42550765,3.590323932,1,330138.1234,50968.91661,1,80009.53153,4038.505521,1
819,MSD02,1/25/21,364.9084601,167.1881137,1,457354.9078,175112.1695,1,256388.9814,120911.3795,1
822,MSD03,1/25/21,198.4346616,18.85362161,1,425836.1504,74782.4869,1,239488.1959,78460.63221,1
824,MSD04,1/25/21,100.9062035,15.90914958,1,492258.9497,205774.9531,1,141397.8119,83426.07701,1
825,MSD05,1/25/21,226.5088702,80.36402539,1,314173.0955,67562.33669,1,146225.2438,69278.45158,1
44221,MSD01,1/25/21,218.7372145,23.70271727,1,452654.6756,99642.52627,1,507298.6153,385757.2031,1
835,MSD02,2/1/21,60.85859888,6.361285367,1,720990.5579,159094.148,1,11992029.8,5376010.932,1
838,MSD03,2/1/21,78.41789195,13.38605134,1,938783.9002,222865.3378,1,11525771.31,7798910.171,1
840,MSD04,2/1/21,45.79025456,4.553469796,1,859032.0144,170231.8727,1,2132020.336,1618397.685,1
841,MSD05,2/1/21,73.42754957,27.88042598,1,1507723.316,1014608.253,1,6673780.684,2544252.93,1
44228,MSD01,2/1/21,36.28906385,10.29920774,1,700007.255,689093.7625,1,7251748.768,7420471.125,1
851,MSD02,2/8/21,61.94693865,16.14737365,1,196478.3996,35017.33631,1,103384.6259,7786.742628,1
854,MSD03,2/8/21,73.07655187,5.899935273,1,275555.4349,39531.0423,1,138299.2169,31588.37619,1
856,MSD04,2/8/21,28.83759091,6.086404057,1,115177.2688,32888.71063,1,98739.12515,34580.50437,1
857,MSD05,2/8/21,109.494895,27.75657584,1,140280.5631,29322.90811,1,88765.15762,12768.4877,1
44235,MSD01,2/8/21,40.60314252,11.52423764,1,153974.7343,47359.64575,1,134606.934,88871.98836,1
867,MSD02,2/15/21,49.32723108,6.443515701,1,203270.9339,58311.93105,1,91964.08462,2446.707617,1
870,MSD03,2/15/21,49.59938511,5.445486892,1,273929.0274,91431.08178,1,154548.6603,17532.79718,1
872,MSD04,2/15/21,58.93684725,10.08851655,1,187369.1751,15176.13598,1,114764.8864,22598.2398,1
873,MSD05,2/15/21,28.90386285,4.310644273,1,163426.8131,43689.82215,1,104390.9504,16579.68234,1
44242,MSD01,2/15/21,15.5200232,4.226018819,1,112960.5604,25439.93528,1,76425.92706,7415.165388,1
882,MSD02,2/22/21,89.10814348,11.08083226,1,257097.4244,55676.07969,1,208363.3604,63437.68421,1
885,MSD03,2/22/21,52.56170481,18.66371108,1,242752.0338,26701.51391,1,237305.7492,23918.56438,1
887,MSD04,2/22/21,51.8093042,15.89149606,1,246628.4642,66625.00197,1,233116.3798,58765.01337,1
888,MSD05,2/22/21,46.74027823,7.796706546,1,281938.3585,99940.3038,1,133638.5509,30928.82615,1
44249,MSD01,2/22/21,32.33669869,5.224263175,1,248018.6341,43969.13116,1,111421.4202,21169.95951,1